%YAML 1.1
%TAG !u! tag:unity3d.com,2011:
--- !u!74 &7400000
AnimationClip:
  m_ObjectHideFlags: 0
  m_PrefabParentObject: {fileID: 0}
  m_PrefabInternal: {fileID: 0}
  m_Name: Open
  serializedVersion: 6
  m_Legacy: 0
  m_Compressed: 0
  m_UseHighQualityCurve: 1
  m_RotationCurves: []
  m_CompressedRotationCurves: []
  m_EulerCurves:
  - curve:
      serializedVersion: 2
      m_Curve:
      - time: 0
        value: {x: 0, y: 0, z: 0.2813644}
        inSlope: {x: -0.97, y: 3.205, z: 24.178179}
        outSlope: {x: -0.97, y: 3.205, z: 24.178179}
        tangentMode: 0
      - time: 0.2
        value: {x: -0.194, y: 0.641, z: 5.117}
        inSlope: {x: -1.6678574, y: 4.4546432, z: -114.195915}
        outSlope: {x: -1.6678574, y: 4.4546432, z: -114.195915}
        tangentMode: 0
      - time: 0.43333334
        value: {x: -0.7460001, y: 1.972, z: -53.816}
        inSlope: {x: -7.35, y: 2.8735716, z: -107.586426}
        outSlope: {x: -7.35, y: 2.8735716, z: -107.586426}
        tangentMode: 0
      - time: 0.6666667
        value: {x: -3.624, y: 1.982, z: -45.09}
        inSlope: {x: -7.0332937, y: 5.0206046, z: 168.6557}
        outSlope: {x: -7.0332937, y: 5.0206046, z: 168.6557}
        tangentMode: 0
      - time: 0.78333336
        value: {x: -3.826102, y: 3.1484745, z: -10.1}
        inSlope: {x: 0.98298174, y: 12.321146, z: -66.530396}
        outSlope: {x: 0.98298174, y: 12.321146, z: -66.530396}
        tangentMode: 0
      - time: 0.9166667
        value: {x: -3.333, y: 5.101, z: -67.83}
        inSlope: {x: 1.8662758, y: 7.512256, z: -200.66064}
        outSlope: {x: 1.8662758, y: 7.512256, z: -200.66064}
        tangentMode: 0
      - time: 1.5
        value: {x: -3.313, y: 5.323, z: -49.36532}
        inSlope: {x: 0.034285683, y: 0.38057166, z: 31.653744}
        outSlope: {x: 0.034285683, y: 0.38057166, z: 31.653744}
        tangentMode: 0
      m_PreInfinity: 2
      m_PostInfinity: 2
      m_RotationOrder: 4
    path: Body/Arm1
  - curve:
      serializedVersion: 2
      m_Curve:
      - time: 0
        value: {x: 0, y: 0, z: 237.9042}
        inSlope: {x: 0, y: 0, z: 74.969505}
        outSlope: {x: 0, y: 0, z: 74.969505}
        tangentMode: 0
      - time: 0.43333334
        value: {x: 0, y: 0, z: 270.391}
        inSlope: {x: 0, y: 0, z: -49.851887}
        outSlope: {x: 0, y: 0, z: -49.851887}
        tangentMode: 0
      - time: 0.5833333
        value: {x: 0, y: 0, z: 244.19}
        inSlope: {x: 0, y: 0, z: 281.1232}
        outSlope: {x: 0, y: 0, z: 281.1232}
        tangentMode: 0
      - time: 0.6666667
        value: {x: 0, y: 0, z: 305.6}
        inSlope: {x: 0, y: 0, z: -76.98447}
        outSlope: {x: 0, y: 0, z: -76.98447}
        tangentMode: 0
      - time: 0.78333336
        value: {x: 0, y: 0, z: 201.663}
        inSlope: {x: 0, y: 0, z: -263.8018}
        outSlope: {x: 0, y: 0, z: -263.8018}
        tangentMode: 0
      - time: 0.9166667
        value: {x: 0, y: 0, z: 250.101}
        inSlope: {x: 0, y: 0, z: 223.84088}
        outSlope: {x: 0, y: 0, z: 223.84088}
        tangentMode: 0
      - time: 1.2166667
        value: {x: 0, y: 0, z: 275.42}
        inSlope: {x: 0, y: 0, z: 41.986546}
        outSlope: {x: 0, y: 0, z: 41.986546}
        tangentMode: 0
      - time: 1.5
        value: {x: 0, y: 0, z: 275.3}
        inSlope: {x: 0, y: 0, z: -0.42361993}
        outSlope: {x: 0, y: 0, z: -0.42361993}
        tangentMode: 0
      m_PreInfinity: 2
      m_PostInfinity: 2
      m_RotationOrder: 4
    path: Body/Arm1/Arm2
  - curve:
      serializedVersion: 2
      m_Curve:
      - time: 0
        value: {x: 0, y: 0, z: 140.5335}
        inSlope: {x: 0, y: 0, z: -33.79729}
        outSlope: {x: 0, y: 0, z: -33.79729}
        tangentMode: 0
      - time: 0.43333334
        value: {x: 0, y: 0, z: 125.888}
        inSlope: {x: 0, y: 0, z: 143.98135}
        outSlope: {x: 0, y: 0, z: 143.98135}
        tangentMode: 0
      - time: 0.5833333
        value: {x: 0, y: 0, z: 174.152}
        inSlope: {x: 0, y: 0, z: -59.63188}
        outSlope: {x: 0, y: 0, z: -59.63188}
        tangentMode: 0
      - time: 0.6666667
        value: {x: 0, y: 0, z: 137.4}
        inSlope: {x: 0, y: 0, z: -80.31326}
        outSlope: {x: 0, y: 0, z: -80.31326}
        tangentMode: 0
      - time: 0.78333336
        value: {x: 0, y: 0, z: 170.113}
        inSlope: {x: 0, y: 0, z: 114.93235}
        outSlope: {x: 0, y: 0, z: 114.93235}
        tangentMode: 0
      - time: 1.1833333
        value: {x: 0, y: 0, z: 149.9}
        inSlope: {x: 0, y: 0, z: -0.34150505}
        outSlope: {x: 0, y: 0, z: -0.34150505}
        tangentMode: 0
      - time: 1.4666667
        value: {x: 0, y: 0, z: 164.02403}
        inSlope: {x: 0, y: 0, z: 49.849533}
        outSlope: {x: 0, y: 0, z: 49.849533}
        tangentMode: 0
      m_PreInfinity: 2
      m_PostInfinity: 2
      m_RotationOrder: 4
    path: Body/Arm1/Arm2/Hand
  - curve:
      serializedVersion: 2
      m_Curve:
      - time: 0
        value: {x: 0, y: 0, z: -3.764368}
        inSlope: {x: 0, y: 0, z: 0}
        outSlope: {x: 0, y: 0, z: 0}
        tangentMode: 0
      m_PreInfinity: 2
      m_PostInfinity: 2
      m_RotationOrder: 4
    path: Body/AntennaL
  - curve:
      serializedVersion: 2
      m_Curve:
      - time: 0
        value: {x: 0, y: 0, z: -5.773886}
        inSlope: {x: 0, y: 0, z: 0}
        outSlope: {x: 0, y: 0, z: 0}
        tangentMode: 0
      m_PreInfinity: 2
      m_PostInfinity: 2
      m_RotationOrder: 4
    path: Body/AntennaR
  - curve:
      serializedVersion: 2
      m_Curve:
      - time: 0
        value: {x: 0, y: 0, z: -110.046}
        inSlope: {x: 0, y: 0, z: 0}
        outSlope: {x: 0, y: 0, z: 0}
        tangentMode: 0
      - time: 0.4
        value: {x: 0, y: 0, z: -110.046}
        inSlope: {x: 0, y: 0, z: -5.37431}
        outSlope: {x: 0, y: 0, z: -5.37431}
        tangentMode: 0
      - time: 0.51666665
        value: {x: 0, y: 0, z: -111.3}
        inSlope: {x: 0, y: 0, z: -5.37431}
        outSlope: {x: 0, y: 0, z: -5.37431}
        tangentMode: 0
      - time: 0.6333333
        value: {x: 0, y: 0, z: -111.3}
        inSlope: {x: 0, y: 0, z: 18.810066}
        outSlope: {x: 0, y: 0, z: 18.810066}
        tangentMode: 0
      - time: 0.6666667
        value: {x: 0, y: 0, z: -110.046}
        inSlope: {x: 0, y: 0, z: 37.620132}
        outSlope: {x: 0, y: 0, z: 37.620132}
        tangentMode: 0
      m_PreInfinity: 2
      m_PostInfinity: 2
      m_RotationOrder: 4
    path: Body/Arm1/Arm2/Hand/ClawLower
  - curve:
      serializedVersion: 2
      m_Curve:
      - time: 0
        value: {x: 0, y: 0, z: -120.0272}
        inSlope: {x: 0, y: 0, z: 0}
        outSlope: {x: 0, y: 0, z: 0}
        tangentMode: 0
      - time: 0.4
        value: {x: 0, y: 0, z: -120.0272}
        inSlope: {x: 0, y: 0, z: -178.59773}
        outSlope: {x: 0, y: 0, z: -178.59773}
        tangentMode: 0
      - time: 0.51666665
        value: {x: 0, y: 0, z: -161.7}
        inSlope: {x: 0, y: 0, z: -178.59773}
        outSlope: {x: 0, y: 0, z: -178.59773}
        tangentMode: 0
      - time: 0.6333333
        value: {x: 0, y: 0, z: -161.7}
        inSlope: {x: 0, y: 0, z: 625.09143}
        outSlope: {x: 0, y: 0, z: 625.09143}
        tangentMode: 0
      - time: 0.6666667
        value: {x: 0, y: 0, z: -120.0272}
        inSlope: {x: 0, y: 0, z: 1250.1829}
        outSlope: {x: 0, y: 0, z: 1250.1829}
        tangentMode: 0
      m_PreInfinity: 2
      m_PostInfinity: 2
      m_RotationOrder: 4
    path: Body/Arm1/Arm2/Hand/clawUpper
  - curve:
      serializedVersion: 2
      m_Curve:
      - time: 0
        value: {x: 0, y: 325, z: 0}
        inSlope: {x: 0, y: 120, z: 0}
        outSlope: {x: 0, y: 120, z: 0}
        tangentMode: 0
      - time: 0.25
        value: {x: 0, y: 355, z: 0}
        inSlope: {x: 0, y: 60, z: 0}
        outSlope: {x: 0, y: 60, z: 0}
        tangentMode: 0
      - time: 0.6666667
        value: {x: 0, y: 355, z: 0}
        inSlope: {x: 0, y: -15, z: 0}
        outSlope: {x: 0, y: -15, z: 0}
        tangentMode: 0
      - time: 1.5
        value: {x: 0, y: 330, z: 0}
        inSlope: {x: 0, y: -30, z: 0}
        outSlope: {x: 0, y: -30, z: 0}
        tangentMode: 0
      m_PreInfinity: 2
      m_PostInfinity: 2
      m_RotationOrder: 4
    path: 
  m_PositionCurves:
  - curve:
      serializedVersion: 2
      m_Curve:
      - time: 0
        value: {x: 0, y: -0.3084565, z: 0}
        inSlope: {x: -0, y: 0.70335525, z: 0}
        outSlope: {x: -0, y: 0.70335525, z: 0}
        tangentMode: 0
      - time: 0.25
        value: {x: -0, y: -0.1326177, z: 0}
        inSlope: {x: 0, y: 0.042048514, z: 0}
        outSlope: {x: 0, y: 0.042048514, z: 0}
        tangentMode: 0
      - time: 0.6333333
        value: {x: -0, y: -0.37, z: 0}
        inSlope: {x: 0, y: 0.014074028, z: 0}
        outSlope: {x: 0, y: 0.014074028, z: 0}
        tangentMode: 0
      - time: 1
        value: {x: -0, y: -0.1326177, z: 0}
        inSlope: {x: 0, y: 0.014074028, z: 0}
        outSlope: {x: 0, y: 0.014074028, z: 0}
        tangentMode: 0
      - time: 1.3833333
        value: {x: -0, y: -0.37, z: 0}
        inSlope: {x: 0, y: -0.045871288, z: 0}
        outSlope: {x: 0, y: -0.045871288, z: 0}
        tangentMode: 0
      - time: 1.5
        value: {x: 0, y: -0.3084565, z: 0}
        inSlope: {x: 0, y: 0.52751565, z: 0}
        outSlope: {x: 0, y: 0.52751565, z: 0}
        tangentMode: 0
      m_PreInfinity: 2
      m_PostInfinity: 2
      m_RotationOrder: 4
    path: Body/Innard05
  - curve:
      serializedVersion: 2
      m_Curve:
      - time: 0
        value: {x: 0, y: -0.2513089, z: 0}
        inSlope: {x: -0, y: 0.64740646, z: 0}
        outSlope: {x: -0, y: 0.64740646, z: 0}
        tangentMode: 0
      - time: 0.18333334
        value: {x: -0, y: -0.1326177, z: 0}
        inSlope: {x: 0, y: 0.014074117, z: 0}
        outSlope: {x: 0, y: 0.014074117, z: 0}
        tangentMode: 0
      - time: 0.56666666
        value: {x: -0, y: -0.37, z: 0}
        inSlope: {x: 0, y: 0.014074028, z: 0}
        outSlope: {x: 0, y: 0.014074028, z: 0}
        tangentMode: 0
      - time: 0.93333334
        value: {x: -0, y: -0.1326177, z: 0}
        inSlope: {x: 0, y: 0.014074087, z: 0}
        outSlope: {x: 0, y: 0.014074087, z: 0}
        tangentMode: 0
      - time: 1.3166667
        value: {x: -0, y: -0.37, z: 0}
        inSlope: {x: 0, y: 0.014074087, z: 0}
        outSlope: {x: 0, y: 0.014074087, z: 0}
        tangentMode: 0
      - time: 1.5
        value: {x: 0, y: -0.2513089, z: 0}
        inSlope: {x: 0, y: 0.6474063, z: 0}
        outSlope: {x: 0, y: 0.6474063, z: 0}
        tangentMode: 0
      m_PreInfinity: 2
      m_PostInfinity: 2
      m_RotationOrder: 4
    path: Body/Innard04
  - curve:
      serializedVersion: 2
      m_Curve:
      - time: 0
        value: {x: 0, y: -0.1941613, z: 0}
        inSlope: {x: -0, y: 0.46157697, z: 0}
        outSlope: {x: -0, y: 0.46157697, z: 0}
        tangentMode: 0
      - time: 0.13333334
        value: {x: -0, y: -0.1326177, z: 0}
        inSlope: {x: 0, y: -0.07884063, z: 0}
        outSlope: {x: 0, y: -0.07884063, z: 0}
        tangentMode: 0
      - time: 0.51666665
        value: {x: -0, y: -0.37, z: 0}
        inSlope: {x: 0, y: 0.014074028, z: 0}
        outSlope: {x: 0, y: 0.014074028, z: 0}
        tangentMode: 0
      - time: 0.8833333
        value: {x: -0, y: -0.1326177, z: 0}
        inSlope: {x: 0, y: 0.014074028, z: 0}
        outSlope: {x: 0, y: 0.014074028, z: 0}
        tangentMode: 0
      - time: 1.2666667
        value: {x: -0, y: -0.37, z: 0}
        inSlope: {x: 0, y: 0.06716809, z: 0}
        outSlope: {x: 0, y: 0.06716809, z: 0}
        tangentMode: 0
      - time: 1.5
        value: {x: 0, y: -0.1941613, z: 0}
        inSlope: {x: 0, y: 0.7535944, z: 0}
        outSlope: {x: 0, y: 0.7535944, z: 0}
        tangentMode: 0
      m_PreInfinity: 2
      m_PostInfinity: 2
      m_RotationOrder: 4
    path: Body/Innard03
  - curve:
      serializedVersion: 2
      m_Curve:
      - time: 0
        value: {x: 0, y: -0.1502, z: 0}
        inSlope: {x: -0, y: 0.26373446, z: 0}
        outSlope: {x: -0, y: 0.26373446, z: 0}
        tangentMode: 0
      - time: 0.06666667
        value: {x: -0, y: -0.1326177, z: 0}
        inSlope: {x: 0, y: -0.17776188, z: 0}
        outSlope: {x: 0, y: -0.17776188, z: 0}
        tangentMode: 0
      - time: 0.45
        value: {x: -0, y: -0.37, z: 0}
        inSlope: {x: 0, y: 0.014074028, z: 0}
        outSlope: {x: 0, y: 0.014074028, z: 0}
        tangentMode: 0
      - time: 0.81666666
        value: {x: -0, y: -0.1326177, z: 0}
        inSlope: {x: 0, y: 0.014074087, z: 0}
        outSlope: {x: 0, y: 0.014074087, z: 0}
        tangentMode: 0
      - time: 1.2
        value: {x: -0, y: -0.37, z: 0}
        inSlope: {x: 0, y: 0.056704342, z: 0}
        outSlope: {x: 0, y: 0.056704342, z: 0}
        tangentMode: 0
      - time: 1.5
        value: {x: 0, y: -0.1502, z: 0}
        inSlope: {x: 0, y: 0.7326668, z: 0}
        outSlope: {x: 0, y: 0.7326668, z: 0}
        tangentMode: 0
      m_PreInfinity: 2
      m_PostInfinity: 2
      m_RotationOrder: 4
    path: Body/Innard02
  - curve:
      serializedVersion: 2
      m_Curve:
      - time: 0
        value: {x: -0, y: -0.1326177, z: 0}
        inSlope: {x: 0, y: -0.6192582, z: 0}
        outSlope: {x: 0, y: -0.6192582, z: 0}
        tangentMode: 0
      - time: 0.38333333
        value: {x: -0, y: -0.37, z: 0}
        inSlope: {x: 0, y: 0.014074028, z: 0}
        outSlope: {x: 0, y: 0.014074028, z: 0}
        tangentMode: 0
      - time: 0.75
        value: {x: -0, y: -0.1326177, z: 0}
        inSlope: {x: 0, y: 0.014074028, z: 0}
        outSlope: {x: 0, y: 0.014074028, z: 0}
        tangentMode: 0
      - time: 1.1333333
        value: {x: -0, y: -0.37, z: 0}
        inSlope: {x: 0, y: 0.014074028, z: 0}
        outSlope: {x: 0, y: 0.014074028, z: 0}
        tangentMode: 0
      - time: 1.5
        value: {x: -0, y: -0.1326177, z: 0}
        inSlope: {x: 0, y: 0.6474063, z: 0}
        outSlope: {x: 0, y: 0.6474063, z: 0}
        tangentMode: 0
      m_PreInfinity: 2
      m_PostInfinity: 2
      m_RotationOrder: 4
    path: Body/Innard01
  - curve:
      serializedVersion: 2
      m_Curve:
      - time: 0.5833333
        value: {x: -0.33, y: -0.47, z: 0.04}
        inSlope: {x: -2.7599986, y: -2.8799984, z: 0.23999988}
        outSlope: {x: -2.7599986, y: -2.8799984, z: 0.23999988}
        tangentMode: 0
      - time: 0.6666667
        value: {x: -0.56, y: -0.71, z: 0.06}
        inSlope: {x: -1.4039993, y: -1.3739992, z: 0.11999994}
        outSlope: {x: -1.4039993, y: -1.3739992, z: 0.11999994}
        tangentMode: 0
      - time: 1.5
        value: {x: -0.6, y: -0.6, z: 0.06}
        inSlope: {x: -0.048000026, y: 0.13199995, z: 0}
        outSlope: {x: -0.048000026, y: 0.13199995, z: 0}
        tangentMode: 0
      m_PreInfinity: 2
      m_PostInfinity: 2
      m_RotationOrder: 4
    path: Body/Arm1
  - curve:
      serializedVersion: 2
      m_Curve:
      - time: 0
        value: {x: -0.08883402, y: 0.34, z: 0.41988537}
        inSlope: {x: 0, y: 0, z: 2.6413753}
        outSlope: {x: 0, y: 0, z: 2.6413753}
        tangentMode: 0
      - time: 0.083333336
        value: {x: -0.08883402, y: 0.34, z: 0.64}
        inSlope: {x: 0, y: 0, z: 0.77040106}
        outSlope: {x: 0, y: 0, z: 0.77040106}
        tangentMode: 0
      - time: 0.28333333
        value: {x: -0.08883402, y: 0.34, z: 0.41988537}
        inSlope: {x: 0, y: 0, z: -0.5502866}
        outSlope: {x: 0, y: 0, z: -0.5502866}
        tangentMode: 0
      - time: 0.75
        value: {x: -0.08883402, y: 0.34, z: 0.41988537}
        inSlope: {x: 0.326502, y: 0, z: 0.12034391}
        outSlope: {x: 0.326502, y: 0, z: 0.12034391}
        tangentMode: 0
      - time: 0.9166667
        value: {x: 0.02, y: 0.34, z: 0.46}
        inSlope: {x: 0.326502, y: 0, z: 0.06227938}
        outSlope: {x: 0.326502, y: 0, z: 0.06227938}
        tangentMode: 0
      - time: 1.4333333
        value: {x: 0.02, y: 0.34, z: 0.4}
        inSlope: {x: 0, y: 0, z: -0.116129056}
        outSlope: {x: 0, y: 0, z: -0.116129056}
        tangentMode: 0
      m_PreInfinity: 2
      m_PostInfinity: 2
      m_RotationOrder: 4
    path: Eyes/IrisL
  - curve:
      serializedVersion: 2
      m_Curve:
      - time: 0
        value: {x: -0.08883402, y: 0.34, z: -0.42617285}
        inSlope: {x: 0, y: 0, z: 2.7140741}
        outSlope: {x: 0, y: 0, z: 2.7140741}
        tangentMode: 0
      - time: 0.083333336
        value: {x: -0.08883402, y: 0.34, z: -0.2}
        inSlope: {x: 0, y: 0, z: 0.79160494}
        outSlope: {x: 0, y: 0, z: 0.79160494}
        tangentMode: 0
      - time: 0.28333333
        value: {x: -0.08883402, y: 0.34, z: -0.42617285}
        inSlope: {x: 0, y: 0, z: -0.56543213}
        outSlope: {x: 0, y: 0, z: -0.56543213}
        tangentMode: 0
      - time: 0.75
        value: {x: -0.08883402, y: 0.34, z: -0.42617285}
        inSlope: {x: 0.29650202, y: 0, z: 0.04851856}
        outSlope: {x: 0.29650202, y: 0, z: 0.04851856}
        tangentMode: 0
      - time: 0.9166667
        value: {x: 0.01, y: 0.34, z: -0.41}
        inSlope: {x: 0.29650202, y: 0, z: -0.038578227}
        outSlope: {x: 0.29650202, y: 0, z: -0.038578227}
        tangentMode: 0
      - time: 1.4333333
        value: {x: 0.01, y: 0.34, z: -0.5}
        inSlope: {x: 0, y: 0, z: -0.17419358}
        outSlope: {x: 0, y: 0, z: -0.17419358}
        tangentMode: 0
      m_PreInfinity: 2
      m_PostInfinity: 2
      m_RotationOrder: 4
    path: Eyes/IrisR
  - curve:
      serializedVersion: 2
      m_Curve:
      - time: 0
        value: {x: -0.5705906, y: -0.664132, z: 0}
        inSlope: {x: 0, y: 0, z: 0}
        outSlope: {x: 0, y: 0, z: 0}
        tangentMode: 0
      m_PreInfinity: 2
      m_PostInfinity: 2
      m_RotationOrder: 4
    path: Eyes/Tooth
  - curve:
      serializedVersion: 2
      m_Curve:
      - time: 0
        value: {x: -1.75, y: -0.107164636, z: 0}
        inSlope: {x: 0, y: 0.28508037, z: 0}
        outSlope: {x: 0, y: 0.28508037, z: 0}
        tangentMode: 0
      - time: 0.5
        value: {x: -1.05, y: 2.3520513, z: 0}
        inSlope: {x: 0, y: 0, z: 0}
        outSlope: {x: 0, y: 0, z: 0}
        tangentMode: 0
      - time: 0.6666667
        value: {x: -1.01, y: 2.59, z: 0}
        inSlope: {x: 11.130001, y: -3.5461543, z: 3.6000004}
        outSlope: {x: 11.130001, y: -3.5461543, z: 3.6000004}
        tangentMode: 0
      - time: 1
        value: {x: 6.33, y: -0.25, z: 2.4}
        inSlope: {x: 9.850001, y: -4.01, z: 3.2200003}
        outSlope: {x: 9.850001, y: -4.01, z: 3.2200003}
        tangentMode: 0
      - time: 1.5
        value: {x: 5.17, y: 0, z: 2.02}
        inSlope: {x: 0, y: 0, z: 0}
        outSlope: {x: 0, y: 0, z: 0}
        tangentMode: 0
      m_PreInfinity: 2
      m_PostInfinity: 2
      m_RotationOrder: 4
    path: 
  m_ScaleCurves: []
  m_FloatCurves:
  - curve:
      serializedVersion: 2
      m_Curve:
      - time: 0
        value: 0
        inSlope: Infinity
        outSlope: Infinity
        tangentMode: 31
      - time: 0.6666667
        value: 1
        inSlope: Infinity
        outSlope: Infinity
        tangentMode: 31
      m_PreInfinity: 2
      m_PostInfinity: 2
      m_RotationOrder: 4
    attribute: m_IsActive
    path: Body/Arm1/Arm2/Hand/rightHalf
    classID: 1
    script: {fileID: 0}
  m_PPtrCurves: []
  m_SampleRate: 60
  m_WrapMode: 0
  m_Bounds:
    m_Center: {x: 0, y: 0, z: 0}
    m_Extent: {x: 0, y: 0, z: 0}
  m_ClipBindingConstant:
    genericBindings:
    - path: 1133555731
      attribute: 1
      script: {fileID: 0}
      classID: 4
      customType: 0
      isPPtrCurve: 0
    - path: 882344069
      attribute: 1
      script: {fileID: 0}
      classID: 4
      customType: 0
      isPPtrCurve: 0
    - path: 2868057382
      attribute: 1
      script: {fileID: 0}
      classID: 4
      customType: 0
      isPPtrCurve: 0
    - path: 3723765168
      attribute: 1
      script: {fileID: 0}
      classID: 4
      customType: 0
      isPPtrCurve: 0
    - path: 1157461002
      attribute: 1
      script: {fileID: 0}
      classID: 4
      customType: 0
      isPPtrCurve: 0
    - path: 4206073764
      attribute: 1
      script: {fileID: 0}
      classID: 4
      customType: 0
      isPPtrCurve: 0
    - path: 3703801752
      attribute: 1
      script: {fileID: 0}
      classID: 4
      customType: 0
      isPPtrCurve: 0
    - path: 650951419
      attribute: 1
      script: {fileID: 0}
      classID: 4
      customType: 0
      isPPtrCurve: 0
    - path: 0
      attribute: 1
      script: {fileID: 0}
      classID: 4
      customType: 0
      isPPtrCurve: 0
    - path: 4206073764
      attribute: 4
      script: {fileID: 0}
      classID: 4
      customType: 14
      isPPtrCurve: 0
    - path: 1704010225
      attribute: 4
      script: {fileID: 0}
      classID: 4
      customType: 14
      isPPtrCurve: 0
    - path: 2854650358
      attribute: 4
      script: {fileID: 0}
      classID: 4
      customType: 14
      isPPtrCurve: 0
    - path: 3215354924
      attribute: 4
      script: {fileID: 0}
      classID: 4
      customType: 14
      isPPtrCurve: 0
    - path: 1569868336
      attribute: 4
      script: {fileID: 0}
      classID: 4
      customType: 14
      isPPtrCurve: 0
    - path: 0
      attribute: 4
      script: {fileID: 0}
      classID: 4
      customType: 14
      isPPtrCurve: 0
    - path: 542893979
      attribute: 2086281974
      script: {fileID: 0}
      classID: 1
      customType: 0
      isPPtrCurve: 0
    - path: 2433701197
      attribute: 1
      script: {fileID: 0}
      classID: 4
      customType: 0
      isPPtrCurve: 0
    - path: 1520035047
      attribute: 4
      script: {fileID: 0}
      classID: 4
      customType: 14
      isPPtrCurve: 0
    - path: 2694240644
      attribute: 4
      script: {fileID: 0}
      classID: 4
      customType: 14
      isPPtrCurve: 0
    pptrCurveMapping: []
  m_AnimationClipSettings:
    serializedVersion: 2
    m_AdditiveReferencePoseClip: {fileID: 0}
    m_AdditiveReferencePoseTime: 0
    m_StartTime: 0
    m_StopTime: 1.5
    m_OrientationOffsetY: 0
    m_Level: 0
    m_CycleOffset: 0
    m_HasAdditiveReferencePose: 0
    m_LoopTime: 1
    m_LoopBlend: 0
    m_LoopBlendOrientation: 0
    m_LoopBlendPositionY: 0
    m_LoopBlendPositionXZ: 0
    m_KeepOriginalOrientation: 0
    m_KeepOriginalPositionY: 1
    m_KeepOriginalPositionXZ: 0
    m_HeightFromFeet: 0
    m_Mirror: 0
  m_EditorCurves:
  - curve:
      serializedVersion: 2
      m_Curve:
      - time: 0
        value: 0
        inSlope: -0
        outSlope: -0
        tangentMode: 10
      - time: 0.25
        value: -0
        inSlope: 0
        outSlope: 0
        tangentMode: 10
      - time: 0.6333333
        value: -0
        inSlope: 0
        outSlope: 0
        tangentMode: 10
      - time: 1
        value: -0
        inSlope: 0
        outSlope: 0
        tangentMode: 10
      - time: 1.3833333
        value: -0
        inSlope: 0
        outSlope: 0
        tangentMode: 10
      - time: 1.5
        value: 0
        inSlope: 0
        outSlope: 0
        tangentMode: 10
      m_PreInfinity: 2
      m_PostInfinity: 2
      m_RotationOrder: 4
    attribute: m_LocalPosition.x
    path: Body/Innard05
    classID: 4
    script: {fileID: 0}
  - curve:
      serializedVersion: 2
      m_Curve:
      - time: 0
        value: -0.3084565
        inSlope: 0.70335525
        outSlope: 0.70335525
        tangentMode: 10
      - time: 0.25
        value: -0.1326177
        inSlope: 0.042048514
        outSlope: 0.042048514
        tangentMode: 10
      - time: 0.6333333
        value: -0.37
        inSlope: 0.014074028
        outSlope: 0.014074028
        tangentMode: 10
      - time: 1
        value: -0.1326177
        inSlope: 0.014074028
        outSlope: 0.014074028
        tangentMode: 10
      - time: 1.3833333
        value: -0.37
        inSlope: -0.045871288
        outSlope: -0.045871288
        tangentMode: 10
      - time: 1.5
        value: -0.3084565
        inSlope: 0.52751565
        outSlope: 0.52751565
        tangentMode: 10
      m_PreInfinity: 2
      m_PostInfinity: 2
      m_RotationOrder: 4
    attribute: m_LocalPosition.y
    path: Body/Innard05
    classID: 4
    script: {fileID: 0}
  - curve:
      serializedVersion: 2
      m_Curve:
      - time: 0
        value: 0
        inSlope: 0
        outSlope: 0
        tangentMode: 10
      - time: 0.25
        value: 0
        inSlope: 0
        outSlope: 0
        tangentMode: 10
      - time: 0.6333333
        value: 0
        inSlope: 0
        outSlope: 0
        tangentMode: 10
      - time: 1
        value: 0
        inSlope: 0
        outSlope: 0
        tangentMode: 10
      - time: 1.3833333
        value: 0
        inSlope: 0
        outSlope: 0
        tangentMode: 10
      - time: 1.5
        value: 0
        inSlope: 0
        outSlope: 0
        tangentMode: 10
      m_PreInfinity: 2
      m_PostInfinity: 2
      m_RotationOrder: 4
    attribute: m_LocalPosition.z
    path: Body/Innard05
    classID: 4
    script: {fileID: 0}
  - curve:
      serializedVersion: 2
      m_Curve:
      - time: 0
        value: 0
        inSlope: -0
        outSlope: -0
        tangentMode: 10
      - time: 0.18333334
        value: -0
        inSlope: 0
        outSlope: 0
        tangentMode: 10
      - time: 0.56666666
        value: -0
        inSlope: 0
        outSlope: 0
        tangentMode: 10
      - time: 0.93333334
        value: -0
        inSlope: 0
        outSlope: 0
        tangentMode: 10
      - time: 1.3166667
        value: -0
        inSlope: 0
        outSlope: 0
        tangentMode: 10
      - time: 1.5
        value: 0
        inSlope: 0
        outSlope: 0
        tangentMode: 10
      m_PreInfinity: 2
      m_PostInfinity: 2
      m_RotationOrder: 4
    attribute: m_LocalPosition.x
    path: Body/Innard04
    classID: 4
    script: {fileID: 0}
  - curve:
      serializedVersion: 2
      m_Curve:
      - time: 0
        value: -0.2513089
        inSlope: 0.64740646
        outSlope: 0.64740646
        tangentMode: 10
      - time: 0.18333334
        value: -0.1326177
        inSlope: 0.014074117
        outSlope: 0.014074117
        tangentMode: 10
      - time: 0.56666666
        value: -0.37
        inSlope: 0.014074028
        outSlope: 0.014074028
        tangentMode: 10
      - time: 0.93333334
        value: -0.1326177
        inSlope: 0.014074087
        outSlope: 0.014074087
        tangentMode: 10
      - time: 1.3166667
        value: -0.37
        inSlope: 0.014074087
        outSlope: 0.014074087
        tangentMode: 10
      - time: 1.5
        value: -0.2513089
        inSlope: 0.6474063
        outSlope: 0.6474063
        tangentMode: 10
      m_PreInfinity: 2
      m_PostInfinity: 2
      m_RotationOrder: 4
    attribute: m_LocalPosition.y
    path: Body/Innard04
    classID: 4
    script: {fileID: 0}
  - curve:
      serializedVersion: 2
      m_Curve:
      - time: 0
        value: 0
        inSlope: 0
        outSlope: 0
        tangentMode: 10
      - time: 0.18333334
        value: 0
        inSlope: 0
        outSlope: 0
        tangentMode: 10
      - time: 0.56666666
        value: 0
        inSlope: 0
        outSlope: 0
        tangentMode: 10
      - time: 0.93333334
        value: 0
        inSlope: 0
        outSlope: 0
        tangentMode: 10
      - time: 1.3166667
        value: 0
        inSlope: 0
        outSlope: 0
        tangentMode: 10
      - time: 1.5
        value: 0
        inSlope: 0
        outSlope: 0
        tangentMode: 10
      m_PreInfinity: 2
      m_PostInfinity: 2
      m_RotationOrder: 4
    attribute: m_LocalPosition.z
    path: Body/Innard04
    classID: 4
    script: {fileID: 0}
  - curve:
      serializedVersion: 2
      m_Curve:
      - time: 0
        value: 0
        inSlope: -0
        outSlope: -0
        tangentMode: 10
      - time: 0.13333334
        value: -0
        inSlope: 0
        outSlope: 0
        tangentMode: 10
      - time: 0.51666665
        value: -0
        inSlope: 0
        outSlope: 0
        tangentMode: 10
      - time: 0.8833333
        value: -0
        inSlope: 0
        outSlope: 0
        tangentMode: 10
      - time: 1.2666667
        value: -0
        inSlope: 0
        outSlope: 0
        tangentMode: 10
      - time: 1.5
        value: 0
        inSlope: 0
        outSlope: 0
        tangentMode: 10
      m_PreInfinity: 2
      m_PostInfinity: 2
      m_RotationOrder: 4
    attribute: m_LocalPosition.x
    path: Body/Innard03
    classID: 4
    script: {fileID: 0}
  - curve:
      serializedVersion: 2
      m_Curve:
      - time: 0
        value: -0.1941613
        inSlope: 0.46157697
        outSlope: 0.46157697
        tangentMode: 10
      - time: 0.13333334
        value: -0.1326177
        inSlope: -0.07884063
        outSlope: -0.07884063
        tangentMode: 10
      - time: 0.51666665
        value: -0.37
        inSlope: 0.014074028
        outSlope: 0.014074028
        tangentMode: 10
      - time: 0.8833333
        value: -0.1326177
        inSlope: 0.014074028
        outSlope: 0.014074028
        tangentMode: 10
      - time: 1.2666667
        value: -0.37
        inSlope: 0.06716809
        outSlope: 0.06716809
        tangentMode: 10
      - time: 1.5
        value: -0.1941613
        inSlope: 0.7535944
        outSlope: 0.7535944
        tangentMode: 10
      m_PreInfinity: 2
      m_PostInfinity: 2
      m_RotationOrder: 4
    attribute: m_LocalPosition.y
    path: Body/Innard03
    classID: 4
    script: {fileID: 0}
  - curve:
      serializedVersion: 2
      m_Curve:
      - time: 0
        value: 0
        inSlope: 0
        outSlope: 0
        tangentMode: 10
      - time: 0.13333334
        value: 0
        inSlope: 0
        outSlope: 0
        tangentMode: 10
      - time: 0.51666665
        value: 0
        inSlope: 0
        outSlope: 0
        tangentMode: 10
      - time: 0.8833333
        value: 0
        inSlope: 0
        outSlope: 0
        tangentMode: 10
      - time: 1.2666667
        value: 0
        inSlope: 0
        outSlope: 0
        tangentMode: 10
      - time: 1.5
        value: 0
        inSlope: 0
        outSlope: 0
        tangentMode: 10
      m_PreInfinity: 2
      m_PostInfinity: 2
      m_RotationOrder: 4
    attribute: m_LocalPosition.z
    path: Body/Innard03
    classID: 4
    script: {fileID: 0}
  - curve:
      serializedVersion: 2
      m_Curve:
      - time: 0
        value: 0
        inSlope: -0
        outSlope: -0
        tangentMode: 10
      - time: 0.06666667
        value: -0
        inSlope: 0
        outSlope: 0
        tangentMode: 10
      - time: 0.45
        value: -0
        inSlope: 0
        outSlope: 0
        tangentMode: 10
      - time: 0.81666666
        value: -0
        inSlope: 0
        outSlope: 0
        tangentMode: 10
      - time: 1.2
        value: -0
        inSlope: 0
        outSlope: 0
        tangentMode: 10
      - time: 1.5
        value: 0
        inSlope: 0
        outSlope: 0
        tangentMode: 10
      m_PreInfinity: 2
      m_PostInfinity: 2
      m_RotationOrder: 4
    attribute: m_LocalPosition.x
    path: Body/Innard02
    classID: 4
    script: {fileID: 0}
  - curve:
      serializedVersion: 2
      m_Curve:
      - time: 0
        value: -0.1502
        inSlope: 0.26373446
        outSlope: 0.26373446
        tangentMode: 10
      - time: 0.06666667
        value: -0.1326177
        inSlope: -0.17776188
        outSlope: -0.17776188
        tangentMode: 10
      - time: 0.45
        value: -0.37
        inSlope: 0.014074028
        outSlope: 0.014074028
        tangentMode: 10
      - time: 0.81666666
        value: -0.1326177
        inSlope: 0.014074087
        outSlope: 0.014074087
        tangentMode: 10
      - time: 1.2
        value: -0.37
        inSlope: 0.056704342
        outSlope: 0.056704342
        tangentMode: 10
      - time: 1.5
        value: -0.1502
        inSlope: 0.7326668
        outSlope: 0.7326668
        tangentMode: 10
      m_PreInfinity: 2
      m_PostInfinity: 2
      m_RotationOrder: 4
    attribute: m_LocalPosition.y
    path: Body/Innard02
    classID: 4
    script: {fileID: 0}
  - curve:
      serializedVersion: 2
      m_Curve:
      - time: 0
        value: 0
        inSlope: 0
        outSlope: 0
        tangentMode: 10
      - time: 0.06666667
        value: 0
        inSlope: 0
        outSlope: 0
        tangentMode: 10
      - time: 0.45
        value: 0
        inSlope: 0
        outSlope: 0
        tangentMode: 10
      - time: 0.81666666
        value: 0
        inSlope: 0
        outSlope: 0
        tangentMode: 10
      - time: 1.2
        value: 0
        inSlope: 0
        outSlope: 0
        tangentMode: 10
      - time: 1.5
        value: 0
        inSlope: 0
        outSlope: 0
        tangentMode: 10
      m_PreInfinity: 2
      m_PostInfinity: 2
      m_RotationOrder: 4
    attribute: m_LocalPosition.z
    path: Body/Innard02
    classID: 4
    script: {fileID: 0}
  - curve:
      serializedVersion: 2
      m_Curve:
      - time: 0
        value: -0
        inSlope: 0
        outSlope: 0
        tangentMode: 10
      - time: 0.38333333
        value: -0
        inSlope: 0
        outSlope: 0
        tangentMode: 10
      - time: 0.75
        value: -0
        inSlope: 0
        outSlope: 0
        tangentMode: 10
      - time: 1.1333333
        value: -0
        inSlope: 0
        outSlope: 0
        tangentMode: 10
      - time: 1.5
        value: -0
        inSlope: 0
        outSlope: 0
        tangentMode: 10
      m_PreInfinity: 2
      m_PostInfinity: 2
      m_RotationOrder: 4
    attribute: m_LocalPosition.x
    path: Body/Innard01
    classID: 4
    script: {fileID: 0}
  - curve:
      serializedVersion: 2
      m_Curve:
      - time: 0
        value: -0.1326177
        inSlope: -0.6192582
        outSlope: -0.6192582
        tangentMode: 10
      - time: 0.38333333
        value: -0.37
        inSlope: 0.014074028
        outSlope: 0.014074028
        tangentMode: 10
      - time: 0.75
        value: -0.1326177
        inSlope: 0.014074028
        outSlope: 0.014074028
        tangentMode: 10
      - time: 1.1333333
        value: -0.37
        inSlope: 0.014074028
        outSlope: 0.014074028
        tangentMode: 10
      - time: 1.5
        value: -0.1326177
        inSlope: 0.6474063
        outSlope: 0.6474063
        tangentMode: 10
      m_PreInfinity: 2
      m_PostInfinity: 2
      m_RotationOrder: 4
    attribute: m_LocalPosition.y
    path: Body/Innard01
    classID: 4
    script: {fileID: 0}
  - curve:
      serializedVersion: 2
      m_Curve:
      - time: 0
        value: 0
        inSlope: 0
        outSlope: 0
        tangentMode: 10
      - time: 0.38333333
        value: 0
        inSlope: 0
        outSlope: 0
        tangentMode: 10
      - time: 0.75
        value: 0
        inSlope: 0
        outSlope: 0
        tangentMode: 10
      - time: 1.1333333
        value: 0
        inSlope: 0
        outSlope: 0
        tangentMode: 10
      - time: 1.5
        value: 0
        inSlope: 0
        outSlope: 0
        tangentMode: 10
      m_PreInfinity: 2
      m_PostInfinity: 2
      m_RotationOrder: 4
    attribute: m_LocalPosition.z
    path: Body/Innard01
    classID: 4
    script: {fileID: 0}
  - curve:
      serializedVersion: 2
      m_Curve:
      - time: 0.5833333
        value: -0.33
        inSlope: -2.7599986
        outSlope: -2.7599986
        tangentMode: 10
      - time: 0.6666667
        value: -0.56
        inSlope: -1.4039993
        outSlope: -1.4039993
        tangentMode: 10
      - time: 1.5
        value: -0.6
        inSlope: -0.048000026
        outSlope: -0.048000026
        tangentMode: 10
      m_PreInfinity: 2
      m_PostInfinity: 2
      m_RotationOrder: 4
    attribute: m_LocalPosition.x
    path: Body/Arm1
    classID: 4
    script: {fileID: 0}
  - curve:
      serializedVersion: 2
      m_Curve:
      - time: 0.5833333
        value: -0.47
        inSlope: -2.8799984
        outSlope: -2.8799984
        tangentMode: 10
      - time: 0.6666667
        value: -0.71
        inSlope: -1.3739992
        outSlope: -1.3739992
        tangentMode: 10
      - time: 1.5
        value: -0.6
        inSlope: 0.13199995
        outSlope: 0.13199995
        tangentMode: 10
      m_PreInfinity: 2
      m_PostInfinity: 2
      m_RotationOrder: 4
    attribute: m_LocalPosition.y
    path: Body/Arm1
    classID: 4
    script: {fileID: 0}
  - curve:
      serializedVersion: 2
      m_Curve:
      - time: 0.5833333
        value: 0.04
        inSlope: 0.23999988
        outSlope: 0.23999988
        tangentMode: 10
      - time: 0.6666667
        value: 0.06
        inSlope: 0.11999994
        outSlope: 0.11999994
        tangentMode: 10
      - time: 1.5
        value: 0.06
        inSlope: 0
        outSlope: 0
        tangentMode: 10
      m_PreInfinity: 2
      m_PostInfinity: 2
      m_RotationOrder: 4
    attribute: m_LocalPosition.z
    path: Body/Arm1
    classID: 4
    script: {fileID: 0}
  - curve:
      serializedVersion: 2
      m_Curve:
      - time: 0
        value: 0
        inSlope: -0.97
        outSlope: -0.97
        tangentMode: 10
      - time: 0.2
        value: -0.194
        inSlope: -1.6678574
        outSlope: -1.6678574
        tangentMode: 10
      - time: 0.43333334
        value: -0.7460001
        inSlope: -7.35
        outSlope: -7.35
        tangentMode: 10
      - time: 0.6666667
        value: -3.624
        inSlope: -7.0332937
        outSlope: -7.0332937
        tangentMode: 10
      - time: 0.78333336
        value: -3.826102
        inSlope: 0.98298174
        outSlope: 0.98298174
        tangentMode: 10
      - time: 0.9166667
        value: -3.333
        inSlope: 1.8662758
        outSlope: 1.8662758
        tangentMode: 10
      - time: 1.5
        value: -3.313
        inSlope: 0.034285683
        outSlope: 0.034285683
        tangentMode: 10
      m_PreInfinity: 2
      m_PostInfinity: 2
      m_RotationOrder: 4
    attribute: localEulerAnglesRaw.x
    path: Body/Arm1
    classID: 4
    script: {fileID: 0}
  - curve:
      serializedVersion: 2
      m_Curve:
      - time: 0
        value: 0
        inSlope: 3.205
        outSlope: 3.205
        tangentMode: 10
      - time: 0.2
        value: 0.641
        inSlope: 4.4546432
        outSlope: 4.4546432
        tangentMode: 10
      - time: 0.43333334
        value: 1.972
        inSlope: 2.8735716
        outSlope: 2.8735716
        tangentMode: 10
      - time: 0.6666667
        value: 1.982
        inSlope: 5.0206046
        outSlope: 5.0206046
        tangentMode: 10
      - time: 0.78333336
        value: 3.1484745
        inSlope: 12.321146
        outSlope: 12.321146
        tangentMode: 10
      - time: 0.9166667
        value: 5.101
        inSlope: 7.512256
        outSlope: 7.512256
        tangentMode: 10
      - time: 1.5
        value: 5.323
        inSlope: 0.38057166
        outSlope: 0.38057166
        tangentMode: 10
      m_PreInfinity: 2
      m_PostInfinity: 2
      m_RotationOrder: 4
    attribute: localEulerAnglesRaw.y
    path: Body/Arm1
    classID: 4
    script: {fileID: 0}
  - curve:
      serializedVersion: 2
      m_Curve:
      - time: 0
        value: 0.2813644
        inSlope: 24.178179
        outSlope: 24.178179
        tangentMode: 10
      - time: 0.2
        value: 5.117
        inSlope: -114.195915
        outSlope: -114.195915
        tangentMode: 10
      - time: 0.43333334
        value: -53.816
        inSlope: -107.586426
        outSlope: -107.586426
        tangentMode: 10
      - time: 0.6666667
        value: -45.09
        inSlope: 168.6557
        outSlope: 168.6557
        tangentMode: 10
      - time: 0.78333336
        value: -10.1
        inSlope: -66.530396
        outSlope: -66.530396
        tangentMode: 10
      - time: 0.9166667
        value: -67.83
        inSlope: -200.66064
        outSlope: -200.66064
        tangentMode: 10
      - time: 1.5
        value: -49.36532
        inSlope: 31.653744
        outSlope: 31.653744
        tangentMode: 10
      m_PreInfinity: 2
      m_PostInfinity: 2
      m_RotationOrder: 4
    attribute: localEulerAnglesRaw.z
    path: Body/Arm1
    classID: 4
    script: {fileID: 0}
  - curve:
      serializedVersion: 2
      m_Curve:
      - time: 0
        value: 0
        inSlope: 0
        outSlope: 0
        tangentMode: 10
      - time: 0.43333334
        value: 0
        inSlope: 0
        outSlope: 0
        tangentMode: 10
      - time: 0.5833333
        value: 0
        inSlope: 0
        outSlope: 0
        tangentMode: 10
      - time: 0.6666667
        value: 0
        inSlope: 0
        outSlope: 0
        tangentMode: 10
      - time: 0.78333336
        value: 0
        inSlope: 0
        outSlope: 0
        tangentMode: 10
      - time: 0.9166667
        value: 0
        inSlope: 0
        outSlope: 0
        tangentMode: 10
      - time: 1.2166667
        value: 0
        inSlope: 0
        outSlope: 0
        tangentMode: 10
      - time: 1.5
        value: 0
        inSlope: 0
        outSlope: 0
        tangentMode: 10
      m_PreInfinity: 2
      m_PostInfinity: 2
      m_RotationOrder: 4
    attribute: localEulerAnglesRaw.x
    path: Body/Arm1/Arm2
    classID: 4
    script: {fileID: 0}
  - curve:
      serializedVersion: 2
      m_Curve:
      - time: 0
        value: 0
        inSlope: 0
        outSlope: 0
        tangentMode: 10
      - time: 0.43333334
        value: 0
        inSlope: 0
        outSlope: 0
        tangentMode: 10
      - time: 0.5833333
        value: 0
        inSlope: 0
        outSlope: 0
        tangentMode: 10
      - time: 0.6666667
        value: 0
        inSlope: 0
        outSlope: 0
        tangentMode: 10
      - time: 0.78333336
        value: 0
        inSlope: 0
        outSlope: 0
        tangentMode: 10
      - time: 0.9166667
        value: 0
        inSlope: 0
        outSlope: 0
        tangentMode: 10
      - time: 1.2166667
        value: 0
        inSlope: 0
        outSlope: 0
        tangentMode: 10
      - time: 1.5
        value: 0
        inSlope: 0
        outSlope: 0
        tangentMode: 10
      m_PreInfinity: 2
      m_PostInfinity: 2
      m_RotationOrder: 4
    attribute: localEulerAnglesRaw.y
    path: Body/Arm1/Arm2
    classID: 4
    script: {fileID: 0}
  - curve:
      serializedVersion: 2
      m_Curve:
      - time: 0
        value: 237.9042
        inSlope: 74.969505
        outSlope: 74.969505
        tangentMode: 10
      - time: 0.43333334
        value: 270.391
        inSlope: -49.851887
        outSlope: -49.851887
        tangentMode: 10
      - time: 0.5833333
        value: 244.19
        inSlope: 281.1232
        outSlope: 281.1232
        tangentMode: 10
      - time: 0.6666667
        value: 305.6
        inSlope: -76.98447
        outSlope: -76.98447
        tangentMode: 10
      - time: 0.78333336
        value: 201.663
        inSlope: -263.8018
        outSlope: -263.8018
        tangentMode: 10
      - time: 0.9166667
        value: 250.101
        inSlope: 223.84088
        outSlope: 223.84088
        tangentMode: 10
      - time: 1.2166667
        value: 275.42
        inSlope: 41.986546
        outSlope: 41.986546
        tangentMode: 10
      - time: 1.5
        value: 275.3
        inSlope: -0.42361993
        outSlope: -0.42361993
        tangentMode: 10
      m_PreInfinity: 2
      m_PostInfinity: 2
      m_RotationOrder: 4
    attribute: localEulerAnglesRaw.z
    path: Body/Arm1/Arm2
    classID: 4
    script: {fileID: 0}
  - curve:
      serializedVersion: 2
      m_Curve:
      - time: 0
        value: 0
        inSlope: 0
        outSlope: 0
        tangentMode: 10
      - time: 0.43333334
        value: 0
        inSlope: 0
        outSlope: 0
        tangentMode: 10
      - time: 0.5833333
        value: 0
        inSlope: 0
        outSlope: 0
        tangentMode: 10
      - time: 0.6666667
        value: 0
        inSlope: 0
        outSlope: 0
        tangentMode: 10
      - time: 0.78333336
        value: 0
        inSlope: 0
        outSlope: 0
        tangentMode: 10
      - time: 1.1833333
        value: 0
        inSlope: 0
        outSlope: 0
        tangentMode: 10
      - time: 1.4666667
        value: 0
        inSlope: 0
        outSlope: 0
        tangentMode: 10
      m_PreInfinity: 2
      m_PostInfinity: 2
      m_RotationOrder: 4
    attribute: localEulerAnglesRaw.x
    path: Body/Arm1/Arm2/Hand
    classID: 4
    script: {fileID: 0}
  - curve:
      serializedVersion: 2
      m_Curve:
      - time: 0
        value: 0
        inSlope: 0
        outSlope: 0
        tangentMode: 10
      - time: 0.43333334
        value: 0
        inSlope: 0
        outSlope: 0
        tangentMode: 10
      - time: 0.5833333
        value: 0
        inSlope: 0
        outSlope: 0
        tangentMode: 10
      - time: 0.6666667
        value: 0
        inSlope: 0
        outSlope: 0
        tangentMode: 10
      - time: 0.78333336
        value: 0
        inSlope: 0
        outSlope: 0
        tangentMode: 10
      - time: 1.1833333
        value: 0
        inSlope: 0
        outSlope: 0
        tangentMode: 10
      - time: 1.4666667
        value: 0
        inSlope: 0
        outSlope: 0
        tangentMode: 10
      m_PreInfinity: 2
      m_PostInfinity: 2
      m_RotationOrder: 4
    attribute: localEulerAnglesRaw.y
    path: Body/Arm1/Arm2/Hand
    classID: 4
    script: {fileID: 0}
  - curve:
      serializedVersion: 2
      m_Curve:
      - time: 0
        value: 140.5335
        inSlope: -33.79729
        outSlope: -33.79729
        tangentMode: 10
      - time: 0.43333334
        value: 125.888
        inSlope: 143.98135
        outSlope: 143.98135
        tangentMode: 10
      - time: 0.5833333
        value: 174.152
        inSlope: -59.63188
        outSlope: -59.63188
        tangentMode: 10
      - time: 0.6666667
        value: 137.4
        inSlope: -80.31326
        outSlope: -80.31326
        tangentMode: 10
      - time: 0.78333336
        value: 170.113
        inSlope: 114.93235
        outSlope: 114.93235
        tangentMode: 10
      - time: 1.1833333
        value: 149.9
        inSlope: -0.34150505
        outSlope: -0.34150505
        tangentMode: 10
      - time: 1.4666667
        value: 164.02403
        inSlope: 49.849533
        outSlope: 49.849533
        tangentMode: 10
      m_PreInfinity: 2
      m_PostInfinity: 2
      m_RotationOrder: 4
    attribute: localEulerAnglesRaw.z
    path: Body/Arm1/Arm2/Hand
    classID: 4
    script: {fileID: 0}
  - curve:
      serializedVersion: 2
      m_Curve:
      - time: 0
        value: 0
        inSlope: Infinity
        outSlope: Infinity
        tangentMode: 31
      - time: 0.6666667
        value: 1
        inSlope: Infinity
        outSlope: Infinity
        tangentMode: 31
      m_PreInfinity: 2
      m_PostInfinity: 2
      m_RotationOrder: 4
    attribute: m_IsActive
    path: Body/Arm1/Arm2/Hand/rightHalf
    classID: 1
    script: {fileID: 0}
  - curve:
      serializedVersion: 2
      m_Curve:
      - time: 0
        value: 0
        inSlope: 0
        outSlope: 0
        tangentMode: 10
      m_PreInfinity: 2
      m_PostInfinity: 2
      m_RotationOrder: 4
    attribute: localEulerAnglesRaw.x
    path: Body/AntennaL
    classID: 4
    script: {fileID: 0}
  - curve:
      serializedVersion: 2
      m_Curve:
      - time: 0
        value: 0
        inSlope: 0
        outSlope: 0
        tangentMode: 10
      m_PreInfinity: 2
      m_PostInfinity: 2
      m_RotationOrder: 4
    attribute: localEulerAnglesRaw.y
    path: Body/AntennaL
    classID: 4
    script: {fileID: 0}
  - curve:
      serializedVersion: 2
      m_Curve:
      - time: 0
        value: -3.764368
        inSlope: 20.532917
        outSlope: 20.532917
        tangentMode: 10
      m_PreInfinity: 2
      m_PostInfinity: 2
      m_RotationOrder: 4
    attribute: localEulerAnglesRaw.z
    path: Body/AntennaL
    classID: 4
    script: {fileID: 0}
  - curve:
      serializedVersion: 2
      m_Curve:
      - time: 0
        value: 0
        inSlope: 0
        outSlope: 0
        tangentMode: 10
      m_PreInfinity: 2
      m_PostInfinity: 2
      m_RotationOrder: 4
    attribute: localEulerAnglesRaw.x
    path: Body/AntennaR
    classID: 4
    script: {fileID: 0}
  - curve:
      serializedVersion: 2
      m_Curve:
      - time: 0
        value: 0
        inSlope: 0
        outSlope: 0
        tangentMode: 10
      m_PreInfinity: 2
      m_PostInfinity: 2
      m_RotationOrder: 4
    attribute: localEulerAnglesRaw.y
    path: Body/AntennaR
    classID: 4
    script: {fileID: 0}
  - curve:
      serializedVersion: 2
      m_Curve:
      - time: 0
        value: -5.773886
        inSlope: 24.745226
        outSlope: 24.745226
        tangentMode: 10
      m_PreInfinity: 2
      m_PostInfinity: 2
      m_RotationOrder: 4
    attribute: localEulerAnglesRaw.z
    path: Body/AntennaR
    classID: 4
    script: {fileID: 0}
  - curve:
      serializedVersion: 2
      m_Curve:
      - time: 0
        value: -0.08883402
        inSlope: 0
        outSlope: 0
        tangentMode: 10
      - time: 0.083333336
        value: -0.08883402
        inSlope: 0
        outSlope: 0
        tangentMode: 10
      - time: 0.28333333
        value: -0.08883402
        inSlope: 0
        outSlope: 0
        tangentMode: 10
      - time: 0.75
        value: -0.08883402
        inSlope: 0.326502
        outSlope: 0.326502
        tangentMode: 10
      - time: 0.9166667
        value: 0.02
        inSlope: 0.326502
        outSlope: 0.326502
        tangentMode: 10
      - time: 1.4333333
        value: 0.02
        inSlope: 0
        outSlope: 0
        tangentMode: 10
      m_PreInfinity: 2
      m_PostInfinity: 2
      m_RotationOrder: 4
    attribute: m_LocalPosition.x
    path: Eyes/IrisL
    classID: 4
    script: {fileID: 0}
  - curve:
      serializedVersion: 2
      m_Curve:
      - time: 0
        value: 0.34
        inSlope: 0
        outSlope: 0
        tangentMode: 10
      - time: 0.083333336
        value: 0.34
        inSlope: 0
        outSlope: 0
        tangentMode: 10
      - time: 0.28333333
        value: 0.34
        inSlope: 0
        outSlope: 0
        tangentMode: 10
      - time: 0.75
        value: 0.34
        inSlope: 0
        outSlope: 0
        tangentMode: 10
      - time: 0.9166667
        value: 0.34
        inSlope: 0
        outSlope: 0
        tangentMode: 10
      - time: 1.4333333
        value: 0.34
        inSlope: 0
        outSlope: 0
        tangentMode: 10
      m_PreInfinity: 2
      m_PostInfinity: 2
      m_RotationOrder: 4
    attribute: m_LocalPosition.y
    path: Eyes/IrisL
    classID: 4
    script: {fileID: 0}
  - curve:
      serializedVersion: 2
      m_Curve:
      - time: 0
        value: 0.41988537
        inSlope: 2.6413753
        outSlope: 2.6413753
        tangentMode: 10
      - time: 0.083333336
        value: 0.64
        inSlope: 0.77040106
        outSlope: 0.77040106
        tangentMode: 10
      - time: 0.28333333
        value: 0.41988537
        inSlope: -0.5502866
        outSlope: -0.5502866
        tangentMode: 10
      - time: 0.75
        value: 0.41988537
        inSlope: 0.12034391
        outSlope: 0.12034391
        tangentMode: 10
      - time: 0.9166667
        value: 0.46
        inSlope: 0.06227938
        outSlope: 0.06227938
        tangentMode: 10
      - time: 1.4333333
        value: 0.4
        inSlope: -0.116129056
        outSlope: -0.116129056
        tangentMode: 10
      m_PreInfinity: 2
      m_PostInfinity: 2
      m_RotationOrder: 4
    attribute: m_LocalPosition.z
    path: Eyes/IrisL
    classID: 4
    script: {fileID: 0}
  - curve:
      serializedVersion: 2
      m_Curve:
      - time: 0
        value: -0.08883402
        inSlope: 0
        outSlope: 0
        tangentMode: 10
      - time: 0.083333336
        value: -0.08883402
        inSlope: 0
        outSlope: 0
        tangentMode: 10
      - time: 0.28333333
        value: -0.08883402
        inSlope: 0
        outSlope: 0
        tangentMode: 10
      - time: 0.75
        value: -0.08883402
        inSlope: 0.29650202
        outSlope: 0.29650202
        tangentMode: 10
      - time: 0.9166667
        value: 0.01
        inSlope: 0.29650202
        outSlope: 0.29650202
        tangentMode: 10
      - time: 1.4333333
        value: 0.01
        inSlope: 0
        outSlope: 0
        tangentMode: 10
      m_PreInfinity: 2
      m_PostInfinity: 2
      m_RotationOrder: 4
    attribute: m_LocalPosition.x
    path: Eyes/IrisR
    classID: 4
    script: {fileID: 0}
  - curve:
      serializedVersion: 2
      m_Curve:
      - time: 0
        value: 0.34
        inSlope: 0
        outSlope: 0
        tangentMode: 10
      - time: 0.083333336
        value: 0.34
        inSlope: 0
        outSlope: 0
        tangentMode: 10
      - time: 0.28333333
        value: 0.34
        inSlope: 0
        outSlope: 0
        tangentMode: 10
      - time: 0.75
        value: 0.34
        inSlope: 0
        outSlope: 0
        tangentMode: 10
      - time: 0.9166667
        value: 0.34
        inSlope: 0
        outSlope: 0
        tangentMode: 10
      - time: 1.4333333
        value: 0.34
        inSlope: 0
        outSlope: 0
        tangentMode: 10
      m_PreInfinity: 2
      m_PostInfinity: 2
      m_RotationOrder: 4
    attribute: m_LocalPosition.y
    path: Eyes/IrisR
    classID: 4
    script: {fileID: 0}
  - curve:
      serializedVersion: 2
      m_Curve:
      - time: 0
        value: -0.42617285
        inSlope: 2.7140741
        outSlope: 2.7140741
        tangentMode: 10
      - time: 0.083333336
        value: -0.2
        inSlope: 0.79160494
        outSlope: 0.79160494
        tangentMode: 10
      - time: 0.28333333
        value: -0.42617285
        inSlope: -0.56543213
        outSlope: -0.56543213
        tangentMode: 10
      - time: 0.75
        value: -0.42617285
        inSlope: 0.04851856
        outSlope: 0.04851856
        tangentMode: 10
      - time: 0.9166667
        value: -0.41
        inSlope: -0.038578227
        outSlope: -0.038578227
        tangentMode: 10
      - time: 1.4333333
        value: -0.5
        inSlope: -0.17419358
        outSlope: -0.17419358
        tangentMode: 10
      m_PreInfinity: 2
      m_PostInfinity: 2
      m_RotationOrder: 4
    attribute: m_LocalPosition.z
    path: Eyes/IrisR
    classID: 4
    script: {fileID: 0}
  - curve:
      serializedVersion: 2
      m_Curve:
      - time: 0
        value: -0.5705906
        inSlope: 0
        outSlope: 0
        tangentMode: 0
      m_PreInfinity: 2
      m_PostInfinity: 2
      m_RotationOrder: 4
    attribute: m_LocalPosition.x
    path: Eyes/Tooth
    classID: 4
    script: {fileID: 0}
  - curve:
      serializedVersion: 2
      m_Curve:
      - time: 0
        value: -0.664132
        inSlope: 0
        outSlope: 0
        tangentMode: 0
      m_PreInfinity: 2
      m_PostInfinity: 2
      m_RotationOrder: 4
    attribute: m_LocalPosition.y
    path: Eyes/Tooth
    classID: 4
    script: {fileID: 0}
  - curve:
      serializedVersion: 2
      m_Curve:
      - time: 0
        value: 0
        inSlope: 0
        outSlope: 0
        tangentMode: 0
      m_PreInfinity: 2
      m_PostInfinity: 2
      m_RotationOrder: 4
    attribute: m_LocalPosition.z
    path: Eyes/Tooth
    classID: 4
    script: {fileID: 0}
  - curve:
      serializedVersion: 2
      m_Curve:
      - time: 0
        value: 0
        inSlope: 0
        outSlope: 0
        tangentMode: 10
      - time: 0.4
        value: 0
        inSlope: 0
        outSlope: 0
        tangentMode: 10
      - time: 0.51666665
        value: 0
        inSlope: 0
        outSlope: 0
        tangentMode: 10
      - time: 0.6333333
        value: 0
        inSlope: 0
        outSlope: 0
        tangentMode: 10
      - time: 0.6666667
        value: 0
        inSlope: 0
        outSlope: 0
        tangentMode: 10
      m_PreInfinity: 2
      m_PostInfinity: 2
      m_RotationOrder: 4
    attribute: localEulerAnglesRaw.x
    path: Body/Arm1/Arm2/Hand/ClawLower
    classID: 4
    script: {fileID: 0}
  - curve:
      serializedVersion: 2
      m_Curve:
      - time: 0
        value: 0
        inSlope: 0
        outSlope: 0
        tangentMode: 10
      - time: 0.4
        value: 0
        inSlope: 0
        outSlope: 0
        tangentMode: 10
      - time: 0.51666665
        value: 0
        inSlope: 0
        outSlope: 0
        tangentMode: 10
      - time: 0.6333333
        value: 0
        inSlope: 0
        outSlope: 0
        tangentMode: 10
      - time: 0.6666667
        value: 0
        inSlope: 0
        outSlope: 0
        tangentMode: 10
      m_PreInfinity: 2
      m_PostInfinity: 2
      m_RotationOrder: 4
    attribute: localEulerAnglesRaw.y
    path: Body/Arm1/Arm2/Hand/ClawLower
    classID: 4
    script: {fileID: 0}
  - curve:
      serializedVersion: 2
      m_Curve:
      - time: 0
        value: -110.046
        inSlope: 0
        outSlope: 0
        tangentMode: 10
      - time: 0.4
        value: -110.046
        inSlope: -5.37431
        outSlope: -5.37431
        tangentMode: 10
      - time: 0.51666665
        value: -111.3
        inSlope: -5.37431
        outSlope: -5.37431
        tangentMode: 10
      - time: 0.6333333
        value: -111.3
        inSlope: 18.810066
        outSlope: 18.810066
        tangentMode: 10
      - time: 0.6666667
        value: -110.046
        inSlope: 37.620132
        outSlope: 37.620132
        tangentMode: 10
      m_PreInfinity: 2
      m_PostInfinity: 2
      m_RotationOrder: 4
    attribute: localEulerAnglesRaw.z
    path: Body/Arm1/Arm2/Hand/ClawLower
    classID: 4
    script: {fileID: 0}
  - curve:
      serializedVersion: 2
      m_Curve:
      - time: 0
        value: 0
        inSlope: 0
        outSlope: 0
        tangentMode: 10
      - time: 0.4
        value: 0
        inSlope: 0
        outSlope: 0
        tangentMode: 10
      - time: 0.51666665
        value: 0
        inSlope: 0
        outSlope: 0
        tangentMode: 10
      - time: 0.6333333
        value: 0
        inSlope: 0
        outSlope: 0
        tangentMode: 10
      - time: 0.6666667
        value: 0
        inSlope: 0
        outSlope: 0
        tangentMode: 10
      m_PreInfinity: 2
      m_PostInfinity: 2
      m_RotationOrder: 4
    attribute: localEulerAnglesRaw.x
    path: Body/Arm1/Arm2/Hand/clawUpper
    classID: 4
    script: {fileID: 0}
  - curve:
      serializedVersion: 2
      m_Curve:
      - time: 0
        value: 0
        inSlope: 0
        outSlope: 0
        tangentMode: 10
      - time: 0.4
        value: 0
        inSlope: 0
        outSlope: 0
        tangentMode: 10
      - time: 0.51666665
        value: 0
        inSlope: 0
        outSlope: 0
        tangentMode: 10
      - time: 0.6333333
        value: 0
        inSlope: 0
        outSlope: 0
        tangentMode: 10
      - time: 0.6666667
        value: 0
        inSlope: 0
        outSlope: 0
        tangentMode: 10
      m_PreInfinity: 2
      m_PostInfinity: 2
      m_RotationOrder: 4
    attribute: localEulerAnglesRaw.y
    path: Body/Arm1/Arm2/Hand/clawUpper
    classID: 4
    script: {fileID: 0}
  - curve:
      serializedVersion: 2
      m_Curve:
      - time: 0
        value: -120.0272
        inSlope: 0
        outSlope: 0
        tangentMode: 10
      - time: 0.4
        value: -120.0272
        inSlope: -178.59773
        outSlope: -178.59773
        tangentMode: 10
      - time: 0.51666665
        value: -161.7
        inSlope: -178.59773
        outSlope: -178.59773
        tangentMode: 10
      - time: 0.6333333
        value: -161.7
        inSlope: 625.09143
        outSlope: 625.09143
        tangentMode: 10
      - time: 0.6666667
        value: -120.0272
        inSlope: 1250.1829
        outSlope: 1250.1829
        tangentMode: 10
      m_PreInfinity: 2
      m_PostInfinity: 2
      m_RotationOrder: 4
    attribute: localEulerAnglesRaw.z
    path: Body/Arm1/Arm2/Hand/clawUpper
    classID: 4
    script: {fileID: 0}
  - curve:
      serializedVersion: 2
      m_Curve:
      - time: 0
        value: 0
        inSlope: 0
        outSlope: 0
        tangentMode: 10
      - time: 0.25
        value: 0
        inSlope: 0
        outSlope: 0
        tangentMode: 10
      - time: 0.6666667
        value: 0
        inSlope: 0
        outSlope: 0
        tangentMode: 10
      - time: 1.5
        value: 0
        inSlope: 0
        outSlope: 0
        tangentMode: 10
      m_PreInfinity: 2
      m_PostInfinity: 2
      m_RotationOrder: 4
    attribute: localEulerAnglesRaw.x
    path: 
    classID: 4
    script: {fileID: 0}
  - curve:
      serializedVersion: 2
      m_Curve:
      - time: 0
        value: 325
        inSlope: 120
        outSlope: 120
        tangentMode: 10
      - time: 0.25
        value: 355
        inSlope: 60
        outSlope: 60
        tangentMode: 10
      - time: 0.6666667
        value: 355
        inSlope: -15
        outSlope: -15
        tangentMode: 10
      - time: 1.5
        value: 330
        inSlope: -30
        outSlope: -30
        tangentMode: 10
      m_PreInfinity: 2
      m_PostInfinity: 2
      m_RotationOrder: 4
    attribute: localEulerAnglesRaw.y
    path: 
    classID: 4
    script: {fileID: 0}
  - curve:
      serializedVersion: 2
      m_Curve:
      - time: 0
        value: 0
        inSlope: 0
        outSlope: 0
        tangentMode: 10
      - time: 0.25
        value: 0
        inSlope: 0
        outSlope: 0
        tangentMode: 10
      - time: 0.6666667
        value: 0
        inSlope: 0
        outSlope: 0
        tangentMode: 10
      - time: 1.5
        value: 0
        inSlope: 0
        outSlope: 0
        tangentMode: 10
      m_PreInfinity: 2
      m_PostInfinity: 2
      m_RotationOrder: 4
    attribute: localEulerAnglesRaw.z
    path: 
    classID: 4
    script: {fileID: 0}
  - curve:
      serializedVersion: 2
      m_Curve:
      - time: 0
        value: -1.75
        inSlope: 0
        outSlope: 0
        tangentMode: 0
      - time: 0.5
        value: -1.05
        inSlope: 0
        outSlope: 0
        tangentMode: 0
      - time: 0.6666667
        value: -1.01
        inSlope: 11.130001
        outSlope: 11.130001
        tangentMode: 10
      - time: 1
        value: 6.33
        inSlope: 9.850001
        outSlope: 9.850001
        tangentMode: 10
      - time: 1.5
        value: 5.17
        inSlope: 0
        outSlope: 0
        tangentMode: 0
      m_PreInfinity: 2
      m_PostInfinity: 2
      m_RotationOrder: 4
    attribute: m_LocalPosition.x
    path: 
    classID: 4
    script: {fileID: 0}
  - curve:
      serializedVersion: 2
      m_Curve:
      - time: 0
        value: -0.107164636
        inSlope: 0.28508037
        outSlope: 0.28508037
        tangentMode: 0
      - time: 0.5
        value: 2.3520513
        inSlope: 0
        outSlope: 0
        tangentMode: 0
      - time: 0.6666667
        value: 2.59
        inSlope: -3.5461543
        outSlope: -3.5461543
        tangentMode: 10
      - time: 1
        value: -0.25
        inSlope: -4.01
        outSlope: -4.01
        tangentMode: 10
      - time: 1.5
        value: 0
        inSlope: 0
        outSlope: 0
        tangentMode: 0
      m_PreInfinity: 2
      m_PostInfinity: 2
      m_RotationOrder: 4
    attribute: m_LocalPosition.y
    path: 
    classID: 4
    script: {fileID: 0}
  - curve:
      serializedVersion: 2
      m_Curve:
      - time: 0
        value: 0
        inSlope: 0
        outSlope: 0
        tangentMode: 0
      - time: 0.5
        value: 0
        inSlope: 0
        outSlope: 0
        tangentMode: 0
      - time: 0.6666667
        value: 0
        inSlope: 3.6000004
        outSlope: 3.6000004
        tangentMode: 10
      - time: 1
        value: 2.4
        inSlope: 3.2200003
        outSlope: 3.2200003
        tangentMode: 10
      - time: 1.5
        value: 2.02
        inSlope: 0
        outSlope: 0
        tangentMode: 0
      m_PreInfinity: 2
      m_PostInfinity: 2
      m_RotationOrder: 4
    attribute: m_LocalPosition.z
    path: 
    classID: 4
    script: {fileID: 0}
  m_EulerEditorCurves:
  - curve:
      serializedVersion: 2
      m_Curve: []
      m_PreInfinity: 2
      m_PostInfinity: 2
      m_RotationOrder: 4
    attribute: m_LocalEulerAngles.z
    path: Body/AntennaR
    classID: 4
    script: {fileID: 0}
  - curve:
      serializedVersion: 2
      m_Curve: []
      m_PreInfinity: 2
      m_PostInfinity: 2
      m_RotationOrder: 4
    attribute: m_LocalEulerAngles.y
    path: Body/AntennaR
    classID: 4
    script: {fileID: 0}
  - curve:
      serializedVersion: 2
      m_Curve: []
      m_PreInfinity: 2
      m_PostInfinity: 2
      m_RotationOrder: 4
    attribute: m_LocalEulerAngles.x
    path: Body/AntennaR
    classID: 4
    script: {fileID: 0}
  - curve:
      serializedVersion: 2
      m_Curve: []
      m_PreInfinity: 2
      m_PostInfinity: 2
      m_RotationOrder: 4
    attribute: m_LocalEulerAngles.z
    path: Body/Arm1/Arm2/Hand
    classID: 4
    script: {fileID: 0}
  - curve:
      serializedVersion: 2
      m_Curve: []
      m_PreInfinity: 2
      m_PostInfinity: 2
      m_RotationOrder: 4
    attribute: m_LocalEulerAngles.y
    path: Body/Arm1/Arm2/Hand
    classID: 4
    script: {fileID: 0}
  - curve:
      serializedVersion: 2
      m_Curve: []
      m_PreInfinity: 2
      m_PostInfinity: 2
      m_RotationOrder: 4
    attribute: m_LocalEulerAngles.x
    path: Body/Arm1/Arm2/Hand
    classID: 4
    script: {fileID: 0}
  - curve:
      serializedVersion: 2
      m_Curve: []
      m_PreInfinity: 2
      m_PostInfinity: 2
      m_RotationOrder: 4
    attribute: m_LocalEulerAngles.z
    path: 
    classID: 4
    script: {fileID: 0}
  - curve:
      serializedVersion: 2
      m_Curve: []
      m_PreInfinity: 2
      m_PostInfinity: 2
      m_RotationOrder: 4
    attribute: m_LocalEulerAngles.y
    path: 
    classID: 4
    script: {fileID: 0}
  - curve:
      serializedVersion: 2
      m_Curve: []
      m_PreInfinity: 2
      m_PostInfinity: 2
      m_RotationOrder: 4
    attribute: m_LocalEulerAngles.x
    path: 
    classID: 4
    script: {fileID: 0}
  - curve:
      serializedVersion: 2
      m_Curve: []
      m_PreInfinity: 2
      m_PostInfinity: 2
      m_RotationOrder: 4
    attribute: m_LocalEulerAngles.x
    path: Body/AntennaL
    classID: 4
    script: {fileID: 0}
  - curve:
      serializedVersion: 2
      m_Curve: []
      m_PreInfinity: 2
      m_PostInfinity: 2
      m_RotationOrder: 4
    attribute: m_LocalEulerAngles.y
    path: Body/AntennaL
    classID: 4
    script: {fileID: 0}
  - curve:
      serializedVersion: 2
      m_Curve: []
      m_PreInfinity: 2
      m_PostInfinity: 2
      m_RotationOrder: 4
    attribute: m_LocalEulerAngles.z
    path: Body/AntennaL
    classID: 4
    script: {fileID: 0}
  - curve:
      serializedVersion: 2
      m_Curve: []
      m_PreInfinity: 2
      m_PostInfinity: 2
      m_RotationOrder: 4
    attribute: m_LocalEulerAngles.z
    path: Body/Arm1/Arm2/Hand/clawUpper
    classID: 4
    script: {fileID: 0}
  - curve:
      serializedVersion: 2
      m_Curve: []
      m_PreInfinity: 2
      m_PostInfinity: 2
      m_RotationOrder: 4
    attribute: m_LocalEulerAngles.y
    path: Body/Arm1/Arm2/Hand/clawUpper
    classID: 4
    script: {fileID: 0}
  - curve:
      serializedVersion: 2
      m_Curve: []
      m_PreInfinity: 2
      m_PostInfinity: 2
      m_RotationOrder: 4
    attribute: m_LocalEulerAngles.x
    path: Body/Arm1/Arm2/Hand/clawUpper
    classID: 4
    script: {fileID: 0}
  - curve:
      serializedVersion: 2
      m_Curve: []
      m_PreInfinity: 2
      m_PostInfinity: 2
      m_RotationOrder: 4
    attribute: m_LocalEulerAngles.z
    path: Body/Arm1/Arm2/Hand/ClawLower
    classID: 4
    script: {fileID: 0}
  - curve:
      serializedVersion: 2
      m_Curve: []
      m_PreInfinity: 2
      m_PostInfinity: 2
      m_RotationOrder: 4
    attribute: m_LocalEulerAngles.y
    path: Body/Arm1/Arm2/Hand/ClawLower
    classID: 4
    script: {fileID: 0}
  - curve:
      serializedVersion: 2
      m_Curve: []
      m_PreInfinity: 2
      m_PostInfinity: 2
      m_RotationOrder: 4
    attribute: m_LocalEulerAngles.x
    path: Body/Arm1/Arm2/Hand/ClawLower
    classID: 4
    script: {fileID: 0}
  - curve:
      serializedVersion: 2
      m_Curve: []
      m_PreInfinity: 2
      m_PostInfinity: 2
      m_RotationOrder: 4
    attribute: m_LocalEulerAngles.z
    path: Body/Arm1
    classID: 4
    script: {fileID: 0}
  - curve:
      serializedVersion: 2
      m_Curve: []
      m_PreInfinity: 2
      m_PostInfinity: 2
      m_RotationOrder: 4
    attribute: m_LocalEulerAngles.y
    path: Body/Arm1
    classID: 4
    script: {fileID: 0}
  - curve:
      serializedVersion: 2
      m_Curve: []
      m_PreInfinity: 2
      m_PostInfinity: 2
      m_RotationOrder: 4
    attribute: m_LocalEulerAngles.x
    path: Body/Arm1
    classID: 4
    script: {fileID: 0}
  - curve:
      serializedVersion: 2
      m_Curve: []
      m_PreInfinity: 2
      m_PostInfinity: 2
      m_RotationOrder: 4
    attribute: m_LocalEulerAngles.x
    path: Body/Arm1/Arm2
    classID: 4
    script: {fileID: 0}
  - curve:
      serializedVersion: 2
      m_Curve: []
      m_PreInfinity: 2
      m_PostInfinity: 2
      m_RotationOrder: 4
    attribute: m_LocalEulerAngles.y
    path: Body/Arm1/Arm2
    classID: 4
    script: {fileID: 0}
  - curve:
      serializedVersion: 2
      m_Curve: []
      m_PreInfinity: 2
      m_PostInfinity: 2
      m_RotationOrder: 4
    attribute: m_LocalEulerAngles.z
    path: Body/Arm1/Arm2
    classID: 4
    script: {fileID: 0}
  m_HasGenericRootTransform: 1
  m_HasMotionFloatCurves: 0
  m_GenerateMotionCurves: 0
  m_Events: []
