%YAML 1.1
%TAG !u! tag:unity3d.com,2011:
--- !u!74 &7400000
AnimationClip:
  m_ObjectHideFlags: 0
  m_PrefabParentObject: {fileID: 0}
  m_PrefabInternal: {fileID: 0}
  m_Name: Fire
  serializedVersion: 6
  m_Legacy: 0
  m_Compressed: 0
  m_UseHighQualityCurve: 1
  m_RotationCurves: []
  m_CompressedRotationCurves: []
  m_EulerCurves:
  - curve:
      serializedVersion: 2
      m_Curve:
      - time: 0
        value: {x: 0, y: 0, z: 0}
        inSlope: {x: 0, y: 0, z: 228.44998}
        outSlope: {x: 0, y: 0, z: 228.44998}
        tangentMode: 0
      - time: 0.06666667
        value: {x: 0, y: 0, z: 15.23}
        inSlope: {x: 0, y: 0, z: 102.80249}
        outSlope: {x: 0, y: 0, z: 102.80249}
        tangentMode: 0
      - time: 0.73333335
        value: {x: 0, y: 0, z: 0}
        inSlope: {x: 0, y: 0, z: -22.845}
        outSlope: {x: 0, y: 0, z: -22.845}
        tangentMode: 0
      m_PreInfinity: 2
      m_PostInfinity: 2
      m_RotationOrder: 4
    path: base/armature
  - curve:
      serializedVersion: 2
      m_Curve:
      - time: 0
        value: {x: 0, y: 0, z: 0}
        inSlope: {x: 0, y: 0, z: 263.74286}
        outSlope: {x: 0, y: 0, z: 263.74286}
        tangentMode: 0
      - time: 0.11666667
        value: {x: 0, y: 0, z: 30.77}
        inSlope: {x: 0, y: 0, z: 29.304764}
        outSlope: {x: 0, y: 0, z: 29.304764}
        tangentMode: 0
      - time: 0.26666668
        value: {x: 0, y: 0, z: 0}
        inSlope: {x: 0, y: 0, z: -205.13333}
        outSlope: {x: 0, y: 0, z: -205.13333}
        tangentMode: 0
      m_PreInfinity: 2
      m_PostInfinity: 2
      m_RotationOrder: 4
    path: base/armature/body/barrel
  m_PositionCurves:
  - curve:
      serializedVersion: 2
      m_Curve:
      - time: 0
        value: {x: 0, y: 0, z: 0}
        inSlope: {x: 0, y: 0.36413795, z: 0}
        outSlope: {x: 0, y: 0.36413795, z: 0}
        tangentMode: 0
      - time: 0.48333332
        value: {x: 0, y: 0.176, z: 0}
        inSlope: {x: 0, y: 0, z: 0}
        outSlope: {x: 0, y: 0, z: 0}
        tangentMode: 0
      - time: 0.65
        value: {x: 0, y: 0, z: 0}
        inSlope: {x: 0, y: -0.2850001, z: 0}
        outSlope: {x: 0, y: -0.2850001, z: 0}
        tangentMode: 0
      - time: 0.81666666
        value: {x: 0, y: 0.081, z: 0}
        inSlope: {x: 0, y: -0.104142874, z: 0}
        outSlope: {x: 0, y: -0.104142874, z: 0}
        tangentMode: 0
      - time: 0.93333334
        value: {x: 0, y: 0, z: 0}
        inSlope: {x: 0, y: -0.34714285, z: 0}
        outSlope: {x: 0, y: -0.34714285, z: 0}
        tangentMode: 0
      - time: 1.2333333
        value: {x: 0, y: 0, z: 0}
        inSlope: {x: 0, y: 0, z: 0}
        outSlope: {x: 0, y: 0, z: 0}
        tangentMode: 0
      m_PreInfinity: 2
      m_PostInfinity: 2
      m_RotationOrder: 4
    path: base/armature/body/shield
  m_ScaleCurves: []
  m_FloatCurves: []
  m_PPtrCurves: []
  m_SampleRate: 60
  m_WrapMode: 0
  m_Bounds:
    m_Center: {x: 0, y: 0, z: 0}
    m_Extent: {x: 0, y: 0, z: 0}
  m_ClipBindingConstant:
    genericBindings:
    - path: 1863777314
      attribute: 1
      script: {fileID: 0}
      classID: 4
      customType: 0
      isPPtrCurve: 0
    - path: 1045598153
      attribute: 4
      script: {fileID: 0}
      classID: 4
      customType: 14
      isPPtrCurve: 0
    - path: 3957594493
      attribute: 4
      script: {fileID: 0}
      classID: 4
      customType: 14
      isPPtrCurve: 0
    pptrCurveMapping: []
  m_AnimationClipSettings:
    serializedVersion: 2
    m_AdditiveReferencePoseClip: {fileID: 0}
    m_AdditiveReferencePoseTime: 0
    m_StartTime: 0
    m_StopTime: 1.2333333
    m_OrientationOffsetY: 0
    m_Level: 0
    m_CycleOffset: 0
    m_HasAdditiveReferencePose: 0
    m_LoopTime: 0
    m_LoopBlend: 0
    m_LoopBlendOrientation: 0
    m_LoopBlendPositionY: 0
    m_LoopBlendPositionXZ: 0
    m_KeepOriginalOrientation: 0
    m_KeepOriginalPositionY: 1
    m_KeepOriginalPositionXZ: 0
    m_HeightFromFeet: 0
    m_Mirror: 0
  m_EditorCurves:
  - curve:
      serializedVersion: 2
      m_Curve:
      - time: 0
        value: 0
        inSlope: 0
        outSlope: 0
        tangentMode: 10
      - time: 0.06666667
        value: 0
        inSlope: 0
        outSlope: 0
        tangentMode: 10
      - time: 0.73333335
        value: 0
        inSlope: 0
        outSlope: 0
        tangentMode: 10
      m_PreInfinity: 2
      m_PostInfinity: 2
      m_RotationOrder: 4
    attribute: localEulerAnglesRaw.x
    path: base/armature
    classID: 4
    script: {fileID: 0}
  - curve:
      serializedVersion: 2
      m_Curve:
      - time: 0
        value: 0
        inSlope: 0
        outSlope: 0
        tangentMode: 10
      - time: 0.06666667
        value: 0
        inSlope: 0
        outSlope: 0
        tangentMode: 10
      - time: 0.73333335
        value: 0
        inSlope: 0
        outSlope: 0
        tangentMode: 10
      m_PreInfinity: 2
      m_PostInfinity: 2
      m_RotationOrder: 4
    attribute: localEulerAnglesRaw.y
    path: base/armature
    classID: 4
    script: {fileID: 0}
  - curve:
      serializedVersion: 2
      m_Curve:
      - time: 0
        value: 0
        inSlope: 228.44998
        outSlope: 228.44998
        tangentMode: 10
      - time: 0.06666667
        value: 15.23
        inSlope: 102.80249
        outSlope: 102.80249
        tangentMode: 10
      - time: 0.73333335
        value: 0
        inSlope: -22.845
        outSlope: -22.845
        tangentMode: 10
      m_PreInfinity: 2
      m_PostInfinity: 2
      m_RotationOrder: 4
    attribute: localEulerAnglesRaw.z
    path: base/armature
    classID: 4
    script: {fileID: 0}
  - curve:
      serializedVersion: 2
      m_Curve:
      - time: 0
        value: 0
        inSlope: 0
        outSlope: 0
        tangentMode: 10
      - time: 0.11666667
        value: 0
        inSlope: 0
        outSlope: 0
        tangentMode: 10
      - time: 0.26666668
        value: 0
        inSlope: 0
        outSlope: 0
        tangentMode: 10
      m_PreInfinity: 2
      m_PostInfinity: 2
      m_RotationOrder: 4
    attribute: localEulerAnglesRaw.x
    path: base/armature/body/barrel
    classID: 4
    script: {fileID: 0}
  - curve:
      serializedVersion: 2
      m_Curve:
      - time: 0
        value: 0
        inSlope: 0
        outSlope: 0
        tangentMode: 10
      - time: 0.11666667
        value: 0
        inSlope: 0
        outSlope: 0
        tangentMode: 10
      - time: 0.26666668
        value: 0
        inSlope: 0
        outSlope: 0
        tangentMode: 10
      m_PreInfinity: 2
      m_PostInfinity: 2
      m_RotationOrder: 4
    attribute: localEulerAnglesRaw.y
    path: base/armature/body/barrel
    classID: 4
    script: {fileID: 0}
  - curve:
      serializedVersion: 2
      m_Curve:
      - time: 0
        value: 0
        inSlope: 263.74286
        outSlope: 263.74286
        tangentMode: 10
      - time: 0.11666667
        value: 30.77
        inSlope: 29.304764
        outSlope: 29.304764
        tangentMode: 10
      - time: 0.26666668
        value: 0
        inSlope: -205.13333
        outSlope: -205.13333
        tangentMode: 10
      m_PreInfinity: 2
      m_PostInfinity: 2
      m_RotationOrder: 4
    attribute: localEulerAnglesRaw.z
    path: base/armature/body/barrel
    classID: 4
    script: {fileID: 0}
  - curve:
      serializedVersion: 2
      m_Curve:
      - time: 0
        value: 0
        inSlope: 0
        outSlope: 0
        tangentMode: 10
      - time: 0.48333332
        value: 0
        inSlope: 0
        outSlope: 0
        tangentMode: 0
      - time: 0.65
        value: 0
        inSlope: 0
        outSlope: 0
        tangentMode: 10
      - time: 0.81666666
        value: 0
        inSlope: 0
        outSlope: 0
        tangentMode: 10
      - time: 0.93333334
        value: 0
        inSlope: 0
        outSlope: 0
        tangentMode: 10
      - time: 1.2333333
        value: 0
        inSlope: 0
        outSlope: 0
        tangentMode: 10
      m_PreInfinity: 2
      m_PostInfinity: 2
      m_RotationOrder: 4
    attribute: m_LocalPosition.x
    path: base/armature/body/shield
    classID: 4
    script: {fileID: 0}
  - curve:
      serializedVersion: 2
      m_Curve:
      - time: 0
        value: 0
        inSlope: 0.36413795
        outSlope: 0.36413795
        tangentMode: 10
      - time: 0.48333332
        value: 0.176
        inSlope: 0
        outSlope: 0
        tangentMode: 0
      - time: 0.65
        value: 0
        inSlope: -0.2850001
        outSlope: -0.2850001
        tangentMode: 10
      - time: 0.81666666
        value: 0.081
        inSlope: -0.104142874
        outSlope: -0.104142874
        tangentMode: 10
      - time: 0.93333334
        value: 0
        inSlope: -0.34714285
        outSlope: -0.34714285
        tangentMode: 10
      - time: 1.2333333
        value: 0
        inSlope: 0
        outSlope: 0
        tangentMode: 10
      m_PreInfinity: 2
      m_PostInfinity: 2
      m_RotationOrder: 4
    attribute: m_LocalPosition.y
    path: base/armature/body/shield
    classID: 4
    script: {fileID: 0}
  - curve:
      serializedVersion: 2
      m_Curve:
      - time: 0
        value: 0
        inSlope: 0
        outSlope: 0
        tangentMode: 10
      - time: 0.48333332
        value: 0
        inSlope: 0
        outSlope: 0
        tangentMode: 0
      - time: 0.65
        value: 0
        inSlope: 0
        outSlope: 0
        tangentMode: 10
      - time: 0.81666666
        value: 0
        inSlope: 0
        outSlope: 0
        tangentMode: 10
      - time: 0.93333334
        value: 0
        inSlope: 0
        outSlope: 0
        tangentMode: 10
      - time: 1.2333333
        value: 0
        inSlope: 0
        outSlope: 0
        tangentMode: 10
      m_PreInfinity: 2
      m_PostInfinity: 2
      m_RotationOrder: 4
    attribute: m_LocalPosition.z
    path: base/armature/body/shield
    classID: 4
    script: {fileID: 0}
  m_EulerEditorCurves:
  - curve:
      serializedVersion: 2
      m_Curve: []
      m_PreInfinity: 2
      m_PostInfinity: 2
      m_RotationOrder: 4
    attribute: m_LocalEulerAngles.z
    path: base/armature/body/barrel
    classID: 4
    script: {fileID: 0}
  - curve:
      serializedVersion: 2
      m_Curve: []
      m_PreInfinity: 2
      m_PostInfinity: 2
      m_RotationOrder: 4
    attribute: m_LocalEulerAngles.y
    path: base/armature/body/barrel
    classID: 4
    script: {fileID: 0}
  - curve:
      serializedVersion: 2
      m_Curve: []
      m_PreInfinity: 2
      m_PostInfinity: 2
      m_RotationOrder: 4
    attribute: m_LocalEulerAngles.x
    path: base/armature/body/barrel
    classID: 4
    script: {fileID: 0}
  - curve:
      serializedVersion: 2
      m_Curve: []
      m_PreInfinity: 2
      m_PostInfinity: 2
      m_RotationOrder: 4
    attribute: m_LocalEulerAngles.x
    path: base/armature
    classID: 4
    script: {fileID: 0}
  - curve:
      serializedVersion: 2
      m_Curve: []
      m_PreInfinity: 2
      m_PostInfinity: 2
      m_RotationOrder: 4
    attribute: m_LocalEulerAngles.y
    path: base/armature
    classID: 4
    script: {fileID: 0}
  - curve:
      serializedVersion: 2
      m_Curve: []
      m_PreInfinity: 2
      m_PostInfinity: 2
      m_RotationOrder: 4
    attribute: m_LocalEulerAngles.z
    path: base/armature
    classID: 4
    script: {fileID: 0}
  m_HasGenericRootTransform: 0
  m_HasMotionFloatCurves: 0
  m_GenerateMotionCurves: 0
  m_Events: []
