{
  "challengeId": "581780f523791d04d22aee63",
  "replayName": "AT_CS_BigSaboteur_enemy_ship",
  "replayDescription": "Use on the enemy ship",
  "firstPlayer": "57a46bc94912890496649e51",
  "mulliganData": {
    "57a46bc54912890496649e01": {
      "cards": [
        "True",
        "True",
        "True",
        "True"
      ]
    },
    "57a46bc94912890496649e51": {
      "cards": [
        "True",
        "True",
        "True"
      ]
    }
  },
  "players": [
    "57a46bc94912890496649e51",
    "57a46bc54912890496649e01"
  ],
  "recordedMoves": [
    {
      "name": "endTurn",
      "fromPlayerId": "57a46bc94912890496649e51",
      "turnNumber": 0,
      "data": {
        "playerId": "57a46bc94912890496649e51",
        "inactivePlayerId": "57a46bc54912890496649e01"
      }
    },
    {
      "name": "endTurn",
      "fromPlayerId": "57a46bc54912890496649e01",
      "turnNumber": 0,
      "data": {
        "playerId": "57a46bc54912890496649e01",
        "inactivePlayerId": "57a46bc94912890496649e51"
      }
    },
    {
      "name": "endTurn",
      "fromPlayerId": "57a46bc94912890496649e51",
      "turnNumber": 1,
      "data": {
        "playerId": "57a46bc94912890496649e51",
        "inactivePlayerId": "57a46bc54912890496649e01"
      }
    },
    {
      "name": "endTurn",
      "fromPlayerId": "57a46bc54912890496649e01",
      "turnNumber": 1,
      "data": {
        "playerId": "57a46bc54912890496649e01",
        "inactivePlayerId": "57a46bc94912890496649e51"
      }
    },
    {
      "name": "crewCardWithTarget",
      "fromPlayerId": "57a46bc94912890496649e51",
      "turnNumber": 2,
      "data": {
        "playerId": "57a46bc94912890496649e51",
        "drawNumber": 5,
        "socketId": null,
        "targetType": "hull",
        "targetedPlayerId": "57a46bc54912890496649e01",
        "targetedSocketId": 0
      }
    },
    {
      "name": "endTurn",
      "fromPlayerId": "57a46bc94912890496649e51",
      "turnNumber": 2,
      "data": {
        "playerId": "57a46bc94912890496649e51",
        "inactivePlayerId": "57a46bc54912890496649e01"
      }
    }
  ],
  "battleState": {
    "version": 1,
    "issueNumber": 18,
    "rngFirstSeed": 1477935349590.0,
    "rngLastSeed": 0,
    "player1": {
      "testData": "PlayerState",
      "id": "57a46bc94912890496649e51",
      "name": "",
      "hullHP": 20,
      "maxHullHP": 20,
      "turn": 3,
      "power": 0,
      "powerThisTurn": 3,
      "maxPower": 10,
      "deck": {
        "id": "581780ec23791d04d22aeb98",
        "cards": [
          "AT_WN_AlphaBlaster",
          "AT_WN_AlphaBlaster",
          "AT_WN_AlphaBlaster",
          "AT_WN_AlphaBlaster",
          "AT_WN_TinyLaser",
          "AT_WN_TinyLaser",
          "AT_WN_TinyLaser",
          "AT_WN_TinyLaser",
          "AT_WN_AlphaBlaster",
          "AT_WN_AlphaBlaster",
          "AT_WN_AlphaBlaster",
          "AT_WN_AlphaBlaster",
          "AT_WN_AlphaBlaster",
          "AT_WN_TinyLaser",
          "AT_WN_TinyLaser",
          "AT_WN_TinyLaser",
          "AT_WN_TinyLaser",
          "AT_WN_TinyLaser",
          "AT_WN_AlphaBlaster",
          "AT_WN_AlphaBlaster",
          "AT_WN_AlphaBlaster",
          "AT_WN_AlphaBlaster",
          "AT_WN_AlphaBlaster",
          "AT_WN_TinyLaser"
        ],
        "class": "Debug"
      },
      "hand": [
        {
          "Id": "AT_CS_BigSaboteur",
          "DisplayName": "Big Saboteur",
          "CardType": "Crew",
          "Cost": 3,
          "Rarity": "common",
          "Manufacturer": "",
          "CardDisplayText": "Deal 4 Damage to target",
          "Condition": "",
          "CardTextId": "DealDamage",
          "CardTextTarget": "Anything",
          "CardParam1": "4",
          "CardParam2": "",
          "DamageType": "",
          "Class": "Smuggler",
          "State": "InHandNotMyTurn",
          "DrawNumber": 4,
          "MaxHP": null,
          "BaseMaxHP": null,
          "BaseAttack": null,
          "BaseCost": 3,
          "Targeting": "True",
          "cardTextTargets": [
            {
              "type": "hull",
              "playerId": "57a46bc94912890496649e51"
            },
            {
              "type": "hull",
              "playerId": "57a46bc54912890496649e01"
            }
          ]
        },
        {
          "Id": "AT_WN_TinyLaser",
          "DisplayName": "Tiny Laser",
          "CardType": "Weapon",
          "Cost": 0,
          "Attack": 1,
          "HP": 1,
          "Rarity": "common",
          "Manufacturer": "",
          "CardDisplayText": "",
          "CardTextTrigger": "",
          "Condition": "",
          "CardTextId": "",
          "CardTextTarget": "",
          "CardParam1": "",
          "CardParam2": "",
          "CardTextIdA": "",
          "CardTextTargetA": "",
          "CardParam1A": "",
          "CardParam2A": "",
          "DamageType": "Laser",
          "Class": "Neutral",
          "State": "InHandNotMyTurn",
          "DrawNumber": 6,
          "MaxHP": 1,
          "BaseMaxHP": 1,
          "BaseAttack": 1,
          "BaseCost": 0
        },
        {
          "Id": "AT_WN_TinyLaser",
          "DisplayName": "Tiny Laser",
          "CardType": "Weapon",
          "Cost": 0,
          "Attack": 1,
          "HP": 1,
          "Rarity": "common",
          "Manufacturer": "",
          "CardDisplayText": "",
          "CardTextTrigger": "",
          "Condition": "",
          "CardTextId": "",
          "CardTextTarget": "",
          "CardParam1": "",
          "CardParam2": "",
          "CardTextIdA": "",
          "CardTextTargetA": "",
          "CardParam1A": "",
          "CardParam2A": "",
          "DamageType": "Laser",
          "Class": "Neutral",
          "State": "InHandNotMyTurn",
          "DrawNumber": 7,
          "MaxHP": 1,
          "BaseMaxHP": 1,
          "BaseAttack": 1,
          "BaseCost": 0
        },
        {
          "Id": "AT_WN_TinyLaser",
          "DisplayName": "Tiny Laser",
          "CardType": "Weapon",
          "Cost": 0,
          "Attack": 1,
          "HP": 1,
          "Rarity": "common",
          "Manufacturer": "",
          "CardDisplayText": "",
          "CardTextTrigger": "",
          "Condition": "",
          "CardTextId": "",
          "CardTextTarget": "",
          "CardParam1": "",
          "CardParam2": "",
          "CardTextIdA": "",
          "CardTextTargetA": "",
          "CardParam1A": "",
          "CardParam2A": "",
          "DamageType": "Laser",
          "Class": "Neutral",
          "State": "InHandNotMyTurn",
          "DrawNumber": 9,
          "MaxHP": 1,
          "BaseMaxHP": 1,
          "BaseAttack": 1,
          "BaseCost": 0
        },
        {
          "Id": "AT_WN_TinyLaser",
          "DisplayName": "Tiny Laser",
          "CardType": "Weapon",
          "Cost": 0,
          "Attack": 1,
          "HP": 1,
          "Rarity": "common",
          "Manufacturer": "",
          "CardDisplayText": "",
          "CardTextTrigger": "",
          "Condition": "",
          "CardTextId": "",
          "CardTextTarget": "",
          "CardParam1": "",
          "CardParam2": "",
          "CardTextIdA": "",
          "CardTextTargetA": "",
          "CardParam1A": "",
          "CardParam2A": "",
          "DamageType": "Laser",
          "Class": "Neutral",
          "State": "InHandNotMyTurn",
          "DrawNumber": 11,
          "MaxHP": 1,
          "BaseMaxHP": 1,
          "BaseAttack": 1,
          "BaseCost": 0
        }
      ],
      "board": [
        {
          "slotId": 0,
          "entity": null,
          "socketBuffs": []
        },
        {
          "slotId": 1,
          "entity": null,
          "socketBuffs": []
        },
        {
          "slotId": 2,
          "entity": null,
          "socketBuffs": []
        },
        {
          "slotId": 3,
          "entity": null,
          "socketBuffs": []
        },
        {
          "slotId": 4,
          "entity": null,
          "socketBuffs": []
        },
        {
          "slotId": 5,
          "entity": null,
          "socketBuffs": []
        },
        {
          "slotId": 6,
          "entity": null,
          "socketBuffs": []
        },
        {
          "slotId": 7,
          "entity": null,
          "socketBuffs": []
        },
        {
          "slotId": 8,
          "entity": null,
          "socketBuffs": []
        }
      ],
      "localPlayerView": {},
      "remotePlayerView": {}
    },
    "player2": {
      "testData": "PlayerState",
      "id": "57a46bc54912890496649e01",
      "name": "",
      "hullHP": 16,
      "maxHullHP": 20,
      "turn": 3,
      "power": 3,
      "powerThisTurn": 3,
      "maxPower": 10,
      "deck": {
        "id": "581780f523791d04d22aee18",
        "cards": [
          "AT_WN_AlphaBlaster",
          "AT_WN_AlphaBlaster",
          "AT_WN_AlphaBlaster",
          "AT_WN_AlphaBlaster",
          "AT_WN_TinyLaser",
          "AT_WN_TinyLaser",
          "AT_WN_TinyLaser",
          "AT_WN_TinyLaser",
          "AT_WN_AlphaBlaster",
          "AT_WN_AlphaBlaster",
          "AT_WN_AlphaBlaster",
          "AT_WN_AlphaBlaster",
          "AT_WN_AlphaBlaster",
          "AT_WN_TinyLaser",
          "AT_WN_TinyLaser",
          "AT_WN_TinyLaser",
          "AT_WN_TinyLaser",
          "AT_WN_TinyLaser",
          "AT_WN_AlphaBlaster",
          "AT_WN_AlphaBlaster",
          "AT_WN_AlphaBlaster",
          "AT_WN_AlphaBlaster",
          "AT_WN_AlphaBlaster"
        ],
        "class": "Debug"
      },
      "hand": [
        {
          "Id": "AT_CS_BigSaboteur",
          "DisplayName": "Big Saboteur",
          "CardType": "Crew",
          "Cost": 3,
          "Rarity": "common",
          "Manufacturer": "",
          "CardDisplayText": "Deal 4 Damage to target",
          "Condition": "",
          "CardTextId": "DealDamage",
          "CardTextTarget": "Anything",
          "CardParam1": "4",
          "CardParam2": "",
          "DamageType": "",
          "Class": "Smuggler",
          "State": "InHandPlayable",
          "DrawNumber": 0,
          "MaxHP": null,
          "BaseMaxHP": null,
          "BaseAttack": null,
          "BaseCost": 3,
          "Targeting": "True",
          "cardTextTargets": [
            {
              "type": "hull",
              "playerId": "57a46bc54912890496649e01"
            },
            {
              "type": "hull",
              "playerId": "57a46bc94912890496649e51"
            }
          ]
        },
        {
          "Id": "AT_CS_BigSaboteur",
          "DisplayName": "Big Saboteur",
          "CardType": "Crew",
          "Cost": 3,
          "Rarity": "common",
          "Manufacturer": "",
          "CardDisplayText": "Deal 4 Damage to target",
          "Condition": "",
          "CardTextId": "DealDamage",
          "CardTextTarget": "Anything",
          "CardParam1": "4",
          "CardParam2": "",
          "DamageType": "",
          "Class": "Smuggler",
          "State": "InHandPlayable",
          "DrawNumber": 1,
          "MaxHP": null,
          "BaseMaxHP": null,
          "BaseAttack": null,
          "BaseCost": 3,
          "Targeting": "True",
          "cardTextTargets": [
            {
              "type": "hull",
              "playerId": "57a46bc54912890496649e01"
            },
            {
              "type": "hull",
              "playerId": "57a46bc94912890496649e51"
            }
          ]
        },
        {
          "Id": "AT_WN_TinyLaser",
          "DisplayName": "Tiny Laser",
          "CardType": "Weapon",
          "Cost": 0,
          "Attack": 1,
          "HP": 1,
          "Rarity": "common",
          "Manufacturer": "",
          "CardDisplayText": "",
          "CardTextTrigger": "",
          "Condition": "",
          "CardTextId": "",
          "CardTextTarget": "",
          "CardParam1": "",
          "CardParam2": "",
          "CardTextIdA": "",
          "CardTextTargetA": "",
          "CardParam1A": "",
          "CardParam2A": "",
          "DamageType": "Laser",
          "Class": "Neutral",
          "State": "InHandPlayable",
          "DrawNumber": 2,
          "MaxHP": 1,
          "BaseMaxHP": 1,
          "BaseAttack": 1,
          "BaseCost": 0
        },
        {
          "Id": "AT_WN_TinyLaser",
          "DisplayName": "Tiny Laser",
          "CardType": "Weapon",
          "Cost": 0,
          "Attack": 1,
          "HP": 1,
          "Rarity": "common",
          "Manufacturer": "",
          "CardDisplayText": "",
          "CardTextTrigger": "",
          "Condition": "",
          "CardTextId": "",
          "CardTextTarget": "",
          "CardParam1": "",
          "CardParam2": "",
          "CardTextIdA": "",
          "CardTextTargetA": "",
          "CardParam1A": "",
          "CardParam2A": "",
          "DamageType": "Laser",
          "Class": "Neutral",
          "State": "InHandPlayable",
          "DrawNumber": 3,
          "MaxHP": 1,
          "BaseMaxHP": 1,
          "BaseAttack": 1,
          "BaseCost": 0
        },
        {
          "Id": "AT_WN_TinyLaser",
          "DisplayName": "Tiny Laser",
          "CardType": "Weapon",
          "Cost": 0,
          "Attack": 1,
          "HP": 1,
          "Rarity": "common",
          "Manufacturer": "",
          "CardDisplayText": "",
          "CardTextTrigger": "",
          "Condition": "",
          "CardTextId": "",
          "CardTextTarget": "",
          "CardParam1": "",
          "CardParam2": "",
          "CardTextIdA": "",
          "CardTextTargetA": "",
          "CardParam1A": "",
          "CardParam2A": "",
          "DamageType": "Laser",
          "Class": "Neutral",
          "State": "InHandPlayable",
          "DrawNumber": 8,
          "MaxHP": 1,
          "BaseMaxHP": 1,
          "BaseAttack": 1,
          "BaseCost": 0
        },
        {
          "Id": "AT_WN_TinyLaser",
          "DisplayName": "Tiny Laser",
          "CardType": "Weapon",
          "Cost": 0,
          "Attack": 1,
          "HP": 1,
          "Rarity": "common",
          "Manufacturer": "",
          "CardDisplayText": "",
          "CardTextTrigger": "",
          "Condition": "",
          "CardTextId": "",
          "CardTextTarget": "",
          "CardParam1": "",
          "CardParam2": "",
          "CardTextIdA": "",
          "CardTextTargetA": "",
          "CardParam1A": "",
          "CardParam2A": "",
          "DamageType": "Laser",
          "Class": "Neutral",
          "State": "InHandPlayable",
          "DrawNumber": 10,
          "MaxHP": 1,
          "BaseMaxHP": 1,
          "BaseAttack": 1,
          "BaseCost": 0
        },
        {
          "Id": "AT_WN_TinyLaser",
          "DisplayName": "Tiny Laser",
          "CardType": "Weapon",
          "Cost": 0,
          "Attack": 1,
          "HP": 1,
          "Rarity": "common",
          "Manufacturer": "",
          "CardDisplayText": "",
          "CardTextTrigger": "",
          "Condition": "",
          "CardTextId": "",
          "CardTextTarget": "",
          "CardParam1": "",
          "CardParam2": "",
          "CardTextIdA": "",
          "CardTextTargetA": "",
          "CardParam1A": "",
          "CardParam2A": "",
          "DamageType": "Laser",
          "Class": "Neutral",
          "State": "InHandPlayable",
          "DrawNumber": 12,
          "MaxHP": 1,
          "BaseMaxHP": 1,
          "BaseAttack": 1,
          "BaseCost": 0
        }
      ],
      "board": [
        {
          "slotId": 0,
          "entity": null,
          "socketBuffs": []
        },
        {
          "slotId": 1,
          "entity": null,
          "socketBuffs": []
        },
        {
          "slotId": 2,
          "entity": null,
          "socketBuffs": []
        },
        {
          "slotId": 3,
          "entity": null,
          "socketBuffs": []
        },
        {
          "slotId": 4,
          "entity": null,
          "socketBuffs": []
        },
        {
          "slotId": 5,
          "entity": null,
          "socketBuffs": []
        },
        {
          "slotId": 6,
          "entity": null,
          "socketBuffs": []
        },
        {
          "slotId": 7,
          "entity": null,
          "socketBuffs": []
        },
        {
          "slotId": 8,
          "entity": null,
          "socketBuffs": []
        }
      ],
      "localPlayerView": {},
      "remotePlayerView": {}
    },
    "events": [],
    "lastDrawNumber": 13
  },
  "challengeDecks": [
    {
      "playerId": "57a46bc94912890496649e51",
      "deckId": "581780ec23791d04d22aeb98",
      "deck": {
        "id": "581780ec23791d04d22aeb98",
        "cards": [
          "AT_WN_AlphaBlaster",
          "AT_WN_AlphaBlaster",
          "AT_WN_AlphaBlaster",
          "AT_WN_AlphaBlaster",
          "AT_WN_TinyLaser",
          "AT_WN_TinyLaser",
          "AT_WN_TinyLaser",
          "AT_WN_TinyLaser",
          "AT_WN_AlphaBlaster",
          "AT_WN_AlphaBlaster",
          "AT_WN_AlphaBlaster",
          "AT_WN_AlphaBlaster",
          "AT_WN_AlphaBlaster",
          "AT_WN_TinyLaser",
          "AT_WN_TinyLaser",
          "AT_WN_TinyLaser",
          "AT_WN_TinyLaser",
          "AT_WN_TinyLaser",
          "AT_WN_AlphaBlaster",
          "AT_WN_AlphaBlaster",
          "AT_WN_AlphaBlaster",
          "AT_WN_AlphaBlaster",
          "AT_WN_AlphaBlaster",
          "AT_WN_TinyLaser",
          "AT_WN_TinyLaser",
          "AT_WN_TinyLaser",
          "AT_WN_TinyLaser",
          "AT_WN_TinyLaser",
          "AT_CS_BigSaboteur",
          "AT_CS_BigSaboteur"
        ],
        "class": "Debug"
      }
    },
    {
      "playerId": "57a46bc54912890496649e01",
      "deckId": "581780f523791d04d22aee18",
      "deck": {
        "id": "581780f523791d04d22aee18",
        "cards": [
          "AT_WN_AlphaBlaster",
          "AT_WN_AlphaBlaster",
          "AT_WN_AlphaBlaster",
          "AT_WN_AlphaBlaster",
          "AT_WN_TinyLaser",
          "AT_WN_TinyLaser",
          "AT_WN_TinyLaser",
          "AT_WN_TinyLaser",
          "AT_WN_AlphaBlaster",
          "AT_WN_AlphaBlaster",
          "AT_WN_AlphaBlaster",
          "AT_WN_AlphaBlaster",
          "AT_WN_AlphaBlaster",
          "AT_WN_TinyLaser",
          "AT_WN_TinyLaser",
          "AT_WN_TinyLaser",
          "AT_WN_TinyLaser",
          "AT_WN_TinyLaser",
          "AT_WN_AlphaBlaster",
          "AT_WN_AlphaBlaster",
          "AT_WN_AlphaBlaster",
          "AT_WN_AlphaBlaster",
          "AT_WN_AlphaBlaster",
          "AT_WN_TinyLaser",
          "AT_WN_TinyLaser",
          "AT_WN_TinyLaser",
          "AT_WN_TinyLaser",
          "AT_WN_TinyLaser",
          "AT_CS_BigSaboteur",
          "AT_CS_BigSaboteur"
        ],
        "class": "Debug"
      }
    }
  ]
}