{
  "challengeId": "58185fc823791d04d27bf27d",
  "replayName": "AT_TW_LaserVengeance_friendly_damage",
  "replayDescription": "Deal damage to a friendly weapon and make sure damage is dealt",
  "firstPlayer": "57a46bc94912890496649e51",
  "mulliganData": {
    "57a46bc94912890496649e51": {
      "cards": [
        "True",
        "True",
        "True"
      ]
    },
    "57a46bc54912890496649e01": {
      "cards": [
        "True",
        "True",
        "True",
        "True"
      ]
    }
  },
  "players": [
    "57a46bc94912890496649e51",
    "57a46bc54912890496649e01"
  ],
  "recordedMoves": [
    {
      "name": "installComponent",
      "fromPlayerId": "57a46bc94912890496649e51",
      "turnNumber": 0,
      "data": {
        "playerId": "57a46bc94912890496649e51",
        "drawNumber": 0,
        "socketId": 4
      }
    },
    {
      "name": "endTurn",
      "fromPlayerId": "57a46bc94912890496649e51",
      "turnNumber": 0,
      "data": {
        "playerId": "57a46bc94912890496649e51",
        "inactivePlayerId": "57a46bc54912890496649e01"
      }
    },
    {
      "name": "installComponent",
      "fromPlayerId": "57a46bc54912890496649e01",
      "turnNumber": 0,
      "data": {
        "playerId": "57a46bc54912890496649e01",
        "drawNumber": 8,
        "socketId": 0
      }
    },
    {
      "name": "endTurn",
      "fromPlayerId": "57a46bc54912890496649e01",
      "turnNumber": 0,
      "data": {
        "playerId": "57a46bc54912890496649e01",
        "inactivePlayerId": "57a46bc94912890496649e51"
      }
    },
    {
      "name": "installComponent",
      "fromPlayerId": "57a46bc94912890496649e51",
      "turnNumber": 1,
      "data": {
        "playerId": "57a46bc94912890496649e51",
        "drawNumber": 2,
        "socketId": 0
      }
    },
    {
      "name": "endTurn",
      "fromPlayerId": "57a46bc94912890496649e51",
      "turnNumber": 1,
      "data": {
        "playerId": "57a46bc94912890496649e51",
        "inactivePlayerId": "57a46bc54912890496649e01"
      }
    },
    {
      "name": "installComponent",
      "fromPlayerId": "57a46bc54912890496649e01",
      "turnNumber": 1,
      "data": {
        "playerId": "57a46bc54912890496649e01",
        "drawNumber": 5,
        "socketId": 3
      }
    },
    {
      "name": "fireComponent",
      "fromPlayerId": "57a46bc54912890496649e01",
      "turnNumber": 1,
      "data": {
        "playerId": "57a46bc54912890496649e01",
        "fromSlotId": 0,
        "inactivePlayerId": "57a46bc94912890496649e51",
        "targetSlotId": 0,
        "xPos": "0",
        "yPos": "0",
        "zPos": "0"
      }
    }
  ],
  "battleState": {
    "version": 1,
    "issueNumber": 16,
    "rngFirstSeed": 1477992392547.0,
    "rngLastSeed": 163504,
    "player1": {
      "testData": "PlayerState",
      "id": "57a46bc94912890496649e51",
      "name": "",
      "hullHP": 20,
      "maxHullHP": 20,
      "turn": 2,
      "power": 0,
      "powerThisTurn": 2,
      "maxPower": 10,
      "deck": {
        "id": "58185fc823791d04d27bf232",
        "cards": [
          "AT_WN_AlphaBlaster",
          "AT_WN_AlphaBlaster",
          "AT_WN_AlphaBlaster",
          "AT_WN_AlphaBlaster",
          "AT_WN_TinyLaser",
          "AT_WN_TinyLaser",
          "AT_WN_TinyLaser",
          "AT_WN_TinyLaser",
          "AT_WN_AlphaBlaster",
          "AT_WN_AlphaBlaster",
          "AT_WN_AlphaBlaster",
          "AT_WN_AlphaBlaster",
          "AT_WN_AlphaBlaster",
          "AT_WN_TinyLaser",
          "AT_WN_TinyLaser",
          "AT_WN_TinyLaser",
          "AT_WN_TinyLaser",
          "AT_WN_TinyLaser",
          "AT_WN_AlphaBlaster",
          "AT_WN_AlphaBlaster",
          "AT_WN_AlphaBlaster",
          "AT_WN_AlphaBlaster",
          "AT_WN_TinyLaser",
          "AT_WN_TinyLaser",
          "AT_WN_TinyLaser"
        ],
        "class": "Debug"
      },
      "hand": [
        {
          "Id": "AT_TW_LaserVengeance",
          "DisplayName": "Laser Vengeance",
          "CardType": "Weapon",
          "Cost": 1,
          "Attack": 1,
          "HP": 1,
          "Rarity": "common",
          "Manufacturer": "",
          "CardDisplayText": "Friendly weapon damaged: Deals 1 damage to a random enemy component",
          "CardTextTrigger": "FriendlyWeaponDamaged",
          "Condition": "",
          "CardTextId": "DealDamage",
          "CardTextTarget": "RandomEnemyComponent",
          "CardParam1": "1",
          "CardParam2": "",
          "CardTextIdA": "",
          "CardTextTargetA": "",
          "CardParam1A": "",
          "CardParam2A": "",
          "DamageType": "",
          "Class": "",
          "State": "InHandNotMyTurn",
          "DrawNumber": 1,
          "MaxHP": 1,
          "BaseMaxHP": 1,
          "BaseAttack": 1,
          "BaseCost": 1
        },
        {
          "Id": "AT_WN_TinyLaser",
          "DisplayName": "Tiny Laser",
          "CardType": "Weapon",
          "Cost": 0,
          "Attack": 1,
          "HP": 1,
          "Rarity": "common",
          "Manufacturer": "",
          "CardDisplayText": "",
          "CardTextTrigger": "",
          "Condition": "",
          "CardTextId": "",
          "CardTextTarget": "",
          "CardParam1": "",
          "CardParam2": "",
          "CardTextIdA": "",
          "CardTextTargetA": "",
          "CardParam1A": "",
          "CardParam2A": "",
          "DamageType": "Laser",
          "Class": "Neutral",
          "State": "InHandNotMyTurn",
          "DrawNumber": 7,
          "MaxHP": 1,
          "BaseMaxHP": 1,
          "BaseAttack": 1,
          "BaseCost": 0
        },
        {
          "Id": "AT_WN_TinyLaser",
          "DisplayName": "Tiny Laser",
          "CardType": "Weapon",
          "Cost": 0,
          "Attack": 1,
          "HP": 1,
          "Rarity": "common",
          "Manufacturer": "",
          "CardDisplayText": "",
          "CardTextTrigger": "",
          "Condition": "",
          "CardTextId": "",
          "CardTextTarget": "",
          "CardParam1": "",
          "CardParam2": "",
          "CardTextIdA": "",
          "CardTextTargetA": "",
          "CardParam1A": "",
          "CardParam2A": "",
          "DamageType": "Laser",
          "Class": "Neutral",
          "State": "InHandNotMyTurn",
          "DrawNumber": 9,
          "MaxHP": 1,
          "BaseMaxHP": 1,
          "BaseAttack": 1,
          "BaseCost": 0
        }
      ],
      "board": [
        {
          "slotId": 0,
          "entity": {
            "Id": "AT_WN_AlphaBlaster",
            "DisplayName": "Alpha Blaster",
            "CardType": "Weapon",
            "Cost": 1,
            "Attack": 1,
            "HP": 2,
            "Rarity": "common",
            "Manufacturer": "",
            "CardDisplayText": "",
            "CardTextTrigger": "",
            "Condition": "",
            "CardTextId": "",
            "CardTextTarget": "",
            "CardParam1": "",
            "CardParam2": "",
            "CardTextIdA": "",
            "CardTextTargetA": "",
            "CardParam1A": "",
            "CardParam2A": "",
            "DamageType": "Laser",
            "Class": "Neutral",
            "State": "Offline",
            "DrawNumber": 2,
            "MaxHP": 3,
            "BaseMaxHP": 3,
            "BaseAttack": 1,
            "BaseCost": 1
          },
          "socketBuffs": []
        },
        {
          "slotId": 1,
          "entity": null,
          "socketBuffs": []
        },
        {
          "slotId": 2,
          "entity": null,
          "socketBuffs": []
        },
        {
          "slotId": 3,
          "entity": null,
          "socketBuffs": []
        },
        {
          "slotId": 4,
          "entity": {
            "Id": "AT_TW_LaserVengeance",
            "DisplayName": "Laser Vengeance",
            "CardType": "Weapon",
            "Cost": 1,
            "Attack": 1,
            "HP": 1,
            "Rarity": "common",
            "Manufacturer": "",
            "CardDisplayText": "Friendly weapon damaged: Deals 1 damage to a random enemy component",
            "CardTextTrigger": "FriendlyWeaponDamaged",
            "Condition": "",
            "CardTextId": "DealDamage",
            "CardTextTarget": "RandomEnemyComponent",
            "CardParam1": "1",
            "CardParam2": "",
            "CardTextIdA": "",
            "CardTextTargetA": "",
            "CardParam1A": "",
            "CardParam2A": "",
            "DamageType": "",
            "Class": "",
            "State": "Offline",
            "DrawNumber": 0,
            "MaxHP": 1,
            "BaseMaxHP": 1,
            "BaseAttack": 1,
            "BaseCost": 1
          },
          "socketBuffs": []
        },
        {
          "slotId": 5,
          "entity": null,
          "socketBuffs": []
        },
        {
          "slotId": 6,
          "entity": null,
          "socketBuffs": []
        },
        {
          "slotId": 7,
          "entity": null,
          "socketBuffs": []
        },
        {
          "slotId": 8,
          "entity": null,
          "socketBuffs": []
        }
      ],
      "localPlayerView": {},
      "remotePlayerView": {}
    },
    "player2": {
      "testData": "PlayerState",
      "id": "57a46bc54912890496649e01",
      "name": "",
      "hullHP": 20,
      "maxHullHP": 20,
      "turn": 2,
      "power": 1,
      "powerThisTurn": 2,
      "maxPower": 10,
      "deck": {
        "id": "58185fbe9650b504d6aa8391",
        "cards": [
          "AT_WN_AlphaBlaster",
          "AT_WN_AlphaBlaster",
          "AT_WN_AlphaBlaster",
          "AT_WN_AlphaBlaster",
          "AT_WN_TinyLaser",
          "AT_WN_TinyLaser",
          "AT_WN_TinyLaser",
          "AT_WN_TinyLaser",
          "AT_WN_AlphaBlaster",
          "AT_WN_AlphaBlaster",
          "AT_WN_AlphaBlaster",
          "AT_WN_AlphaBlaster",
          "AT_WN_AlphaBlaster",
          "AT_WN_TinyLaser",
          "AT_WN_TinyLaser",
          "AT_WN_TinyLaser",
          "AT_WN_TinyLaser",
          "AT_WN_TinyLaser",
          "AT_WN_AlphaBlaster",
          "AT_WN_AlphaBlaster",
          "AT_WN_AlphaBlaster",
          "AT_WN_AlphaBlaster",
          "AT_WN_TinyLaser",
          "AT_WN_TinyLaser"
        ],
        "class": "Debug"
      },
      "hand": [
        {
          "Id": "AT_TW_LaserVengeance",
          "DisplayName": "Laser Vengeance",
          "CardType": "Weapon",
          "Cost": 1,
          "Attack": 1,
          "HP": 1,
          "Rarity": "common",
          "Manufacturer": "",
          "CardDisplayText": "Friendly weapon damaged: Deals 1 damage to a random enemy component",
          "CardTextTrigger": "FriendlyWeaponDamaged",
          "Condition": "",
          "CardTextId": "DealDamage",
          "CardTextTarget": "RandomEnemyComponent",
          "CardParam1": "1",
          "CardParam2": "",
          "CardTextIdA": "",
          "CardTextTargetA": "",
          "CardParam1A": "",
          "CardParam2A": "",
          "DamageType": "",
          "Class": "",
          "State": "InHandPlayable",
          "DrawNumber": 3,
          "MaxHP": 1,
          "BaseMaxHP": 1,
          "BaseAttack": 1,
          "BaseCost": 1
        },
        {
          "Id": "AT_TW_LaserVengeance",
          "DisplayName": "Laser Vengeance",
          "CardType": "Weapon",
          "Cost": 1,
          "Attack": 1,
          "HP": 1,
          "Rarity": "common",
          "Manufacturer": "",
          "CardDisplayText": "Friendly weapon damaged: Deals 1 damage to a random enemy component",
          "CardTextTrigger": "FriendlyWeaponDamaged",
          "Condition": "",
          "CardTextId": "DealDamage",
          "CardTextTarget": "RandomEnemyComponent",
          "CardParam1": "1",
          "CardParam2": "",
          "CardTextIdA": "",
          "CardTextTargetA": "",
          "CardParam1A": "",
          "CardParam2A": "",
          "DamageType": "",
          "Class": "",
          "State": "InHandPlayable",
          "DrawNumber": 4,
          "MaxHP": 1,
          "BaseMaxHP": 1,
          "BaseAttack": 1,
          "BaseCost": 1
        },
        {
          "Id": "AT_WN_TinyLaser",
          "DisplayName": "Tiny Laser",
          "CardType": "Weapon",
          "Cost": 0,
          "Attack": 1,
          "HP": 1,
          "Rarity": "common",
          "Manufacturer": "",
          "CardDisplayText": "",
          "CardTextTrigger": "",
          "Condition": "",
          "CardTextId": "",
          "CardTextTarget": "",
          "CardParam1": "",
          "CardParam2": "",
          "CardTextIdA": "",
          "CardTextTargetA": "",
          "CardParam1A": "",
          "CardParam2A": "",
          "DamageType": "Laser",
          "Class": "Neutral",
          "State": "InHandPlayable",
          "DrawNumber": 6,
          "MaxHP": 1,
          "BaseMaxHP": 1,
          "BaseAttack": 1,
          "BaseCost": 0
        },
        {
          "Id": "AT_WN_TinyLaser",
          "DisplayName": "Tiny Laser",
          "CardType": "Weapon",
          "Cost": 0,
          "Attack": 1,
          "HP": 1,
          "Rarity": "common",
          "Manufacturer": "",
          "CardDisplayText": "",
          "CardTextTrigger": "",
          "Condition": "",
          "CardTextId": "",
          "CardTextTarget": "",
          "CardParam1": "",
          "CardParam2": "",
          "CardTextIdA": "",
          "CardTextTargetA": "",
          "CardParam1A": "",
          "CardParam2A": "",
          "DamageType": "Laser",
          "Class": "Neutral",
          "State": "InHandPlayable",
          "DrawNumber": 10,
          "MaxHP": 1,
          "BaseMaxHP": 1,
          "BaseAttack": 1,
          "BaseCost": 0
        }
      ],
      "board": [
        {
          "slotId": 0,
          "entity": {
            "Id": "AT_WN_TinyLaser",
            "DisplayName": "Tiny Laser",
            "CardType": "Weapon",
            "Cost": 0,
            "Attack": 1,
            "HP": 0,
            "Rarity": "common",
            "Manufacturer": "",
            "CardDisplayText": "",
            "CardTextTrigger": "",
            "Condition": "",
            "CardTextId": "",
            "CardTextTarget": "",
            "CardParam1": "",
            "CardParam2": "",
            "CardTextIdA": "",
            "CardTextTargetA": "",
            "CardParam1A": "",
            "CardParam2A": "",
            "DamageType": "Laser",
            "Class": "Neutral",
            "State": "Destroyed",
            "DrawNumber": 8,
            "MaxHP": 1,
            "BaseMaxHP": 1,
            "BaseAttack": 1,
            "BaseCost": 0
          },
          "socketBuffs": []
        },
        {
          "slotId": 1,
          "entity": null,
          "socketBuffs": []
        },
        {
          "slotId": 2,
          "entity": null,
          "socketBuffs": []
        },
        {
          "slotId": 3,
          "entity": {
            "Id": "AT_WN_AlphaBlaster",
            "DisplayName": "Alpha Blaster",
            "CardType": "Weapon",
            "Cost": 1,
            "Attack": 1,
            "HP": 2,
            "Rarity": "common",
            "Manufacturer": "",
            "CardDisplayText": "",
            "CardTextTrigger": "",
            "Condition": "",
            "CardTextId": "",
            "CardTextTarget": "",
            "CardParam1": "",
            "CardParam2": "",
            "CardTextIdA": "",
            "CardTextTargetA": "",
            "CardParam1A": "",
            "CardParam2A": "",
            "DamageType": "Laser",
            "Class": "Neutral",
            "State": "Installing",
            "DrawNumber": 5,
            "MaxHP": 3,
            "BaseMaxHP": 3,
            "BaseAttack": 1,
            "BaseCost": 1
          },
          "socketBuffs": []
        },
        {
          "slotId": 4,
          "entity": null,
          "socketBuffs": []
        },
        {
          "slotId": 5,
          "entity": null,
          "socketBuffs": []
        },
        {
          "slotId": 6,
          "entity": null,
          "socketBuffs": []
        },
        {
          "slotId": 7,
          "entity": null,
          "socketBuffs": []
        },
        {
          "slotId": 8,
          "entity": null,
          "socketBuffs": []
        }
      ],
      "localPlayerView": {},
      "remotePlayerView": {}
    },
    "events": [],
    "lastDrawNumber": 11
  },
  "challengeDecks": [
    {
      "playerId": "57a46bc94912890496649e51",
      "deckId": "58185fc823791d04d27bf232",
      "deck": {
        "id": "58185fc823791d04d27bf232",
        "cards": [
          "AT_WN_AlphaBlaster",
          "AT_WN_AlphaBlaster",
          "AT_WN_AlphaBlaster",
          "AT_WN_AlphaBlaster",
          "AT_WN_TinyLaser",
          "AT_WN_TinyLaser",
          "AT_WN_TinyLaser",
          "AT_WN_TinyLaser",
          "AT_WN_AlphaBlaster",
          "AT_WN_AlphaBlaster",
          "AT_WN_AlphaBlaster",
          "AT_WN_AlphaBlaster",
          "AT_WN_AlphaBlaster",
          "AT_WN_TinyLaser",
          "AT_WN_TinyLaser",
          "AT_WN_TinyLaser",
          "AT_WN_TinyLaser",
          "AT_WN_TinyLaser",
          "AT_WN_AlphaBlaster",
          "AT_WN_AlphaBlaster",
          "AT_WN_AlphaBlaster",
          "AT_WN_AlphaBlaster",
          "AT_WN_TinyLaser",
          "AT_WN_TinyLaser",
          "AT_WN_TinyLaser",
          "AT_WN_TinyLaser",
          "AT_WN_TinyLaser",
          "AT_WN_AlphaBlaster",
          "AT_TW_LaserVengeance",
          "AT_TW_LaserVengeance"
        ],
        "class": "Debug"
      }
    },
    {
      "playerId": "57a46bc54912890496649e01",
      "deckId": "58185fbe9650b504d6aa8391",
      "deck": {
        "id": "58185fbe9650b504d6aa8391",
        "cards": [
          "AT_WN_AlphaBlaster",
          "AT_WN_AlphaBlaster",
          "AT_WN_AlphaBlaster",
          "AT_WN_AlphaBlaster",
          "AT_WN_TinyLaser",
          "AT_WN_TinyLaser",
          "AT_WN_TinyLaser",
          "AT_WN_TinyLaser",
          "AT_WN_AlphaBlaster",
          "AT_WN_AlphaBlaster",
          "AT_WN_AlphaBlaster",
          "AT_WN_AlphaBlaster",
          "AT_WN_AlphaBlaster",
          "AT_WN_TinyLaser",
          "AT_WN_TinyLaser",
          "AT_WN_TinyLaser",
          "AT_WN_TinyLaser",
          "AT_WN_TinyLaser",
          "AT_WN_AlphaBlaster",
          "AT_WN_AlphaBlaster",
          "AT_WN_AlphaBlaster",
          "AT_WN_AlphaBlaster",
          "AT_WN_TinyLaser",
          "AT_WN_TinyLaser",
          "AT_WN_TinyLaser",
          "AT_WN_TinyLaser",
          "AT_WN_TinyLaser",
          "AT_WN_AlphaBlaster",
          "AT_TW_LaserVengeance",
          "AT_TW_LaserVengeance"
        ],
        "class": "Debug"
      }
    }
  ]
}