{
  "challengeId": "58178a3a9650b504d660246c",
  "replayName": "AT_TW_ShowOff_friendly_destroyed",
  "replayDescription": "Destroy and jettison a few weapons and make sure buff remains",
  "firstPlayer": "57a46bc54912890496649e01",
  "mulliganData": {
    "57a46bc54912890496649e01": {
      "cards": [
        "True",
        "True",
        "True"
      ]
    },
    "57a46bc94912890496649e51": {
      "cards": [
        "True",
        "True",
        "True",
        "True"
      ]
    }
  },
  "players": [
    "57a46bc54912890496649e01",
    "57a46bc94912890496649e51"
  ],
  "recordedMoves": [
    {
      "name": "installComponent",
      "fromPlayerId": "57a46bc54912890496649e01",
      "turnNumber": 0,
      "data": {
        "playerId": "57a46bc54912890496649e01",
        "drawNumber": 0,
        "socketId": 4
      }
    },
    {
      "name": "installComponent",
      "fromPlayerId": "57a46bc54912890496649e01",
      "turnNumber": 0,
      "data": {
        "playerId": "57a46bc54912890496649e01",
        "drawNumber": 7,
        "socketId": 3
      }
    },
    {
      "name": "endTurn",
      "fromPlayerId": "57a46bc54912890496649e01",
      "turnNumber": 0,
      "data": {
        "playerId": "57a46bc54912890496649e01",
        "inactivePlayerId": "57a46bc94912890496649e51"
      }
    },
    {
      "name": "installComponent",
      "fromPlayerId": "57a46bc94912890496649e51",
      "turnNumber": 0,
      "data": {
        "playerId": "57a46bc94912890496649e51",
        "drawNumber": 8,
        "socketId": 6
      }
    },
    {
      "name": "endTurn",
      "fromPlayerId": "57a46bc94912890496649e51",
      "turnNumber": 0,
      "data": {
        "playerId": "57a46bc94912890496649e51",
        "inactivePlayerId": "57a46bc54912890496649e01"
      }
    },
    {
      "name": "endTurn",
      "fromPlayerId": "57a46bc54912890496649e01",
      "turnNumber": 1,
      "data": {
        "playerId": "57a46bc54912890496649e01",
        "inactivePlayerId": "57a46bc94912890496649e51"
      }
    },
    {
      "name": "fireComponent",
      "fromPlayerId": "57a46bc94912890496649e51",
      "turnNumber": 1,
      "data": {
        "playerId": "57a46bc94912890496649e51",
        "fromSlotId": 6,
        "inactivePlayerId": "57a46bc54912890496649e01",
        "targetSlotId": 3,
        "xPos": "0",
        "yPos": "0",
        "zPos": "0"
      }
    },
    {
      "name": "endTurn",
      "fromPlayerId": "57a46bc94912890496649e51",
      "turnNumber": 1,
      "data": {
        "playerId": "57a46bc94912890496649e51",
        "inactivePlayerId": "57a46bc54912890496649e01"
      }
    },
    {
      "name": "jettison",
      "fromPlayerId": "57a46bc54912890496649e01",
      "turnNumber": 2,
      "data": {
        "playerId": "57a46bc54912890496649e01",
        "slotId": 3
      }
    },
    {
      "name": "endTurn",
      "fromPlayerId": "57a46bc54912890496649e01",
      "turnNumber": 2,
      "data": {
        "playerId": "57a46bc54912890496649e01",
        "inactivePlayerId": "57a46bc94912890496649e51"
      }
    },
    {
      "name": "endTurn",
      "fromPlayerId": "57a46bc94912890496649e51",
      "turnNumber": 2,
      "data": {
        "playerId": "57a46bc94912890496649e51",
        "inactivePlayerId": "57a46bc54912890496649e01"
      }
    }
  ],
  "battleState": {
    "version": 1,
    "issueNumber": 25,
    "rngFirstSeed": 1477937722420.0,
    "rngLastSeed": 0,
    "player1": {
      "testData": "PlayerState",
      "id": "57a46bc54912890496649e01",
      "name": "",
      "hullHP": 20,
      "maxHullHP": 20,
      "turn": 4,
      "power": 4,
      "powerThisTurn": 4,
      "maxPower": 10,
      "deck": {
        "id": "58178a3823791d04d22f9b02",
        "cards": [
          "AT_WN_AlphaBlaster",
          "AT_WN_AlphaBlaster",
          "AT_WN_AlphaBlaster",
          "AT_WN_AlphaBlaster",
          "AT_WN_TinyLaser",
          "AT_WN_TinyLaser",
          "AT_WN_TinyLaser",
          "AT_WN_TinyLaser",
          "AT_WN_AlphaBlaster",
          "AT_WN_AlphaBlaster",
          "AT_WN_AlphaBlaster",
          "AT_WN_AlphaBlaster",
          "AT_WN_AlphaBlaster",
          "AT_WN_TinyLaser",
          "AT_WN_TinyLaser",
          "AT_WN_TinyLaser",
          "AT_WN_TinyLaser",
          "AT_WN_TinyLaser",
          "AT_WN_AlphaBlaster",
          "AT_WN_AlphaBlaster",
          "AT_WN_AlphaBlaster",
          "AT_WN_AlphaBlaster",
          "AT_WN_AlphaBlaster"
        ],
        "class": "Debug"
      },
      "hand": [
        {
          "Id": "AT_TW_ShowOff",
          "DisplayName": "Show Off",
          "CardType": "Weapon",
          "Cost": 1,
          "Attack": 1,
          "HP": 1,
          "Rarity": "common",
          "Manufacturer": "",
          "CardDisplayText": "Gains +1 attack when a friendly weapon is installed",
          "CardTextTrigger": "FriendlyWeaponInstalled",
          "Condition": "",
          "CardTextId": "BuffAttack",
          "CardTextTarget": "Self",
          "CardParam1": "1",
          "CardParam2": "",
          "CardTextIdA": "",
          "CardTextTargetA": "",
          "CardParam1A": "",
          "CardParam2A": "",
          "DamageType": "",
          "Class": "Neutral",
          "State": "InHandPlayable",
          "DrawNumber": 1,
          "MaxHP": 1,
          "BaseMaxHP": 1,
          "BaseAttack": 1,
          "BaseCost": 1
        },
        {
          "Id": "AT_UO_JettisonDraw",
          "DisplayName": "Jettison Draw",
          "CardType": "Utility",
          "Cost": 5,
          "Attack": 0,
          "HP": 2,
          "Rarity": "common",
          "Manufacturer": "",
          "CardDisplayText": "Draw a card for every friendly component jettisoned",
          "CardTextTrigger": "FriendlyComponentJettisoned",
          "Condition": "",
          "CardTextId": "CardDraw",
          "CardTextTarget": "",
          "CardParam1": "1",
          "CardParam2": "",
          "DamageType": "",
          "Class": "Smuggler",
          "State": "InHandNotEnoughPower",
          "DrawNumber": 2,
          "MaxHP": 2,
          "BaseMaxHP": 2,
          "BaseAttack": 0,
          "BaseCost": 5
        },
        {
          "Id": "AT_WN_TinyLaser",
          "DisplayName": "Tiny Laser",
          "CardType": "Weapon",
          "Cost": 0,
          "Attack": 1,
          "HP": 1,
          "Rarity": "common",
          "Manufacturer": "",
          "CardDisplayText": "",
          "CardTextTrigger": "",
          "Condition": "",
          "CardTextId": "",
          "CardTextTarget": "",
          "CardParam1": "",
          "CardParam2": "",
          "CardTextIdA": "",
          "CardTextTargetA": "",
          "CardParam1A": "",
          "CardParam2A": "",
          "DamageType": "Laser",
          "Class": "Neutral",
          "State": "InHandPlayable",
          "DrawNumber": 9,
          "MaxHP": 1,
          "BaseMaxHP": 1,
          "BaseAttack": 1,
          "BaseCost": 0
        },
        {
          "Id": "AT_WN_TinyLaser",
          "DisplayName": "Tiny Laser",
          "CardType": "Weapon",
          "Cost": 0,
          "Attack": 1,
          "HP": 1,
          "Rarity": "common",
          "Manufacturer": "",
          "CardDisplayText": "",
          "CardTextTrigger": "",
          "Condition": "",
          "CardTextId": "",
          "CardTextTarget": "",
          "CardParam1": "",
          "CardParam2": "",
          "CardTextIdA": "",
          "CardTextTargetA": "",
          "CardParam1A": "",
          "CardParam2A": "",
          "DamageType": "Laser",
          "Class": "Neutral",
          "State": "InHandPlayable",
          "DrawNumber": 11,
          "MaxHP": 1,
          "BaseMaxHP": 1,
          "BaseAttack": 1,
          "BaseCost": 0
        },
        {
          "Id": "AT_WN_TinyLaser",
          "DisplayName": "Tiny Laser",
          "CardType": "Weapon",
          "Cost": 0,
          "Attack": 1,
          "HP": 1,
          "Rarity": "common",
          "Manufacturer": "",
          "CardDisplayText": "",
          "CardTextTrigger": "",
          "Condition": "",
          "CardTextId": "",
          "CardTextTarget": "",
          "CardParam1": "",
          "CardParam2": "",
          "CardTextIdA": "",
          "CardTextTargetA": "",
          "CardParam1A": "",
          "CardParam2A": "",
          "DamageType": "Laser",
          "Class": "Neutral",
          "State": "InHandPlayable",
          "DrawNumber": 13,
          "MaxHP": 1,
          "BaseMaxHP": 1,
          "BaseAttack": 1,
          "BaseCost": 0
        }
      ],
      "board": [
        {
          "slotId": 0,
          "entity": null,
          "socketBuffs": []
        },
        {
          "slotId": 1,
          "entity": null,
          "socketBuffs": []
        },
        {
          "slotId": 2,
          "entity": null,
          "socketBuffs": []
        },
        {
          "slotId": 3,
          "entity": null,
          "socketBuffs": []
        },
        {
          "slotId": 4,
          "entity": {
            "Id": "AT_TW_ShowOff",
            "DisplayName": "Show Off",
            "CardType": "Weapon",
            "Cost": 1,
            "Attack": 2,
            "HP": 1,
            "Rarity": "common",
            "Manufacturer": "",
            "CardDisplayText": "Gains +1 attack when a friendly weapon is installed",
            "CardTextTrigger": "FriendlyWeaponInstalled",
            "Condition": "",
            "CardTextId": "BuffAttack",
            "CardTextTarget": "Self",
            "CardParam1": "1",
            "CardParam2": "",
            "CardTextIdA": "",
            "CardTextTargetA": "",
            "CardParam1A": "",
            "CardParam2A": "",
            "DamageType": "",
            "Class": "Neutral",
            "State": "Online",
            "DrawNumber": 0,
            "MaxHP": 1,
            "BaseMaxHP": 1,
            "BaseAttack": 1,
            "BaseCost": 1,
            "permBuffs": [
              {
                "type": "attack",
                "amount": 1
              }
            ]
          },
          "socketBuffs": []
        },
        {
          "slotId": 5,
          "entity": null,
          "socketBuffs": []
        },
        {
          "slotId": 6,
          "entity": null,
          "socketBuffs": []
        },
        {
          "slotId": 7,
          "entity": null,
          "socketBuffs": []
        },
        {
          "slotId": 8,
          "entity": null,
          "socketBuffs": []
        }
      ],
      "localPlayerView": {},
      "remotePlayerView": {}
    },
    "player2": {
      "testData": "PlayerState",
      "id": "57a46bc94912890496649e51",
      "name": "",
      "hullHP": 20,
      "maxHullHP": 20,
      "turn": 3,
      "power": 0,
      "powerThisTurn": 3,
      "maxPower": 10,
      "deck": {
        "id": "58178a3923791d04d22f9b5d",
        "cards": [
          "AT_WN_AlphaBlaster",
          "AT_WN_AlphaBlaster",
          "AT_WN_AlphaBlaster",
          "AT_WN_AlphaBlaster",
          "AT_WN_TinyLaser",
          "AT_WN_TinyLaser",
          "AT_WN_TinyLaser",
          "AT_WN_TinyLaser",
          "AT_WN_AlphaBlaster",
          "AT_WN_AlphaBlaster",
          "AT_WN_AlphaBlaster",
          "AT_WN_AlphaBlaster",
          "AT_WN_AlphaBlaster",
          "AT_WN_TinyLaser",
          "AT_WN_TinyLaser",
          "AT_WN_TinyLaser",
          "AT_WN_TinyLaser",
          "AT_WN_TinyLaser",
          "AT_WN_AlphaBlaster",
          "AT_WN_AlphaBlaster",
          "AT_WN_AlphaBlaster",
          "AT_WN_AlphaBlaster",
          "AT_WN_AlphaBlaster"
        ],
        "class": "Debug"
      },
      "hand": [
        {
          "Id": "AT_TW_ShowOff",
          "DisplayName": "Show Off",
          "CardType": "Weapon",
          "Cost": 1,
          "Attack": 1,
          "HP": 1,
          "Rarity": "common",
          "Manufacturer": "",
          "CardDisplayText": "Gains +1 attack when a friendly weapon is installed",
          "CardTextTrigger": "FriendlyWeaponInstalled",
          "Condition": "",
          "CardTextId": "BuffAttack",
          "CardTextTarget": "Self",
          "CardParam1": "1",
          "CardParam2": "",
          "CardTextIdA": "",
          "CardTextTargetA": "",
          "CardParam1A": "",
          "CardParam2A": "",
          "DamageType": "",
          "Class": "Neutral",
          "State": "InHandNotMyTurn",
          "DrawNumber": 3,
          "MaxHP": 1,
          "BaseMaxHP": 1,
          "BaseAttack": 1,
          "BaseCost": 1
        },
        {
          "Id": "AT_TW_ShowOff",
          "DisplayName": "Show Off",
          "CardType": "Weapon",
          "Cost": 1,
          "Attack": 1,
          "HP": 1,
          "Rarity": "common",
          "Manufacturer": "",
          "CardDisplayText": "Gains +1 attack when a friendly weapon is installed",
          "CardTextTrigger": "FriendlyWeaponInstalled",
          "Condition": "",
          "CardTextId": "BuffAttack",
          "CardTextTarget": "Self",
          "CardParam1": "1",
          "CardParam2": "",
          "CardTextIdA": "",
          "CardTextTargetA": "",
          "CardParam1A": "",
          "CardParam2A": "",
          "DamageType": "",
          "Class": "Neutral",
          "State": "InHandNotMyTurn",
          "DrawNumber": 4,
          "MaxHP": 1,
          "BaseMaxHP": 1,
          "BaseAttack": 1,
          "BaseCost": 1
        },
        {
          "Id": "AT_UO_JettisonDraw",
          "DisplayName": "Jettison Draw",
          "CardType": "Utility",
          "Cost": 5,
          "Attack": 0,
          "HP": 2,
          "Rarity": "common",
          "Manufacturer": "",
          "CardDisplayText": "Draw a card for every friendly component jettisoned",
          "CardTextTrigger": "FriendlyComponentJettisoned",
          "Condition": "",
          "CardTextId": "CardDraw",
          "CardTextTarget": "",
          "CardParam1": "1",
          "CardParam2": "",
          "DamageType": "",
          "Class": "Smuggler",
          "State": "InHandNotMyTurn",
          "DrawNumber": 5,
          "MaxHP": 2,
          "BaseMaxHP": 2,
          "BaseAttack": 0,
          "BaseCost": 5
        },
        {
          "Id": "AT_WN_TinyLaser",
          "DisplayName": "Tiny Laser",
          "CardType": "Weapon",
          "Cost": 0,
          "Attack": 1,
          "HP": 1,
          "Rarity": "common",
          "Manufacturer": "",
          "CardDisplayText": "",
          "CardTextTrigger": "",
          "Condition": "",
          "CardTextId": "",
          "CardTextTarget": "",
          "CardParam1": "",
          "CardParam2": "",
          "CardTextIdA": "",
          "CardTextTargetA": "",
          "CardParam1A": "",
          "CardParam2A": "",
          "DamageType": "Laser",
          "Class": "Neutral",
          "State": "InHandNotMyTurn",
          "DrawNumber": 6,
          "MaxHP": 1,
          "BaseMaxHP": 1,
          "BaseAttack": 1,
          "BaseCost": 0
        },
        {
          "Id": "AT_WN_TinyLaser",
          "DisplayName": "Tiny Laser",
          "CardType": "Weapon",
          "Cost": 0,
          "Attack": 1,
          "HP": 1,
          "Rarity": "common",
          "Manufacturer": "",
          "CardDisplayText": "",
          "CardTextTrigger": "",
          "Condition": "",
          "CardTextId": "",
          "CardTextTarget": "",
          "CardParam1": "",
          "CardParam2": "",
          "CardTextIdA": "",
          "CardTextTargetA": "",
          "CardParam1A": "",
          "CardParam2A": "",
          "DamageType": "Laser",
          "Class": "Neutral",
          "State": "InHandNotMyTurn",
          "DrawNumber": 10,
          "MaxHP": 1,
          "BaseMaxHP": 1,
          "BaseAttack": 1,
          "BaseCost": 0
        },
        {
          "Id": "AT_WN_TinyLaser",
          "DisplayName": "Tiny Laser",
          "CardType": "Weapon",
          "Cost": 0,
          "Attack": 1,
          "HP": 1,
          "Rarity": "common",
          "Manufacturer": "",
          "CardDisplayText": "",
          "CardTextTrigger": "",
          "Condition": "",
          "CardTextId": "",
          "CardTextTarget": "",
          "CardParam1": "",
          "CardParam2": "",
          "CardTextIdA": "",
          "CardTextTargetA": "",
          "CardParam1A": "",
          "CardParam2A": "",
          "DamageType": "Laser",
          "Class": "Neutral",
          "State": "InHandNotMyTurn",
          "DrawNumber": 12,
          "MaxHP": 1,
          "BaseMaxHP": 1,
          "BaseAttack": 1,
          "BaseCost": 0
        }
      ],
      "board": [
        {
          "slotId": 0,
          "entity": null,
          "socketBuffs": []
        },
        {
          "slotId": 1,
          "entity": null,
          "socketBuffs": []
        },
        {
          "slotId": 2,
          "entity": null,
          "socketBuffs": []
        },
        {
          "slotId": 3,
          "entity": null,
          "socketBuffs": []
        },
        {
          "slotId": 4,
          "entity": null,
          "socketBuffs": []
        },
        {
          "slotId": 5,
          "entity": null,
          "socketBuffs": []
        },
        {
          "slotId": 6,
          "entity": {
            "Id": "AT_WN_TinyLaser",
            "DisplayName": "Tiny Laser",
            "CardType": "Weapon",
            "Cost": 0,
            "Attack": 1,
            "HP": 1,
            "Rarity": "common",
            "Manufacturer": "",
            "CardDisplayText": "",
            "CardTextTrigger": "",
            "Condition": "",
            "CardTextId": "",
            "CardTextTarget": "",
            "CardParam1": "",
            "CardParam2": "",
            "CardTextIdA": "",
            "CardTextTargetA": "",
            "CardParam1A": "",
            "CardParam2A": "",
            "DamageType": "Laser",
            "Class": "Neutral",
            "State": "Offline",
            "DrawNumber": 8,
            "MaxHP": 1,
            "BaseMaxHP": 1,
            "BaseAttack": 1,
            "BaseCost": 0
          },
          "socketBuffs": []
        },
        {
          "slotId": 7,
          "entity": null,
          "socketBuffs": []
        },
        {
          "slotId": 8,
          "entity": null,
          "socketBuffs": []
        }
      ],
      "localPlayerView": {},
      "remotePlayerView": {}
    },
    "events": [],
    "lastDrawNumber": 14
  },
  "challengeDecks": [
    {
      "playerId": "57a46bc54912890496649e01",
      "deckId": "58178a3823791d04d22f9b02",
      "deck": {
        "id": "58178a3823791d04d22f9b02",
        "cards": [
          "AT_WN_AlphaBlaster",
          "AT_WN_AlphaBlaster",
          "AT_WN_AlphaBlaster",
          "AT_WN_AlphaBlaster",
          "AT_WN_TinyLaser",
          "AT_WN_TinyLaser",
          "AT_WN_TinyLaser",
          "AT_WN_TinyLaser",
          "AT_WN_AlphaBlaster",
          "AT_WN_AlphaBlaster",
          "AT_WN_AlphaBlaster",
          "AT_WN_AlphaBlaster",
          "AT_WN_AlphaBlaster",
          "AT_WN_TinyLaser",
          "AT_WN_TinyLaser",
          "AT_WN_TinyLaser",
          "AT_WN_TinyLaser",
          "AT_WN_TinyLaser",
          "AT_WN_AlphaBlaster",
          "AT_WN_AlphaBlaster",
          "AT_WN_AlphaBlaster",
          "AT_WN_AlphaBlaster",
          "AT_WN_AlphaBlaster",
          "AT_WN_TinyLaser",
          "AT_WN_TinyLaser",
          "AT_WN_TinyLaser",
          "AT_WN_TinyLaser",
          "AT_UO_JettisonDraw",
          "AT_TW_ShowOff",
          "AT_TW_ShowOff"
        ],
        "class": "Debug"
      }
    },
    {
      "playerId": "57a46bc94912890496649e51",
      "deckId": "58178a3923791d04d22f9b5d",
      "deck": {
        "id": "58178a3923791d04d22f9b5d",
        "cards": [
          "AT_WN_AlphaBlaster",
          "AT_WN_AlphaBlaster",
          "AT_WN_AlphaBlaster",
          "AT_WN_AlphaBlaster",
          "AT_WN_TinyLaser",
          "AT_WN_TinyLaser",
          "AT_WN_TinyLaser",
          "AT_WN_TinyLaser",
          "AT_WN_AlphaBlaster",
          "AT_WN_AlphaBlaster",
          "AT_WN_AlphaBlaster",
          "AT_WN_AlphaBlaster",
          "AT_WN_AlphaBlaster",
          "AT_WN_TinyLaser",
          "AT_WN_TinyLaser",
          "AT_WN_TinyLaser",
          "AT_WN_TinyLaser",
          "AT_WN_TinyLaser",
          "AT_WN_AlphaBlaster",
          "AT_WN_AlphaBlaster",
          "AT_WN_AlphaBlaster",
          "AT_WN_AlphaBlaster",
          "AT_WN_AlphaBlaster",
          "AT_WN_TinyLaser",
          "AT_WN_TinyLaser",
          "AT_WN_TinyLaser",
          "AT_WN_TinyLaser",
          "AT_UO_JettisonDraw",
          "AT_TW_ShowOff",
          "AT_TW_ShowOff"
        ],
        "class": "Debug"
      }
    }
  ]
}