{
  "challengeId": "582b10c69a8e0504b92ef30b",
  "replayName": "AT_US_SalvageJockey_enemy",
  "replayDescription": "Jettison a few enemy components and make sure friendly hull is repaired",
  "firstPlayer": "5787a3f42c3d610491d48f4c",
  "mulliganData": {
    "5787a3f42c3d610491d48f4c": {
      "cards": [
        "True",
        "True",
        "True"
      ]
    },
    "5788ac782c3d6104911e2f01": {
      "cards": [
        "True",
        "True",
        "True",
        "True"
      ]
    }
  },
  "players": [
    "5787a3f42c3d610491d48f4c",
    "5788ac782c3d6104911e2f01"
  ],
  "recordedMoves": [
    {
      "name": "endTurn",
      "fromPlayerId": "5787a3f42c3d610491d48f4c",
      "turnNumber": 0,
      "data": {
        "playerId": "5787a3f42c3d610491d48f4c",
        "inactivePlayerId": "5788ac782c3d6104911e2f01"
      }
    },
    {
      "name": "installComponent",
      "fromPlayerId": "5788ac782c3d6104911e2f01",
      "turnNumber": 0,
      "data": {
        "playerId": "5788ac782c3d6104911e2f01",
        "drawNumber": 8,
        "socketId": 0
      }
    },
    {
      "name": "installComponent",
      "fromPlayerId": "5788ac782c3d6104911e2f01",
      "turnNumber": 0,
      "data": {
        "playerId": "5788ac782c3d6104911e2f01",
        "drawNumber": 6,
        "socketId": 4
      }
    },
    {
      "name": "endTurn",
      "fromPlayerId": "5788ac782c3d6104911e2f01",
      "turnNumber": 0,
      "data": {
        "playerId": "5788ac782c3d6104911e2f01",
        "inactivePlayerId": "5787a3f42c3d610491d48f4c"
      }
    },
    {
      "name": "installComponent",
      "fromPlayerId": "5787a3f42c3d610491d48f4c",
      "turnNumber": 1,
      "data": {
        "playerId": "5787a3f42c3d610491d48f4c",
        "drawNumber": 1,
        "socketId": 4
      }
    },
    {
      "name": "endTurn",
      "fromPlayerId": "5787a3f42c3d610491d48f4c",
      "turnNumber": 1,
      "data": {
        "playerId": "5787a3f42c3d610491d48f4c",
        "inactivePlayerId": "5788ac782c3d6104911e2f01"
      }
    },
    {
      "name": "installComponent",
      "fromPlayerId": "5788ac782c3d6104911e2f01",
      "turnNumber": 1,
      "data": {
        "playerId": "5788ac782c3d6104911e2f01",
        "drawNumber": 10,
        "socketId": 6
      }
    },
    {
      "name": "installComponent",
      "fromPlayerId": "5788ac782c3d6104911e2f01",
      "turnNumber": 1,
      "data": {
        "playerId": "5788ac782c3d6104911e2f01",
        "drawNumber": 5,
        "socketId": 2
      }
    },
    {
      "name": "fireAtHull",
      "fromPlayerId": "5788ac782c3d6104911e2f01",
      "turnNumber": 1,
      "data": {
        "playerId": "5788ac782c3d6104911e2f01",
        "fromSlotId": 0,
        "inactivePlayerId": "5787a3f42c3d610491d48f4c",
        "xPos": "-1.806901",
        "yPos": "-0.1524429",
        "zPos": "6.240841"
      }
    },
    {
      "name": "fireAtHull",
      "fromPlayerId": "5788ac782c3d6104911e2f01",
      "turnNumber": 1,
      "data": {
        "playerId": "5788ac782c3d6104911e2f01",
        "fromSlotId": 4,
        "inactivePlayerId": "5787a3f42c3d610491d48f4c",
        "xPos": "-1.624717",
        "yPos": "-0.6072006",
        "zPos": "-7.360868"
      }
    },
    {
      "name": "endTurn",
      "fromPlayerId": "5788ac782c3d6104911e2f01",
      "turnNumber": 1,
      "data": {
        "playerId": "5788ac782c3d6104911e2f01",
        "inactivePlayerId": "5787a3f42c3d610491d48f4c"
      }
    },
    {
      "name": "endTurn",
      "fromPlayerId": "5787a3f42c3d610491d48f4c",
      "turnNumber": 2,
      "data": {
        "playerId": "5787a3f42c3d610491d48f4c",
        "inactivePlayerId": "5788ac782c3d6104911e2f01"
      }
    },
    {
      "name": "fireAtHull",
      "fromPlayerId": "5788ac782c3d6104911e2f01",
      "turnNumber": 2,
      "data": {
        "playerId": "5788ac782c3d6104911e2f01",
        "fromSlotId": 0,
        "inactivePlayerId": "5787a3f42c3d610491d48f4c",
        "xPos": "-2.566314",
        "yPos": "-0.8823575",
        "zPos": "-7.840395"
      }
    },
    {
      "name": "fireAtHull",
      "fromPlayerId": "5788ac782c3d6104911e2f01",
      "turnNumber": 2,
      "data": {
        "playerId": "5788ac782c3d6104911e2f01",
        "fromSlotId": 6,
        "inactivePlayerId": "5787a3f42c3d610491d48f4c",
        "xPos": "-1.609229",
        "yPos": "-0.8162324",
        "zPos": "-7.987085"
      }
    },
    {
      "name": "fireAtHull",
      "fromPlayerId": "5788ac782c3d6104911e2f01",
      "turnNumber": 2,
      "data": {
        "playerId": "5788ac782c3d6104911e2f01",
        "fromSlotId": 4,
        "inactivePlayerId": "5787a3f42c3d610491d48f4c",
        "xPos": "0.307308",
        "yPos": "-2.172881",
        "zPos": "6.705101"
      }
    },
    {
      "name": "fireAtHull",
      "fromPlayerId": "5788ac782c3d6104911e2f01",
      "turnNumber": 2,
      "data": {
        "playerId": "5788ac782c3d6104911e2f01",
        "fromSlotId": 2,
        "inactivePlayerId": "5787a3f42c3d610491d48f4c",
        "xPos": "-0.2544564",
        "yPos": "-0.4278668",
        "zPos": "-7.631922"
      }
    },
    {
      "name": "endTurn",
      "fromPlayerId": "5788ac782c3d6104911e2f01",
      "turnNumber": 2,
      "data": {
        "playerId": "5788ac782c3d6104911e2f01",
        "inactivePlayerId": "5787a3f42c3d610491d48f4c"
      }
    },
    {
      "name": "endTurn",
      "fromPlayerId": "5787a3f42c3d610491d48f4c",
      "turnNumber": 3,
      "data": {
        "playerId": "5787a3f42c3d610491d48f4c",
        "inactivePlayerId": "5788ac782c3d6104911e2f01"
      }
    },
    {
      "name": "jettison",
      "fromPlayerId": "5788ac782c3d6104911e2f01",
      "turnNumber": 3,
      "data": {
        "playerId": "5788ac782c3d6104911e2f01",
        "slotId": 0
      }
    },
    {
      "name": "jettison",
      "fromPlayerId": "5788ac782c3d6104911e2f01",
      "turnNumber": 3,
      "data": {
        "playerId": "5788ac782c3d6104911e2f01",
        "slotId": 2
      }
    },
    {
      "name": "jettison",
      "fromPlayerId": "5788ac782c3d6104911e2f01",
      "turnNumber": 3,
      "data": {
        "playerId": "5788ac782c3d6104911e2f01",
        "slotId": 4
      }
    },
    {
      "name": "jettison",
      "fromPlayerId": "5788ac782c3d6104911e2f01",
      "turnNumber": 3,
      "data": {
        "playerId": "5788ac782c3d6104911e2f01",
        "slotId": 6
      }
    },
    {
      "name": "endTurn",
      "fromPlayerId": "5788ac782c3d6104911e2f01",
      "turnNumber": 3,
      "data": {
        "playerId": "5788ac782c3d6104911e2f01",
        "inactivePlayerId": "5787a3f42c3d610491d48f4c"
      }
    }
  ],
  "battleState": {
    "version": 1,
    "issueNumber": 41,
    "rngFirstSeed": 1479217350226.0,
    "rngLastSeed": 0,
    "player1": {
      "testData": "PlayerState",
      "id": "5787a3f42c3d610491d48f4c",
      "name": "",
      "hullHP": 18,
      "maxHullHP": 20,
      "turn": 5,
      "power": 5,
      "powerThisTurn": 5,
      "maxPower": 10,
      "deck": {
        "id": "582b10c59a8e0504b92ef27a",
        "cards": [
          "AT_WN_AlphaBlaster",
          "AT_WN_AlphaBlaster",
          "AT_WN_AlphaBlaster",
          "AT_WN_AlphaBlaster",
          "AT_WN_TinyLaser",
          "AT_WN_TinyLaser",
          "AT_WN_TinyLaser",
          "AT_WN_TinyLaser",
          "AT_WN_AlphaBlaster",
          "AT_WN_AlphaBlaster",
          "AT_WN_AlphaBlaster",
          "AT_WN_AlphaBlaster",
          "AT_WN_AlphaBlaster",
          "AT_WN_TinyLaser",
          "AT_WN_TinyLaser",
          "AT_WN_TinyLaser",
          "AT_WN_TinyLaser",
          "AT_WN_TinyLaser",
          "AT_WN_AlphaBlaster",
          "AT_WN_AlphaBlaster",
          "AT_WN_AlphaBlaster",
          "AT_WN_TinyLaser"
        ],
        "class": "Debug"
      },
      "hand": [
        {
          "Id": "AT_US_SalvageJockey",
          "DisplayName": "Salvage Jockey",
          "CardType": "Utility",
          "Cost": 2,
          "Attack": 0,
          "HP": 6,
          "Rarity": "",
          "Manufacturer": "",
          "CardDisplayText": "While installed: repair the hull +1 for every component the opponent jettisons",
          "CardTextTrigger": "EnemyComponentJettisoned",
          "Condition": "",
          "CardTextId": "Repair",
          "CardTextTarget": "FriendlyShip",
          "CardParam1": "1",
          "CardParam2": "",
          "DamageType": "",
          "Class": "Smuggler",
          "State": "InHandPlayable",
          "DrawNumber": 0,
          "MaxHP": 6,
          "BaseMaxHP": 6,
          "BaseAttack": 0,
          "BaseCost": 2
        },
        {
          "Id": "AT_WN_AlphaBlaster",
          "DisplayName": "Alpha Blaster",
          "CardType": "Weapon",
          "Cost": 1,
          "Attack": 1,
          "HP": 3,
          "Rarity": "common",
          "Manufacturer": "",
          "CardDisplayText": "",
          "CardTextTrigger": "",
          "Condition": "",
          "CardTextId": "",
          "CardTextTarget": "",
          "CardParam1": "",
          "CardParam2": "",
          "CardTextIdA": "",
          "CardTextTargetA": "",
          "CardParam1A": "",
          "CardParam2A": "",
          "DamageType": "Laser",
          "Class": "Neutral",
          "State": "InHandPlayable",
          "DrawNumber": 2,
          "MaxHP": 3,
          "BaseMaxHP": 3,
          "BaseAttack": 1,
          "BaseCost": 1
        },
        {
          "Id": "AT_WN_TinyLaser",
          "DisplayName": "Tiny Laser",
          "CardType": "Weapon",
          "Cost": 0,
          "Attack": 1,
          "HP": 1,
          "Rarity": "common",
          "Manufacturer": "",
          "CardDisplayText": "",
          "CardTextTrigger": "",
          "Condition": "",
          "CardTextId": "",
          "CardTextTarget": "",
          "CardParam1": "",
          "CardParam2": "",
          "CardTextIdA": "",
          "CardTextTargetA": "",
          "CardParam1A": "",
          "CardParam2A": "",
          "DamageType": "Laser",
          "Class": "Neutral",
          "State": "InHandPlayable",
          "DrawNumber": 7,
          "MaxHP": 1,
          "BaseMaxHP": 1,
          "BaseAttack": 1,
          "BaseCost": 0
        },
        {
          "Id": "AT_WN_AlphaBlaster",
          "DisplayName": "Alpha Blaster",
          "CardType": "Weapon",
          "Cost": 1,
          "Attack": 1,
          "HP": 3,
          "Rarity": "common",
          "Manufacturer": "",
          "CardDisplayText": "",
          "CardTextTrigger": "",
          "Condition": "",
          "CardTextId": "",
          "CardTextTarget": "",
          "CardParam1": "",
          "CardParam2": "",
          "CardTextIdA": "",
          "CardTextTargetA": "",
          "CardParam1A": "",
          "CardParam2A": "",
          "DamageType": "Laser",
          "Class": "Neutral",
          "State": "InHandPlayable",
          "DrawNumber": 9,
          "MaxHP": 3,
          "BaseMaxHP": 3,
          "BaseAttack": 1,
          "BaseCost": 1
        },
        {
          "Id": "AT_WN_TinyLaser",
          "DisplayName": "Tiny Laser",
          "CardType": "Weapon",
          "Cost": 0,
          "Attack": 1,
          "HP": 1,
          "Rarity": "common",
          "Manufacturer": "",
          "CardDisplayText": "",
          "CardTextTrigger": "",
          "Condition": "",
          "CardTextId": "",
          "CardTextTarget": "",
          "CardParam1": "",
          "CardParam2": "",
          "CardTextIdA": "",
          "CardTextTargetA": "",
          "CardParam1A": "",
          "CardParam2A": "",
          "DamageType": "Laser",
          "Class": "Neutral",
          "State": "InHandPlayable",
          "DrawNumber": 11,
          "MaxHP": 1,
          "BaseMaxHP": 1,
          "BaseAttack": 1,
          "BaseCost": 0
        },
        {
          "Id": "AT_WN_AlphaBlaster",
          "DisplayName": "Alpha Blaster",
          "CardType": "Weapon",
          "Cost": 1,
          "Attack": 1,
          "HP": 3,
          "Rarity": "common",
          "Manufacturer": "",
          "CardDisplayText": "",
          "CardTextTrigger": "",
          "Condition": "",
          "CardTextId": "",
          "CardTextTarget": "",
          "CardParam1": "",
          "CardParam2": "",
          "CardTextIdA": "",
          "CardTextTargetA": "",
          "CardParam1A": "",
          "CardParam2A": "",
          "DamageType": "Laser",
          "Class": "Neutral",
          "State": "InHandPlayable",
          "DrawNumber": 13,
          "MaxHP": 3,
          "BaseMaxHP": 3,
          "BaseAttack": 1,
          "BaseCost": 1
        },
        {
          "Id": "AT_WN_TinyLaser",
          "DisplayName": "Tiny Laser",
          "CardType": "Weapon",
          "Cost": 0,
          "Attack": 1,
          "HP": 1,
          "Rarity": "common",
          "Manufacturer": "",
          "CardDisplayText": "",
          "CardTextTrigger": "",
          "Condition": "",
          "CardTextId": "",
          "CardTextTarget": "",
          "CardParam1": "",
          "CardParam2": "",
          "CardTextIdA": "",
          "CardTextTargetA": "",
          "CardParam1A": "",
          "CardParam2A": "",
          "DamageType": "Laser",
          "Class": "Neutral",
          "State": "InHandPlayable",
          "DrawNumber": 15,
          "MaxHP": 1,
          "BaseMaxHP": 1,
          "BaseAttack": 1,
          "BaseCost": 0
        }
      ],
      "board": [
        {
          "slotId": 0,
          "entity": null,
          "socketBuffs": []
        },
        {
          "slotId": 1,
          "entity": null,
          "socketBuffs": []
        },
        {
          "slotId": 2,
          "entity": null,
          "socketBuffs": []
        },
        {
          "slotId": 3,
          "entity": null,
          "socketBuffs": []
        },
        {
          "slotId": 4,
          "entity": {
            "Id": "AT_US_SalvageJockey",
            "DisplayName": "Salvage Jockey",
            "CardType": "Utility",
            "Cost": 2,
            "Attack": 0,
            "HP": 6,
            "Rarity": "",
            "Manufacturer": "",
            "CardDisplayText": "While installed: repair the hull +1 for every component the opponent jettisons",
            "CardTextTrigger": "EnemyComponentJettisoned",
            "Condition": "",
            "CardTextId": "Repair",
            "CardTextTarget": "FriendlyShip",
            "CardParam1": "1",
            "CardParam2": "",
            "DamageType": "",
            "Class": "Smuggler",
            "State": "Offline",
            "DrawNumber": 1,
            "MaxHP": 6,
            "BaseMaxHP": 6,
            "BaseAttack": 0,
            "BaseCost": 2
          },
          "socketBuffs": []
        },
        {
          "slotId": 5,
          "entity": null,
          "socketBuffs": []
        },
        {
          "slotId": 6,
          "entity": null,
          "socketBuffs": []
        },
        {
          "slotId": 7,
          "entity": null,
          "socketBuffs": []
        },
        {
          "slotId": 8,
          "entity": null,
          "socketBuffs": []
        }
      ],
      "localPlayerView": {},
      "remotePlayerView": {}
    },
    "player2": {
      "testData": "PlayerState",
      "id": "5788ac782c3d6104911e2f01",
      "name": "",
      "hullHP": 20,
      "maxHullHP": 20,
      "turn": 4,
      "power": 0,
      "powerThisTurn": 4,
      "maxPower": 10,
      "deck": {
        "id": "582b10bd08987a04bcb84f53",
        "cards": [
          "AT_WN_AlphaBlaster",
          "AT_WN_AlphaBlaster",
          "AT_WN_AlphaBlaster",
          "AT_WN_AlphaBlaster",
          "AT_WN_TinyLaser",
          "AT_WN_TinyLaser",
          "AT_WN_TinyLaser",
          "AT_WN_TinyLaser",
          "AT_WN_AlphaBlaster",
          "AT_WN_AlphaBlaster",
          "AT_WN_AlphaBlaster",
          "AT_WN_AlphaBlaster",
          "AT_WN_AlphaBlaster",
          "AT_WN_TinyLaser",
          "AT_WN_TinyLaser",
          "AT_WN_TinyLaser",
          "AT_WN_TinyLaser",
          "AT_WN_TinyLaser",
          "AT_WN_AlphaBlaster",
          "AT_WN_AlphaBlaster",
          "AT_WN_AlphaBlaster",
          "AT_WN_TinyLaser"
        ],
        "class": "Debug"
      },
      "hand": [
        {
          "Id": "AT_US_SalvageJockey",
          "DisplayName": "Salvage Jockey",
          "CardType": "Utility",
          "Cost": 2,
          "Attack": 0,
          "HP": 6,
          "Rarity": "",
          "Manufacturer": "",
          "CardDisplayText": "While installed: repair the hull +1 for every component the opponent jettisons",
          "CardTextTrigger": "EnemyComponentJettisoned",
          "Condition": "",
          "CardTextId": "Repair",
          "CardTextTarget": "FriendlyShip",
          "CardParam1": "1",
          "CardParam2": "",
          "DamageType": "",
          "Class": "Smuggler",
          "State": "InHandNotMyTurn",
          "DrawNumber": 3,
          "MaxHP": 6,
          "BaseMaxHP": 6,
          "BaseAttack": 0,
          "BaseCost": 2
        },
        {
          "Id": "AT_US_SalvageJockey",
          "DisplayName": "Salvage Jockey",
          "CardType": "Utility",
          "Cost": 2,
          "Attack": 0,
          "HP": 6,
          "Rarity": "",
          "Manufacturer": "",
          "CardDisplayText": "While installed: repair the hull +1 for every component the opponent jettisons",
          "CardTextTrigger": "EnemyComponentJettisoned",
          "Condition": "",
          "CardTextId": "Repair",
          "CardTextTarget": "FriendlyShip",
          "CardParam1": "1",
          "CardParam2": "",
          "DamageType": "",
          "Class": "Smuggler",
          "State": "InHandNotMyTurn",
          "DrawNumber": 4,
          "MaxHP": 6,
          "BaseMaxHP": 6,
          "BaseAttack": 0,
          "BaseCost": 2
        },
        {
          "Id": "AT_WN_AlphaBlaster",
          "DisplayName": "Alpha Blaster",
          "CardType": "Weapon",
          "Cost": 1,
          "Attack": 1,
          "HP": 3,
          "Rarity": "common",
          "Manufacturer": "",
          "CardDisplayText": "",
          "CardTextTrigger": "",
          "Condition": "",
          "CardTextId": "",
          "CardTextTarget": "",
          "CardParam1": "",
          "CardParam2": "",
          "CardTextIdA": "",
          "CardTextTargetA": "",
          "CardParam1A": "",
          "CardParam2A": "",
          "DamageType": "Laser",
          "Class": "Neutral",
          "State": "InHandNotMyTurn",
          "DrawNumber": 12,
          "MaxHP": 3,
          "BaseMaxHP": 3,
          "BaseAttack": 1,
          "BaseCost": 1
        },
        {
          "Id": "AT_WN_TinyLaser",
          "DisplayName": "Tiny Laser",
          "CardType": "Weapon",
          "Cost": 0,
          "Attack": 1,
          "HP": 1,
          "Rarity": "common",
          "Manufacturer": "",
          "CardDisplayText": "",
          "CardTextTrigger": "",
          "Condition": "",
          "CardTextId": "",
          "CardTextTarget": "",
          "CardParam1": "",
          "CardParam2": "",
          "CardTextIdA": "",
          "CardTextTargetA": "",
          "CardParam1A": "",
          "CardParam2A": "",
          "DamageType": "Laser",
          "Class": "Neutral",
          "State": "InHandNotMyTurn",
          "DrawNumber": 14,
          "MaxHP": 1,
          "BaseMaxHP": 1,
          "BaseAttack": 1,
          "BaseCost": 0
        }
      ],
      "board": [
        {
          "slotId": 0,
          "entity": null,
          "socketBuffs": []
        },
        {
          "slotId": 1,
          "entity": null,
          "socketBuffs": []
        },
        {
          "slotId": 2,
          "entity": null,
          "socketBuffs": []
        },
        {
          "slotId": 3,
          "entity": null,
          "socketBuffs": []
        },
        {
          "slotId": 4,
          "entity": null,
          "socketBuffs": []
        },
        {
          "slotId": 5,
          "entity": null,
          "socketBuffs": []
        },
        {
          "slotId": 6,
          "entity": null,
          "socketBuffs": []
        },
        {
          "slotId": 7,
          "entity": null,
          "socketBuffs": []
        },
        {
          "slotId": 8,
          "entity": null,
          "socketBuffs": []
        }
      ],
      "localPlayerView": {},
      "remotePlayerView": {}
    },
    "events": [],
    "lastDrawNumber": 16
  },
  "challengeDecks": [
    {
      "playerId": "5787a3f42c3d610491d48f4c",
      "deckId": "582b10c59a8e0504b92ef27a",
      "deck": {
        "id": "582b10c59a8e0504b92ef27a",
        "cards": [
          "AT_WN_AlphaBlaster",
          "AT_WN_AlphaBlaster",
          "AT_WN_AlphaBlaster",
          "AT_WN_AlphaBlaster",
          "AT_WN_TinyLaser",
          "AT_WN_TinyLaser",
          "AT_WN_TinyLaser",
          "AT_WN_TinyLaser",
          "AT_WN_AlphaBlaster",
          "AT_WN_AlphaBlaster",
          "AT_WN_AlphaBlaster",
          "AT_WN_AlphaBlaster",
          "AT_WN_AlphaBlaster",
          "AT_WN_TinyLaser",
          "AT_WN_TinyLaser",
          "AT_WN_TinyLaser",
          "AT_WN_TinyLaser",
          "AT_WN_TinyLaser",
          "AT_WN_AlphaBlaster",
          "AT_WN_AlphaBlaster",
          "AT_WN_AlphaBlaster",
          "AT_WN_TinyLaser",
          "AT_WN_TinyLaser",
          "AT_WN_AlphaBlaster",
          "AT_WN_TinyLaser",
          "AT_WN_AlphaBlaster",
          "AT_WN_TinyLaser",
          "AT_WN_AlphaBlaster",
          "AT_US_SalvageJockey",
          "AT_US_SalvageJockey"
        ],
        "class": "Debug"
      }
    },
    {
      "playerId": "5788ac782c3d6104911e2f01",
      "deckId": "582b10bd08987a04bcb84f53",
      "deck": {
        "id": "582b10bd08987a04bcb84f53",
        "cards": [
          "AT_WN_AlphaBlaster",
          "AT_WN_AlphaBlaster",
          "AT_WN_AlphaBlaster",
          "AT_WN_AlphaBlaster",
          "AT_WN_TinyLaser",
          "AT_WN_TinyLaser",
          "AT_WN_TinyLaser",
          "AT_WN_TinyLaser",
          "AT_WN_AlphaBlaster",
          "AT_WN_AlphaBlaster",
          "AT_WN_AlphaBlaster",
          "AT_WN_AlphaBlaster",
          "AT_WN_AlphaBlaster",
          "AT_WN_TinyLaser",
          "AT_WN_TinyLaser",
          "AT_WN_TinyLaser",
          "AT_WN_TinyLaser",
          "AT_WN_TinyLaser",
          "AT_WN_AlphaBlaster",
          "AT_WN_AlphaBlaster",
          "AT_WN_AlphaBlaster",
          "AT_WN_TinyLaser",
          "AT_WN_TinyLaser",
          "AT_WN_AlphaBlaster",
          "AT_WN_TinyLaser",
          "AT_WN_AlphaBlaster",
          "AT_WN_TinyLaser",
          "AT_WN_AlphaBlaster",
          "AT_US_SalvageJockey",
          "AT_US_SalvageJockey"
        ],
        "class": "Debug"
      }
    }
  ]
}