{
  "challengeId": "581773b523791d04d224354a",
  "replayName": "AT_UF_AdjacentShielder_edge",
  "replayDescription": "Install in a edge socket and make sure shields are applied",
  "firstPlayer": "57a46bc94912890496649e51",
  "mulliganData": {
    "57a46bc54912890496649e01": {
      "cards": [
        "True",
        "True",
        "True",
        "True"
      ]
    },
    "57a46bc94912890496649e51": {
      "cards": [
        "True",
        "True",
        "True"
      ]
    }
  },
  "players": [
    "57a46bc94912890496649e51",
    "57a46bc54912890496649e01"
  ],
  "recordedMoves": [
    {
      "name": "endTurn",
      "fromPlayerId": "57a46bc94912890496649e51",
      "turnNumber": 0,
      "data": {
        "playerId": "57a46bc94912890496649e51",
        "inactivePlayerId": "57a46bc54912890496649e01"
      }
    },
    {
      "name": "installComponent",
      "fromPlayerId": "57a46bc54912890496649e01",
      "turnNumber": 0,
      "data": {
        "playerId": "57a46bc54912890496649e01",
        "drawNumber": 8,
        "socketId": 6
      }
    },
    {
      "name": "installComponent",
      "fromPlayerId": "57a46bc54912890496649e01",
      "turnNumber": 0,
      "data": {
        "playerId": "57a46bc54912890496649e01",
        "drawNumber": 3,
        "socketId": 4
      }
    },
    {
      "name": "installComponent",
      "fromPlayerId": "57a46bc54912890496649e01",
      "turnNumber": 0,
      "data": {
        "playerId": "57a46bc54912890496649e01",
        "drawNumber": 2,
        "socketId": 0
      }
    },
    {
      "name": "endTurn",
      "fromPlayerId": "57a46bc54912890496649e01",
      "turnNumber": 0,
      "data": {
        "playerId": "57a46bc54912890496649e01",
        "inactivePlayerId": "57a46bc94912890496649e51"
      }
    },
    {
      "name": "endTurn",
      "fromPlayerId": "57a46bc94912890496649e51",
      "turnNumber": 1,
      "data": {
        "playerId": "57a46bc94912890496649e51",
        "inactivePlayerId": "57a46bc54912890496649e01"
      }
    },
    {
      "name": "endTurn",
      "fromPlayerId": "57a46bc54912890496649e01",
      "turnNumber": 1,
      "data": {
        "playerId": "57a46bc54912890496649e01",
        "inactivePlayerId": "57a46bc94912890496649e51"
      }
    },
    {
      "name": "endTurn",
      "fromPlayerId": "57a46bc94912890496649e51",
      "turnNumber": 2,
      "data": {
        "playerId": "57a46bc94912890496649e51",
        "inactivePlayerId": "57a46bc54912890496649e01"
      }
    },
    {
      "name": "endTurn",
      "fromPlayerId": "57a46bc54912890496649e01",
      "turnNumber": 2,
      "data": {
        "playerId": "57a46bc54912890496649e01",
        "inactivePlayerId": "57a46bc94912890496649e51"
      }
    },
    {
      "name": "endTurn",
      "fromPlayerId": "57a46bc94912890496649e51",
      "turnNumber": 3,
      "data": {
        "playerId": "57a46bc94912890496649e51",
        "inactivePlayerId": "57a46bc54912890496649e01"
      }
    },
    {
      "name": "installComponent",
      "fromPlayerId": "57a46bc54912890496649e01",
      "turnNumber": 3,
      "data": {
        "playerId": "57a46bc54912890496649e01",
        "drawNumber": 0,
        "socketId": 3
      }
    }
  ],
  "battleState": {
    "version": 1,
    "issueNumber": 27,
    "rngFirstSeed": 1477931957478.0,
    "rngLastSeed": 0,
    "player1": {
      "testData": "PlayerState",
      "id": "57a46bc94912890496649e51",
      "name": "",
      "hullHP": 20,
      "maxHullHP": 20,
      "turn": 4,
      "power": 0,
      "powerThisTurn": 4,
      "maxPower": 10,
      "deck": {
        "id": "581773b423791d04d22434c9",
        "cards": [
          "AT_WN_AlphaBlaster",
          "AT_WN_AlphaBlaster",
          "AT_WN_AlphaBlaster",
          "AT_WN_AlphaBlaster",
          "AT_WN_TinyLaser",
          "AT_WN_TinyLaser",
          "AT_WN_TinyLaser",
          "AT_WN_TinyLaser",
          "AT_WN_AlphaBlaster",
          "AT_WN_AlphaBlaster",
          "AT_WN_AlphaBlaster",
          "AT_WN_AlphaBlaster",
          "AT_WN_AlphaBlaster",
          "AT_WN_TinyLaser",
          "AT_WN_TinyLaser",
          "AT_WN_TinyLaser",
          "AT_WN_TinyLaser",
          "AT_WN_TinyLaser",
          "AT_WN_AlphaBlaster",
          "AT_WN_AlphaBlaster",
          "AT_WN_AlphaBlaster",
          "AT_WN_AlphaBlaster",
          "AT_WN_AlphaBlaster"
        ],
        "class": "Debug"
      },
      "hand": [
        {
          "Id": "AT_UF_AdjacentShielder",
          "DisplayName": "Adjacent Shielder",
          "CardType": "Utility",
          "Cost": 4,
          "Attack": 0,
          "HP": 4,
          "Rarity": "common",
          "Manufacturer": "",
          "CardDisplayText": "On install shield all adjacent sockets",
          "CardTextTrigger": "ThisComponentInstalled",
          "Condition": "",
          "CardTextId": "Shield",
          "CardTextTarget": "AllAdjacentSockets",
          "CardParam1": "",
          "CardParam2": "",
          "DamageType": "",
          "Class": "Enforcer",
          "State": "InHandNotMyTurn",
          "DrawNumber": 4,
          "MaxHP": 4,
          "BaseMaxHP": 4,
          "BaseAttack": 0,
          "BaseCost": 4
        },
        {
          "Id": "AT_UF_AdjacentShielder",
          "DisplayName": "Adjacent Shielder",
          "CardType": "Utility",
          "Cost": 4,
          "Attack": 0,
          "HP": 4,
          "Rarity": "common",
          "Manufacturer": "",
          "CardDisplayText": "On install shield all adjacent sockets",
          "CardTextTrigger": "ThisComponentInstalled",
          "Condition": "",
          "CardTextId": "Shield",
          "CardTextTarget": "AllAdjacentSockets",
          "CardParam1": "",
          "CardParam2": "",
          "DamageType": "",
          "Class": "Enforcer",
          "State": "InHandNotMyTurn",
          "DrawNumber": 5,
          "MaxHP": 4,
          "BaseMaxHP": 4,
          "BaseAttack": 0,
          "BaseCost": 4
        },
        {
          "Id": "AT_WN_TinyLaser",
          "DisplayName": "Tiny Laser",
          "CardType": "Weapon",
          "Cost": 0,
          "Attack": 1,
          "HP": 1,
          "Rarity": "common",
          "Manufacturer": "",
          "CardDisplayText": "",
          "CardTextTrigger": "",
          "Condition": "",
          "CardTextId": "",
          "CardTextTarget": "",
          "CardParam1": "",
          "CardParam2": "",
          "CardTextIdA": "",
          "CardTextTargetA": "",
          "CardParam1A": "",
          "CardParam2A": "",
          "DamageType": "Laser",
          "Class": "Neutral",
          "State": "InHandNotMyTurn",
          "DrawNumber": 6,
          "MaxHP": 1,
          "BaseMaxHP": 1,
          "BaseAttack": 1,
          "BaseCost": 0
        },
        {
          "Id": "AT_WN_TinyLaser",
          "DisplayName": "Tiny Laser",
          "CardType": "Weapon",
          "Cost": 0,
          "Attack": 1,
          "HP": 1,
          "Rarity": "common",
          "Manufacturer": "",
          "CardDisplayText": "",
          "CardTextTrigger": "",
          "Condition": "",
          "CardTextId": "",
          "CardTextTarget": "",
          "CardParam1": "",
          "CardParam2": "",
          "CardTextIdA": "",
          "CardTextTargetA": "",
          "CardParam1A": "",
          "CardParam2A": "",
          "DamageType": "Laser",
          "Class": "Neutral",
          "State": "InHandNotMyTurn",
          "DrawNumber": 7,
          "MaxHP": 1,
          "BaseMaxHP": 1,
          "BaseAttack": 1,
          "BaseCost": 0
        },
        {
          "Id": "AT_WN_TinyLaser",
          "DisplayName": "Tiny Laser",
          "CardType": "Weapon",
          "Cost": 0,
          "Attack": 1,
          "HP": 1,
          "Rarity": "common",
          "Manufacturer": "",
          "CardDisplayText": "",
          "CardTextTrigger": "",
          "Condition": "",
          "CardTextId": "",
          "CardTextTarget": "",
          "CardParam1": "",
          "CardParam2": "",
          "CardTextIdA": "",
          "CardTextTargetA": "",
          "CardParam1A": "",
          "CardParam2A": "",
          "DamageType": "Laser",
          "Class": "Neutral",
          "State": "InHandNotMyTurn",
          "DrawNumber": 9,
          "MaxHP": 1,
          "BaseMaxHP": 1,
          "BaseAttack": 1,
          "BaseCost": 0
        },
        {
          "Id": "AT_WN_TinyLaser",
          "DisplayName": "Tiny Laser",
          "CardType": "Weapon",
          "Cost": 0,
          "Attack": 1,
          "HP": 1,
          "Rarity": "common",
          "Manufacturer": "",
          "CardDisplayText": "",
          "CardTextTrigger": "",
          "Condition": "",
          "CardTextId": "",
          "CardTextTarget": "",
          "CardParam1": "",
          "CardParam2": "",
          "CardTextIdA": "",
          "CardTextTargetA": "",
          "CardParam1A": "",
          "CardParam2A": "",
          "DamageType": "Laser",
          "Class": "Neutral",
          "State": "InHandNotMyTurn",
          "DrawNumber": 11,
          "MaxHP": 1,
          "BaseMaxHP": 1,
          "BaseAttack": 1,
          "BaseCost": 0
        },
        {
          "Id": "AT_WN_TinyLaser",
          "DisplayName": "Tiny Laser",
          "CardType": "Weapon",
          "Cost": 0,
          "Attack": 1,
          "HP": 1,
          "Rarity": "common",
          "Manufacturer": "",
          "CardDisplayText": "",
          "CardTextTrigger": "",
          "Condition": "",
          "CardTextId": "",
          "CardTextTarget": "",
          "CardParam1": "",
          "CardParam2": "",
          "CardTextIdA": "",
          "CardTextTargetA": "",
          "CardParam1A": "",
          "CardParam2A": "",
          "DamageType": "Laser",
          "Class": "Neutral",
          "State": "InHandNotMyTurn",
          "DrawNumber": 13,
          "MaxHP": 1,
          "BaseMaxHP": 1,
          "BaseAttack": 1,
          "BaseCost": 0
        }
      ],
      "board": [
        {
          "slotId": 0,
          "entity": null,
          "socketBuffs": []
        },
        {
          "slotId": 1,
          "entity": null,
          "socketBuffs": []
        },
        {
          "slotId": 2,
          "entity": null,
          "socketBuffs": []
        },
        {
          "slotId": 3,
          "entity": null,
          "socketBuffs": []
        },
        {
          "slotId": 4,
          "entity": null,
          "socketBuffs": []
        },
        {
          "slotId": 5,
          "entity": null,
          "socketBuffs": []
        },
        {
          "slotId": 6,
          "entity": null,
          "socketBuffs": []
        },
        {
          "slotId": 7,
          "entity": null,
          "socketBuffs": []
        },
        {
          "slotId": 8,
          "entity": null,
          "socketBuffs": []
        }
      ],
      "localPlayerView": {},
      "remotePlayerView": {}
    },
    "player2": {
      "testData": "PlayerState",
      "id": "57a46bc54912890496649e01",
      "name": "",
      "hullHP": 20,
      "maxHullHP": 20,
      "turn": 4,
      "power": 0,
      "powerThisTurn": 4,
      "maxPower": 10,
      "deck": {
        "id": "581773af23791d04d2243256",
        "cards": [
          "AT_WN_AlphaBlaster",
          "AT_WN_AlphaBlaster",
          "AT_WN_AlphaBlaster",
          "AT_WN_AlphaBlaster",
          "AT_WN_TinyLaser",
          "AT_WN_TinyLaser",
          "AT_WN_TinyLaser",
          "AT_WN_TinyLaser",
          "AT_WN_AlphaBlaster",
          "AT_WN_AlphaBlaster",
          "AT_WN_AlphaBlaster",
          "AT_WN_AlphaBlaster",
          "AT_WN_AlphaBlaster",
          "AT_WN_TinyLaser",
          "AT_WN_TinyLaser",
          "AT_WN_TinyLaser",
          "AT_WN_TinyLaser",
          "AT_WN_TinyLaser",
          "AT_WN_AlphaBlaster",
          "AT_WN_AlphaBlaster",
          "AT_WN_AlphaBlaster",
          "AT_WN_AlphaBlaster"
        ],
        "class": "Debug"
      },
      "hand": [
        {
          "Id": "AT_UF_AdjacentShielder",
          "DisplayName": "Adjacent Shielder",
          "CardType": "Utility",
          "Cost": 4,
          "Attack": 0,
          "HP": 4,
          "Rarity": "common",
          "Manufacturer": "",
          "CardDisplayText": "On install shield all adjacent sockets",
          "CardTextTrigger": "ThisComponentInstalled",
          "Condition": "",
          "CardTextId": "Shield",
          "CardTextTarget": "AllAdjacentSockets",
          "CardParam1": "",
          "CardParam2": "",
          "DamageType": "",
          "Class": "Enforcer",
          "State": "InHandNotEnoughPower",
          "DrawNumber": 1,
          "MaxHP": 4,
          "BaseMaxHP": 4,
          "BaseAttack": 0,
          "BaseCost": 4
        },
        {
          "Id": "AT_WN_TinyLaser",
          "DisplayName": "Tiny Laser",
          "CardType": "Weapon",
          "Cost": 0,
          "Attack": 1,
          "HP": 1,
          "Rarity": "common",
          "Manufacturer": "",
          "CardDisplayText": "",
          "CardTextTrigger": "",
          "Condition": "",
          "CardTextId": "",
          "CardTextTarget": "",
          "CardParam1": "",
          "CardParam2": "",
          "CardTextIdA": "",
          "CardTextTargetA": "",
          "CardParam1A": "",
          "CardParam2A": "",
          "DamageType": "Laser",
          "Class": "Neutral",
          "State": "InHandPlayable",
          "DrawNumber": 10,
          "MaxHP": 1,
          "BaseMaxHP": 1,
          "BaseAttack": 1,
          "BaseCost": 0
        },
        {
          "Id": "AT_WN_TinyLaser",
          "DisplayName": "Tiny Laser",
          "CardType": "Weapon",
          "Cost": 0,
          "Attack": 1,
          "HP": 1,
          "Rarity": "common",
          "Manufacturer": "",
          "CardDisplayText": "",
          "CardTextTrigger": "",
          "Condition": "",
          "CardTextId": "",
          "CardTextTarget": "",
          "CardParam1": "",
          "CardParam2": "",
          "CardTextIdA": "",
          "CardTextTargetA": "",
          "CardParam1A": "",
          "CardParam2A": "",
          "DamageType": "Laser",
          "Class": "Neutral",
          "State": "InHandPlayable",
          "DrawNumber": 12,
          "MaxHP": 1,
          "BaseMaxHP": 1,
          "BaseAttack": 1,
          "BaseCost": 0
        },
        {
          "Id": "AT_WN_AlphaBlaster",
          "DisplayName": "Alpha Blaster",
          "CardType": "Weapon",
          "Cost": 1,
          "Attack": 1,
          "HP": 3,
          "Rarity": "common",
          "Manufacturer": "",
          "CardDisplayText": "",
          "CardTextTrigger": "",
          "Condition": "",
          "CardTextId": "",
          "CardTextTarget": "",
          "CardParam1": "",
          "CardParam2": "",
          "CardTextIdA": "",
          "CardTextTargetA": "",
          "CardParam1A": "",
          "CardParam2A": "",
          "DamageType": "Laser",
          "Class": "Neutral",
          "State": "InHandNotEnoughPower",
          "DrawNumber": 14,
          "MaxHP": 3,
          "BaseMaxHP": 3,
          "BaseAttack": 1,
          "BaseCost": 1
        }
      ],
      "board": [
        {
          "slotId": 0,
          "entity": {
            "Id": "AT_WN_TinyLaser",
            "DisplayName": "Tiny Laser",
            "CardType": "Weapon",
            "Cost": 0,
            "Attack": 1,
            "HP": 1,
            "Rarity": "common",
            "Manufacturer": "",
            "CardDisplayText": "",
            "CardTextTrigger": "",
            "Condition": "",
            "CardTextId": "",
            "CardTextTarget": "",
            "CardParam1": "",
            "CardParam2": "",
            "CardTextIdA": "",
            "CardTextTargetA": "",
            "CardParam1A": "",
            "CardParam2A": "",
            "DamageType": "Laser",
            "Class": "Neutral",
            "State": "Online",
            "DrawNumber": 2,
            "MaxHP": 1,
            "BaseMaxHP": 1,
            "BaseAttack": 1,
            "BaseCost": 0
          },
          "socketBuffs": [
            {
              "sourceDrawNumber": 0,
              "type": "shield"
            }
          ]
        },
        {
          "slotId": 1,
          "entity": null,
          "socketBuffs": []
        },
        {
          "slotId": 2,
          "entity": null,
          "socketBuffs": []
        },
        {
          "slotId": 3,
          "entity": {
            "Id": "AT_UF_AdjacentShielder",
            "DisplayName": "Adjacent Shielder",
            "CardType": "Utility",
            "Cost": 4,
            "Attack": 0,
            "HP": 4,
            "Rarity": "common",
            "Manufacturer": "",
            "CardDisplayText": "On install shield all adjacent sockets",
            "CardTextTrigger": "ThisComponentInstalled",
            "Condition": "",
            "CardTextId": "Shield",
            "CardTextTarget": "AllAdjacentSockets",
            "CardParam1": "",
            "CardParam2": "",
            "DamageType": "",
            "Class": "Enforcer",
            "State": "Installing",
            "DrawNumber": 0,
            "MaxHP": 4,
            "BaseMaxHP": 4,
            "BaseAttack": 0,
            "BaseCost": 4
          },
          "socketBuffs": []
        },
        {
          "slotId": 4,
          "entity": {
            "Id": "AT_WN_TinyLaser",
            "DisplayName": "Tiny Laser",
            "CardType": "Weapon",
            "Cost": 0,
            "Attack": 1,
            "HP": 1,
            "Rarity": "common",
            "Manufacturer": "",
            "CardDisplayText": "",
            "CardTextTrigger": "",
            "Condition": "",
            "CardTextId": "",
            "CardTextTarget": "",
            "CardParam1": "",
            "CardParam2": "",
            "CardTextIdA": "",
            "CardTextTargetA": "",
            "CardParam1A": "",
            "CardParam2A": "",
            "DamageType": "Laser",
            "Class": "Neutral",
            "State": "Online",
            "DrawNumber": 3,
            "MaxHP": 1,
            "BaseMaxHP": 1,
            "BaseAttack": 1,
            "BaseCost": 0
          },
          "socketBuffs": [
            {
              "sourceDrawNumber": 0,
              "type": "shield"
            }
          ]
        },
        {
          "slotId": 5,
          "entity": null,
          "socketBuffs": []
        },
        {
          "slotId": 6,
          "entity": {
            "Id": "AT_WN_TinyLaser",
            "DisplayName": "Tiny Laser",
            "CardType": "Weapon",
            "Cost": 0,
            "Attack": 1,
            "HP": 1,
            "Rarity": "common",
            "Manufacturer": "",
            "CardDisplayText": "",
            "CardTextTrigger": "",
            "Condition": "",
            "CardTextId": "",
            "CardTextTarget": "",
            "CardParam1": "",
            "CardParam2": "",
            "CardTextIdA": "",
            "CardTextTargetA": "",
            "CardParam1A": "",
            "CardParam2A": "",
            "DamageType": "Laser",
            "Class": "Neutral",
            "State": "Online",
            "DrawNumber": 8,
            "MaxHP": 1,
            "BaseMaxHP": 1,
            "BaseAttack": 1,
            "BaseCost": 0
          },
          "socketBuffs": [
            {
              "sourceDrawNumber": 0,
              "type": "shield"
            }
          ]
        },
        {
          "slotId": 7,
          "entity": null,
          "socketBuffs": []
        },
        {
          "slotId": 8,
          "entity": null,
          "socketBuffs": []
        }
      ],
      "localPlayerView": {},
      "remotePlayerView": {}
    },
    "events": [],
    "lastDrawNumber": 15
  },
  "challengeDecks": [
    {
      "playerId": "57a46bc94912890496649e51",
      "deckId": "581773b423791d04d22434c9",
      "deck": {
        "id": "581773b423791d04d22434c9",
        "cards": [
          "AT_WN_AlphaBlaster",
          "AT_WN_AlphaBlaster",
          "AT_WN_AlphaBlaster",
          "AT_WN_AlphaBlaster",
          "AT_WN_TinyLaser",
          "AT_WN_TinyLaser",
          "AT_WN_TinyLaser",
          "AT_WN_TinyLaser",
          "AT_WN_AlphaBlaster",
          "AT_WN_AlphaBlaster",
          "AT_WN_AlphaBlaster",
          "AT_WN_AlphaBlaster",
          "AT_WN_AlphaBlaster",
          "AT_WN_TinyLaser",
          "AT_WN_TinyLaser",
          "AT_WN_TinyLaser",
          "AT_WN_TinyLaser",
          "AT_WN_TinyLaser",
          "AT_WN_AlphaBlaster",
          "AT_WN_AlphaBlaster",
          "AT_WN_AlphaBlaster",
          "AT_WN_AlphaBlaster",
          "AT_WN_AlphaBlaster",
          "AT_WN_TinyLaser",
          "AT_WN_TinyLaser",
          "AT_WN_TinyLaser",
          "AT_WN_TinyLaser",
          "AT_WN_TinyLaser",
          "AT_UF_AdjacentShielder",
          "AT_UF_AdjacentShielder"
        ],
        "class": "Debug"
      }
    },
    {
      "playerId": "57a46bc54912890496649e01",
      "deckId": "581773af23791d04d2243256",
      "deck": {
        "id": "581773af23791d04d2243256",
        "cards": [
          "AT_WN_AlphaBlaster",
          "AT_WN_AlphaBlaster",
          "AT_WN_AlphaBlaster",
          "AT_WN_AlphaBlaster",
          "AT_WN_TinyLaser",
          "AT_WN_TinyLaser",
          "AT_WN_TinyLaser",
          "AT_WN_TinyLaser",
          "AT_WN_AlphaBlaster",
          "AT_WN_AlphaBlaster",
          "AT_WN_AlphaBlaster",
          "AT_WN_AlphaBlaster",
          "AT_WN_AlphaBlaster",
          "AT_WN_TinyLaser",
          "AT_WN_TinyLaser",
          "AT_WN_TinyLaser",
          "AT_WN_TinyLaser",
          "AT_WN_TinyLaser",
          "AT_WN_AlphaBlaster",
          "AT_WN_AlphaBlaster",
          "AT_WN_AlphaBlaster",
          "AT_WN_AlphaBlaster",
          "AT_WN_AlphaBlaster",
          "AT_WN_TinyLaser",
          "AT_WN_TinyLaser",
          "AT_WN_TinyLaser",
          "AT_WN_TinyLaser",
          "AT_WN_TinyLaser",
          "AT_UF_AdjacentShielder",
          "AT_UF_AdjacentShielder"
        ],
        "class": "Debug"
      }
    }
  ]
}