{
  "challengeId": "5829eaaa23791d557feb62e8",
  "replayName": "AT_UA_Touchstone_weapon",
  "replayDescription": "Install a few adjacent weapons and make sure buff applies",
  "firstPlayer": "5788ac782c3d6104911e2f01",
  "mulliganData": {
    "5787a3f42c3d610491d48f4c": {
      "cards": [
        "True",
        "True",
        "True",
        "True"
      ]
    },
    "5788ac782c3d6104911e2f01": {
      "cards": [
        "True",
        "True",
        "True"
      ]
    }
  },
  "players": [
    "5788ac782c3d6104911e2f01",
    "5787a3f42c3d610491d48f4c"
  ],
  "recordedMoves": [
    {
      "name": "installComponent",
      "fromPlayerId": "5788ac782c3d6104911e2f01",
      "turnNumber": 0,
      "data": {
        "playerId": "5788ac782c3d6104911e2f01",
        "drawNumber": 5,
        "socketId": 4
      }
    },
    {
      "name": "installComponent",
      "fromPlayerId": "5788ac782c3d6104911e2f01",
      "turnNumber": 0,
      "data": {
        "playerId": "5788ac782c3d6104911e2f01",
        "drawNumber": 7,
        "socketId": 5
      }
    },
    {
      "name": "endTurn",
      "fromPlayerId": "5788ac782c3d6104911e2f01",
      "turnNumber": 0,
      "data": {
        "playerId": "5788ac782c3d6104911e2f01",
        "inactivePlayerId": "5787a3f42c3d610491d48f4c"
      }
    },
    {
      "name": "endTurn",
      "fromPlayerId": "5787a3f42c3d610491d48f4c",
      "turnNumber": 0,
      "data": {
        "playerId": "5787a3f42c3d610491d48f4c",
        "inactivePlayerId": "5788ac782c3d6104911e2f01"
      }
    },
    {
      "name": "installComponent",
      "fromPlayerId": "5788ac782c3d6104911e2f01",
      "turnNumber": 1,
      "data": {
        "playerId": "5788ac782c3d6104911e2f01",
        "drawNumber": 9,
        "socketId": 7
      }
    },
    {
      "name": "installComponent",
      "fromPlayerId": "5788ac782c3d6104911e2f01",
      "turnNumber": 1,
      "data": {
        "playerId": "5788ac782c3d6104911e2f01",
        "drawNumber": 6,
        "socketId": 3
      }
    },
    {
      "name": "endTurn",
      "fromPlayerId": "5788ac782c3d6104911e2f01",
      "turnNumber": 1,
      "data": {
        "playerId": "5788ac782c3d6104911e2f01",
        "inactivePlayerId": "5787a3f42c3d610491d48f4c"
      }
    },
    {
      "name": "endTurn",
      "fromPlayerId": "5787a3f42c3d610491d48f4c",
      "turnNumber": 1,
      "data": {
        "playerId": "5787a3f42c3d610491d48f4c",
        "inactivePlayerId": "5788ac782c3d6104911e2f01"
      }
    },
    {
      "name": "installComponent",
      "fromPlayerId": "5788ac782c3d6104911e2f01",
      "turnNumber": 2,
      "data": {
        "playerId": "5788ac782c3d6104911e2f01",
        "drawNumber": 11,
        "socketId": 1
      }
    },
    {
      "name": "endTurn",
      "fromPlayerId": "5788ac782c3d6104911e2f01",
      "turnNumber": 2,
      "data": {
        "playerId": "5788ac782c3d6104911e2f01",
        "inactivePlayerId": "5787a3f42c3d610491d48f4c"
      }
    }
  ],
  "battleState": {
    "version": 1,
    "issueNumber": 22,
    "rngFirstSeed": 1479142058126.0,
    "rngLastSeed": 0,
    "player1": {
      "testData": "PlayerState",
      "id": "5788ac782c3d6104911e2f01",
      "name": "",
      "hullHP": 20,
      "maxHullHP": 20,
      "turn": 3,
      "power": 0,
      "powerThisTurn": 3,
      "maxPower": 10,
      "deck": {
        "id": "5829ea8b9650b504d1d55ea0",
        "cards": [
          "AT_WN_AlphaBlaster",
          "AT_WN_AlphaBlaster",
          "AT_WN_AlphaBlaster",
          "AT_WN_AlphaBlaster",
          "AT_WN_TinyLaser",
          "AT_WN_TinyLaser",
          "AT_WN_TinyLaser",
          "AT_WN_TinyLaser",
          "AT_WN_AlphaBlaster",
          "AT_WN_AlphaBlaster",
          "AT_WN_AlphaBlaster",
          "AT_WN_AlphaBlaster",
          "AT_WN_AlphaBlaster",
          "AT_WN_TinyLaser",
          "AT_WN_TinyLaser",
          "AT_WN_TinyLaser",
          "AT_WN_TinyLaser",
          "AT_WN_TinyLaser",
          "AT_WN_AlphaBlaster",
          "AT_WN_AlphaBlaster",
          "AT_WN_AlphaBlaster",
          "AT_WN_TinyLaser",
          "AT_WN_TinyLaser",
          "AT_WN_AlphaBlaster"
        ],
        "class": "Debug"
      },
      "hand": [
        {
          "Id": "AT_UA_Touchstone",
          "DisplayName": "Touchstone",
          "CardType": "Utility",
          "Cost": 1,
          "Attack": 0,
          "HP": 2,
          "Rarity": "Rare",
          "Manufacturer": "",
          "CardDisplayText": "Give Adjacent Components +1 health",
          "CardTextTrigger": "WhileCardInPlay",
          "Condition": "",
          "CardTextId": "BuffComponentHealth",
          "CardTextTarget": "AllAdjacentComponents",
          "CardParam1": "1",
          "CardParam2": "",
          "DamageType": "",
          "Class": "Ancient",
          "State": "InHandNotMyTurn",
          "DrawNumber": 4,
          "MaxHP": 2,
          "BaseMaxHP": 2,
          "BaseAttack": 0,
          "BaseCost": 1
        }
      ],
      "board": [
        {
          "slotId": 0,
          "entity": null,
          "socketBuffs": []
        },
        {
          "slotId": 1,
          "entity": {
            "Id": "AT_WN_TinyLaser",
            "DisplayName": "Tiny Laser",
            "CardType": "Weapon",
            "Cost": 0,
            "Attack": 1,
            "HP": 2,
            "Rarity": "common",
            "Manufacturer": "",
            "CardDisplayText": "",
            "CardTextTrigger": "",
            "Condition": "",
            "CardTextId": "",
            "CardTextTarget": "",
            "CardParam1": "",
            "CardParam2": "",
            "CardTextIdA": "",
            "CardTextTargetA": "",
            "CardParam1A": "",
            "CardParam2A": "",
            "DamageType": "Laser",
            "Class": "Neutral",
            "State": "Offline",
            "DrawNumber": 11,
            "MaxHP": 2,
            "BaseMaxHP": 1,
            "BaseAttack": 1,
            "BaseCost": 0,
            "tempBuffs": [
              {
                "sourceDrawNumber": 5,
                "type": "maxHP",
                "amount": 1
              }
            ]
          },
          "socketBuffs": []
        },
        {
          "slotId": 2,
          "entity": null,
          "socketBuffs": []
        },
        {
          "slotId": 3,
          "entity": {
            "Id": "AT_WN_AlphaBlaster",
            "DisplayName": "Alpha Blaster",
            "CardType": "Weapon",
            "Cost": 1,
            "Attack": 1,
            "HP": 4,
            "Rarity": "common",
            "Manufacturer": "",
            "CardDisplayText": "",
            "CardTextTrigger": "",
            "Condition": "",
            "CardTextId": "",
            "CardTextTarget": "",
            "CardParam1": "",
            "CardParam2": "",
            "CardTextIdA": "",
            "CardTextTargetA": "",
            "CardParam1A": "",
            "CardParam2A": "",
            "DamageType": "Laser",
            "Class": "Neutral",
            "State": "Offline",
            "DrawNumber": 6,
            "MaxHP": 4,
            "BaseMaxHP": 3,
            "BaseAttack": 1,
            "BaseCost": 1,
            "tempBuffs": [
              {
                "sourceDrawNumber": 5,
                "type": "maxHP",
                "amount": 1
              }
            ]
          },
          "socketBuffs": []
        },
        {
          "slotId": 4,
          "entity": {
            "Id": "AT_UA_Touchstone",
            "DisplayName": "Touchstone",
            "CardType": "Utility",
            "Cost": 1,
            "Attack": 0,
            "HP": 2,
            "Rarity": "Rare",
            "Manufacturer": "",
            "CardDisplayText": "Give Adjacent Components +1 health",
            "CardTextTrigger": "WhileCardInPlay",
            "Condition": "",
            "CardTextId": "BuffComponentHealth",
            "CardTextTarget": "AllAdjacentComponents",
            "CardParam1": "1",
            "CardParam2": "",
            "DamageType": "",
            "Class": "Ancient",
            "State": "Offline",
            "DrawNumber": 5,
            "MaxHP": 2,
            "BaseMaxHP": 2,
            "BaseAttack": 0,
            "BaseCost": 1
          },
          "socketBuffs": []
        },
        {
          "slotId": 5,
          "entity": {
            "Id": "AT_WN_TinyLaser",
            "DisplayName": "Tiny Laser",
            "CardType": "Weapon",
            "Cost": 0,
            "Attack": 1,
            "HP": 2,
            "Rarity": "common",
            "Manufacturer": "",
            "CardDisplayText": "",
            "CardTextTrigger": "",
            "Condition": "",
            "CardTextId": "",
            "CardTextTarget": "",
            "CardParam1": "",
            "CardParam2": "",
            "CardTextIdA": "",
            "CardTextTargetA": "",
            "CardParam1A": "",
            "CardParam2A": "",
            "DamageType": "Laser",
            "Class": "Neutral",
            "State": "Offline",
            "DrawNumber": 7,
            "MaxHP": 2,
            "BaseMaxHP": 1,
            "BaseAttack": 1,
            "BaseCost": 0,
            "tempBuffs": [
              {
                "sourceDrawNumber": 5,
                "type": "maxHP",
                "amount": 1
              }
            ]
          },
          "socketBuffs": []
        },
        {
          "slotId": 6,
          "entity": null,
          "socketBuffs": []
        },
        {
          "slotId": 7,
          "entity": {
            "Id": "AT_WN_AlphaBlaster",
            "DisplayName": "Alpha Blaster",
            "CardType": "Weapon",
            "Cost": 1,
            "Attack": 1,
            "HP": 4,
            "Rarity": "common",
            "Manufacturer": "",
            "CardDisplayText": "",
            "CardTextTrigger": "",
            "Condition": "",
            "CardTextId": "",
            "CardTextTarget": "",
            "CardParam1": "",
            "CardParam2": "",
            "CardTextIdA": "",
            "CardTextTargetA": "",
            "CardParam1A": "",
            "CardParam2A": "",
            "DamageType": "Laser",
            "Class": "Neutral",
            "State": "Offline",
            "DrawNumber": 9,
            "MaxHP": 4,
            "BaseMaxHP": 3,
            "BaseAttack": 1,
            "BaseCost": 1,
            "tempBuffs": [
              {
                "sourceDrawNumber": 5,
                "type": "maxHP",
                "amount": 1
              }
            ]
          },
          "socketBuffs": []
        },
        {
          "slotId": 8,
          "entity": null,
          "socketBuffs": []
        }
      ],
      "localPlayerView": {},
      "remotePlayerView": {}
    },
    "player2": {
      "testData": "PlayerState",
      "id": "5787a3f42c3d610491d48f4c",
      "name": "",
      "hullHP": 20,
      "maxHullHP": 20,
      "turn": 3,
      "power": 3,
      "powerThisTurn": 3,
      "maxPower": 10,
      "deck": {
        "id": "5829eaa99650b504d1d573e4",
        "cards": [
          "AT_WN_AlphaBlaster",
          "AT_WN_AlphaBlaster",
          "AT_WN_AlphaBlaster",
          "AT_WN_AlphaBlaster",
          "AT_WN_TinyLaser",
          "AT_WN_TinyLaser",
          "AT_WN_TinyLaser",
          "AT_WN_TinyLaser",
          "AT_WN_AlphaBlaster",
          "AT_WN_AlphaBlaster",
          "AT_WN_AlphaBlaster",
          "AT_WN_AlphaBlaster",
          "AT_WN_AlphaBlaster",
          "AT_WN_TinyLaser",
          "AT_WN_TinyLaser",
          "AT_WN_TinyLaser",
          "AT_WN_TinyLaser",
          "AT_WN_TinyLaser",
          "AT_WN_AlphaBlaster",
          "AT_WN_AlphaBlaster",
          "AT_WN_AlphaBlaster",
          "AT_WN_TinyLaser",
          "AT_WN_TinyLaser"
        ],
        "class": "Debug"
      },
      "hand": [
        {
          "Id": "AT_UA_Touchstone",
          "DisplayName": "Touchstone",
          "CardType": "Utility",
          "Cost": 1,
          "Attack": 0,
          "HP": 2,
          "Rarity": "Rare",
          "Manufacturer": "",
          "CardDisplayText": "Give Adjacent Components +1 health",
          "CardTextTrigger": "WhileCardInPlay",
          "Condition": "",
          "CardTextId": "BuffComponentHealth",
          "CardTextTarget": "AllAdjacentComponents",
          "CardParam1": "1",
          "CardParam2": "",
          "DamageType": "",
          "Class": "Ancient",
          "State": "InHandPlayable",
          "DrawNumber": 0,
          "MaxHP": 2,
          "BaseMaxHP": 2,
          "BaseAttack": 0,
          "BaseCost": 1
        },
        {
          "Id": "AT_UA_Touchstone",
          "DisplayName": "Touchstone",
          "CardType": "Utility",
          "Cost": 1,
          "Attack": 0,
          "HP": 2,
          "Rarity": "Rare",
          "Manufacturer": "",
          "CardDisplayText": "Give Adjacent Components +1 health",
          "CardTextTrigger": "WhileCardInPlay",
          "Condition": "",
          "CardTextId": "BuffComponentHealth",
          "CardTextTarget": "AllAdjacentComponents",
          "CardParam1": "1",
          "CardParam2": "",
          "DamageType": "",
          "Class": "Ancient",
          "State": "InHandPlayable",
          "DrawNumber": 1,
          "MaxHP": 2,
          "BaseMaxHP": 2,
          "BaseAttack": 0,
          "BaseCost": 1
        },
        {
          "Id": "AT_WN_AlphaBlaster",
          "DisplayName": "Alpha Blaster",
          "CardType": "Weapon",
          "Cost": 1,
          "Attack": 1,
          "HP": 3,
          "Rarity": "common",
          "Manufacturer": "",
          "CardDisplayText": "",
          "CardTextTrigger": "",
          "Condition": "",
          "CardTextId": "",
          "CardTextTarget": "",
          "CardParam1": "",
          "CardParam2": "",
          "CardTextIdA": "",
          "CardTextTargetA": "",
          "CardParam1A": "",
          "CardParam2A": "",
          "DamageType": "Laser",
          "Class": "Neutral",
          "State": "InHandPlayable",
          "DrawNumber": 2,
          "MaxHP": 3,
          "BaseMaxHP": 3,
          "BaseAttack": 1,
          "BaseCost": 1
        },
        {
          "Id": "AT_WN_TinyLaser",
          "DisplayName": "Tiny Laser",
          "CardType": "Weapon",
          "Cost": 0,
          "Attack": 1,
          "HP": 1,
          "Rarity": "common",
          "Manufacturer": "",
          "CardDisplayText": "",
          "CardTextTrigger": "",
          "Condition": "",
          "CardTextId": "",
          "CardTextTarget": "",
          "CardParam1": "",
          "CardParam2": "",
          "CardTextIdA": "",
          "CardTextTargetA": "",
          "CardParam1A": "",
          "CardParam2A": "",
          "DamageType": "Laser",
          "Class": "Neutral",
          "State": "InHandPlayable",
          "DrawNumber": 3,
          "MaxHP": 1,
          "BaseMaxHP": 1,
          "BaseAttack": 1,
          "BaseCost": 0
        },
        {
          "Id": "AT_WN_AlphaBlaster",
          "DisplayName": "Alpha Blaster",
          "CardType": "Weapon",
          "Cost": 1,
          "Attack": 1,
          "HP": 3,
          "Rarity": "common",
          "Manufacturer": "",
          "CardDisplayText": "",
          "CardTextTrigger": "",
          "Condition": "",
          "CardTextId": "",
          "CardTextTarget": "",
          "CardParam1": "",
          "CardParam2": "",
          "CardTextIdA": "",
          "CardTextTargetA": "",
          "CardParam1A": "",
          "CardParam2A": "",
          "DamageType": "Laser",
          "Class": "Neutral",
          "State": "InHandPlayable",
          "DrawNumber": 8,
          "MaxHP": 3,
          "BaseMaxHP": 3,
          "BaseAttack": 1,
          "BaseCost": 1
        },
        {
          "Id": "AT_WN_TinyLaser",
          "DisplayName": "Tiny Laser",
          "CardType": "Weapon",
          "Cost": 0,
          "Attack": 1,
          "HP": 1,
          "Rarity": "common",
          "Manufacturer": "",
          "CardDisplayText": "",
          "CardTextTrigger": "",
          "Condition": "",
          "CardTextId": "",
          "CardTextTarget": "",
          "CardParam1": "",
          "CardParam2": "",
          "CardTextIdA": "",
          "CardTextTargetA": "",
          "CardParam1A": "",
          "CardParam2A": "",
          "DamageType": "Laser",
          "Class": "Neutral",
          "State": "InHandPlayable",
          "DrawNumber": 10,
          "MaxHP": 1,
          "BaseMaxHP": 1,
          "BaseAttack": 1,
          "BaseCost": 0
        },
        {
          "Id": "AT_WN_AlphaBlaster",
          "DisplayName": "Alpha Blaster",
          "CardType": "Weapon",
          "Cost": 1,
          "Attack": 1,
          "HP": 3,
          "Rarity": "common",
          "Manufacturer": "",
          "CardDisplayText": "",
          "CardTextTrigger": "",
          "Condition": "",
          "CardTextId": "",
          "CardTextTarget": "",
          "CardParam1": "",
          "CardParam2": "",
          "CardTextIdA": "",
          "CardTextTargetA": "",
          "CardParam1A": "",
          "CardParam2A": "",
          "DamageType": "Laser",
          "Class": "Neutral",
          "State": "InHandPlayable",
          "DrawNumber": 12,
          "MaxHP": 3,
          "BaseMaxHP": 3,
          "BaseAttack": 1,
          "BaseCost": 1
        }
      ],
      "board": [
        {
          "slotId": 0,
          "entity": null,
          "socketBuffs": []
        },
        {
          "slotId": 1,
          "entity": null,
          "socketBuffs": []
        },
        {
          "slotId": 2,
          "entity": null,
          "socketBuffs": []
        },
        {
          "slotId": 3,
          "entity": null,
          "socketBuffs": []
        },
        {
          "slotId": 4,
          "entity": null,
          "socketBuffs": []
        },
        {
          "slotId": 5,
          "entity": null,
          "socketBuffs": []
        },
        {
          "slotId": 6,
          "entity": null,
          "socketBuffs": []
        },
        {
          "slotId": 7,
          "entity": null,
          "socketBuffs": []
        },
        {
          "slotId": 8,
          "entity": null,
          "socketBuffs": []
        }
      ],
      "localPlayerView": {},
      "remotePlayerView": {}
    },
    "events": [],
    "lastDrawNumber": 13
  },
  "challengeDecks": [
    {
      "playerId": "5788ac782c3d6104911e2f01",
      "deckId": "5829ea8b9650b504d1d55ea0",
      "deck": {
        "id": "5829ea8b9650b504d1d55ea0",
        "cards": [
          "AT_WN_AlphaBlaster",
          "AT_WN_AlphaBlaster",
          "AT_WN_AlphaBlaster",
          "AT_WN_AlphaBlaster",
          "AT_WN_TinyLaser",
          "AT_WN_TinyLaser",
          "AT_WN_TinyLaser",
          "AT_WN_TinyLaser",
          "AT_WN_AlphaBlaster",
          "AT_WN_AlphaBlaster",
          "AT_WN_AlphaBlaster",
          "AT_WN_AlphaBlaster",
          "AT_WN_AlphaBlaster",
          "AT_WN_TinyLaser",
          "AT_WN_TinyLaser",
          "AT_WN_TinyLaser",
          "AT_WN_TinyLaser",
          "AT_WN_TinyLaser",
          "AT_WN_AlphaBlaster",
          "AT_WN_AlphaBlaster",
          "AT_WN_AlphaBlaster",
          "AT_WN_TinyLaser",
          "AT_WN_TinyLaser",
          "AT_WN_AlphaBlaster",
          "AT_WN_TinyLaser",
          "AT_WN_AlphaBlaster",
          "AT_WN_TinyLaser",
          "AT_WN_AlphaBlaster",
          "AT_UA_Touchstone",
          "AT_UA_Touchstone"
        ],
        "class": "Debug"
      }
    },
    {
      "playerId": "5787a3f42c3d610491d48f4c",
      "deckId": "5829eaa99650b504d1d573e4",
      "deck": {
        "id": "5829eaa99650b504d1d573e4",
        "cards": [
          "AT_WN_AlphaBlaster",
          "AT_WN_AlphaBlaster",
          "AT_WN_AlphaBlaster",
          "AT_WN_AlphaBlaster",
          "AT_WN_TinyLaser",
          "AT_WN_TinyLaser",
          "AT_WN_TinyLaser",
          "AT_WN_TinyLaser",
          "AT_WN_AlphaBlaster",
          "AT_WN_AlphaBlaster",
          "AT_WN_AlphaBlaster",
          "AT_WN_AlphaBlaster",
          "AT_WN_AlphaBlaster",
          "AT_WN_TinyLaser",
          "AT_WN_TinyLaser",
          "AT_WN_TinyLaser",
          "AT_WN_TinyLaser",
          "AT_WN_TinyLaser",
          "AT_WN_AlphaBlaster",
          "AT_WN_AlphaBlaster",
          "AT_WN_AlphaBlaster",
          "AT_WN_TinyLaser",
          "AT_WN_TinyLaser",
          "AT_WN_AlphaBlaster",
          "AT_WN_TinyLaser",
          "AT_WN_AlphaBlaster",
          "AT_WN_TinyLaser",
          "AT_WN_AlphaBlaster",
          "AT_UA_Touchstone",
          "AT_UA_Touchstone"
        ],
        "class": "Debug"
      }
    }
  ]
}