{
  "challengeId": "5825acb786972904e5c939fc",
  "replayName": "AT_WA_RecklessSoul_no_friendly",
  "replayDescription": "Fire while no friendly components installed and make sure nothing takes damage",
  "firstPlayer": "5787a3f42c3d610491d48f4c",
  "mulliganData": {
    "5787a3f42c3d610491d48f4c": {
      "cards": [
        "True",
        "True",
        "True"
      ]
    },
    "5788ac782c3d6104911e2f01": {
      "cards": [
        "True",
        "True",
        "True",
        "True"
      ]
    }
  },
  "players": [
    "5787a3f42c3d610491d48f4c",
    "5788ac782c3d6104911e2f01"
  ],
  "recordedMoves": [
    {
      "name": "installComponent",
      "fromPlayerId": "5787a3f42c3d610491d48f4c",
      "turnNumber": 0,
      "data": {
        "playerId": "5787a3f42c3d610491d48f4c",
        "drawNumber": 0,
        "socketId": 4
      }
    },
    {
      "name": "endTurn",
      "fromPlayerId": "5787a3f42c3d610491d48f4c",
      "turnNumber": 0,
      "data": {
        "playerId": "5787a3f42c3d610491d48f4c",
        "inactivePlayerId": "5788ac782c3d6104911e2f01"
      }
    },
    {
      "name": "endTurn",
      "fromPlayerId": "5788ac782c3d6104911e2f01",
      "turnNumber": 0,
      "data": {
        "playerId": "5788ac782c3d6104911e2f01",
        "inactivePlayerId": "5787a3f42c3d610491d48f4c"
      }
    },
    {
      "name": "fireAtHull",
      "fromPlayerId": "5787a3f42c3d610491d48f4c",
      "turnNumber": 1,
      "data": {
        "playerId": "5787a3f42c3d610491d48f4c",
        "fromSlotId": 4,
        "inactivePlayerId": "5788ac782c3d6104911e2f01",
        "xPos": "-1.241525",
        "yPos": "-0.2273636",
        "zPos": "-7.413286"
      }
    }
  ],
  "battleState": {
    "version": 1,
    "issueNumber": 10,
    "rngFirstSeed": 1478864055436.0,
    "rngLastSeed": 0,
    "player1": {
      "testData": "PlayerState",
      "id": "5787a3f42c3d610491d48f4c",
      "name": "",
      "hullHP": 20,
      "maxHullHP": 20,
      "turn": 2,
      "power": 2,
      "powerThisTurn": 2,
      "maxPower": 10,
      "deck": {
        "id": "5825acb686972904e5c939d1",
        "cards": [
          "AT_WN_AlphaBlaster",
          "AT_WN_AlphaBlaster",
          "AT_WN_AlphaBlaster",
          "AT_WN_AlphaBlaster",
          "AT_WN_TinyLaser",
          "AT_WN_TinyLaser",
          "AT_WN_TinyLaser",
          "AT_WN_TinyLaser",
          "AT_WN_AlphaBlaster",
          "AT_WN_AlphaBlaster",
          "AT_WN_AlphaBlaster",
          "AT_WN_AlphaBlaster",
          "AT_WN_AlphaBlaster",
          "AT_WN_TinyLaser",
          "AT_WN_TinyLaser",
          "AT_WN_TinyLaser",
          "AT_WN_TinyLaser",
          "AT_WN_TinyLaser",
          "AT_WN_AlphaBlaster",
          "AT_WN_AlphaBlaster",
          "AT_WN_AlphaBlaster",
          "AT_WN_TinyLaser",
          "AT_WN_TinyLaser",
          "AT_WN_AlphaBlaster",
          "AT_WN_TinyLaser"
        ],
        "class": "Debug"
      },
      "hand": [
        {
          "Id": "AT_WA_RecklessSoul",
          "DisplayName": "Reckless Soul",
          "CardType": "Weapon",
          "Cost": 1,
          "Attack": 3,
          "HP": 2,
          "Rarity": "Common",
          "Manufacturer": "",
          "CardDisplayText": "On Fire: Deal 1 damage to a random friendly component",
          "CardTextTrigger": "ThisWeaponFired",
          "Condition": "",
          "CardTextId": "DealDamage",
          "CardTextTarget": "RandomFriendlyComponent",
          "CardParam1": "1",
          "CardParam2": "",
          "CardTextIdA": "",
          "CardTextTargetA": "",
          "CardParam1A": "",
          "CardParam2A": "",
          "DamageType": "Laser",
          "Class": "Ancient",
          "State": "InHandPlayable",
          "DrawNumber": 1,
          "MaxHP": 2,
          "BaseMaxHP": 2,
          "BaseAttack": 3,
          "BaseCost": 1
        },
        {
          "Id": "AT_WN_AlphaBlaster",
          "DisplayName": "Alpha Blaster",
          "CardType": "Weapon",
          "Cost": 1,
          "Attack": 1,
          "HP": 3,
          "Rarity": "common",
          "Manufacturer": "",
          "CardDisplayText": "",
          "CardTextTrigger": "",
          "Condition": "",
          "CardTextId": "",
          "CardTextTarget": "",
          "CardParam1": "",
          "CardParam2": "",
          "CardTextIdA": "",
          "CardTextTargetA": "",
          "CardParam1A": "",
          "CardParam2A": "",
          "DamageType": "Laser",
          "Class": "Neutral",
          "State": "InHandPlayable",
          "DrawNumber": 2,
          "MaxHP": 3,
          "BaseMaxHP": 3,
          "BaseAttack": 1,
          "BaseCost": 1
        },
        {
          "Id": "AT_WN_TinyLaser",
          "DisplayName": "Tiny Laser",
          "CardType": "Weapon",
          "Cost": 0,
          "Attack": 1,
          "HP": 1,
          "Rarity": "common",
          "Manufacturer": "",
          "CardDisplayText": "",
          "CardTextTrigger": "",
          "Condition": "",
          "CardTextId": "",
          "CardTextTarget": "",
          "CardParam1": "",
          "CardParam2": "",
          "CardTextIdA": "",
          "CardTextTargetA": "",
          "CardParam1A": "",
          "CardParam2A": "",
          "DamageType": "Laser",
          "Class": "Neutral",
          "State": "InHandPlayable",
          "DrawNumber": 7,
          "MaxHP": 1,
          "BaseMaxHP": 1,
          "BaseAttack": 1,
          "BaseCost": 0
        },
        {
          "Id": "AT_WN_AlphaBlaster",
          "DisplayName": "Alpha Blaster",
          "CardType": "Weapon",
          "Cost": 1,
          "Attack": 1,
          "HP": 3,
          "Rarity": "common",
          "Manufacturer": "",
          "CardDisplayText": "",
          "CardTextTrigger": "",
          "Condition": "",
          "CardTextId": "",
          "CardTextTarget": "",
          "CardParam1": "",
          "CardParam2": "",
          "CardTextIdA": "",
          "CardTextTargetA": "",
          "CardParam1A": "",
          "CardParam2A": "",
          "DamageType": "Laser",
          "Class": "Neutral",
          "State": "InHandPlayable",
          "DrawNumber": 9,
          "MaxHP": 3,
          "BaseMaxHP": 3,
          "BaseAttack": 1,
          "BaseCost": 1
        }
      ],
      "board": [
        {
          "slotId": 0,
          "entity": null,
          "socketBuffs": []
        },
        {
          "slotId": 1,
          "entity": null,
          "socketBuffs": []
        },
        {
          "slotId": 2,
          "entity": null,
          "socketBuffs": []
        },
        {
          "slotId": 3,
          "entity": null,
          "socketBuffs": []
        },
        {
          "slotId": 4,
          "entity": {
            "Id": "AT_WA_RecklessSoul",
            "DisplayName": "Reckless Soul",
            "CardType": "Weapon",
            "Cost": 1,
            "Attack": 3,
            "HP": 2,
            "Rarity": "Common",
            "Manufacturer": "",
            "CardDisplayText": "On Fire: Deal 1 damage to a random friendly component",
            "CardTextTrigger": "ThisWeaponFired",
            "Condition": "",
            "CardTextId": "DealDamage",
            "CardTextTarget": "RandomFriendlyComponent",
            "CardParam1": "1",
            "CardParam2": "",
            "CardTextIdA": "",
            "CardTextTargetA": "",
            "CardParam1A": "",
            "CardParam2A": "",
            "DamageType": "Laser",
            "Class": "Ancient",
            "State": "Fired",
            "DrawNumber": 0,
            "MaxHP": 2,
            "BaseMaxHP": 2,
            "BaseAttack": 3,
            "BaseCost": 1
          },
          "socketBuffs": []
        },
        {
          "slotId": 5,
          "entity": null,
          "socketBuffs": []
        },
        {
          "slotId": 6,
          "entity": null,
          "socketBuffs": []
        },
        {
          "slotId": 7,
          "entity": null,
          "socketBuffs": []
        },
        {
          "slotId": 8,
          "entity": null,
          "socketBuffs": []
        }
      ],
      "localPlayerView": {},
      "remotePlayerView": {}
    },
    "player2": {
      "testData": "PlayerState",
      "id": "5788ac782c3d6104911e2f01",
      "name": "",
      "hullHP": 17,
      "maxHullHP": 20,
      "turn": 1,
      "power": 0,
      "powerThisTurn": 1,
      "maxPower": 10,
      "deck": {
        "id": "5825acaf86972904e5c93776",
        "cards": [
          "AT_WN_AlphaBlaster",
          "AT_WN_AlphaBlaster",
          "AT_WN_AlphaBlaster",
          "AT_WN_AlphaBlaster",
          "AT_WN_TinyLaser",
          "AT_WN_TinyLaser",
          "AT_WN_TinyLaser",
          "AT_WN_TinyLaser",
          "AT_WN_AlphaBlaster",
          "AT_WN_AlphaBlaster",
          "AT_WN_AlphaBlaster",
          "AT_WN_AlphaBlaster",
          "AT_WN_AlphaBlaster",
          "AT_WN_TinyLaser",
          "AT_WN_TinyLaser",
          "AT_WN_TinyLaser",
          "AT_WN_TinyLaser",
          "AT_WN_TinyLaser",
          "AT_WN_AlphaBlaster",
          "AT_WN_AlphaBlaster",
          "AT_WN_AlphaBlaster",
          "AT_WN_TinyLaser",
          "AT_WN_TinyLaser",
          "AT_WN_AlphaBlaster",
          "AT_WN_TinyLaser"
        ],
        "class": "Debug"
      },
      "hand": [
        {
          "Id": "AT_WA_RecklessSoul",
          "DisplayName": "Reckless Soul",
          "CardType": "Weapon",
          "Cost": 1,
          "Attack": 3,
          "HP": 2,
          "Rarity": "Common",
          "Manufacturer": "",
          "CardDisplayText": "On Fire: Deal 1 damage to a random friendly component",
          "CardTextTrigger": "ThisWeaponFired",
          "Condition": "",
          "CardTextId": "DealDamage",
          "CardTextTarget": "RandomFriendlyComponent",
          "CardParam1": "1",
          "CardParam2": "",
          "CardTextIdA": "",
          "CardTextTargetA": "",
          "CardParam1A": "",
          "CardParam2A": "",
          "DamageType": "Laser",
          "Class": "Ancient",
          "State": "InHandNotMyTurn",
          "DrawNumber": 3,
          "MaxHP": 2,
          "BaseMaxHP": 2,
          "BaseAttack": 3,
          "BaseCost": 1
        },
        {
          "Id": "AT_WA_RecklessSoul",
          "DisplayName": "Reckless Soul",
          "CardType": "Weapon",
          "Cost": 1,
          "Attack": 3,
          "HP": 2,
          "Rarity": "Common",
          "Manufacturer": "",
          "CardDisplayText": "On Fire: Deal 1 damage to a random friendly component",
          "CardTextTrigger": "ThisWeaponFired",
          "Condition": "",
          "CardTextId": "DealDamage",
          "CardTextTarget": "RandomFriendlyComponent",
          "CardParam1": "1",
          "CardParam2": "",
          "CardTextIdA": "",
          "CardTextTargetA": "",
          "CardParam1A": "",
          "CardParam2A": "",
          "DamageType": "Laser",
          "Class": "Ancient",
          "State": "InHandNotMyTurn",
          "DrawNumber": 4,
          "MaxHP": 2,
          "BaseMaxHP": 2,
          "BaseAttack": 3,
          "BaseCost": 1
        },
        {
          "Id": "AT_WN_AlphaBlaster",
          "DisplayName": "Alpha Blaster",
          "CardType": "Weapon",
          "Cost": 1,
          "Attack": 1,
          "HP": 3,
          "Rarity": "common",
          "Manufacturer": "",
          "CardDisplayText": "",
          "CardTextTrigger": "",
          "Condition": "",
          "CardTextId": "",
          "CardTextTarget": "",
          "CardParam1": "",
          "CardParam2": "",
          "CardTextIdA": "",
          "CardTextTargetA": "",
          "CardParam1A": "",
          "CardParam2A": "",
          "DamageType": "Laser",
          "Class": "Neutral",
          "State": "InHandNotMyTurn",
          "DrawNumber": 5,
          "MaxHP": 3,
          "BaseMaxHP": 3,
          "BaseAttack": 1,
          "BaseCost": 1
        },
        {
          "Id": "AT_WN_TinyLaser",
          "DisplayName": "Tiny Laser",
          "CardType": "Weapon",
          "Cost": 0,
          "Attack": 1,
          "HP": 1,
          "Rarity": "common",
          "Manufacturer": "",
          "CardDisplayText": "",
          "CardTextTrigger": "",
          "Condition": "",
          "CardTextId": "",
          "CardTextTarget": "",
          "CardParam1": "",
          "CardParam2": "",
          "CardTextIdA": "",
          "CardTextTargetA": "",
          "CardParam1A": "",
          "CardParam2A": "",
          "DamageType": "Laser",
          "Class": "Neutral",
          "State": "InHandNotMyTurn",
          "DrawNumber": 6,
          "MaxHP": 1,
          "BaseMaxHP": 1,
          "BaseAttack": 1,
          "BaseCost": 0
        },
        {
          "Id": "AT_WN_AlphaBlaster",
          "DisplayName": "Alpha Blaster",
          "CardType": "Weapon",
          "Cost": 1,
          "Attack": 1,
          "HP": 3,
          "Rarity": "common",
          "Manufacturer": "",
          "CardDisplayText": "",
          "CardTextTrigger": "",
          "Condition": "",
          "CardTextId": "",
          "CardTextTarget": "",
          "CardParam1": "",
          "CardParam2": "",
          "CardTextIdA": "",
          "CardTextTargetA": "",
          "CardParam1A": "",
          "CardParam2A": "",
          "DamageType": "Laser",
          "Class": "Neutral",
          "State": "InHandNotMyTurn",
          "DrawNumber": 8,
          "MaxHP": 3,
          "BaseMaxHP": 3,
          "BaseAttack": 1,
          "BaseCost": 1
        }
      ],
      "board": [
        {
          "slotId": 0,
          "entity": null,
          "socketBuffs": []
        },
        {
          "slotId": 1,
          "entity": null,
          "socketBuffs": []
        },
        {
          "slotId": 2,
          "entity": null,
          "socketBuffs": []
        },
        {
          "slotId": 3,
          "entity": null,
          "socketBuffs": []
        },
        {
          "slotId": 4,
          "entity": null,
          "socketBuffs": []
        },
        {
          "slotId": 5,
          "entity": null,
          "socketBuffs": []
        },
        {
          "slotId": 6,
          "entity": null,
          "socketBuffs": []
        },
        {
          "slotId": 7,
          "entity": null,
          "socketBuffs": []
        },
        {
          "slotId": 8,
          "entity": null,
          "socketBuffs": []
        }
      ],
      "localPlayerView": {},
      "remotePlayerView": {}
    },
    "events": [],
    "lastDrawNumber": 10
  },
  "challengeDecks": [
    {
      "playerId": "5787a3f42c3d610491d48f4c",
      "deckId": "5825acb686972904e5c939d1",
      "deck": {
        "id": "5825acb686972904e5c939d1",
        "cards": [
          "AT_WN_AlphaBlaster",
          "AT_WN_AlphaBlaster",
          "AT_WN_AlphaBlaster",
          "AT_WN_AlphaBlaster",
          "AT_WN_TinyLaser",
          "AT_WN_TinyLaser",
          "AT_WN_TinyLaser",
          "AT_WN_TinyLaser",
          "AT_WN_AlphaBlaster",
          "AT_WN_AlphaBlaster",
          "AT_WN_AlphaBlaster",
          "AT_WN_AlphaBlaster",
          "AT_WN_AlphaBlaster",
          "AT_WN_TinyLaser",
          "AT_WN_TinyLaser",
          "AT_WN_TinyLaser",
          "AT_WN_TinyLaser",
          "AT_WN_TinyLaser",
          "AT_WN_AlphaBlaster",
          "AT_WN_AlphaBlaster",
          "AT_WN_AlphaBlaster",
          "AT_WN_TinyLaser",
          "AT_WN_TinyLaser",
          "AT_WN_AlphaBlaster",
          "AT_WN_TinyLaser",
          "AT_WN_AlphaBlaster",
          "AT_WN_TinyLaser",
          "AT_WN_AlphaBlaster",
          "AT_WA_RecklessSoul",
          "AT_WA_RecklessSoul"
        ],
        "class": "Debug"
      }
    },
    {
      "playerId": "5788ac782c3d6104911e2f01",
      "deckId": "5825acaf86972904e5c93776",
      "deck": {
        "id": "5825acaf86972904e5c93776",
        "cards": [
          "AT_WN_AlphaBlaster",
          "AT_WN_AlphaBlaster",
          "AT_WN_AlphaBlaster",
          "AT_WN_AlphaBlaster",
          "AT_WN_TinyLaser",
          "AT_WN_TinyLaser",
          "AT_WN_TinyLaser",
          "AT_WN_TinyLaser",
          "AT_WN_AlphaBlaster",
          "AT_WN_AlphaBlaster",
          "AT_WN_AlphaBlaster",
          "AT_WN_AlphaBlaster",
          "AT_WN_AlphaBlaster",
          "AT_WN_TinyLaser",
          "AT_WN_TinyLaser",
          "AT_WN_TinyLaser",
          "AT_WN_TinyLaser",
          "AT_WN_TinyLaser",
          "AT_WN_AlphaBlaster",
          "AT_WN_AlphaBlaster",
          "AT_WN_AlphaBlaster",
          "AT_WN_TinyLaser",
          "AT_WN_TinyLaser",
          "AT_WN_AlphaBlaster",
          "AT_WN_TinyLaser",
          "AT_WN_AlphaBlaster",
          "AT_WN_TinyLaser",
          "AT_WN_AlphaBlaster",
          "AT_WA_RecklessSoul",
          "AT_WA_RecklessSoul"
        ],
        "class": "Debug"
      }
    }
  ]
}