{
  "challengeId": "5829dae49650b504d1cc9e8d",
  "replayName": "AT_WN_BadNeighbour_no_adjacent",
  "replayDescription": "Install without any adjacent components and make sure nothing gets jettisoned",
  "firstPlayer": "5788ac782c3d6104911e2f01",
  "mulliganData": {
    "5787a3f42c3d610491d48f4c": {
      "cards": [
        "True",
        "True",
        "True",
        "True"
      ]
    },
    "5788ac782c3d6104911e2f01": {
      "cards": [
        "True",
        "True",
        "True"
      ]
    }
  },
  "players": [
    "5788ac782c3d6104911e2f01",
    "5787a3f42c3d610491d48f4c"
  ],
  "recordedMoves": [
    {
      "name": "installComponent",
      "fromPlayerId": "5788ac782c3d6104911e2f01",
      "turnNumber": 0,
      "data": {
        "playerId": "5788ac782c3d6104911e2f01",
        "drawNumber": 7,
        "socketId": 0
      }
    },
    {
      "name": "installComponent",
      "fromPlayerId": "5788ac782c3d6104911e2f01",
      "turnNumber": 0,
      "data": {
        "playerId": "5788ac782c3d6104911e2f01",
        "drawNumber": 6,
        "socketId": 8
      }
    },
    {
      "name": "endTurn",
      "fromPlayerId": "5788ac782c3d6104911e2f01",
      "turnNumber": 0,
      "data": {
        "playerId": "5788ac782c3d6104911e2f01",
        "inactivePlayerId": "5787a3f42c3d610491d48f4c"
      }
    },
    {
      "name": "endTurn",
      "fromPlayerId": "5787a3f42c3d610491d48f4c",
      "turnNumber": 0,
      "data": {
        "playerId": "5787a3f42c3d610491d48f4c",
        "inactivePlayerId": "5788ac782c3d6104911e2f01"
      }
    },
    {
      "name": "endTurn",
      "fromPlayerId": "5788ac782c3d6104911e2f01",
      "turnNumber": 1,
      "data": {
        "playerId": "5788ac782c3d6104911e2f01",
        "inactivePlayerId": "5787a3f42c3d610491d48f4c"
      }
    },
    {
      "name": "endTurn",
      "fromPlayerId": "5787a3f42c3d610491d48f4c",
      "turnNumber": 1,
      "data": {
        "playerId": "5787a3f42c3d610491d48f4c",
        "inactivePlayerId": "5788ac782c3d6104911e2f01"
      }
    },
    {
      "name": "endTurn",
      "fromPlayerId": "5788ac782c3d6104911e2f01",
      "turnNumber": 2,
      "data": {
        "playerId": "5788ac782c3d6104911e2f01",
        "inactivePlayerId": "5787a3f42c3d610491d48f4c"
      }
    },
    {
      "name": "endTurn",
      "fromPlayerId": "5787a3f42c3d610491d48f4c",
      "turnNumber": 2,
      "data": {
        "playerId": "5787a3f42c3d610491d48f4c",
        "inactivePlayerId": "5788ac782c3d6104911e2f01"
      }
    },
    {
      "name": "installComponent",
      "fromPlayerId": "5788ac782c3d6104911e2f01",
      "turnNumber": 3,
      "data": {
        "playerId": "5788ac782c3d6104911e2f01",
        "drawNumber": 4,
        "socketId": 4
      }
    },
    {
      "name": "endTurn",
      "fromPlayerId": "5788ac782c3d6104911e2f01",
      "turnNumber": 3,
      "data": {
        "playerId": "5788ac782c3d6104911e2f01",
        "inactivePlayerId": "5787a3f42c3d610491d48f4c"
      }
    }
  ],
  "battleState": {
    "version": 1,
    "issueNumber": 26,
    "rngFirstSeed": 1479138020188.0,
    "rngLastSeed": 0,
    "player1": {
      "testData": "PlayerState",
      "id": "5788ac782c3d6104911e2f01",
      "name": "",
      "hullHP": 20,
      "maxHullHP": 20,
      "turn": 4,
      "power": 0,
      "powerThisTurn": 4,
      "maxPower": 10,
      "deck": {
        "id": "5829dae323791d557fe2f5d0",
        "cards": [
          "AT_WN_AlphaBlaster",
          "AT_WN_AlphaBlaster",
          "AT_WN_AlphaBlaster",
          "AT_WN_AlphaBlaster",
          "AT_WN_TinyLaser",
          "AT_WN_TinyLaser",
          "AT_WN_TinyLaser",
          "AT_WN_TinyLaser",
          "AT_WN_AlphaBlaster",
          "AT_WN_AlphaBlaster",
          "AT_WN_AlphaBlaster",
          "AT_WN_AlphaBlaster",
          "AT_WN_AlphaBlaster",
          "AT_WN_TinyLaser",
          "AT_WN_TinyLaser",
          "AT_WN_TinyLaser",
          "AT_WN_TinyLaser",
          "AT_WN_TinyLaser",
          "AT_WN_AlphaBlaster",
          "AT_WN_AlphaBlaster",
          "AT_WN_AlphaBlaster",
          "AT_WN_TinyLaser",
          "AT_WN_TinyLaser"
        ],
        "class": "Debug"
      },
      "hand": [
        {
          "Id": "AT_WN_BadNeighbour",
          "DisplayName": "Bad Neighbour",
          "CardType": "Weapon",
          "Cost": 4,
          "Attack": 4,
          "HP": 5,
          "Rarity": "common",
          "Manufacturer": "",
          "CardDisplayText": "On Install: Jettison all adjacent components",
          "CardTextTrigger": "ThisComponentInstalled",
          "Condition": "",
          "CardTextId": "Jettison",
          "CardTextTarget": "AllAdjacentComponents",
          "CardParam1": "",
          "CardParam2": "",
          "CardTextIdA": "",
          "CardTextTargetA": "",
          "CardParam1A": "",
          "CardParam2A": "",
          "DamageType": "",
          "Class": "",
          "State": "InHandNotMyTurn",
          "DrawNumber": 5,
          "MaxHP": 5,
          "BaseMaxHP": 5,
          "BaseAttack": 4,
          "BaseCost": 4
        },
        {
          "Id": "AT_WN_AlphaBlaster",
          "DisplayName": "Alpha Blaster",
          "CardType": "Weapon",
          "Cost": 1,
          "Attack": 1,
          "HP": 3,
          "Rarity": "common",
          "Manufacturer": "",
          "CardDisplayText": "",
          "CardTextTrigger": "",
          "Condition": "",
          "CardTextId": "",
          "CardTextTarget": "",
          "CardParam1": "",
          "CardParam2": "",
          "CardTextIdA": "",
          "CardTextTargetA": "",
          "CardParam1A": "",
          "CardParam2A": "",
          "DamageType": "Laser",
          "Class": "Neutral",
          "State": "InHandNotMyTurn",
          "DrawNumber": 9,
          "MaxHP": 3,
          "BaseMaxHP": 3,
          "BaseAttack": 1,
          "BaseCost": 1
        },
        {
          "Id": "AT_WN_TinyLaser",
          "DisplayName": "Tiny Laser",
          "CardType": "Weapon",
          "Cost": 0,
          "Attack": 1,
          "HP": 1,
          "Rarity": "common",
          "Manufacturer": "",
          "CardDisplayText": "",
          "CardTextTrigger": "",
          "Condition": "",
          "CardTextId": "",
          "CardTextTarget": "",
          "CardParam1": "",
          "CardParam2": "",
          "CardTextIdA": "",
          "CardTextTargetA": "",
          "CardParam1A": "",
          "CardParam2A": "",
          "DamageType": "Laser",
          "Class": "Neutral",
          "State": "InHandNotMyTurn",
          "DrawNumber": 11,
          "MaxHP": 1,
          "BaseMaxHP": 1,
          "BaseAttack": 1,
          "BaseCost": 0
        },
        {
          "Id": "AT_WN_AlphaBlaster",
          "DisplayName": "Alpha Blaster",
          "CardType": "Weapon",
          "Cost": 1,
          "Attack": 1,
          "HP": 3,
          "Rarity": "common",
          "Manufacturer": "",
          "CardDisplayText": "",
          "CardTextTrigger": "",
          "Condition": "",
          "CardTextId": "",
          "CardTextTarget": "",
          "CardParam1": "",
          "CardParam2": "",
          "CardTextIdA": "",
          "CardTextTargetA": "",
          "CardParam1A": "",
          "CardParam2A": "",
          "DamageType": "Laser",
          "Class": "Neutral",
          "State": "InHandNotMyTurn",
          "DrawNumber": 13,
          "MaxHP": 3,
          "BaseMaxHP": 3,
          "BaseAttack": 1,
          "BaseCost": 1
        }
      ],
      "board": [
        {
          "slotId": 0,
          "entity": {
            "Id": "AT_WN_TinyLaser",
            "DisplayName": "Tiny Laser",
            "CardType": "Weapon",
            "Cost": 0,
            "Attack": 1,
            "HP": 1,
            "Rarity": "common",
            "Manufacturer": "",
            "CardDisplayText": "",
            "CardTextTrigger": "",
            "Condition": "",
            "CardTextId": "",
            "CardTextTarget": "",
            "CardParam1": "",
            "CardParam2": "",
            "CardTextIdA": "",
            "CardTextTargetA": "",
            "CardParam1A": "",
            "CardParam2A": "",
            "DamageType": "Laser",
            "Class": "Neutral",
            "State": "Offline",
            "DrawNumber": 7,
            "MaxHP": 1,
            "BaseMaxHP": 1,
            "BaseAttack": 1,
            "BaseCost": 0
          },
          "socketBuffs": []
        },
        {
          "slotId": 1,
          "entity": null,
          "socketBuffs": []
        },
        {
          "slotId": 2,
          "entity": null,
          "socketBuffs": []
        },
        {
          "slotId": 3,
          "entity": null,
          "socketBuffs": []
        },
        {
          "slotId": 4,
          "entity": {
            "Id": "AT_WN_BadNeighbour",
            "DisplayName": "Bad Neighbour",
            "CardType": "Weapon",
            "Cost": 4,
            "Attack": 4,
            "HP": 5,
            "Rarity": "common",
            "Manufacturer": "",
            "CardDisplayText": "On Install: Jettison all adjacent components",
            "CardTextTrigger": "ThisComponentInstalled",
            "Condition": "",
            "CardTextId": "Jettison",
            "CardTextTarget": "AllAdjacentComponents",
            "CardParam1": "",
            "CardParam2": "",
            "CardTextIdA": "",
            "CardTextTargetA": "",
            "CardParam1A": "",
            "CardParam2A": "",
            "DamageType": "",
            "Class": "",
            "State": "Offline",
            "DrawNumber": 4,
            "MaxHP": 5,
            "BaseMaxHP": 5,
            "BaseAttack": 4,
            "BaseCost": 4
          },
          "socketBuffs": []
        },
        {
          "slotId": 5,
          "entity": null,
          "socketBuffs": []
        },
        {
          "slotId": 6,
          "entity": null,
          "socketBuffs": []
        },
        {
          "slotId": 7,
          "entity": null,
          "socketBuffs": []
        },
        {
          "slotId": 8,
          "entity": {
            "Id": "AT_WN_AlphaBlaster",
            "DisplayName": "Alpha Blaster",
            "CardType": "Weapon",
            "Cost": 1,
            "Attack": 1,
            "HP": 3,
            "Rarity": "common",
            "Manufacturer": "",
            "CardDisplayText": "",
            "CardTextTrigger": "",
            "Condition": "",
            "CardTextId": "",
            "CardTextTarget": "",
            "CardParam1": "",
            "CardParam2": "",
            "CardTextIdA": "",
            "CardTextTargetA": "",
            "CardParam1A": "",
            "CardParam2A": "",
            "DamageType": "Laser",
            "Class": "Neutral",
            "State": "Offline",
            "DrawNumber": 6,
            "MaxHP": 3,
            "BaseMaxHP": 3,
            "BaseAttack": 1,
            "BaseCost": 1
          },
          "socketBuffs": []
        }
      ],
      "localPlayerView": {},
      "remotePlayerView": {}
    },
    "player2": {
      "testData": "PlayerState",
      "id": "5787a3f42c3d610491d48f4c",
      "name": "",
      "hullHP": 20,
      "maxHullHP": 20,
      "turn": 4,
      "power": 4,
      "powerThisTurn": 4,
      "maxPower": 10,
      "deck": {
        "id": "5829dadf23791d557fe2f3df",
        "cards": [
          "AT_WN_AlphaBlaster",
          "AT_WN_AlphaBlaster",
          "AT_WN_AlphaBlaster",
          "AT_WN_AlphaBlaster",
          "AT_WN_TinyLaser",
          "AT_WN_TinyLaser",
          "AT_WN_TinyLaser",
          "AT_WN_TinyLaser",
          "AT_WN_AlphaBlaster",
          "AT_WN_AlphaBlaster",
          "AT_WN_AlphaBlaster",
          "AT_WN_AlphaBlaster",
          "AT_WN_AlphaBlaster",
          "AT_WN_TinyLaser",
          "AT_WN_TinyLaser",
          "AT_WN_TinyLaser",
          "AT_WN_TinyLaser",
          "AT_WN_TinyLaser",
          "AT_WN_AlphaBlaster",
          "AT_WN_AlphaBlaster",
          "AT_WN_AlphaBlaster",
          "AT_WN_TinyLaser"
        ],
        "class": "Debug"
      },
      "hand": [
        {
          "Id": "AT_WN_BadNeighbour",
          "DisplayName": "Bad Neighbour",
          "CardType": "Weapon",
          "Cost": 4,
          "Attack": 4,
          "HP": 5,
          "Rarity": "common",
          "Manufacturer": "",
          "CardDisplayText": "On Install: Jettison all adjacent components",
          "CardTextTrigger": "ThisComponentInstalled",
          "Condition": "",
          "CardTextId": "Jettison",
          "CardTextTarget": "AllAdjacentComponents",
          "CardParam1": "",
          "CardParam2": "",
          "CardTextIdA": "",
          "CardTextTargetA": "",
          "CardParam1A": "",
          "CardParam2A": "",
          "DamageType": "",
          "Class": "",
          "State": "InHandPlayable",
          "DrawNumber": 0,
          "MaxHP": 5,
          "BaseMaxHP": 5,
          "BaseAttack": 4,
          "BaseCost": 4
        },
        {
          "Id": "AT_WN_BadNeighbour",
          "DisplayName": "Bad Neighbour",
          "CardType": "Weapon",
          "Cost": 4,
          "Attack": 4,
          "HP": 5,
          "Rarity": "common",
          "Manufacturer": "",
          "CardDisplayText": "On Install: Jettison all adjacent components",
          "CardTextTrigger": "ThisComponentInstalled",
          "Condition": "",
          "CardTextId": "Jettison",
          "CardTextTarget": "AllAdjacentComponents",
          "CardParam1": "",
          "CardParam2": "",
          "CardTextIdA": "",
          "CardTextTargetA": "",
          "CardParam1A": "",
          "CardParam2A": "",
          "DamageType": "",
          "Class": "",
          "State": "InHandPlayable",
          "DrawNumber": 1,
          "MaxHP": 5,
          "BaseMaxHP": 5,
          "BaseAttack": 4,
          "BaseCost": 4
        },
        {
          "Id": "AT_WN_AlphaBlaster",
          "DisplayName": "Alpha Blaster",
          "CardType": "Weapon",
          "Cost": 1,
          "Attack": 1,
          "HP": 3,
          "Rarity": "common",
          "Manufacturer": "",
          "CardDisplayText": "",
          "CardTextTrigger": "",
          "Condition": "",
          "CardTextId": "",
          "CardTextTarget": "",
          "CardParam1": "",
          "CardParam2": "",
          "CardTextIdA": "",
          "CardTextTargetA": "",
          "CardParam1A": "",
          "CardParam2A": "",
          "DamageType": "Laser",
          "Class": "Neutral",
          "State": "InHandPlayable",
          "DrawNumber": 2,
          "MaxHP": 3,
          "BaseMaxHP": 3,
          "BaseAttack": 1,
          "BaseCost": 1
        },
        {
          "Id": "AT_WN_TinyLaser",
          "DisplayName": "Tiny Laser",
          "CardType": "Weapon",
          "Cost": 0,
          "Attack": 1,
          "HP": 1,
          "Rarity": "common",
          "Manufacturer": "",
          "CardDisplayText": "",
          "CardTextTrigger": "",
          "Condition": "",
          "CardTextId": "",
          "CardTextTarget": "",
          "CardParam1": "",
          "CardParam2": "",
          "CardTextIdA": "",
          "CardTextTargetA": "",
          "CardParam1A": "",
          "CardParam2A": "",
          "DamageType": "Laser",
          "Class": "Neutral",
          "State": "InHandPlayable",
          "DrawNumber": 3,
          "MaxHP": 1,
          "BaseMaxHP": 1,
          "BaseAttack": 1,
          "BaseCost": 0
        },
        {
          "Id": "AT_WN_AlphaBlaster",
          "DisplayName": "Alpha Blaster",
          "CardType": "Weapon",
          "Cost": 1,
          "Attack": 1,
          "HP": 3,
          "Rarity": "common",
          "Manufacturer": "",
          "CardDisplayText": "",
          "CardTextTrigger": "",
          "Condition": "",
          "CardTextId": "",
          "CardTextTarget": "",
          "CardParam1": "",
          "CardParam2": "",
          "CardTextIdA": "",
          "CardTextTargetA": "",
          "CardParam1A": "",
          "CardParam2A": "",
          "DamageType": "Laser",
          "Class": "Neutral",
          "State": "InHandPlayable",
          "DrawNumber": 8,
          "MaxHP": 3,
          "BaseMaxHP": 3,
          "BaseAttack": 1,
          "BaseCost": 1
        },
        {
          "Id": "AT_WN_TinyLaser",
          "DisplayName": "Tiny Laser",
          "CardType": "Weapon",
          "Cost": 0,
          "Attack": 1,
          "HP": 1,
          "Rarity": "common",
          "Manufacturer": "",
          "CardDisplayText": "",
          "CardTextTrigger": "",
          "Condition": "",
          "CardTextId": "",
          "CardTextTarget": "",
          "CardParam1": "",
          "CardParam2": "",
          "CardTextIdA": "",
          "CardTextTargetA": "",
          "CardParam1A": "",
          "CardParam2A": "",
          "DamageType": "Laser",
          "Class": "Neutral",
          "State": "InHandPlayable",
          "DrawNumber": 10,
          "MaxHP": 1,
          "BaseMaxHP": 1,
          "BaseAttack": 1,
          "BaseCost": 0
        },
        {
          "Id": "AT_WN_AlphaBlaster",
          "DisplayName": "Alpha Blaster",
          "CardType": "Weapon",
          "Cost": 1,
          "Attack": 1,
          "HP": 3,
          "Rarity": "common",
          "Manufacturer": "",
          "CardDisplayText": "",
          "CardTextTrigger": "",
          "Condition": "",
          "CardTextId": "",
          "CardTextTarget": "",
          "CardParam1": "",
          "CardParam2": "",
          "CardTextIdA": "",
          "CardTextTargetA": "",
          "CardParam1A": "",
          "CardParam2A": "",
          "DamageType": "Laser",
          "Class": "Neutral",
          "State": "InHandPlayable",
          "DrawNumber": 12,
          "MaxHP": 3,
          "BaseMaxHP": 3,
          "BaseAttack": 1,
          "BaseCost": 1
        },
        {
          "Id": "AT_WN_TinyLaser",
          "DisplayName": "Tiny Laser",
          "CardType": "Weapon",
          "Cost": 0,
          "Attack": 1,
          "HP": 1,
          "Rarity": "common",
          "Manufacturer": "",
          "CardDisplayText": "",
          "CardTextTrigger": "",
          "Condition": "",
          "CardTextId": "",
          "CardTextTarget": "",
          "CardParam1": "",
          "CardParam2": "",
          "CardTextIdA": "",
          "CardTextTargetA": "",
          "CardParam1A": "",
          "CardParam2A": "",
          "DamageType": "Laser",
          "Class": "Neutral",
          "State": "InHandPlayable",
          "DrawNumber": 14,
          "MaxHP": 1,
          "BaseMaxHP": 1,
          "BaseAttack": 1,
          "BaseCost": 0
        }
      ],
      "board": [
        {
          "slotId": 0,
          "entity": null,
          "socketBuffs": []
        },
        {
          "slotId": 1,
          "entity": null,
          "socketBuffs": []
        },
        {
          "slotId": 2,
          "entity": null,
          "socketBuffs": []
        },
        {
          "slotId": 3,
          "entity": null,
          "socketBuffs": []
        },
        {
          "slotId": 4,
          "entity": null,
          "socketBuffs": []
        },
        {
          "slotId": 5,
          "entity": null,
          "socketBuffs": []
        },
        {
          "slotId": 6,
          "entity": null,
          "socketBuffs": []
        },
        {
          "slotId": 7,
          "entity": null,
          "socketBuffs": []
        },
        {
          "slotId": 8,
          "entity": null,
          "socketBuffs": []
        }
      ],
      "localPlayerView": {},
      "remotePlayerView": {}
    },
    "events": [],
    "lastDrawNumber": 15
  },
  "challengeDecks": [
    {
      "playerId": "5788ac782c3d6104911e2f01",
      "deckId": "5829dae323791d557fe2f5d0",
      "deck": {
        "id": "5829dae323791d557fe2f5d0",
        "cards": [
          "AT_WN_AlphaBlaster",
          "AT_WN_AlphaBlaster",
          "AT_WN_AlphaBlaster",
          "AT_WN_AlphaBlaster",
          "AT_WN_TinyLaser",
          "AT_WN_TinyLaser",
          "AT_WN_TinyLaser",
          "AT_WN_TinyLaser",
          "AT_WN_AlphaBlaster",
          "AT_WN_AlphaBlaster",
          "AT_WN_AlphaBlaster",
          "AT_WN_AlphaBlaster",
          "AT_WN_AlphaBlaster",
          "AT_WN_TinyLaser",
          "AT_WN_TinyLaser",
          "AT_WN_TinyLaser",
          "AT_WN_TinyLaser",
          "AT_WN_TinyLaser",
          "AT_WN_AlphaBlaster",
          "AT_WN_AlphaBlaster",
          "AT_WN_AlphaBlaster",
          "AT_WN_TinyLaser",
          "AT_WN_TinyLaser",
          "AT_WN_AlphaBlaster",
          "AT_WN_TinyLaser",
          "AT_WN_AlphaBlaster",
          "AT_WN_TinyLaser",
          "AT_WN_AlphaBlaster",
          "AT_WN_BadNeighbour",
          "AT_WN_BadNeighbour"
        ],
        "class": "Debug"
      }
    },
    {
      "playerId": "5787a3f42c3d610491d48f4c",
      "deckId": "5829dadf23791d557fe2f3df",
      "deck": {
        "id": "5829dadf23791d557fe2f3df",
        "cards": [
          "AT_WN_AlphaBlaster",
          "AT_WN_AlphaBlaster",
          "AT_WN_AlphaBlaster",
          "AT_WN_AlphaBlaster",
          "AT_WN_TinyLaser",
          "AT_WN_TinyLaser",
          "AT_WN_TinyLaser",
          "AT_WN_TinyLaser",
          "AT_WN_AlphaBlaster",
          "AT_WN_AlphaBlaster",
          "AT_WN_AlphaBlaster",
          "AT_WN_AlphaBlaster",
          "AT_WN_AlphaBlaster",
          "AT_WN_TinyLaser",
          "AT_WN_TinyLaser",
          "AT_WN_TinyLaser",
          "AT_WN_TinyLaser",
          "AT_WN_TinyLaser",
          "AT_WN_AlphaBlaster",
          "AT_WN_AlphaBlaster",
          "AT_WN_AlphaBlaster",
          "AT_WN_TinyLaser",
          "AT_WN_TinyLaser",
          "AT_WN_AlphaBlaster",
          "AT_WN_TinyLaser",
          "AT_WN_AlphaBlaster",
          "AT_WN_TinyLaser",
          "AT_WN_AlphaBlaster",
          "AT_WN_BadNeighbour",
          "AT_WN_BadNeighbour"
        ],
        "class": "Debug"
      }
    }
  ]
}