{
  "challengeId": "58176bf49650b504d6523c2e",
  "replayName": "AT_WF_Sidekick_without_adjacent",
  "replayDescription": "Install where an adjacent empty slot is not available",
  "firstPlayer": "57a46bc94912890496649e51",
  "mulliganData": {
    "57a46bc54912890496649e01": {
      "cards": [
        "True",
        "True",
        "True",
        "True"
      ]
    },
    "57a46bc94912890496649e51": {
      "cards": [
        "True",
        "True",
        "True"
      ]
    }
  },
  "players": [
    "57a46bc94912890496649e51",
    "57a46bc54912890496649e01"
  ],
  "recordedMoves": [
    {
      "name": "endTurn",
      "fromPlayerId": "57a46bc94912890496649e51",
      "turnNumber": 0,
      "data": {
        "playerId": "57a46bc94912890496649e51",
        "inactivePlayerId": "57a46bc54912890496649e01"
      }
    },
    {
      "name": "endTurn",
      "fromPlayerId": "57a46bc54912890496649e01",
      "turnNumber": 0,
      "data": {
        "playerId": "57a46bc54912890496649e01",
        "inactivePlayerId": "57a46bc94912890496649e51"
      }
    },
    {
      "name": "endTurn",
      "fromPlayerId": "57a46bc94912890496649e51",
      "turnNumber": 1,
      "data": {
        "playerId": "57a46bc94912890496649e51",
        "inactivePlayerId": "57a46bc54912890496649e01"
      }
    },
    {
      "name": "endTurn",
      "fromPlayerId": "57a46bc54912890496649e01",
      "turnNumber": 1,
      "data": {
        "playerId": "57a46bc54912890496649e01",
        "inactivePlayerId": "57a46bc94912890496649e51"
      }
    },
    {
      "name": "endTurn",
      "fromPlayerId": "57a46bc94912890496649e51",
      "turnNumber": 2,
      "data": {
        "playerId": "57a46bc94912890496649e51",
        "inactivePlayerId": "57a46bc54912890496649e01"
      }
    },
    {
      "name": "endTurn",
      "fromPlayerId": "57a46bc54912890496649e01",
      "turnNumber": 2,
      "data": {
        "playerId": "57a46bc54912890496649e01",
        "inactivePlayerId": "57a46bc94912890496649e51"
      }
    },
    {
      "name": "endTurn",
      "fromPlayerId": "57a46bc94912890496649e51",
      "turnNumber": 3,
      "data": {
        "playerId": "57a46bc94912890496649e51",
        "inactivePlayerId": "57a46bc54912890496649e01"
      }
    },
    {
      "name": "endTurn",
      "fromPlayerId": "57a46bc54912890496649e01",
      "turnNumber": 3,
      "data": {
        "playerId": "57a46bc54912890496649e01",
        "inactivePlayerId": "57a46bc94912890496649e51"
      }
    },
    {
      "name": "endTurn",
      "fromPlayerId": "57a46bc94912890496649e51",
      "turnNumber": 4,
      "data": {
        "playerId": "57a46bc94912890496649e51",
        "inactivePlayerId": "57a46bc54912890496649e01"
      }
    },
    {
      "name": "endTurn",
      "fromPlayerId": "57a46bc54912890496649e01",
      "turnNumber": 4,
      "data": {
        "playerId": "57a46bc54912890496649e01",
        "inactivePlayerId": "57a46bc94912890496649e51"
      }
    },
    {
      "name": "endTurn",
      "fromPlayerId": "57a46bc94912890496649e51",
      "turnNumber": 5,
      "data": {
        "playerId": "57a46bc94912890496649e51",
        "inactivePlayerId": "57a46bc54912890496649e01"
      }
    },
    {
      "name": "installComponent",
      "fromPlayerId": "57a46bc54912890496649e01",
      "turnNumber": 5,
      "data": {
        "playerId": "57a46bc54912890496649e01",
        "drawNumber": 8,
        "socketId": 3
      }
    },
    {
      "name": "installComponent",
      "fromPlayerId": "57a46bc54912890496649e01",
      "turnNumber": 5,
      "data": {
        "playerId": "57a46bc54912890496649e01",
        "drawNumber": 16,
        "socketId": 1
      }
    },
    {
      "name": "endTurn",
      "fromPlayerId": "57a46bc54912890496649e01",
      "turnNumber": 5,
      "data": {
        "playerId": "57a46bc54912890496649e01",
        "inactivePlayerId": "57a46bc94912890496649e51"
      }
    },
    {
      "name": "endTurn",
      "fromPlayerId": "57a46bc94912890496649e51",
      "turnNumber": 6,
      "data": {
        "playerId": "57a46bc94912890496649e51",
        "inactivePlayerId": "57a46bc54912890496649e01"
      }
    },
    {
      "name": "installComponent",
      "fromPlayerId": "57a46bc54912890496649e01",
      "turnNumber": 6,
      "data": {
        "playerId": "57a46bc54912890496649e01",
        "drawNumber": 0,
        "socketId": 0
      }
    }
  ],
  "battleState": {
    "version": 1,
    "issueNumber": 44,
    "rngFirstSeed": 1477929972972.0,
    "rngLastSeed": 0,
    "player1": {
      "testData": "PlayerState",
      "id": "57a46bc94912890496649e51",
      "name": "",
      "hullHP": 20,
      "maxHullHP": 20,
      "turn": 7,
      "power": 0,
      "powerThisTurn": 7,
      "maxPower": 10,
      "deck": {
        "id": "58176bf423791d04d2200138",
        "cards": [
          "AT_WN_AlphaBlaster",
          "AT_WN_AlphaBlaster",
          "AT_WN_AlphaBlaster",
          "AT_WN_AlphaBlaster",
          "AT_WN_TinyLaser",
          "AT_WN_TinyLaser",
          "AT_WN_TinyLaser",
          "AT_WN_TinyLaser",
          "AT_WN_AlphaBlaster",
          "AT_WN_AlphaBlaster",
          "AT_WN_AlphaBlaster",
          "AT_WN_AlphaBlaster",
          "AT_WN_AlphaBlaster",
          "AT_WN_TinyLaser",
          "AT_WN_TinyLaser",
          "AT_WN_TinyLaser",
          "AT_WN_TinyLaser",
          "AT_WN_TinyLaser",
          "AT_WN_AlphaBlaster",
          "AT_WN_AlphaBlaster"
        ],
        "class": "Debug"
      },
      "hand": [
        {
          "Id": "AT_WF_Sidekick",
          "DisplayName": "Sidekick",
          "CardType": "Weapon",
          "Cost": 7,
          "Attack": 4,
          "HP": 5,
          "Rarity": "legendary",
          "Manufacturer": "",
          "CardDisplayText": "On install: Install a Tiny Laser in a random adjacent socket",
          "CardTextTrigger": "ThisComponentInstalled",
          "Condition": "",
          "CardTextId": "InstallTinyLaser",
          "CardTextTarget": "RandomAdjacentSocket",
          "CardParam1": "",
          "CardParam2": "",
          "CardTextIdA": "",
          "CardTextTargetA": "",
          "CardParam1A": "",
          "CardParam2A": "",
          "DamageType": "Laser",
          "Class": "Enforcer",
          "State": "InHandNotMyTurn",
          "DrawNumber": 4,
          "MaxHP": 5,
          "BaseMaxHP": 5,
          "BaseAttack": 4,
          "BaseCost": 7
        },
        {
          "Id": "AT_WF_Sidekick",
          "DisplayName": "Sidekick",
          "CardType": "Weapon",
          "Cost": 7,
          "Attack": 4,
          "HP": 5,
          "Rarity": "legendary",
          "Manufacturer": "",
          "CardDisplayText": "On install: Install a Tiny Laser in a random adjacent socket",
          "CardTextTrigger": "ThisComponentInstalled",
          "Condition": "",
          "CardTextId": "InstallTinyLaser",
          "CardTextTarget": "RandomAdjacentSocket",
          "CardParam1": "",
          "CardParam2": "",
          "CardTextIdA": "",
          "CardTextTargetA": "",
          "CardParam1A": "",
          "CardParam2A": "",
          "DamageType": "Laser",
          "Class": "Enforcer",
          "State": "InHandNotMyTurn",
          "DrawNumber": 5,
          "MaxHP": 5,
          "BaseMaxHP": 5,
          "BaseAttack": 4,
          "BaseCost": 7
        },
        {
          "Id": "AT_WN_TinyLaser",
          "DisplayName": "Tiny Laser",
          "CardType": "Weapon",
          "Cost": 0,
          "Attack": 1,
          "HP": 1,
          "Rarity": "common",
          "Manufacturer": "",
          "CardDisplayText": "",
          "CardTextTrigger": "",
          "Condition": "",
          "CardTextId": "",
          "CardTextTarget": "",
          "CardParam1": "",
          "CardParam2": "",
          "CardTextIdA": "",
          "CardTextTargetA": "",
          "CardParam1A": "",
          "CardParam2A": "",
          "DamageType": "Laser",
          "Class": "Neutral",
          "State": "InHandNotMyTurn",
          "DrawNumber": 6,
          "MaxHP": 1,
          "BaseMaxHP": 1,
          "BaseAttack": 1,
          "BaseCost": 0
        },
        {
          "Id": "AT_WN_TinyLaser",
          "DisplayName": "Tiny Laser",
          "CardType": "Weapon",
          "Cost": 0,
          "Attack": 1,
          "HP": 1,
          "Rarity": "common",
          "Manufacturer": "",
          "CardDisplayText": "",
          "CardTextTrigger": "",
          "Condition": "",
          "CardTextId": "",
          "CardTextTarget": "",
          "CardParam1": "",
          "CardParam2": "",
          "CardTextIdA": "",
          "CardTextTargetA": "",
          "CardParam1A": "",
          "CardParam2A": "",
          "DamageType": "Laser",
          "Class": "Neutral",
          "State": "InHandNotMyTurn",
          "DrawNumber": 7,
          "MaxHP": 1,
          "BaseMaxHP": 1,
          "BaseAttack": 1,
          "BaseCost": 0
        },
        {
          "Id": "AT_WN_TinyLaser",
          "DisplayName": "Tiny Laser",
          "CardType": "Weapon",
          "Cost": 0,
          "Attack": 1,
          "HP": 1,
          "Rarity": "common",
          "Manufacturer": "",
          "CardDisplayText": "",
          "CardTextTrigger": "",
          "Condition": "",
          "CardTextId": "",
          "CardTextTarget": "",
          "CardParam1": "",
          "CardParam2": "",
          "CardTextIdA": "",
          "CardTextTargetA": "",
          "CardParam1A": "",
          "CardParam2A": "",
          "DamageType": "Laser",
          "Class": "Neutral",
          "State": "InHandNotMyTurn",
          "DrawNumber": 9,
          "MaxHP": 1,
          "BaseMaxHP": 1,
          "BaseAttack": 1,
          "BaseCost": 0
        },
        {
          "Id": "AT_WN_TinyLaser",
          "DisplayName": "Tiny Laser",
          "CardType": "Weapon",
          "Cost": 0,
          "Attack": 1,
          "HP": 1,
          "Rarity": "common",
          "Manufacturer": "",
          "CardDisplayText": "",
          "CardTextTrigger": "",
          "Condition": "",
          "CardTextId": "",
          "CardTextTarget": "",
          "CardParam1": "",
          "CardParam2": "",
          "CardTextIdA": "",
          "CardTextTargetA": "",
          "CardParam1A": "",
          "CardParam2A": "",
          "DamageType": "Laser",
          "Class": "Neutral",
          "State": "InHandNotMyTurn",
          "DrawNumber": 11,
          "MaxHP": 1,
          "BaseMaxHP": 1,
          "BaseAttack": 1,
          "BaseCost": 0
        },
        {
          "Id": "AT_WN_TinyLaser",
          "DisplayName": "Tiny Laser",
          "CardType": "Weapon",
          "Cost": 0,
          "Attack": 1,
          "HP": 1,
          "Rarity": "common",
          "Manufacturer": "",
          "CardDisplayText": "",
          "CardTextTrigger": "",
          "Condition": "",
          "CardTextId": "",
          "CardTextTarget": "",
          "CardParam1": "",
          "CardParam2": "",
          "CardTextIdA": "",
          "CardTextTargetA": "",
          "CardParam1A": "",
          "CardParam2A": "",
          "DamageType": "Laser",
          "Class": "Neutral",
          "State": "InHandNotMyTurn",
          "DrawNumber": 13,
          "MaxHP": 1,
          "BaseMaxHP": 1,
          "BaseAttack": 1,
          "BaseCost": 0
        },
        {
          "Id": "AT_WN_AlphaBlaster",
          "DisplayName": "Alpha Blaster",
          "CardType": "Weapon",
          "Cost": 1,
          "Attack": 1,
          "HP": 3,
          "Rarity": "common",
          "Manufacturer": "",
          "CardDisplayText": "",
          "CardTextTrigger": "",
          "Condition": "",
          "CardTextId": "",
          "CardTextTarget": "",
          "CardParam1": "",
          "CardParam2": "",
          "CardTextIdA": "",
          "CardTextTargetA": "",
          "CardParam1A": "",
          "CardParam2A": "",
          "DamageType": "Laser",
          "Class": "Neutral",
          "State": "InHandNotMyTurn",
          "DrawNumber": 15,
          "MaxHP": 3,
          "BaseMaxHP": 3,
          "BaseAttack": 1,
          "BaseCost": 1
        },
        {
          "Id": "AT_WN_AlphaBlaster",
          "DisplayName": "Alpha Blaster",
          "CardType": "Weapon",
          "Cost": 1,
          "Attack": 1,
          "HP": 3,
          "Rarity": "common",
          "Manufacturer": "",
          "CardDisplayText": "",
          "CardTextTrigger": "",
          "Condition": "",
          "CardTextId": "",
          "CardTextTarget": "",
          "CardParam1": "",
          "CardParam2": "",
          "CardTextIdA": "",
          "CardTextTargetA": "",
          "CardParam1A": "",
          "CardParam2A": "",
          "DamageType": "Laser",
          "Class": "Neutral",
          "State": "InHandNotMyTurn",
          "DrawNumber": 17,
          "MaxHP": 3,
          "BaseMaxHP": 3,
          "BaseAttack": 1,
          "BaseCost": 1
        },
        {
          "Id": "AT_WN_AlphaBlaster",
          "DisplayName": "Alpha Blaster",
          "CardType": "Weapon",
          "Cost": 1,
          "Attack": 1,
          "HP": 3,
          "Rarity": "common",
          "Manufacturer": "",
          "CardDisplayText": "",
          "CardTextTrigger": "",
          "Condition": "",
          "CardTextId": "",
          "CardTextTarget": "",
          "CardParam1": "",
          "CardParam2": "",
          "CardTextIdA": "",
          "CardTextTargetA": "",
          "CardParam1A": "",
          "CardParam2A": "",
          "DamageType": "Laser",
          "Class": "Neutral",
          "State": "InHandNotMyTurn",
          "DrawNumber": 19,
          "MaxHP": 3,
          "BaseMaxHP": 3,
          "BaseAttack": 1,
          "BaseCost": 1
        }
      ],
      "board": [
        {
          "slotId": 0,
          "entity": null,
          "socketBuffs": []
        },
        {
          "slotId": 1,
          "entity": null,
          "socketBuffs": []
        },
        {
          "slotId": 2,
          "entity": null,
          "socketBuffs": []
        },
        {
          "slotId": 3,
          "entity": null,
          "socketBuffs": []
        },
        {
          "slotId": 4,
          "entity": null,
          "socketBuffs": []
        },
        {
          "slotId": 5,
          "entity": null,
          "socketBuffs": []
        },
        {
          "slotId": 6,
          "entity": null,
          "socketBuffs": []
        },
        {
          "slotId": 7,
          "entity": null,
          "socketBuffs": []
        },
        {
          "slotId": 8,
          "entity": null,
          "socketBuffs": []
        }
      ],
      "localPlayerView": {},
      "remotePlayerView": {}
    },
    "player2": {
      "testData": "PlayerState",
      "id": "57a46bc54912890496649e01",
      "name": "",
      "hullHP": 20,
      "maxHullHP": 20,
      "turn": 7,
      "power": 0,
      "powerThisTurn": 7,
      "maxPower": 10,
      "deck": {
        "id": "58176bef23791d04d21fff6d",
        "cards": [
          "AT_WN_AlphaBlaster",
          "AT_WN_AlphaBlaster",
          "AT_WN_AlphaBlaster",
          "AT_WN_AlphaBlaster",
          "AT_WN_TinyLaser",
          "AT_WN_TinyLaser",
          "AT_WN_TinyLaser",
          "AT_WN_TinyLaser",
          "AT_WN_AlphaBlaster",
          "AT_WN_AlphaBlaster",
          "AT_WN_AlphaBlaster",
          "AT_WN_AlphaBlaster",
          "AT_WN_AlphaBlaster",
          "AT_WN_TinyLaser",
          "AT_WN_TinyLaser",
          "AT_WN_TinyLaser",
          "AT_WN_TinyLaser",
          "AT_WN_TinyLaser",
          "AT_WN_AlphaBlaster"
        ],
        "class": "Debug"
      },
      "hand": [
        {
          "Id": "AT_WF_Sidekick",
          "DisplayName": "Sidekick",
          "CardType": "Weapon",
          "Cost": 7,
          "Attack": 4,
          "HP": 5,
          "Rarity": "legendary",
          "Manufacturer": "",
          "CardDisplayText": "On install: Install a Tiny Laser in a random adjacent socket",
          "CardTextTrigger": "ThisComponentInstalled",
          "Condition": "",
          "CardTextId": "InstallTinyLaser",
          "CardTextTarget": "RandomAdjacentSocket",
          "CardParam1": "",
          "CardParam2": "",
          "CardTextIdA": "",
          "CardTextTargetA": "",
          "CardParam1A": "",
          "CardParam2A": "",
          "DamageType": "Laser",
          "Class": "Enforcer",
          "State": "InHandNotEnoughPower",
          "DrawNumber": 1,
          "MaxHP": 5,
          "BaseMaxHP": 5,
          "BaseAttack": 4,
          "BaseCost": 7
        },
        {
          "Id": "AT_WN_TinyLaser",
          "DisplayName": "Tiny Laser",
          "CardType": "Weapon",
          "Cost": 0,
          "Attack": 1,
          "HP": 1,
          "Rarity": "common",
          "Manufacturer": "",
          "CardDisplayText": "",
          "CardTextTrigger": "",
          "Condition": "",
          "CardTextId": "",
          "CardTextTarget": "",
          "CardParam1": "",
          "CardParam2": "",
          "CardTextIdA": "",
          "CardTextTargetA": "",
          "CardParam1A": "",
          "CardParam2A": "",
          "DamageType": "Laser",
          "Class": "Neutral",
          "State": "InHandPlayable",
          "DrawNumber": 2,
          "MaxHP": 1,
          "BaseMaxHP": 1,
          "BaseAttack": 1,
          "BaseCost": 0
        },
        {
          "Id": "AT_WN_TinyLaser",
          "DisplayName": "Tiny Laser",
          "CardType": "Weapon",
          "Cost": 0,
          "Attack": 1,
          "HP": 1,
          "Rarity": "common",
          "Manufacturer": "",
          "CardDisplayText": "",
          "CardTextTrigger": "",
          "Condition": "",
          "CardTextId": "",
          "CardTextTarget": "",
          "CardParam1": "",
          "CardParam2": "",
          "CardTextIdA": "",
          "CardTextTargetA": "",
          "CardParam1A": "",
          "CardParam2A": "",
          "DamageType": "Laser",
          "Class": "Neutral",
          "State": "InHandPlayable",
          "DrawNumber": 3,
          "MaxHP": 1,
          "BaseMaxHP": 1,
          "BaseAttack": 1,
          "BaseCost": 0
        },
        {
          "Id": "AT_WN_TinyLaser",
          "DisplayName": "Tiny Laser",
          "CardType": "Weapon",
          "Cost": 0,
          "Attack": 1,
          "HP": 1,
          "Rarity": "common",
          "Manufacturer": "",
          "CardDisplayText": "",
          "CardTextTrigger": "",
          "Condition": "",
          "CardTextId": "",
          "CardTextTarget": "",
          "CardParam1": "",
          "CardParam2": "",
          "CardTextIdA": "",
          "CardTextTargetA": "",
          "CardParam1A": "",
          "CardParam2A": "",
          "DamageType": "Laser",
          "Class": "Neutral",
          "State": "InHandPlayable",
          "DrawNumber": 10,
          "MaxHP": 1,
          "BaseMaxHP": 1,
          "BaseAttack": 1,
          "BaseCost": 0
        },
        {
          "Id": "AT_WN_TinyLaser",
          "DisplayName": "Tiny Laser",
          "CardType": "Weapon",
          "Cost": 0,
          "Attack": 1,
          "HP": 1,
          "Rarity": "common",
          "Manufacturer": "",
          "CardDisplayText": "",
          "CardTextTrigger": "",
          "Condition": "",
          "CardTextId": "",
          "CardTextTarget": "",
          "CardParam1": "",
          "CardParam2": "",
          "CardTextIdA": "",
          "CardTextTargetA": "",
          "CardParam1A": "",
          "CardParam2A": "",
          "DamageType": "Laser",
          "Class": "Neutral",
          "State": "InHandPlayable",
          "DrawNumber": 12,
          "MaxHP": 1,
          "BaseMaxHP": 1,
          "BaseAttack": 1,
          "BaseCost": 0
        },
        {
          "Id": "AT_WN_AlphaBlaster",
          "DisplayName": "Alpha Blaster",
          "CardType": "Weapon",
          "Cost": 1,
          "Attack": 1,
          "HP": 3,
          "Rarity": "common",
          "Manufacturer": "",
          "CardDisplayText": "",
          "CardTextTrigger": "",
          "Condition": "",
          "CardTextId": "",
          "CardTextTarget": "",
          "CardParam1": "",
          "CardParam2": "",
          "CardTextIdA": "",
          "CardTextTargetA": "",
          "CardParam1A": "",
          "CardParam2A": "",
          "DamageType": "Laser",
          "Class": "Neutral",
          "State": "InHandNotEnoughPower",
          "DrawNumber": 14,
          "MaxHP": 3,
          "BaseMaxHP": 3,
          "BaseAttack": 1,
          "BaseCost": 1
        },
        {
          "Id": "AT_WN_AlphaBlaster",
          "DisplayName": "Alpha Blaster",
          "CardType": "Weapon",
          "Cost": 1,
          "Attack": 1,
          "HP": 3,
          "Rarity": "common",
          "Manufacturer": "",
          "CardDisplayText": "",
          "CardTextTrigger": "",
          "Condition": "",
          "CardTextId": "",
          "CardTextTarget": "",
          "CardParam1": "",
          "CardParam2": "",
          "CardTextIdA": "",
          "CardTextTargetA": "",
          "CardParam1A": "",
          "CardParam2A": "",
          "DamageType": "Laser",
          "Class": "Neutral",
          "State": "InHandNotEnoughPower",
          "DrawNumber": 18,
          "MaxHP": 3,
          "BaseMaxHP": 3,
          "BaseAttack": 1,
          "BaseCost": 1
        },
        {
          "Id": "AT_WN_AlphaBlaster",
          "DisplayName": "Alpha Blaster",
          "CardType": "Weapon",
          "Cost": 1,
          "Attack": 1,
          "HP": 3,
          "Rarity": "common",
          "Manufacturer": "",
          "CardDisplayText": "",
          "CardTextTrigger": "",
          "Condition": "",
          "CardTextId": "",
          "CardTextTarget": "",
          "CardParam1": "",
          "CardParam2": "",
          "CardTextIdA": "",
          "CardTextTargetA": "",
          "CardParam1A": "",
          "CardParam2A": "",
          "DamageType": "Laser",
          "Class": "Neutral",
          "State": "InHandNotEnoughPower",
          "DrawNumber": 20,
          "MaxHP": 3,
          "BaseMaxHP": 3,
          "BaseAttack": 1,
          "BaseCost": 1
        }
      ],
      "board": [
        {
          "slotId": 0,
          "entity": {
            "Id": "AT_WF_Sidekick",
            "DisplayName": "Sidekick",
            "CardType": "Weapon",
            "Cost": 7,
            "Attack": 4,
            "HP": 5,
            "Rarity": "legendary",
            "Manufacturer": "",
            "CardDisplayText": "On install: Install a Tiny Laser in a random adjacent socket",
            "CardTextTrigger": "ThisComponentInstalled",
            "Condition": "",
            "CardTextId": "InstallTinyLaser",
            "CardTextTarget": "RandomAdjacentSocket",
            "CardParam1": "",
            "CardParam2": "",
            "CardTextIdA": "",
            "CardTextTargetA": "",
            "CardParam1A": "",
            "CardParam2A": "",
            "DamageType": "Laser",
            "Class": "Enforcer",
            "State": "Installing",
            "DrawNumber": 0,
            "MaxHP": 5,
            "BaseMaxHP": 5,
            "BaseAttack": 4,
            "BaseCost": 7
          },
          "socketBuffs": []
        },
        {
          "slotId": 1,
          "entity": {
            "Id": "AT_WN_AlphaBlaster",
            "DisplayName": "Alpha Blaster",
            "CardType": "Weapon",
            "Cost": 1,
            "Attack": 1,
            "HP": 3,
            "Rarity": "common",
            "Manufacturer": "",
            "CardDisplayText": "",
            "CardTextTrigger": "",
            "Condition": "",
            "CardTextId": "",
            "CardTextTarget": "",
            "CardParam1": "",
            "CardParam2": "",
            "CardTextIdA": "",
            "CardTextTargetA": "",
            "CardParam1A": "",
            "CardParam2A": "",
            "DamageType": "Laser",
            "Class": "Neutral",
            "State": "Online",
            "DrawNumber": 16,
            "MaxHP": 3,
            "BaseMaxHP": 3,
            "BaseAttack": 1,
            "BaseCost": 1
          },
          "socketBuffs": []
        },
        {
          "slotId": 2,
          "entity": null,
          "socketBuffs": []
        },
        {
          "slotId": 3,
          "entity": {
            "Id": "AT_WN_TinyLaser",
            "DisplayName": "Tiny Laser",
            "CardType": "Weapon",
            "Cost": 0,
            "Attack": 1,
            "HP": 1,
            "Rarity": "common",
            "Manufacturer": "",
            "CardDisplayText": "",
            "CardTextTrigger": "",
            "Condition": "",
            "CardTextId": "",
            "CardTextTarget": "",
            "CardParam1": "",
            "CardParam2": "",
            "CardTextIdA": "",
            "CardTextTargetA": "",
            "CardParam1A": "",
            "CardParam2A": "",
            "DamageType": "Laser",
            "Class": "Neutral",
            "State": "Online",
            "DrawNumber": 8,
            "MaxHP": 1,
            "BaseMaxHP": 1,
            "BaseAttack": 1,
            "BaseCost": 0
          },
          "socketBuffs": []
        },
        {
          "slotId": 4,
          "entity": null,
          "socketBuffs": []
        },
        {
          "slotId": 5,
          "entity": null,
          "socketBuffs": []
        },
        {
          "slotId": 6,
          "entity": null,
          "socketBuffs": []
        },
        {
          "slotId": 7,
          "entity": null,
          "socketBuffs": []
        },
        {
          "slotId": 8,
          "entity": null,
          "socketBuffs": []
        }
      ],
      "localPlayerView": {},
      "remotePlayerView": {}
    },
    "events": [],
    "lastDrawNumber": 21
  },
  "challengeDecks": [
    {
      "playerId": "57a46bc94912890496649e51",
      "deckId": "58176bf423791d04d2200138",
      "deck": {
        "id": "58176bf423791d04d2200138",
        "cards": [
          "AT_WN_AlphaBlaster",
          "AT_WN_AlphaBlaster",
          "AT_WN_AlphaBlaster",
          "AT_WN_AlphaBlaster",
          "AT_WN_TinyLaser",
          "AT_WN_TinyLaser",
          "AT_WN_TinyLaser",
          "AT_WN_TinyLaser",
          "AT_WN_AlphaBlaster",
          "AT_WN_AlphaBlaster",
          "AT_WN_AlphaBlaster",
          "AT_WN_AlphaBlaster",
          "AT_WN_AlphaBlaster",
          "AT_WN_TinyLaser",
          "AT_WN_TinyLaser",
          "AT_WN_TinyLaser",
          "AT_WN_TinyLaser",
          "AT_WN_TinyLaser",
          "AT_WN_AlphaBlaster",
          "AT_WN_AlphaBlaster",
          "AT_WN_AlphaBlaster",
          "AT_WN_AlphaBlaster",
          "AT_WN_AlphaBlaster",
          "AT_WN_TinyLaser",
          "AT_WN_TinyLaser",
          "AT_WN_TinyLaser",
          "AT_WN_TinyLaser",
          "AT_WN_TinyLaser",
          "AT_WF_Sidekick",
          "AT_WF_Sidekick"
        ],
        "class": "Debug"
      }
    },
    {
      "playerId": "57a46bc54912890496649e01",
      "deckId": "58176bef23791d04d21fff6d",
      "deck": {
        "id": "58176bef23791d04d21fff6d",
        "cards": [
          "AT_WN_AlphaBlaster",
          "AT_WN_AlphaBlaster",
          "AT_WN_AlphaBlaster",
          "AT_WN_AlphaBlaster",
          "AT_WN_TinyLaser",
          "AT_WN_TinyLaser",
          "AT_WN_TinyLaser",
          "AT_WN_TinyLaser",
          "AT_WN_AlphaBlaster",
          "AT_WN_AlphaBlaster",
          "AT_WN_AlphaBlaster",
          "AT_WN_AlphaBlaster",
          "AT_WN_AlphaBlaster",
          "AT_WN_TinyLaser",
          "AT_WN_TinyLaser",
          "AT_WN_TinyLaser",
          "AT_WN_TinyLaser",
          "AT_WN_TinyLaser",
          "AT_WN_AlphaBlaster",
          "AT_WN_AlphaBlaster",
          "AT_WN_AlphaBlaster",
          "AT_WN_AlphaBlaster",
          "AT_WN_AlphaBlaster",
          "AT_WN_TinyLaser",
          "AT_WN_TinyLaser",
          "AT_WN_TinyLaser",
          "AT_WN_TinyLaser",
          "AT_WN_TinyLaser",
          "AT_WF_Sidekick",
          "AT_WF_Sidekick"
        ],
        "class": "Debug"
      }
    }
  ]
}