%YAML 1.1
%TAG !u! tag:unity3d.com,2011:
--- !u!74 &7400000
AnimationClip:
  m_ObjectHideFlags: 0
  m_PrefabParentObject: {fileID: 0}
  m_PrefabInternal: {fileID: 0}
  m_Name: Fire
  serializedVersion: 6
  m_Legacy: 0
  m_Compressed: 0
  m_UseHighQualityCurve: 1
  m_RotationCurves: []
  m_CompressedRotationCurves: []
  m_EulerCurves:
  - curve:
      serializedVersion: 2
      m_Curve:
      - time: 0
        value: {x: 0, y: 0, z: 45}
        inSlope: {x: 0, y: 0, z: 187.19998}
        outSlope: {x: 0, y: 0, z: 187.19998}
        tangentMode: 0
      - time: 0.083333336
        value: {x: 0, y: 0, z: 60.6}
        inSlope: {x: 0, y: 0, z: 70.19999}
        outSlope: {x: 0, y: 0, z: 70.19999}
        tangentMode: 0
      - time: 0.41666666
        value: {x: 0, y: 0, z: 45}
        inSlope: {x: 0, y: 0, z: -46.8}
        outSlope: {x: 0, y: 0, z: -46.8}
        tangentMode: 0
      m_PreInfinity: 2
      m_PostInfinity: 2
      m_RotationOrder: 4
    path: base/armature001/armature002/armature003/body
  - curve:
      serializedVersion: 2
      m_Curve:
      - time: 0
        value: {x: 0, y: 0, z: -20}
        inSlope: {x: 0, y: 0, z: -104.25001}
        outSlope: {x: 0, y: 0, z: -104.25001}
        tangentMode: 0
      - time: 0.13333334
        value: {x: 0, y: 0, z: -33.9}
        inSlope: {x: 0, y: 0, z: -24.324999}
        outSlope: {x: 0, y: 0, z: -24.324999}
        tangentMode: 0
      - time: 0.38333333
        value: {x: 0, y: 0, z: -20}
        inSlope: {x: 0, y: 0, z: 55.60001}
        outSlope: {x: 0, y: 0, z: 55.60001}
        tangentMode: 0
      m_PreInfinity: 2
      m_PostInfinity: 2
      m_RotationOrder: 4
    path: base/armature001
  - curve:
      serializedVersion: 2
      m_Curve:
      - time: 0
        value: {x: 0, y: 0, z: 90}
        inSlope: {x: 0, y: 0, z: 143.24998}
        outSlope: {x: 0, y: 0, z: 143.24998}
        tangentMode: 0
      - time: 0.13333334
        value: {x: 0, y: 0, z: 109.1}
        inSlope: {x: 0, y: 0, z: 33.42499}
        outSlope: {x: 0, y: 0, z: 33.42499}
        tangentMode: 0
      - time: 0.38333333
        value: {x: 0, y: 0, z: 90}
        inSlope: {x: 0, y: 0, z: -76.4}
        outSlope: {x: 0, y: 0, z: -76.4}
        tangentMode: 0
      m_PreInfinity: 2
      m_PostInfinity: 2
      m_RotationOrder: 4
    path: base/armature001/armature002
  - curve:
      serializedVersion: 2
      m_Curve:
      - time: 0
        value: {x: 0, y: 0, z: -110}
        inSlope: {x: 0, y: 0, z: 96.75001}
        outSlope: {x: 0, y: 0, z: 96.75001}
        tangentMode: 0
      - time: 0.13333334
        value: {x: 0, y: 0, z: -97.1}
        inSlope: {x: 0, y: 0, z: 22.574999}
        outSlope: {x: 0, y: 0, z: 22.574999}
        tangentMode: 0
      - time: 0.38333333
        value: {x: 0, y: 0, z: -110}
        inSlope: {x: 0, y: 0, z: -51.60001}
        outSlope: {x: 0, y: 0, z: -51.60001}
        tangentMode: 0
      m_PreInfinity: 2
      m_PostInfinity: 2
      m_RotationOrder: 4
    path: base/armature001/armature002/armature003
  m_PositionCurves:
  - curve:
      serializedVersion: 2
      m_Curve:
      - time: 0
        value: {x: 0, y: 0, z: 0}
        inSlope: {x: -1.9799999, y: -0.65999997, z: 1.6049999}
        outSlope: {x: -1.9799999, y: -0.65999997, z: 1.6049999}
        tangentMode: 0
      - time: 0.06666667
        value: {x: -0.132, y: -0.044, z: 0.107}
        inSlope: {x: -0.74249995, y: -0.24749999, z: 0.60187495}
        outSlope: {x: -0.74249995, y: -0.24749999, z: 0.60187495}
        tangentMode: 0
      - time: 0.33333334
        value: {x: 0, y: 0, z: 0}
        inSlope: {x: 0, y: 0, z: 0}
        outSlope: {x: 0, y: 0, z: 0}
        tangentMode: 0
      m_PreInfinity: 2
      m_PostInfinity: 2
      m_RotationOrder: 4
    path: base/armature001/armature002/armature003/body/barrel/barrelWing1
  - curve:
      serializedVersion: 2
      m_Curve:
      - time: 0
        value: {x: 0, y: 0, z: 0}
        inSlope: {x: -1.9799999, y: -0.81, z: -0.98999995}
        outSlope: {x: -1.9799999, y: -0.81, z: -0.98999995}
        tangentMode: 0
      - time: 0.06666667
        value: {x: -0.132, y: -0.054, z: -0.066}
        inSlope: {x: -0.74249995, y: -0.30375, z: -0.37124997}
        outSlope: {x: -0.74249995, y: -0.30375, z: -0.37124997}
        tangentMode: 0
      - time: 0.33333334
        value: {x: 0, y: 0, z: 0}
        inSlope: {x: 0, y: 0, z: 0}
        outSlope: {x: 0, y: 0, z: 0}
        tangentMode: 0
      m_PreInfinity: 2
      m_PostInfinity: 2
      m_RotationOrder: 4
    path: base/armature001/armature002/armature003/body/barrel/barrelWing2
  - curve:
      serializedVersion: 2
      m_Curve:
      - time: 0
        value: {x: 0, y: 0, z: 0}
        inSlope: {x: -1.9799999, y: 1.305, z: 0}
        outSlope: {x: -1.9799999, y: 1.305, z: 0}
        tangentMode: 0
      - time: 0.06666667
        value: {x: -0.132, y: 0.087, z: 0}
        inSlope: {x: -0.74249995, y: 0.489375, z: 0}
        outSlope: {x: -0.74249995, y: 0.489375, z: 0}
        tangentMode: 0
      - time: 0.33333334
        value: {x: 0, y: 0, z: 0}
        inSlope: {x: 0, y: 0, z: 0}
        outSlope: {x: 0, y: 0, z: 0}
        tangentMode: 0
      m_PreInfinity: 2
      m_PostInfinity: 2
      m_RotationOrder: 4
    path: base/armature001/armature002/armature003/body/barrel/barrelWing3
  - curve:
      serializedVersion: 2
      m_Curve:
      - time: 0
        value: {x: 0.86392885, y: 0.46266484, z: -0.019899815}
        inSlope: {x: -1.9585776, y: 0.0067031384, z: 0}
        outSlope: {x: -1.9585776, y: 0.0067031384, z: 0}
        tangentMode: 0
      - time: 0.05
        value: {x: 0.766, y: 0.463, z: -0.019899815}
        inSlope: {x: -0.82466424, y: 0.002822374, z: 0}
        outSlope: {x: -0.82466424, y: 0.002822374, z: 0}
        tangentMode: 0
      - time: 0.36666667
        value: {x: 0.86392885, y: 0.46266484, z: -0.019899815}
        inSlope: {x: 0, y: 0, z: 0}
        outSlope: {x: 0, y: 0, z: 0}
        tangentMode: 0
      m_PreInfinity: 2
      m_PostInfinity: 2
      m_RotationOrder: 4
    path: base/armature001/armature002/armature003/body/barrel
  - curve:
      serializedVersion: 2
      m_Curve:
      - time: 0
        value: {x: -0.24353778, y: 0.519612, z: -0.019899815}
        inSlope: {x: -2.204622, y: 0.0038796663, z: 0}
        outSlope: {x: -2.204622, y: 0.0038796663, z: 0}
        tangentMode: 0
      - time: 0.1
        value: {x: -0.464, y: 0.52, z: -0.019899815}
        inSlope: {x: -0.787365, y: 0.0013855952, z: 0}
        outSlope: {x: -0.787365, y: 0.0013855952, z: 0}
        tangentMode: 0
      - time: 0.45
        value: {x: -0.24353778, y: 0.519612, z: -0.019899815}
        inSlope: {x: 0, y: 0, z: 0}
        outSlope: {x: 0, y: 0, z: 0}
        tangentMode: 0
      m_PreInfinity: 2
      m_PostInfinity: 2
      m_RotationOrder: 4
    path: base/armature001/armature002/armature003/body/wings
  m_ScaleCurves: []
  m_FloatCurves: []
  m_PPtrCurves: []
  m_SampleRate: 60
  m_WrapMode: 0
  m_Bounds:
    m_Center: {x: 0, y: 0, z: 0}
    m_Extent: {x: 0, y: 0, z: 0}
  m_ClipBindingConstant:
    genericBindings:
    - path: 3466125544
      attribute: 1
      script: {fileID: 0}
      classID: 4
      customType: 0
      isPPtrCurve: 0
    - path: 1469165906
      attribute: 1
      script: {fileID: 0}
      classID: 4
      customType: 0
      isPPtrCurve: 0
    - path: 546734532
      attribute: 1
      script: {fileID: 0}
      classID: 4
      customType: 0
      isPPtrCurve: 0
    - path: 397344360
      attribute: 1
      script: {fileID: 0}
      classID: 4
      customType: 0
      isPPtrCurve: 0
    - path: 2915263128
      attribute: 1
      script: {fileID: 0}
      classID: 4
      customType: 0
      isPPtrCurve: 0
    - path: 1538279345
      attribute: 4
      script: {fileID: 0}
      classID: 4
      customType: 14
      isPPtrCurve: 0
    - path: 4071756774
      attribute: 4
      script: {fileID: 0}
      classID: 4
      customType: 14
      isPPtrCurve: 0
    - path: 2661069440
      attribute: 4
      script: {fileID: 0}
      classID: 4
      customType: 14
      isPPtrCurve: 0
    - path: 4123291557
      attribute: 4
      script: {fileID: 0}
      classID: 4
      customType: 14
      isPPtrCurve: 0
    pptrCurveMapping: []
  m_AnimationClipSettings:
    serializedVersion: 2
    m_AdditiveReferencePoseClip: {fileID: 0}
    m_AdditiveReferencePoseTime: 0
    m_StartTime: 0
    m_StopTime: 0.45
    m_OrientationOffsetY: 0
    m_Level: 0
    m_CycleOffset: 0
    m_HasAdditiveReferencePose: 0
    m_LoopTime: 0
    m_LoopBlend: 0
    m_LoopBlendOrientation: 0
    m_LoopBlendPositionY: 0
    m_LoopBlendPositionXZ: 0
    m_KeepOriginalOrientation: 0
    m_KeepOriginalPositionY: 1
    m_KeepOriginalPositionXZ: 0
    m_HeightFromFeet: 0
    m_Mirror: 0
  m_EditorCurves:
  - curve:
      serializedVersion: 2
      m_Curve:
      - time: 0
        value: 0
        inSlope: -1.9799999
        outSlope: -1.9799999
        tangentMode: 10
      - time: 0.06666667
        value: -0.132
        inSlope: -0.74249995
        outSlope: -0.74249995
        tangentMode: 10
      - time: 0.33333334
        value: 0
        inSlope: 0
        outSlope: 0
        tangentMode: 0
      m_PreInfinity: 2
      m_PostInfinity: 2
      m_RotationOrder: 4
    attribute: m_LocalPosition.x
    path: base/armature001/armature002/armature003/body/barrel/barrelWing1
    classID: 4
    script: {fileID: 0}
  - curve:
      serializedVersion: 2
      m_Curve:
      - time: 0
        value: 0
        inSlope: -0.65999997
        outSlope: -0.65999997
        tangentMode: 10
      - time: 0.06666667
        value: -0.044
        inSlope: -0.24749999
        outSlope: -0.24749999
        tangentMode: 10
      - time: 0.33333334
        value: 0
        inSlope: 0
        outSlope: 0
        tangentMode: 0
      m_PreInfinity: 2
      m_PostInfinity: 2
      m_RotationOrder: 4
    attribute: m_LocalPosition.y
    path: base/armature001/armature002/armature003/body/barrel/barrelWing1
    classID: 4
    script: {fileID: 0}
  - curve:
      serializedVersion: 2
      m_Curve:
      - time: 0
        value: 0
        inSlope: 1.6049999
        outSlope: 1.6049999
        tangentMode: 10
      - time: 0.06666667
        value: 0.107
        inSlope: 0.60187495
        outSlope: 0.60187495
        tangentMode: 10
      - time: 0.33333334
        value: 0
        inSlope: 0
        outSlope: 0
        tangentMode: 0
      m_PreInfinity: 2
      m_PostInfinity: 2
      m_RotationOrder: 4
    attribute: m_LocalPosition.z
    path: base/armature001/armature002/armature003/body/barrel/barrelWing1
    classID: 4
    script: {fileID: 0}
  - curve:
      serializedVersion: 2
      m_Curve:
      - time: 0
        value: 0
        inSlope: -1.9799999
        outSlope: -1.9799999
        tangentMode: 10
      - time: 0.06666667
        value: -0.132
        inSlope: -0.74249995
        outSlope: -0.74249995
        tangentMode: 10
      - time: 0.33333334
        value: 0
        inSlope: 0
        outSlope: 0
        tangentMode: 0
      m_PreInfinity: 2
      m_PostInfinity: 2
      m_RotationOrder: 4
    attribute: m_LocalPosition.x
    path: base/armature001/armature002/armature003/body/barrel/barrelWing2
    classID: 4
    script: {fileID: 0}
  - curve:
      serializedVersion: 2
      m_Curve:
      - time: 0
        value: 0
        inSlope: -0.81
        outSlope: -0.81
        tangentMode: 10
      - time: 0.06666667
        value: -0.054
        inSlope: -0.30375
        outSlope: -0.30375
        tangentMode: 10
      - time: 0.33333334
        value: 0
        inSlope: 0
        outSlope: 0
        tangentMode: 0
      m_PreInfinity: 2
      m_PostInfinity: 2
      m_RotationOrder: 4
    attribute: m_LocalPosition.y
    path: base/armature001/armature002/armature003/body/barrel/barrelWing2
    classID: 4
    script: {fileID: 0}
  - curve:
      serializedVersion: 2
      m_Curve:
      - time: 0
        value: 0
        inSlope: -0.98999995
        outSlope: -0.98999995
        tangentMode: 10
      - time: 0.06666667
        value: -0.066
        inSlope: -0.37124997
        outSlope: -0.37124997
        tangentMode: 10
      - time: 0.33333334
        value: 0
        inSlope: 0
        outSlope: 0
        tangentMode: 0
      m_PreInfinity: 2
      m_PostInfinity: 2
      m_RotationOrder: 4
    attribute: m_LocalPosition.z
    path: base/armature001/armature002/armature003/body/barrel/barrelWing2
    classID: 4
    script: {fileID: 0}
  - curve:
      serializedVersion: 2
      m_Curve:
      - time: 0
        value: 0
        inSlope: -1.9799999
        outSlope: -1.9799999
        tangentMode: 10
      - time: 0.06666667
        value: -0.132
        inSlope: -0.74249995
        outSlope: -0.74249995
        tangentMode: 10
      - time: 0.33333334
        value: 0
        inSlope: 0
        outSlope: 0
        tangentMode: 0
      m_PreInfinity: 2
      m_PostInfinity: 2
      m_RotationOrder: 4
    attribute: m_LocalPosition.x
    path: base/armature001/armature002/armature003/body/barrel/barrelWing3
    classID: 4
    script: {fileID: 0}
  - curve:
      serializedVersion: 2
      m_Curve:
      - time: 0
        value: 0
        inSlope: 1.305
        outSlope: 1.305
        tangentMode: 10
      - time: 0.06666667
        value: 0.087
        inSlope: 0.489375
        outSlope: 0.489375
        tangentMode: 10
      - time: 0.33333334
        value: 0
        inSlope: 0
        outSlope: 0
        tangentMode: 0
      m_PreInfinity: 2
      m_PostInfinity: 2
      m_RotationOrder: 4
    attribute: m_LocalPosition.y
    path: base/armature001/armature002/armature003/body/barrel/barrelWing3
    classID: 4
    script: {fileID: 0}
  - curve:
      serializedVersion: 2
      m_Curve:
      - time: 0
        value: 0
        inSlope: 0
        outSlope: 0
        tangentMode: 10
      - time: 0.06666667
        value: 0
        inSlope: 0
        outSlope: 0
        tangentMode: 10
      - time: 0.33333334
        value: 0
        inSlope: 0
        outSlope: 0
        tangentMode: 0
      m_PreInfinity: 2
      m_PostInfinity: 2
      m_RotationOrder: 4
    attribute: m_LocalPosition.z
    path: base/armature001/armature002/armature003/body/barrel/barrelWing3
    classID: 4
    script: {fileID: 0}
  - curve:
      serializedVersion: 2
      m_Curve:
      - time: 0
        value: 0.86392885
        inSlope: -1.9585776
        outSlope: -1.9585776
        tangentMode: 10
      - time: 0.05
        value: 0.766
        inSlope: -0.82466424
        outSlope: -0.82466424
        tangentMode: 10
      - time: 0.36666667
        value: 0.86392885
        inSlope: 0
        outSlope: 0
        tangentMode: 0
      m_PreInfinity: 2
      m_PostInfinity: 2
      m_RotationOrder: 4
    attribute: m_LocalPosition.x
    path: base/armature001/armature002/armature003/body/barrel
    classID: 4
    script: {fileID: 0}
  - curve:
      serializedVersion: 2
      m_Curve:
      - time: 0
        value: 0.46266484
        inSlope: 0.0067031384
        outSlope: 0.0067031384
        tangentMode: 10
      - time: 0.05
        value: 0.463
        inSlope: 0.002822374
        outSlope: 0.002822374
        tangentMode: 10
      - time: 0.36666667
        value: 0.46266484
        inSlope: 0
        outSlope: 0
        tangentMode: 0
      m_PreInfinity: 2
      m_PostInfinity: 2
      m_RotationOrder: 4
    attribute: m_LocalPosition.y
    path: base/armature001/armature002/armature003/body/barrel
    classID: 4
    script: {fileID: 0}
  - curve:
      serializedVersion: 2
      m_Curve:
      - time: 0
        value: -0.019899815
        inSlope: 0
        outSlope: 0
        tangentMode: 10
      - time: 0.05
        value: -0.019899815
        inSlope: 0
        outSlope: 0
        tangentMode: 10
      - time: 0.36666667
        value: -0.019899815
        inSlope: 0
        outSlope: 0
        tangentMode: 0
      m_PreInfinity: 2
      m_PostInfinity: 2
      m_RotationOrder: 4
    attribute: m_LocalPosition.z
    path: base/armature001/armature002/armature003/body/barrel
    classID: 4
    script: {fileID: 0}
  - curve:
      serializedVersion: 2
      m_Curve:
      - time: 0
        value: -0.24353778
        inSlope: -2.204622
        outSlope: -2.204622
        tangentMode: 10
      - time: 0.1
        value: -0.464
        inSlope: -0.787365
        outSlope: -0.787365
        tangentMode: 10
      - time: 0.45
        value: -0.24353778
        inSlope: 0
        outSlope: 0
        tangentMode: 0
      m_PreInfinity: 2
      m_PostInfinity: 2
      m_RotationOrder: 4
    attribute: m_LocalPosition.x
    path: base/armature001/armature002/armature003/body/wings
    classID: 4
    script: {fileID: 0}
  - curve:
      serializedVersion: 2
      m_Curve:
      - time: 0
        value: 0.519612
        inSlope: 0.0038796663
        outSlope: 0.0038796663
        tangentMode: 10
      - time: 0.1
        value: 0.52
        inSlope: 0.0013855952
        outSlope: 0.0013855952
        tangentMode: 10
      - time: 0.45
        value: 0.519612
        inSlope: 0
        outSlope: 0
        tangentMode: 0
      m_PreInfinity: 2
      m_PostInfinity: 2
      m_RotationOrder: 4
    attribute: m_LocalPosition.y
    path: base/armature001/armature002/armature003/body/wings
    classID: 4
    script: {fileID: 0}
  - curve:
      serializedVersion: 2
      m_Curve:
      - time: 0
        value: -0.019899815
        inSlope: 0
        outSlope: 0
        tangentMode: 10
      - time: 0.1
        value: -0.019899815
        inSlope: 0
        outSlope: 0
        tangentMode: 10
      - time: 0.45
        value: -0.019899815
        inSlope: 0
        outSlope: 0
        tangentMode: 0
      m_PreInfinity: 2
      m_PostInfinity: 2
      m_RotationOrder: 4
    attribute: m_LocalPosition.z
    path: base/armature001/armature002/armature003/body/wings
    classID: 4
    script: {fileID: 0}
  - curve:
      serializedVersion: 2
      m_Curve:
      - time: 0
        value: 0
        inSlope: 0
        outSlope: 0
        tangentMode: 10
      - time: 0.083333336
        value: 0
        inSlope: 0
        outSlope: 0
        tangentMode: 10
      - time: 0.41666666
        value: 0
        inSlope: 0
        outSlope: 0
        tangentMode: 10
      m_PreInfinity: 2
      m_PostInfinity: 2
      m_RotationOrder: 4
    attribute: localEulerAnglesRaw.x
    path: base/armature001/armature002/armature003/body
    classID: 4
    script: {fileID: 0}
  - curve:
      serializedVersion: 2
      m_Curve:
      - time: 0
        value: 0
        inSlope: 0
        outSlope: 0
        tangentMode: 10
      - time: 0.083333336
        value: 0
        inSlope: 0
        outSlope: 0
        tangentMode: 10
      - time: 0.41666666
        value: 0
        inSlope: 0
        outSlope: 0
        tangentMode: 10
      m_PreInfinity: 2
      m_PostInfinity: 2
      m_RotationOrder: 4
    attribute: localEulerAnglesRaw.y
    path: base/armature001/armature002/armature003/body
    classID: 4
    script: {fileID: 0}
  - curve:
      serializedVersion: 2
      m_Curve:
      - time: 0
        value: 45
        inSlope: 187.19998
        outSlope: 187.19998
        tangentMode: 10
      - time: 0.083333336
        value: 60.6
        inSlope: 70.19999
        outSlope: 70.19999
        tangentMode: 10
      - time: 0.41666666
        value: 45
        inSlope: -46.8
        outSlope: -46.8
        tangentMode: 10
      m_PreInfinity: 2
      m_PostInfinity: 2
      m_RotationOrder: 4
    attribute: localEulerAnglesRaw.z
    path: base/armature001/armature002/armature003/body
    classID: 4
    script: {fileID: 0}
  - curve:
      serializedVersion: 2
      m_Curve:
      - time: 0
        value: 0
        inSlope: 0
        outSlope: 0
        tangentMode: 10
      - time: 0.13333334
        value: 0
        inSlope: 0
        outSlope: 0
        tangentMode: 10
      - time: 0.38333333
        value: 0
        inSlope: 0
        outSlope: 0
        tangentMode: 10
      m_PreInfinity: 2
      m_PostInfinity: 2
      m_RotationOrder: 4
    attribute: localEulerAnglesRaw.x
    path: base/armature001
    classID: 4
    script: {fileID: 0}
  - curve:
      serializedVersion: 2
      m_Curve:
      - time: 0
        value: 0
        inSlope: 0
        outSlope: 0
        tangentMode: 10
      - time: 0.13333334
        value: 0
        inSlope: 0
        outSlope: 0
        tangentMode: 10
      - time: 0.38333333
        value: 0
        inSlope: 0
        outSlope: 0
        tangentMode: 10
      m_PreInfinity: 2
      m_PostInfinity: 2
      m_RotationOrder: 4
    attribute: localEulerAnglesRaw.y
    path: base/armature001
    classID: 4
    script: {fileID: 0}
  - curve:
      serializedVersion: 2
      m_Curve:
      - time: 0
        value: -20
        inSlope: -104.25001
        outSlope: -104.25001
        tangentMode: 10
      - time: 0.13333334
        value: -33.9
        inSlope: -24.324999
        outSlope: -24.324999
        tangentMode: 10
      - time: 0.38333333
        value: -20
        inSlope: 55.60001
        outSlope: 55.60001
        tangentMode: 10
      m_PreInfinity: 2
      m_PostInfinity: 2
      m_RotationOrder: 4
    attribute: localEulerAnglesRaw.z
    path: base/armature001
    classID: 4
    script: {fileID: 0}
  - curve:
      serializedVersion: 2
      m_Curve:
      - time: 0
        value: 0
        inSlope: 0
        outSlope: 0
        tangentMode: 10
      - time: 0.13333334
        value: 0
        inSlope: 0
        outSlope: 0
        tangentMode: 10
      - time: 0.38333333
        value: 0
        inSlope: 0
        outSlope: 0
        tangentMode: 10
      m_PreInfinity: 2
      m_PostInfinity: 2
      m_RotationOrder: 4
    attribute: localEulerAnglesRaw.x
    path: base/armature001/armature002
    classID: 4
    script: {fileID: 0}
  - curve:
      serializedVersion: 2
      m_Curve:
      - time: 0
        value: 0
        inSlope: 0
        outSlope: 0
        tangentMode: 10
      - time: 0.13333334
        value: 0
        inSlope: 0
        outSlope: 0
        tangentMode: 10
      - time: 0.38333333
        value: 0
        inSlope: 0
        outSlope: 0
        tangentMode: 10
      m_PreInfinity: 2
      m_PostInfinity: 2
      m_RotationOrder: 4
    attribute: localEulerAnglesRaw.y
    path: base/armature001/armature002
    classID: 4
    script: {fileID: 0}
  - curve:
      serializedVersion: 2
      m_Curve:
      - time: 0
        value: 90
        inSlope: 143.24998
        outSlope: 143.24998
        tangentMode: 10
      - time: 0.13333334
        value: 109.1
        inSlope: 33.42499
        outSlope: 33.42499
        tangentMode: 10
      - time: 0.38333333
        value: 90
        inSlope: -76.4
        outSlope: -76.4
        tangentMode: 10
      m_PreInfinity: 2
      m_PostInfinity: 2
      m_RotationOrder: 4
    attribute: localEulerAnglesRaw.z
    path: base/armature001/armature002
    classID: 4
    script: {fileID: 0}
  - curve:
      serializedVersion: 2
      m_Curve:
      - time: 0
        value: 0
        inSlope: 0
        outSlope: 0
        tangentMode: 10
      - time: 0.13333334
        value: 0
        inSlope: 0
        outSlope: 0
        tangentMode: 10
      - time: 0.38333333
        value: 0
        inSlope: 0
        outSlope: 0
        tangentMode: 10
      m_PreInfinity: 2
      m_PostInfinity: 2
      m_RotationOrder: 4
    attribute: localEulerAnglesRaw.x
    path: base/armature001/armature002/armature003
    classID: 4
    script: {fileID: 0}
  - curve:
      serializedVersion: 2
      m_Curve:
      - time: 0
        value: 0
        inSlope: 0
        outSlope: 0
        tangentMode: 10
      - time: 0.13333334
        value: 0
        inSlope: 0
        outSlope: 0
        tangentMode: 10
      - time: 0.38333333
        value: 0
        inSlope: 0
        outSlope: 0
        tangentMode: 10
      m_PreInfinity: 2
      m_PostInfinity: 2
      m_RotationOrder: 4
    attribute: localEulerAnglesRaw.y
    path: base/armature001/armature002/armature003
    classID: 4
    script: {fileID: 0}
  - curve:
      serializedVersion: 2
      m_Curve:
      - time: 0
        value: -110
        inSlope: 96.75001
        outSlope: 96.75001
        tangentMode: 10
      - time: 0.13333334
        value: -97.1
        inSlope: 22.574999
        outSlope: 22.574999
        tangentMode: 10
      - time: 0.38333333
        value: -110
        inSlope: -51.60001
        outSlope: -51.60001
        tangentMode: 10
      m_PreInfinity: 2
      m_PostInfinity: 2
      m_RotationOrder: 4
    attribute: localEulerAnglesRaw.z
    path: base/armature001/armature002/armature003
    classID: 4
    script: {fileID: 0}
  m_EulerEditorCurves:
  - curve:
      serializedVersion: 2
      m_Curve: []
      m_PreInfinity: 2
      m_PostInfinity: 2
      m_RotationOrder: 4
    attribute: m_LocalEulerAngles.x
    path: base/armature001/armature002/armature003/body
    classID: 4
    script: {fileID: 0}
  - curve:
      serializedVersion: 2
      m_Curve: []
      m_PreInfinity: 2
      m_PostInfinity: 2
      m_RotationOrder: 4
    attribute: m_LocalEulerAngles.y
    path: base/armature001/armature002/armature003/body
    classID: 4
    script: {fileID: 0}
  - curve:
      serializedVersion: 2
      m_Curve: []
      m_PreInfinity: 2
      m_PostInfinity: 2
      m_RotationOrder: 4
    attribute: m_LocalEulerAngles.z
    path: base/armature001/armature002/armature003/body
    classID: 4
    script: {fileID: 0}
  - curve:
      serializedVersion: 2
      m_Curve: []
      m_PreInfinity: 2
      m_PostInfinity: 2
      m_RotationOrder: 4
    attribute: m_LocalEulerAngles.z
    path: base/armature001
    classID: 4
    script: {fileID: 0}
  - curve:
      serializedVersion: 2
      m_Curve: []
      m_PreInfinity: 2
      m_PostInfinity: 2
      m_RotationOrder: 4
    attribute: m_LocalEulerAngles.y
    path: base/armature001
    classID: 4
    script: {fileID: 0}
  - curve:
      serializedVersion: 2
      m_Curve: []
      m_PreInfinity: 2
      m_PostInfinity: 2
      m_RotationOrder: 4
    attribute: m_LocalEulerAngles.x
    path: base/armature001
    classID: 4
    script: {fileID: 0}
  - curve:
      serializedVersion: 2
      m_Curve: []
      m_PreInfinity: 2
      m_PostInfinity: 2
      m_RotationOrder: 4
    attribute: m_LocalEulerAngles.z
    path: base/armature001/armature002
    classID: 4
    script: {fileID: 0}
  - curve:
      serializedVersion: 2
      m_Curve: []
      m_PreInfinity: 2
      m_PostInfinity: 2
      m_RotationOrder: 4
    attribute: m_LocalEulerAngles.y
    path: base/armature001/armature002
    classID: 4
    script: {fileID: 0}
  - curve:
      serializedVersion: 2
      m_Curve: []
      m_PreInfinity: 2
      m_PostInfinity: 2
      m_RotationOrder: 4
    attribute: m_LocalEulerAngles.x
    path: base/armature001/armature002
    classID: 4
    script: {fileID: 0}
  - curve:
      serializedVersion: 2
      m_Curve: []
      m_PreInfinity: 2
      m_PostInfinity: 2
      m_RotationOrder: 4
    attribute: m_LocalEulerAngles.x
    path: base/armature001/armature002/armature003
    classID: 4
    script: {fileID: 0}
  - curve:
      serializedVersion: 2
      m_Curve: []
      m_PreInfinity: 2
      m_PostInfinity: 2
      m_RotationOrder: 4
    attribute: m_LocalEulerAngles.y
    path: base/armature001/armature002/armature003
    classID: 4
    script: {fileID: 0}
  - curve:
      serializedVersion: 2
      m_Curve: []
      m_PreInfinity: 2
      m_PostInfinity: 2
      m_RotationOrder: 4
    attribute: m_LocalEulerAngles.z
    path: base/armature001/armature002/armature003
    classID: 4
    script: {fileID: 0}
  m_HasGenericRootTransform: 0
  m_HasMotionFloatCurves: 0
  m_GenerateMotionCurves: 0
  m_Events: []
