%YAML 1.1
%TAG !u! tag:unity3d.com,2011:
--- !u!74 &7400000
AnimationClip:
  m_ObjectHideFlags: 0
  m_PrefabParentObject: {fileID: 0}
  m_PrefabInternal: {fileID: 0}
  m_Name: char2d_robot1_disconnect
  serializedVersion: 6
  m_Legacy: 0
  m_Compressed: 0
  m_UseHighQualityCurve: 1
  m_RotationCurves: []
  m_CompressedRotationCurves: []
  m_EulerCurves:
  - curve:
      serializedVersion: 2
      m_Curve:
      - time: 0
        value: {x: 0, y: 0, z: 13.3}
        inSlope: {x: 0, y: 0, z: -27.72414}
        outSlope: {x: 0, y: 0, z: -27.72414}
        tangentMode: 0
      - time: 0.48333332
        value: {x: 0, y: 0, z: -0.1}
        inSlope: {x: 0, y: 0, z: 6.20043}
        outSlope: {x: 0, y: 0, z: 6.20043}
        tangentMode: 0
      - time: 0.75
        value: {x: 0, y: 0, z: 10.6}
        inSlope: {x: 0, y: 0, z: 122.8625}
        outSlope: {x: 0, y: 0, z: 122.8625}
        tangentMode: 0
      - time: 1
        value: {x: 0, y: 0, z: 62}
        inSlope: {x: 0, y: 0, z: 0}
        outSlope: {x: 0, y: 0, z: 0}
        tangentMode: 0
      - time: 1.2833333
        value: {x: 0, y: 0, z: 34.41}
        inSlope: {x: 0, y: 0, z: 0}
        outSlope: {x: 0, y: 0, z: 0}
        tangentMode: 0
      - time: 1.7
        value: {x: 0, y: 0, z: 62}
        inSlope: {x: 0, y: 0, z: 0}
        outSlope: {x: 0, y: 0, z: 0}
        tangentMode: 0
      - time: 2.0833333
        value: {x: 0, y: 0, z: 50.3}
        inSlope: {x: 0, y: 0, z: 0}
        outSlope: {x: 0, y: 0, z: 0}
        tangentMode: 0
      - time: 2.45
        value: {x: 0, y: 0, z: 62}
        inSlope: {x: 0, y: 0, z: 0}
        outSlope: {x: 0, y: 0, z: 0}
        tangentMode: 0
      - time: 2.65
        value: {x: 0, y: 0, z: 62}
        inSlope: {x: 0, y: 0, z: 0}
        outSlope: {x: 0, y: 0, z: 0}
        tangentMode: 0
      - time: 3.6833334
        value: {x: 0, y: 0, z: 62}
        inSlope: {x: 0, y: 0, z: 0}
        outSlope: {x: 0, y: 0, z: 0}
        tangentMode: 0
      - time: 3.8
        value: {x: 0, y: 0, z: 35.27}
        inSlope: {x: 0, y: 0, z: 0}
        outSlope: {x: 0, y: 0, z: 0}
        tangentMode: 0
      - time: 3.9333334
        value: {x: 0, y: 0, z: 62}
        inSlope: {x: 0, y: 0, z: 0}
        outSlope: {x: 0, y: 0, z: 0}
        tangentMode: 0
      - time: 4.05
        value: {x: 0, y: 0, z: 45.9}
        inSlope: {x: 0, y: 0, z: 0}
        outSlope: {x: 0, y: 0, z: 0}
        tangentMode: 0
      - time: 4.15
        value: {x: 0, y: 0, z: 62}
        inSlope: {x: 0, y: 0, z: 0}
        outSlope: {x: 0, y: 0, z: 0}
        tangentMode: 0
      m_PreInfinity: 2
      m_PostInfinity: 2
      m_RotationOrder: 4
    path: Root/Antenna
  - curve:
      serializedVersion: 2
      m_Curve:
      - time: 0
        value: {x: 0, y: 0, z: 23.35}
        inSlope: {x: 0, y: 0, z: 0}
        outSlope: {x: 0, y: 0, z: 0}
        tangentMode: 0
      - time: 0.16666667
        value: {x: 0, y: 0, z: 1.6}
        inSlope: {x: 0, y: 0, z: 0}
        outSlope: {x: 0, y: 0, z: 0}
        tangentMode: 0
      - time: 0.73333335
        value: {x: 0, y: 0, z: 23.35}
        inSlope: {x: 0, y: 0, z: 0}
        outSlope: {x: 0, y: 0, z: 0}
        tangentMode: 0
      - time: 1.4166666
        value: {x: 0, y: 0, z: -32}
        inSlope: {x: 0, y: 0, z: 0}
        outSlope: {x: 0, y: 0, z: 0}
        tangentMode: 0
      - time: 1.9833333
        value: {x: 0, y: 0, z: -4.38}
        inSlope: {x: 0, y: 0, z: 0}
        outSlope: {x: 0, y: 0, z: 0}
        tangentMode: 0
      - time: 2.65
        value: {x: 0, y: 0, z: -23.34}
        inSlope: {x: 0, y: 0, z: 24.13917}
        outSlope: {x: 0, y: 0, z: 24.13917}
        tangentMode: 0
      - time: 3.1833334
        value: {x: 0, y: 0, z: -8}
        inSlope: {x: 0, y: 0, z: 0}
        outSlope: {x: 0, y: 0, z: 0}
        tangentMode: 0
      - time: 3.9333334
        value: {x: 0, y: 0, z: -19.5}
        inSlope: {x: 0, y: 0, z: 0}
        outSlope: {x: 0, y: 0, z: 0}
        tangentMode: 0
      - time: 4.6833334
        value: {x: 0, y: 0, z: -4.38}
        inSlope: {x: 0, y: 0, z: 0}
        outSlope: {x: 0, y: 0, z: 0}
        tangentMode: 0
      - time: 5.4333334
        value: {x: 0, y: 0, z: -19.5}
        inSlope: {x: 0, y: 0, z: 0}
        outSlope: {x: 0, y: 0, z: 0}
        tangentMode: 0
      - time: 5.65
        value: {x: 0, y: 0, z: -16.443478}
        inSlope: {x: 0, y: 0, z: 21.400862}
        outSlope: {x: 0, y: 0, z: 21.400862}
        tangentMode: 0
      m_PreInfinity: 2
      m_PostInfinity: 2
      m_RotationOrder: 4
    path: Root/Arm
  - curve:
      serializedVersion: 2
      m_Curve:
      - time: 0
        value: {x: 0, y: 0, z: -15.54}
        inSlope: {x: 0, y: 0, z: 7.566101}
        outSlope: {x: 0, y: 0, z: 7.566101}
        tangentMode: 0
      - time: 0.98333335
        value: {x: 0, y: 0, z: -8.1}
        inSlope: {x: 0, y: 0, z: -118.256966}
        outSlope: {x: 0, y: 0, z: -118.256966}
        tangentMode: 0
      - time: 1.4
        value: {x: 0, y: 0, z: -109.8}
        inSlope: {x: 0, y: 0, z: -88.29002}
        outSlope: {x: 0, y: 0, z: -88.29002}
        tangentMode: 0
      - time: 1.8666667
        value: {x: 0, y: 0, z: -78.3}
        inSlope: {x: 0, y: 0, z: 17.116663}
        outSlope: {x: 0, y: 0, z: 17.116663}
        tangentMode: 0
      - time: 2.6166666
        value: {x: 0, y: 0, z: -103.25}
        inSlope: {x: 0, y: 0, z: -5.3673773}
        outSlope: {x: 0, y: 0, z: -5.3673773}
        tangentMode: 0
      - time: 3.4
        value: {x: 0, y: 0, z: -85.6}
        inSlope: {x: 0, y: 0, z: 14.239288}
        outSlope: {x: 0, y: 0, z: 14.239288}
        tangentMode: 0
      - time: 4.15
        value: {x: 0, y: 0, z: -81.14}
        inSlope: {x: 0, y: 0, z: 0}
        outSlope: {x: 0, y: 0, z: 0}
        tangentMode: 0
      - time: 4.9
        value: {x: 0, y: 0, z: -85.6}
        inSlope: {x: 0, y: 0, z: 0}
        outSlope: {x: 0, y: 0, z: 0}
        tangentMode: 0
      - time: 5.65
        value: {x: 0, y: 0, z: -81.14}
        inSlope: {x: 0, y: 0, z: 5.9466653}
        outSlope: {x: 0, y: 0, z: 5.9466653}
        tangentMode: 0
      m_PreInfinity: 2
      m_PostInfinity: 2
      m_RotationOrder: 4
    path: Root/Arm/Claw
  - curve:
      serializedVersion: 2
      m_Curve:
      - time: 1.15
        value: {x: 0, y: 0, z: 8.89}
        inSlope: {x: 0, y: 0, z: 13.893748}
        outSlope: {x: 0, y: 0, z: 13.893748}
        tangentMode: 0
      - time: 1.6833333
        value: {x: 0, y: 0, z: 16.3}
        inSlope: {x: 0, y: 0, z: 6.742991}
        outSlope: {x: 0, y: 0, z: 6.742991}
        tangentMode: 0
      - time: 3.4
        value: {x: 0, y: 0, z: 15.6}
        inSlope: {x: 0, y: 0, z: -3.9372168}
        outSlope: {x: 0, y: 0, z: -3.9372168}
        tangentMode: 0
      - time: 4.15
        value: {x: 0, y: 0, z: 10}
        inSlope: {x: 0, y: 0, z: -4.766667}
        outSlope: {x: 0, y: 0, z: -4.766667}
        tangentMode: 0
      - time: 4.9
        value: {x: 0, y: 0, z: 8.45}
        inSlope: {x: 0, y: 0, z: 3.8666668}
        outSlope: {x: 0, y: 0, z: 3.8666668}
        tangentMode: 0
      - time: 5.65
        value: {x: 0, y: 0, z: 15.8}
        inSlope: {x: 0, y: 0, z: 9.8}
        outSlope: {x: 0, y: 0, z: 9.8}
        tangentMode: 0
      m_PreInfinity: 2
      m_PostInfinity: 2
      m_RotationOrder: 4
    path: Root/Arm/Claw3
  m_PositionCurves: []
  m_ScaleCurves: []
  m_FloatCurves:
  - curve:
      serializedVersion: 2
      m_Curve:
      - time: 0
        value: 24
        inSlope: 0
        outSlope: 0
        tangentMode: 0
      - time: 0.41666666
        value: 41.36
        inSlope: 0
        outSlope: 0
        tangentMode: 0
      - time: 0.8333333
        value: -22.4
        inSlope: 0
        outSlope: 0
        tangentMode: 0
      - time: 1.25
        value: -3.4
        inSlope: 18.305172
        outSlope: 18.305172
        tangentMode: 10
      - time: 2.2166667
        value: -12.09
        inSlope: -4.4948277
        outSlope: -4.4948277
        tangentMode: 10
      - time: 2.65
        value: -12.09
        inSlope: 1.9266669
        outSlope: 1.9266669
        tangentMode: 10
      - time: 3.4
        value: -9.2
        inSlope: 0
        outSlope: 0
        tangentMode: 10
      - time: 4.15
        value: -12.09
        inSlope: 0
        outSlope: 0
        tangentMode: 10
      - time: 4.9
        value: -9.2
        inSlope: 0
        outSlope: 0
        tangentMode: 10
      - time: 5.65
        value: -12.09
        inSlope: -3.8533337
        outSlope: -3.8533337
        tangentMode: 10
      m_PreInfinity: 2
      m_PostInfinity: 2
      m_RotationOrder: 4
    attribute: m_AnchoredPosition.y
    path: Root
    classID: 224
    script: {fileID: 0}
  - curve:
      serializedVersion: 2
      m_Curve:
      - time: 0.65
        value: -101.9
        inSlope: -88.85713
        outSlope: -88.85713
        tangentMode: 10
      - time: 1
        value: -133
        inSlope: 0
        outSlope: 0
        tangentMode: 0
      - time: 2.65
        value: -133
        inSlope: 0
        outSlope: 0
        tangentMode: 0
      m_PreInfinity: 2
      m_PostInfinity: 2
      m_RotationOrder: 4
    attribute: m_AnchoredPosition.x
    path: Root/Antenna
    classID: 224
    script: {fileID: 0}
  - curve:
      serializedVersion: 2
      m_Curve:
      - time: 0.65
        value: 256
        inSlope: -22.857141
        outSlope: -22.857141
        tangentMode: 10
      - time: 1
        value: 248
        inSlope: 0
        outSlope: 0
        tangentMode: 0
      - time: 2.65
        value: 248
        inSlope: 0
        outSlope: 0
        tangentMode: 0
      m_PreInfinity: 2
      m_PostInfinity: 2
      m_RotationOrder: 4
    attribute: m_AnchoredPosition.y
    path: Root/Antenna
    classID: 224
    script: {fileID: 0}
  - curve:
      serializedVersion: 2
      m_Curve:
      - time: 0
        value: 130
        inSlope: -93.20001
        outSlope: -93.20001
        tangentMode: 10
      - time: 0.25
        value: 106.7
        inSlope: 0
        outSlope: 0
        tangentMode: 10
      - time: 0.5
        value: 130
        inSlope: 28.844906
        outSlope: 28.844906
        tangentMode: 10
      - time: 1.3166667
        value: 101
        inSlope: 0
        outSlope: 0
        tangentMode: 0
      m_PreInfinity: 2
      m_PostInfinity: 2
      m_RotationOrder: 4
    attribute: m_AnchoredPosition.y
    path: Root/Lollipop01
    classID: 224
    script: {fileID: 0}
  - curve:
      serializedVersion: 2
      m_Curve:
      - time: 0
        value: 111.96566
        inSlope: 91.54312
        outSlope: 91.54312
        tangentMode: 10
      - time: 0.21666667
        value: 131.8
        inSlope: -0.82844543
        outSlope: -0.82844543
        tangentMode: 10
      - time: 0.46666667
        value: 108.5
        inSlope: 0.0000038146973
        outSlope: 0.0000038146973
        tangentMode: 10
      - time: 0.71666664
        value: 131.8
        inSlope: 33.011776
        outSlope: 33.011776
        tangentMode: 10
      - time: 1.85
        value: 101
        inSlope: 0
        outSlope: 0
        tangentMode: 0
      m_PreInfinity: 2
      m_PostInfinity: 2
      m_RotationOrder: 4
    attribute: m_AnchoredPosition.y
    path: Root/Lollipop04
    classID: 224
    script: {fileID: 0}
  - curve:
      serializedVersion: 2
      m_Curve:
      - time: 0
        value: 120.0568
        inSlope: 78.28801
        outSlope: 78.28801
        tangentMode: 10
      - time: 0.15
        value: 131.8
        inSlope: -7.4560013
        outSlope: -7.4560013
        tangentMode: 10
      - time: 0.4
        value: 108.5
        inSlope: 0.0000038146973
        outSlope: 0.0000038146973
        tangentMode: 10
      - time: 0.65
        value: 131.8
        inSlope: 30.938992
        outSlope: 30.938992
        tangentMode: 10
      - time: 1.6333333
        value: 101
        inSlope: 0
        outSlope: 0
        tangentMode: 0
      m_PreInfinity: 2
      m_PostInfinity: 2
      m_RotationOrder: 4
    attribute: m_AnchoredPosition.y
    path: Root/Lollipop03
    classID: 224
    script: {fileID: 0}
  - curve:
      serializedVersion: 2
      m_Curve:
      - time: 0
        value: 111.6688
        inSlope: -63.376007
        outSlope: -63.376007
        tangentMode: 10
      - time: 0.05
        value: 108.5
        inSlope: -31.688004
        outSlope: -31.688004
        tangentMode: 10
      - time: 0.55
        value: 108.5
        inSlope: -2.419355
        outSlope: -2.419355
        tangentMode: 10
      - time: 2.1
        value: 101
        inSlope: 0
        outSlope: 0
        tangentMode: 0
      m_PreInfinity: 2
      m_PostInfinity: 2
      m_RotationOrder: 4
    attribute: m_AnchoredPosition.y
    path: Root/Lollipop05
    classID: 224
    script: {fileID: 0}
  - curve:
      serializedVersion: 2
      m_Curve:
      - time: 0
        value: 128.92807
        inSlope: 43.07899
        outSlope: 43.07899
        tangentMode: 10
      - time: 0.06666667
        value: 131.8
        inSlope: -25.06051
        outSlope: -25.06051
        tangentMode: 10
      - time: 0.31666666
        value: 108.5
        inSlope: 0
        outSlope: 0
        tangentMode: 10
      - time: 0.56666666
        value: 131.8
        inSlope: 29.488894
        outSlope: 29.488894
        tangentMode: 10
      - time: 1.4666667
        value: 101
        inSlope: 0
        outSlope: 0
        tangentMode: 0
      m_PreInfinity: 2
      m_PostInfinity: 2
      m_RotationOrder: 4
    attribute: m_AnchoredPosition.y
    path: Root/Lollipop02
    classID: 224
    script: {fileID: 0}
  - curve:
      serializedVersion: 2
      m_Curve:
      - time: 0.25
        value: -131.6
        inSlope: 0
        outSlope: 0
        tangentMode: 10
      - time: 1.3166667
        value: -131.6
        inSlope: 0
        outSlope: 0
        tangentMode: 0
      m_PreInfinity: 2
      m_PostInfinity: 2
      m_RotationOrder: 4
    attribute: m_AnchoredPosition.x
    path: Root/Lollipop01
    classID: 224
    script: {fileID: 0}
  - curve:
      serializedVersion: 2
      m_Curve:
      - time: 0
        value: -106.4
        inSlope: 0
        outSlope: 0
        tangentMode: 10
      - time: 0.31666666
        value: -106.4
        inSlope: 0
        outSlope: 0
        tangentMode: 10
      m_PreInfinity: 2
      m_PostInfinity: 2
      m_RotationOrder: 4
    attribute: m_AnchoredPosition.x
    path: Root/Lollipop02
    classID: 224
    script: {fileID: 0}
  - curve:
      serializedVersion: 2
      m_Curve:
      - time: 0
        value: -80.7
        inSlope: 0
        outSlope: 0
        tangentMode: 10
      - time: 0.4
        value: -80.7
        inSlope: 0
        outSlope: 0
        tangentMode: 10
      m_PreInfinity: 2
      m_PostInfinity: 2
      m_RotationOrder: 4
    attribute: m_AnchoredPosition.x
    path: Root/Lollipop03
    classID: 224
    script: {fileID: 0}
  - curve:
      serializedVersion: 2
      m_Curve:
      - time: 0
        value: -55.6
        inSlope: 0
        outSlope: 0
        tangentMode: 10
      - time: 0.46666667
        value: -55.6
        inSlope: 0
        outSlope: 0
        tangentMode: 10
      m_PreInfinity: 2
      m_PostInfinity: 2
      m_RotationOrder: 4
    attribute: m_AnchoredPosition.x
    path: Root/Lollipop04
    classID: 224
    script: {fileID: 0}
  - curve:
      serializedVersion: 2
      m_Curve:
      - time: 0
        value: -33
        inSlope: 0
        outSlope: 0
        tangentMode: 10
      - time: 0.05
        value: -33
        inSlope: 0
        outSlope: 0
        tangentMode: 10
      - time: 0.55
        value: -33
        inSlope: 0
        outSlope: 0
        tangentMode: 10
      m_PreInfinity: 2
      m_PostInfinity: 2
      m_RotationOrder: 4
    attribute: m_AnchoredPosition.x
    path: Root/Lollipop05
    classID: 224
    script: {fileID: 0}
  - curve:
      serializedVersion: 2
      m_Curve:
      - time: 0.56666666
        value: -7
        inSlope: -1.9200003
        outSlope: -1.9200003
        tangentMode: 10
      - time: 0.98333335
        value: -7.8
        inSlope: -0.96000016
        outSlope: -0.96000016
        tangentMode: 10
      - time: 2.65
        value: -7.8
        inSlope: 0
        outSlope: 0
        tangentMode: 10
      m_PreInfinity: 2
      m_PostInfinity: 2
      m_RotationOrder: 4
    attribute: m_AnchoredPosition.y
    path: Root/Eye/Iris
    classID: 224
    script: {fileID: 0}
  - curve:
      serializedVersion: 2
      m_Curve:
      - time: 0.6666667
        value: 102
        inSlope: -444.40002
        outSlope: -444.40002
        tangentMode: 10
      - time: 0.8666667
        value: 13.12
        inSlope: -444.40002
        outSlope: -444.40002
        tangentMode: 10
      m_PreInfinity: 2
      m_PostInfinity: 2
      m_RotationOrder: 4
    attribute: m_SizeDelta.y
    path: Root/Eye/Iris
    classID: 224
    script: {fileID: 0}
  - curve:
      serializedVersion: 2
      m_Curve:
      - time: 0
        value: 22.66
        inSlope: -27.635294
        outSlope: -27.635294
        tangentMode: 10
      - time: 0.56666666
        value: 7
        inSlope: -27.635294
        outSlope: -27.635294
        tangentMode: 10
      m_PreInfinity: 2
      m_PostInfinity: 2
      m_RotationOrder: 4
    attribute: m_AnchoredPosition.x
    path: Root/Eye/Iris
    classID: 224
    script: {fileID: 0}
  - curve:
      serializedVersion: 2
      m_Curve:
      - time: 2.65
        value: 74.17
        inSlope: 0
        outSlope: 0
        tangentMode: 10
      - time: 4.05
        value: 74.17
        inSlope: 0
        outSlope: 0
        tangentMode: 10
      m_PreInfinity: 2
      m_PostInfinity: 2
      m_RotationOrder: 4
    attribute: m_LocalPosition.z
    path: Root/Antenna
    classID: 224
    script: {fileID: 0}
  - curve:
      serializedVersion: 2
      m_Curve:
      - time: 0
        value: 0
        inSlope: 0
        outSlope: 0
        tangentMode: 10
      m_PreInfinity: 2
      m_PostInfinity: 2
      m_RotationOrder: 4
    attribute: m_LocalPosition.z
    path: 
    classID: 224
    script: {fileID: 0}
  - curve:
      serializedVersion: 2
      m_Curve:
      - time: 0
        value: 0
        inSlope: Infinity
        outSlope: Infinity
        tangentMode: 31
      - time: 1.1166667
        value: 1
        inSlope: Infinity
        outSlope: Infinity
        tangentMode: 31
      - time: 1.15
        value: 0
        inSlope: Infinity
        outSlope: Infinity
        tangentMode: 31
      m_PreInfinity: 2
      m_PostInfinity: 2
      m_RotationOrder: 4
    attribute: m_IsActive
    path: Root/Arm/Claw2
    classID: 1
    script: {fileID: 0}
  - curve:
      serializedVersion: 2
      m_Curve:
      - time: 0
        value: 1
        inSlope: Infinity
        outSlope: Infinity
        tangentMode: 31
      - time: 1.1166667
        value: 0
        inSlope: Infinity
        outSlope: Infinity
        tangentMode: 31
      m_PreInfinity: 2
      m_PostInfinity: 2
      m_RotationOrder: 4
    attribute: m_IsActive
    path: Root/Arm/Claw
    classID: 1
    script: {fileID: 0}
  - curve:
      serializedVersion: 2
      m_Curve:
      - time: 0
        value: 0
        inSlope: Infinity
        outSlope: Infinity
        tangentMode: 31
      - time: 1.15
        value: 1
        inSlope: Infinity
        outSlope: Infinity
        tangentMode: 31
      m_PreInfinity: 2
      m_PostInfinity: 2
      m_RotationOrder: 4
    attribute: m_IsActive
    path: Root/Arm/Claw3
    classID: 1
    script: {fileID: 0}
  - curve:
      serializedVersion: 2
      m_Curve:
      - time: 0
        value: -4.38
        inSlope: 1.3759162
        outSlope: 1.3759162
        tangentMode: 10
      - time: 3.1833334
        value: 0
        inSlope: 1.3759162
        outSlope: 1.3759162
        tangentMode: 10
      m_PreInfinity: 2
      m_PostInfinity: 2
      m_RotationOrder: 4
    attribute: m_LocalPosition.z
    path: Root/Arm
    classID: 224
    script: {fileID: 0}
  m_PPtrCurves: []
  m_SampleRate: 60
  m_WrapMode: 0
  m_Bounds:
    m_Center: {x: 0, y: 0, z: 0}
    m_Extent: {x: 0, y: 0, z: 0}
  m_ClipBindingConstant:
    genericBindings:
    - path: 2531687880
      attribute: 4
      script: {fileID: 0}
      classID: 4
      customType: 14
      isPPtrCurve: 0
    - path: 1563210320
      attribute: 4
      script: {fileID: 0}
      classID: 4
      customType: 14
      isPPtrCurve: 0
    - path: 1316151649
      attribute: 4
      script: {fileID: 0}
      classID: 4
      customType: 14
      isPPtrCurve: 0
    - path: 1462349236
      attribute: 4
      script: {fileID: 0}
      classID: 4
      customType: 14
      isPPtrCurve: 0
    - path: 3066451557
      attribute: 538195251
      script: {fileID: 0}
      classID: 224
      customType: 0
      isPPtrCurve: 0
    - path: 2531687880
      attribute: 1460864421
      script: {fileID: 0}
      classID: 224
      customType: 0
      isPPtrCurve: 0
    - path: 2531687880
      attribute: 538195251
      script: {fileID: 0}
      classID: 224
      customType: 0
      isPPtrCurve: 0
    - path: 2468716229
      attribute: 538195251
      script: {fileID: 0}
      classID: 224
      customType: 0
      isPPtrCurve: 0
    - path: 3813632586
      attribute: 538195251
      script: {fileID: 0}
      classID: 224
      customType: 0
      isPPtrCurve: 0
    - path: 2100035561
      attribute: 538195251
      script: {fileID: 0}
      classID: 224
      customType: 0
      isPPtrCurve: 0
    - path: 2487769820
      attribute: 538195251
      script: {fileID: 0}
      classID: 224
      customType: 0
      isPPtrCurve: 0
    - path: 170708863
      attribute: 538195251
      script: {fileID: 0}
      classID: 224
      customType: 0
      isPPtrCurve: 0
    - path: 2463963395
      attribute: 538195251
      script: {fileID: 0}
      classID: 224
      customType: 0
      isPPtrCurve: 0
    - path: 2463963395
      attribute: 38095219
      script: {fileID: 0}
      classID: 224
      customType: 0
      isPPtrCurve: 0
    - path: 2463963395
      attribute: 1460864421
      script: {fileID: 0}
      classID: 224
      customType: 0
      isPPtrCurve: 0
    - path: 539925794
      attribute: 2086281974
      script: {fileID: 0}
      classID: 1
      customType: 0
      isPPtrCurve: 0
    - path: 1316151649
      attribute: 2086281974
      script: {fileID: 0}
      classID: 1
      customType: 0
      isPPtrCurve: 0
    - path: 1462349236
      attribute: 2086281974
      script: {fileID: 0}
      classID: 1
      customType: 0
      isPPtrCurve: 0
    - path: 1563210320
      attribute: 2033536083
      script: {fileID: 0}
      classID: 224
      customType: 28
      isPPtrCurve: 0
    - path: 2468716229
      attribute: 1460864421
      script: {fileID: 0}
      classID: 224
      customType: 0
      isPPtrCurve: 0
    - path: 170708863
      attribute: 1460864421
      script: {fileID: 0}
      classID: 224
      customType: 0
      isPPtrCurve: 0
    - path: 2100035561
      attribute: 1460864421
      script: {fileID: 0}
      classID: 224
      customType: 0
      isPPtrCurve: 0
    - path: 3813632586
      attribute: 1460864421
      script: {fileID: 0}
      classID: 224
      customType: 0
      isPPtrCurve: 0
    - path: 2487769820
      attribute: 1460864421
      script: {fileID: 0}
      classID: 224
      customType: 0
      isPPtrCurve: 0
    - path: 2531687880
      attribute: 2033536083
      script: {fileID: 0}
      classID: 224
      customType: 28
      isPPtrCurve: 0
    - path: 0
      attribute: 2033536083
      script: {fileID: 0}
      classID: 224
      customType: 28
      isPPtrCurve: 0
    pptrCurveMapping: []
  m_AnimationClipSettings:
    serializedVersion: 2
    m_AdditiveReferencePoseClip: {fileID: 0}
    m_AdditiveReferencePoseTime: 0
    m_StartTime: 0
    m_StopTime: 5.65
    m_OrientationOffsetY: 0
    m_Level: 0
    m_CycleOffset: 0
    m_HasAdditiveReferencePose: 0
    m_LoopTime: 1
    m_LoopBlend: 0
    m_LoopBlendOrientation: 0
    m_LoopBlendPositionY: 0
    m_LoopBlendPositionXZ: 0
    m_KeepOriginalOrientation: 0
    m_KeepOriginalPositionY: 1
    m_KeepOriginalPositionXZ: 0
    m_HeightFromFeet: 0
    m_Mirror: 0
  m_EditorCurves:
  - curve:
      serializedVersion: 2
      m_Curve:
      - time: 0
        value: 24
        inSlope: 0
        outSlope: 0
        tangentMode: 0
      - time: 0.41666666
        value: 41.36
        inSlope: 0
        outSlope: 0
        tangentMode: 0
      - time: 0.8333333
        value: -22.4
        inSlope: 0
        outSlope: 0
        tangentMode: 0
      - time: 1.25
        value: -3.4
        inSlope: 18.305172
        outSlope: 18.305172
        tangentMode: 10
      - time: 2.2166667
        value: -12.09
        inSlope: -4.4948277
        outSlope: -4.4948277
        tangentMode: 10
      - time: 2.65
        value: -12.09
        inSlope: 1.9266669
        outSlope: 1.9266669
        tangentMode: 10
      - time: 3.4
        value: -9.2
        inSlope: 0
        outSlope: 0
        tangentMode: 10
      - time: 4.15
        value: -12.09
        inSlope: 0
        outSlope: 0
        tangentMode: 10
      - time: 4.9
        value: -9.2
        inSlope: 0
        outSlope: 0
        tangentMode: 10
      - time: 5.65
        value: -12.09
        inSlope: -3.8533337
        outSlope: -3.8533337
        tangentMode: 10
      m_PreInfinity: 2
      m_PostInfinity: 2
      m_RotationOrder: 4
    attribute: m_AnchoredPosition.y
    path: Root
    classID: 224
    script: {fileID: 0}
  - curve:
      serializedVersion: 2
      m_Curve:
      - time: 0
        value: 0
        inSlope: 0
        outSlope: 0
        tangentMode: 10
      - time: 0.48333332
        value: 0
        inSlope: 0
        outSlope: 0
        tangentMode: 10
      - time: 0.75
        value: 0
        inSlope: 0
        outSlope: 0
        tangentMode: 10
      - time: 1
        value: 0
        inSlope: 0
        outSlope: 0
        tangentMode: 0
      - time: 1.2833333
        value: 0
        inSlope: 0
        outSlope: 0
        tangentMode: 0
      - time: 1.7
        value: 0
        inSlope: 0
        outSlope: 0
        tangentMode: 0
      - time: 2.0833333
        value: 0
        inSlope: 0
        outSlope: 0
        tangentMode: 0
      - time: 2.45
        value: 0
        inSlope: 0
        outSlope: 0
        tangentMode: 0
      - time: 2.65
        value: 0
        inSlope: 0
        outSlope: 0
        tangentMode: 0
      - time: 3.6833334
        value: 0
        inSlope: 0
        outSlope: 0
        tangentMode: 0
      - time: 3.8
        value: 0
        inSlope: 0
        outSlope: 0
        tangentMode: 0
      - time: 3.9333334
        value: 0
        inSlope: 0
        outSlope: 0
        tangentMode: 0
      - time: 4.05
        value: 0
        inSlope: 0
        outSlope: 0
        tangentMode: 0
      - time: 4.15
        value: 0
        inSlope: 0
        outSlope: 0
        tangentMode: 0
      m_PreInfinity: 2
      m_PostInfinity: 2
      m_RotationOrder: 4
    attribute: localEulerAnglesRaw.x
    path: Root/Antenna
    classID: 224
    script: {fileID: 0}
  - curve:
      serializedVersion: 2
      m_Curve:
      - time: 0
        value: 0
        inSlope: 0
        outSlope: 0
        tangentMode: 10
      - time: 0.48333332
        value: 0
        inSlope: 0
        outSlope: 0
        tangentMode: 10
      - time: 0.75
        value: 0
        inSlope: 0
        outSlope: 0
        tangentMode: 10
      - time: 1
        value: 0
        inSlope: 0
        outSlope: 0
        tangentMode: 0
      - time: 1.2833333
        value: 0
        inSlope: 0
        outSlope: 0
        tangentMode: 0
      - time: 1.7
        value: 0
        inSlope: 0
        outSlope: 0
        tangentMode: 0
      - time: 2.0833333
        value: 0
        inSlope: 0
        outSlope: 0
        tangentMode: 0
      - time: 2.45
        value: 0
        inSlope: 0
        outSlope: 0
        tangentMode: 0
      - time: 2.65
        value: 0
        inSlope: 0
        outSlope: 0
        tangentMode: 0
      - time: 3.6833334
        value: 0
        inSlope: 0
        outSlope: 0
        tangentMode: 0
      - time: 3.8
        value: 0
        inSlope: 0
        outSlope: 0
        tangentMode: 0
      - time: 3.9333334
        value: 0
        inSlope: 0
        outSlope: 0
        tangentMode: 0
      - time: 4.05
        value: 0
        inSlope: 0
        outSlope: 0
        tangentMode: 0
      - time: 4.15
        value: 0
        inSlope: 0
        outSlope: 0
        tangentMode: 0
      m_PreInfinity: 2
      m_PostInfinity: 2
      m_RotationOrder: 4
    attribute: localEulerAnglesRaw.y
    path: Root/Antenna
    classID: 224
    script: {fileID: 0}
  - curve:
      serializedVersion: 2
      m_Curve:
      - time: 0
        value: 13.3
        inSlope: -27.72414
        outSlope: -27.72414
        tangentMode: 10
      - time: 0.48333332
        value: -0.1
        inSlope: 6.20043
        outSlope: 6.20043
        tangentMode: 10
      - time: 0.75
        value: 10.6
        inSlope: 122.8625
        outSlope: 122.8625
        tangentMode: 10
      - time: 1
        value: 62
        inSlope: 0
        outSlope: 0
        tangentMode: 0
      - time: 1.2833333
        value: 34.41
        inSlope: 0
        outSlope: 0
        tangentMode: 0
      - time: 1.7
        value: 62
        inSlope: 0
        outSlope: 0
        tangentMode: 0
      - time: 2.0833333
        value: 50.3
        inSlope: 0
        outSlope: 0
        tangentMode: 0
      - time: 2.45
        value: 62
        inSlope: 0
        outSlope: 0
        tangentMode: 0
      - time: 2.65
        value: 62
        inSlope: 0
        outSlope: 0
        tangentMode: 0
      - time: 3.6833334
        value: 62
        inSlope: 0
        outSlope: 0
        tangentMode: 0
      - time: 3.8
        value: 35.27
        inSlope: 0
        outSlope: 0
        tangentMode: 0
      - time: 3.9333334
        value: 62
        inSlope: 0
        outSlope: 0
        tangentMode: 0
      - time: 4.05
        value: 45.9
        inSlope: 0
        outSlope: 0
        tangentMode: 0
      - time: 4.15
        value: 62
        inSlope: 0
        outSlope: 0
        tangentMode: 0
      m_PreInfinity: 2
      m_PostInfinity: 2
      m_RotationOrder: 4
    attribute: localEulerAnglesRaw.z
    path: Root/Antenna
    classID: 224
    script: {fileID: 0}
  - curve:
      serializedVersion: 2
      m_Curve:
      - time: 0.65
        value: -101.9
        inSlope: -88.85713
        outSlope: -88.85713
        tangentMode: 10
      - time: 1
        value: -133
        inSlope: 0
        outSlope: 0
        tangentMode: 0
      - time: 2.65
        value: -133
        inSlope: 0
        outSlope: 0
        tangentMode: 0
      m_PreInfinity: 2
      m_PostInfinity: 2
      m_RotationOrder: 4
    attribute: m_AnchoredPosition.x
    path: Root/Antenna
    classID: 224
    script: {fileID: 0}
  - curve:
      serializedVersion: 2
      m_Curve:
      - time: 0.65
        value: 256
        inSlope: -22.857141
        outSlope: -22.857141
        tangentMode: 10
      - time: 1
        value: 248
        inSlope: 0
        outSlope: 0
        tangentMode: 0
      - time: 2.65
        value: 248
        inSlope: 0
        outSlope: 0
        tangentMode: 0
      m_PreInfinity: 2
      m_PostInfinity: 2
      m_RotationOrder: 4
    attribute: m_AnchoredPosition.y
    path: Root/Antenna
    classID: 224
    script: {fileID: 0}
  - curve:
      serializedVersion: 2
      m_Curve:
      - time: 0
        value: 130
        inSlope: -93.20001
        outSlope: -93.20001
        tangentMode: 10
      - time: 0.25
        value: 106.7
        inSlope: 0
        outSlope: 0
        tangentMode: 10
      - time: 0.5
        value: 130
        inSlope: 28.844906
        outSlope: 28.844906
        tangentMode: 10
      - time: 1.3166667
        value: 101
        inSlope: 0
        outSlope: 0
        tangentMode: 0
      m_PreInfinity: 2
      m_PostInfinity: 2
      m_RotationOrder: 4
    attribute: m_AnchoredPosition.y
    path: Root/Lollipop01
    classID: 224
    script: {fileID: 0}
  - curve:
      serializedVersion: 2
      m_Curve:
      - time: 0
        value: 111.96566
        inSlope: 91.54312
        outSlope: 91.54312
        tangentMode: 10
      - time: 0.21666667
        value: 131.8
        inSlope: -0.82844543
        outSlope: -0.82844543
        tangentMode: 10
      - time: 0.46666667
        value: 108.5
        inSlope: 0.0000038146973
        outSlope: 0.0000038146973
        tangentMode: 10
      - time: 0.71666664
        value: 131.8
        inSlope: 33.011776
        outSlope: 33.011776
        tangentMode: 10
      - time: 1.85
        value: 101
        inSlope: 0
        outSlope: 0
        tangentMode: 0
      m_PreInfinity: 2
      m_PostInfinity: 2
      m_RotationOrder: 4
    attribute: m_AnchoredPosition.y
    path: Root/Lollipop04
    classID: 224
    script: {fileID: 0}
  - curve:
      serializedVersion: 2
      m_Curve:
      - time: 0
        value: 120.0568
        inSlope: 78.28801
        outSlope: 78.28801
        tangentMode: 10
      - time: 0.15
        value: 131.8
        inSlope: -7.4560013
        outSlope: -7.4560013
        tangentMode: 10
      - time: 0.4
        value: 108.5
        inSlope: 0.0000038146973
        outSlope: 0.0000038146973
        tangentMode: 10
      - time: 0.65
        value: 131.8
        inSlope: 30.938992
        outSlope: 30.938992
        tangentMode: 10
      - time: 1.6333333
        value: 101
        inSlope: 0
        outSlope: 0
        tangentMode: 0
      m_PreInfinity: 2
      m_PostInfinity: 2
      m_RotationOrder: 4
    attribute: m_AnchoredPosition.y
    path: Root/Lollipop03
    classID: 224
    script: {fileID: 0}
  - curve:
      serializedVersion: 2
      m_Curve:
      - time: 0
        value: 111.6688
        inSlope: -63.376007
        outSlope: -63.376007
        tangentMode: 10
      - time: 0.05
        value: 108.5
        inSlope: -31.688004
        outSlope: -31.688004
        tangentMode: 10
      - time: 0.55
        value: 108.5
        inSlope: -2.419355
        outSlope: -2.419355
        tangentMode: 10
      - time: 2.1
        value: 101
        inSlope: 0
        outSlope: 0
        tangentMode: 0
      m_PreInfinity: 2
      m_PostInfinity: 2
      m_RotationOrder: 4
    attribute: m_AnchoredPosition.y
    path: Root/Lollipop05
    classID: 224
    script: {fileID: 0}
  - curve:
      serializedVersion: 2
      m_Curve:
      - time: 0
        value: 128.92807
        inSlope: 43.07899
        outSlope: 43.07899
        tangentMode: 10
      - time: 0.06666667
        value: 131.8
        inSlope: -25.06051
        outSlope: -25.06051
        tangentMode: 10
      - time: 0.31666666
        value: 108.5
        inSlope: 0
        outSlope: 0
        tangentMode: 10
      - time: 0.56666666
        value: 131.8
        inSlope: 29.488894
        outSlope: 29.488894
        tangentMode: 10
      - time: 1.4666667
        value: 101
        inSlope: 0
        outSlope: 0
        tangentMode: 0
      m_PreInfinity: 2
      m_PostInfinity: 2
      m_RotationOrder: 4
    attribute: m_AnchoredPosition.y
    path: Root/Lollipop02
    classID: 224
    script: {fileID: 0}
  - curve:
      serializedVersion: 2
      m_Curve:
      - time: 0.25
        value: -131.6
        inSlope: 0
        outSlope: 0
        tangentMode: 10
      - time: 1.3166667
        value: -131.6
        inSlope: 0
        outSlope: 0
        tangentMode: 0
      m_PreInfinity: 2
      m_PostInfinity: 2
      m_RotationOrder: 4
    attribute: m_AnchoredPosition.x
    path: Root/Lollipop01
    classID: 224
    script: {fileID: 0}
  - curve:
      serializedVersion: 2
      m_Curve:
      - time: 0
        value: -106.4
        inSlope: 0
        outSlope: 0
        tangentMode: 10
      - time: 0.31666666
        value: -106.4
        inSlope: 0
        outSlope: 0
        tangentMode: 10
      m_PreInfinity: 2
      m_PostInfinity: 2
      m_RotationOrder: 4
    attribute: m_AnchoredPosition.x
    path: Root/Lollipop02
    classID: 224
    script: {fileID: 0}
  - curve:
      serializedVersion: 2
      m_Curve:
      - time: 0
        value: -80.7
        inSlope: 0
        outSlope: 0
        tangentMode: 10
      - time: 0.4
        value: -80.7
        inSlope: 0
        outSlope: 0
        tangentMode: 10
      m_PreInfinity: 2
      m_PostInfinity: 2
      m_RotationOrder: 4
    attribute: m_AnchoredPosition.x
    path: Root/Lollipop03
    classID: 224
    script: {fileID: 0}
  - curve:
      serializedVersion: 2
      m_Curve:
      - time: 0
        value: -55.6
        inSlope: 0
        outSlope: 0
        tangentMode: 10
      - time: 0.46666667
        value: -55.6
        inSlope: 0
        outSlope: 0
        tangentMode: 10
      m_PreInfinity: 2
      m_PostInfinity: 2
      m_RotationOrder: 4
    attribute: m_AnchoredPosition.x
    path: Root/Lollipop04
    classID: 224
    script: {fileID: 0}
  - curve:
      serializedVersion: 2
      m_Curve:
      - time: 0
        value: -33
        inSlope: 0
        outSlope: 0
        tangentMode: 10
      - time: 0.05
        value: -33
        inSlope: 0
        outSlope: 0
        tangentMode: 10
      - time: 0.55
        value: -33
        inSlope: 0
        outSlope: 0
        tangentMode: 10
      m_PreInfinity: 2
      m_PostInfinity: 2
      m_RotationOrder: 4
    attribute: m_AnchoredPosition.x
    path: Root/Lollipop05
    classID: 224
    script: {fileID: 0}
  - curve:
      serializedVersion: 2
      m_Curve:
      - time: 0.56666666
        value: -7
        inSlope: -1.9200003
        outSlope: -1.9200003
        tangentMode: 10
      - time: 0.98333335
        value: -7.8
        inSlope: -0.96000016
        outSlope: -0.96000016
        tangentMode: 10
      - time: 2.65
        value: -7.8
        inSlope: 0
        outSlope: 0
        tangentMode: 10
      m_PreInfinity: 2
      m_PostInfinity: 2
      m_RotationOrder: 4
    attribute: m_AnchoredPosition.y
    path: Root/Eye/Iris
    classID: 224
    script: {fileID: 0}
  - curve:
      serializedVersion: 2
      m_Curve:
      - time: 0.6666667
        value: 102
        inSlope: -444.40002
        outSlope: -444.40002
        tangentMode: 10
      - time: 0.8666667
        value: 13.12
        inSlope: -444.40002
        outSlope: -444.40002
        tangentMode: 10
      m_PreInfinity: 2
      m_PostInfinity: 2
      m_RotationOrder: 4
    attribute: m_SizeDelta.y
    path: Root/Eye/Iris
    classID: 224
    script: {fileID: 0}
  - curve:
      serializedVersion: 2
      m_Curve:
      - time: 0
        value: 0
        inSlope: 0
        outSlope: 0
        tangentMode: 0
      - time: 0.16666667
        value: 0
        inSlope: 0
        outSlope: 0
        tangentMode: 0
      - time: 0.73333335
        value: 0
        inSlope: 0
        outSlope: 0
        tangentMode: 0
      - time: 1.4166666
        value: 0
        inSlope: 0
        outSlope: 0
        tangentMode: 0
      - time: 1.9833333
        value: 0
        inSlope: 0
        outSlope: 0
        tangentMode: 0
      - time: 2.65
        value: 0
        inSlope: 0
        outSlope: 0
        tangentMode: 0
      - time: 3.1833334
        value: 0
        inSlope: 0
        outSlope: 0
        tangentMode: 0
      - time: 3.9333334
        value: 0
        inSlope: 0
        outSlope: 0
        tangentMode: 0
      - time: 4.6833334
        value: 0
        inSlope: 0
        outSlope: 0
        tangentMode: 0
      - time: 5.4333334
        value: 0
        inSlope: 0
        outSlope: 0
        tangentMode: 0
      - time: 5.65
        value: 0
        inSlope: 0
        outSlope: 0
        tangentMode: 0
      m_PreInfinity: 2
      m_PostInfinity: 2
      m_RotationOrder: 4
    attribute: localEulerAnglesRaw.x
    path: Root/Arm
    classID: 224
    script: {fileID: 0}
  - curve:
      serializedVersion: 2
      m_Curve:
      - time: 0
        value: 0
        inSlope: 0
        outSlope: 0
        tangentMode: 0
      - time: 0.16666667
        value: 0
        inSlope: 0
        outSlope: 0
        tangentMode: 0
      - time: 0.73333335
        value: 0
        inSlope: 0
        outSlope: 0
        tangentMode: 0
      - time: 1.4166666
        value: 0
        inSlope: 0
        outSlope: 0
        tangentMode: 0
      - time: 1.9833333
        value: 0
        inSlope: 0
        outSlope: 0
        tangentMode: 0
      - time: 2.65
        value: 0
        inSlope: 0
        outSlope: 0
        tangentMode: 0
      - time: 3.1833334
        value: 0
        inSlope: 0
        outSlope: 0
        tangentMode: 0
      - time: 3.9333334
        value: 0
        inSlope: 0
        outSlope: 0
        tangentMode: 0
      - time: 4.6833334
        value: 0
        inSlope: 0
        outSlope: 0
        tangentMode: 0
      - time: 5.4333334
        value: 0
        inSlope: 0
        outSlope: 0
        tangentMode: 0
      - time: 5.65
        value: 0
        inSlope: 0
        outSlope: 0
        tangentMode: 0
      m_PreInfinity: 2
      m_PostInfinity: 2
      m_RotationOrder: 4
    attribute: localEulerAnglesRaw.y
    path: Root/Arm
    classID: 224
    script: {fileID: 0}
  - curve:
      serializedVersion: 2
      m_Curve:
      - time: 0
        value: 23.35
        inSlope: 0
        outSlope: 0
        tangentMode: 0
      - time: 0.16666667
        value: 1.6
        inSlope: 0
        outSlope: 0
        tangentMode: 0
      - time: 0.73333335
        value: 23.35
        inSlope: 0
        outSlope: 0
        tangentMode: 0
      - time: 1.4166666
        value: -32
        inSlope: 0
        outSlope: 0
        tangentMode: 0
      - time: 1.9833333
        value: -4.38
        inSlope: 0
        outSlope: 0
        tangentMode: 0
      - time: 2.65
        value: -23.34
        inSlope: 24.13917
        outSlope: 24.13917
        tangentMode: 0
      - time: 3.1833334
        value: -8
        inSlope: 0
        outSlope: 0
        tangentMode: 0
      - time: 3.9333334
        value: -19.5
        inSlope: 0
        outSlope: 0
        tangentMode: 0
      - time: 4.6833334
        value: -4.38
        inSlope: 0
        outSlope: 0
        tangentMode: 0
      - time: 5.4333334
        value: -19.5
        inSlope: 0
        outSlope: 0
        tangentMode: 0
      - time: 5.65
        value: -16.443478
        inSlope: 21.400862
        outSlope: 21.400862
        tangentMode: 0
      m_PreInfinity: 2
      m_PostInfinity: 2
      m_RotationOrder: 4
    attribute: localEulerAnglesRaw.z
    path: Root/Arm
    classID: 224
    script: {fileID: 0}
  - curve:
      serializedVersion: 2
      m_Curve:
      - time: 0
        value: 22.66
        inSlope: -27.635294
        outSlope: -27.635294
        tangentMode: 10
      - time: 0.56666666
        value: 7
        inSlope: -27.635294
        outSlope: -27.635294
        tangentMode: 10
      m_PreInfinity: 2
      m_PostInfinity: 2
      m_RotationOrder: 4
    attribute: m_AnchoredPosition.x
    path: Root/Eye/Iris
    classID: 224
    script: {fileID: 0}
  - curve:
      serializedVersion: 2
      m_Curve:
      - time: 0
        value: 0
        inSlope: 0
        outSlope: 0
        tangentMode: 10
      - time: 0.98333335
        value: 0
        inSlope: 0
        outSlope: 0
        tangentMode: 10
      - time: 1.4
        value: 0
        inSlope: 0
        outSlope: 0
        tangentMode: 10
      - time: 1.8666667
        value: 0
        inSlope: 0
        outSlope: 0
        tangentMode: 10
      - time: 2.6166666
        value: 0
        inSlope: 0
        outSlope: 0
        tangentMode: 10
      - time: 3.4
        value: 0
        inSlope: 0
        outSlope: 0
        tangentMode: 10
      - time: 4.15
        value: 0
        inSlope: 0
        outSlope: 0
        tangentMode: 10
      - time: 4.9
        value: 0
        inSlope: 0
        outSlope: 0
        tangentMode: 10
      - time: 5.65
        value: 0
        inSlope: 0
        outSlope: 0
        tangentMode: 10
      m_PreInfinity: 2
      m_PostInfinity: 2
      m_RotationOrder: 4
    attribute: localEulerAnglesRaw.x
    path: Root/Arm/Claw
    classID: 224
    script: {fileID: 0}
  - curve:
      serializedVersion: 2
      m_Curve:
      - time: 0
        value: 0
        inSlope: 0
        outSlope: 0
        tangentMode: 10
      - time: 0.98333335
        value: 0
        inSlope: 0
        outSlope: 0
        tangentMode: 10
      - time: 1.4
        value: 0
        inSlope: 0
        outSlope: 0
        tangentMode: 10
      - time: 1.8666667
        value: 0
        inSlope: 0
        outSlope: 0
        tangentMode: 10
      - time: 2.6166666
        value: 0
        inSlope: 0
        outSlope: 0
        tangentMode: 10
      - time: 3.4
        value: 0
        inSlope: 0
        outSlope: 0
        tangentMode: 10
      - time: 4.15
        value: 0
        inSlope: 0
        outSlope: 0
        tangentMode: 10
      - time: 4.9
        value: 0
        inSlope: 0
        outSlope: 0
        tangentMode: 10
      - time: 5.65
        value: 0
        inSlope: 0
        outSlope: 0
        tangentMode: 10
      m_PreInfinity: 2
      m_PostInfinity: 2
      m_RotationOrder: 4
    attribute: localEulerAnglesRaw.y
    path: Root/Arm/Claw
    classID: 224
    script: {fileID: 0}
  - curve:
      serializedVersion: 2
      m_Curve:
      - time: 0
        value: -15.54
        inSlope: 7.566101
        outSlope: 7.566101
        tangentMode: 10
      - time: 0.98333335
        value: -8.1
        inSlope: -118.256966
        outSlope: -118.256966
        tangentMode: 10
      - time: 1.4
        value: -109.8
        inSlope: -88.29002
        outSlope: -88.29002
        tangentMode: 10
      - time: 1.8666667
        value: -78.3
        inSlope: 17.116663
        outSlope: 17.116663
        tangentMode: 10
      - time: 2.6166666
        value: -103.25
        inSlope: -5.3673773
        outSlope: -5.3673773
        tangentMode: 10
      - time: 3.4
        value: -85.6
        inSlope: 14.239288
        outSlope: 14.239288
        tangentMode: 10
      - time: 4.15
        value: -81.14
        inSlope: 0
        outSlope: 0
        tangentMode: 10
      - time: 4.9
        value: -85.6
        inSlope: 0
        outSlope: 0
        tangentMode: 10
      - time: 5.65
        value: -81.14
        inSlope: 5.9466653
        outSlope: 5.9466653
        tangentMode: 10
      m_PreInfinity: 2
      m_PostInfinity: 2
      m_RotationOrder: 4
    attribute: localEulerAnglesRaw.z
    path: Root/Arm/Claw
    classID: 224
    script: {fileID: 0}
  - curve:
      serializedVersion: 2
      m_Curve:
      - time: 2.65
        value: 74.17
        inSlope: 0
        outSlope: 0
        tangentMode: 10
      - time: 4.05
        value: 74.17
        inSlope: 0
        outSlope: 0
        tangentMode: 10
      m_PreInfinity: 2
      m_PostInfinity: 2
      m_RotationOrder: 4
    attribute: m_LocalPosition.z
    path: Root/Antenna
    classID: 224
    script: {fileID: 0}
  - curve:
      serializedVersion: 2
      m_Curve:
      - time: 0
        value: 0
        inSlope: 0
        outSlope: 0
        tangentMode: 10
      m_PreInfinity: 2
      m_PostInfinity: 2
      m_RotationOrder: 4
    attribute: m_LocalPosition.z
    path: 
    classID: 224
    script: {fileID: 0}
  - curve:
      serializedVersion: 2
      m_Curve:
      - time: 0
        value: 0
        inSlope: Infinity
        outSlope: Infinity
        tangentMode: 31
      - time: 1.1166667
        value: 1
        inSlope: Infinity
        outSlope: Infinity
        tangentMode: 31
      - time: 1.15
        value: 0
        inSlope: Infinity
        outSlope: Infinity
        tangentMode: 31
      m_PreInfinity: 2
      m_PostInfinity: 2
      m_RotationOrder: 4
    attribute: m_IsActive
    path: Root/Arm/Claw2
    classID: 1
    script: {fileID: 0}
  - curve:
      serializedVersion: 2
      m_Curve:
      - time: 0
        value: 1
        inSlope: Infinity
        outSlope: Infinity
        tangentMode: 31
      - time: 1.1166667
        value: 0
        inSlope: Infinity
        outSlope: Infinity
        tangentMode: 31
      m_PreInfinity: 2
      m_PostInfinity: 2
      m_RotationOrder: 4
    attribute: m_IsActive
    path: Root/Arm/Claw
    classID: 1
    script: {fileID: 0}
  - curve:
      serializedVersion: 2
      m_Curve:
      - time: 0
        value: 0
        inSlope: Infinity
        outSlope: Infinity
        tangentMode: 31
      - time: 1.15
        value: 1
        inSlope: Infinity
        outSlope: Infinity
        tangentMode: 31
      m_PreInfinity: 2
      m_PostInfinity: 2
      m_RotationOrder: 4
    attribute: m_IsActive
    path: Root/Arm/Claw3
    classID: 1
    script: {fileID: 0}
  - curve:
      serializedVersion: 2
      m_Curve:
      - time: 1.15
        value: 0
        inSlope: 0
        outSlope: 0
        tangentMode: 10
      - time: 1.6833333
        value: 0
        inSlope: 0
        outSlope: 0
        tangentMode: 10
      - time: 3.4
        value: 0
        inSlope: 0
        outSlope: 0
        tangentMode: 10
      - time: 4.15
        value: 0
        inSlope: 0
        outSlope: 0
        tangentMode: 10
      - time: 4.9
        value: 0
        inSlope: 0
        outSlope: 0
        tangentMode: 10
      - time: 5.65
        value: 0
        inSlope: 0
        outSlope: 0
        tangentMode: 10
      m_PreInfinity: 2
      m_PostInfinity: 2
      m_RotationOrder: 4
    attribute: localEulerAnglesRaw.x
    path: Root/Arm/Claw3
    classID: 224
    script: {fileID: 0}
  - curve:
      serializedVersion: 2
      m_Curve:
      - time: 1.15
        value: 0
        inSlope: 0
        outSlope: 0
        tangentMode: 10
      - time: 1.6833333
        value: 0
        inSlope: 0
        outSlope: 0
        tangentMode: 10
      - time: 3.4
        value: 0
        inSlope: 0
        outSlope: 0
        tangentMode: 10
      - time: 4.15
        value: 0
        inSlope: 0
        outSlope: 0
        tangentMode: 10
      - time: 4.9
        value: 0
        inSlope: 0
        outSlope: 0
        tangentMode: 10
      - time: 5.65
        value: 0
        inSlope: 0
        outSlope: 0
        tangentMode: 10
      m_PreInfinity: 2
      m_PostInfinity: 2
      m_RotationOrder: 4
    attribute: localEulerAnglesRaw.y
    path: Root/Arm/Claw3
    classID: 224
    script: {fileID: 0}
  - curve:
      serializedVersion: 2
      m_Curve:
      - time: 1.15
        value: 8.89
        inSlope: 13.893748
        outSlope: 13.893748
        tangentMode: 10
      - time: 1.6833333
        value: 16.3
        inSlope: 6.742991
        outSlope: 6.742991
        tangentMode: 10
      - time: 3.4
        value: 15.6
        inSlope: -3.9372168
        outSlope: -3.9372168
        tangentMode: 10
      - time: 4.15
        value: 10
        inSlope: -4.766667
        outSlope: -4.766667
        tangentMode: 10
      - time: 4.9
        value: 8.45
        inSlope: 3.8666668
        outSlope: 3.8666668
        tangentMode: 10
      - time: 5.65
        value: 15.8
        inSlope: 9.8
        outSlope: 9.8
        tangentMode: 10
      m_PreInfinity: 2
      m_PostInfinity: 2
      m_RotationOrder: 4
    attribute: localEulerAnglesRaw.z
    path: Root/Arm/Claw3
    classID: 224
    script: {fileID: 0}
  - curve:
      serializedVersion: 2
      m_Curve:
      - time: 0
        value: -4.38
        inSlope: 1.3759162
        outSlope: 1.3759162
        tangentMode: 10
      - time: 3.1833334
        value: 0
        inSlope: 1.3759162
        outSlope: 1.3759162
        tangentMode: 10
      m_PreInfinity: 2
      m_PostInfinity: 2
      m_RotationOrder: 4
    attribute: m_LocalPosition.z
    path: Root/Arm
    classID: 224
    script: {fileID: 0}
  m_EulerEditorCurves:
  - curve:
      serializedVersion: 2
      m_Curve: []
      m_PreInfinity: 2
      m_PostInfinity: 2
      m_RotationOrder: 4
    attribute: m_LocalEulerAngles.z
    path: Root/Arm/Claw
    classID: 224
    script: {fileID: 0}
  - curve:
      serializedVersion: 2
      m_Curve: []
      m_PreInfinity: 2
      m_PostInfinity: 2
      m_RotationOrder: 4
    attribute: m_LocalEulerAngles.y
    path: Root/Arm/Claw
    classID: 224
    script: {fileID: 0}
  - curve:
      serializedVersion: 2
      m_Curve: []
      m_PreInfinity: 2
      m_PostInfinity: 2
      m_RotationOrder: 4
    attribute: m_LocalEulerAngles.x
    path: Root/Arm/Claw
    classID: 224
    script: {fileID: 0}
  - curve:
      serializedVersion: 2
      m_Curve: []
      m_PreInfinity: 2
      m_PostInfinity: 2
      m_RotationOrder: 4
    attribute: m_LocalEulerAngles.z
    path: Root/Antenna
    classID: 224
    script: {fileID: 0}
  - curve:
      serializedVersion: 2
      m_Curve: []
      m_PreInfinity: 2
      m_PostInfinity: 2
      m_RotationOrder: 4
    attribute: m_LocalEulerAngles.y
    path: Root/Antenna
    classID: 224
    script: {fileID: 0}
  - curve:
      serializedVersion: 2
      m_Curve: []
      m_PreInfinity: 2
      m_PostInfinity: 2
      m_RotationOrder: 4
    attribute: m_LocalEulerAngles.x
    path: Root/Antenna
    classID: 224
    script: {fileID: 0}
  - curve:
      serializedVersion: 2
      m_Curve: []
      m_PreInfinity: 2
      m_PostInfinity: 2
      m_RotationOrder: 4
    attribute: m_LocalEulerAngles.z
    path: Root/Arm
    classID: 224
    script: {fileID: 0}
  - curve:
      serializedVersion: 2
      m_Curve: []
      m_PreInfinity: 2
      m_PostInfinity: 2
      m_RotationOrder: 4
    attribute: m_LocalEulerAngles.y
    path: Root/Arm
    classID: 224
    script: {fileID: 0}
  - curve:
      serializedVersion: 2
      m_Curve: []
      m_PreInfinity: 2
      m_PostInfinity: 2
      m_RotationOrder: 4
    attribute: m_LocalEulerAngles.x
    path: Root/Arm
    classID: 224
    script: {fileID: 0}
  - curve:
      serializedVersion: 2
      m_Curve: []
      m_PreInfinity: 2
      m_PostInfinity: 2
      m_RotationOrder: 4
    attribute: m_LocalEulerAngles.x
    path: Root/Arm/Claw3
    classID: 224
    script: {fileID: 0}
  - curve:
      serializedVersion: 2
      m_Curve: []
      m_PreInfinity: 2
      m_PostInfinity: 2
      m_RotationOrder: 4
    attribute: m_LocalEulerAngles.y
    path: Root/Arm/Claw3
    classID: 224
    script: {fileID: 0}
  - curve:
      serializedVersion: 2
      m_Curve: []
      m_PreInfinity: 2
      m_PostInfinity: 2
      m_RotationOrder: 4
    attribute: m_LocalEulerAngles.z
    path: Root/Arm/Claw3
    classID: 224
    script: {fileID: 0}
  m_HasGenericRootTransform: 0
  m_HasMotionFloatCurves: 0
  m_GenerateMotionCurves: 0
  m_Events: []
