%YAML 1.1
%TAG !u! tag:unity3d.com,2011:
--- !u!74 &7400000
AnimationClip:
  m_ObjectHideFlags: 0
  m_PrefabParentObject: {fileID: 0}
  m_PrefabInternal: {fileID: 0}
  m_Name: char2d_robot1_disconnect_idle
  serializedVersion: 6
  m_Legacy: 0
  m_Compressed: 0
  m_UseHighQualityCurve: 1
  m_RotationCurves: []
  m_CompressedRotationCurves: []
  m_EulerCurves:
  - curve:
      serializedVersion: 2
      m_Curve:
      - time: 3.2
        value: {x: 0, y: 0, z: 62}
        inSlope: {x: 0, y: 0, z: 0}
        outSlope: {x: 0, y: 0, z: 0}
        tangentMode: 0
      - time: 3.35
        value: {x: 0, y: 0, z: 57.68595}
        inSlope: {x: 0, y: 0, z: 0}
        outSlope: {x: 0, y: 0, z: 0}
        tangentMode: 0
      - time: 3.4
        value: {x: 0, y: 0, z: 63.9}
        inSlope: {x: 0, y: 0, z: 0}
        outSlope: {x: 0, y: 0, z: 0}
        tangentMode: 0
      - time: 3.5833333
        value: {x: 0, y: 0, z: 49.29386}
        inSlope: {x: 0, y: 0, z: 0}
        outSlope: {x: 0, y: 0, z: 0}
        tangentMode: 0
      - time: 3.6333334
        value: {x: 0, y: 0, z: 55.9}
        inSlope: {x: 0, y: 0, z: 0}
        outSlope: {x: 0, y: 0, z: 0}
        tangentMode: 0
      - time: 3.8833334
        value: {x: 0, y: 0, z: 33.499023}
        inSlope: {x: 0, y: 0, z: 0}
        outSlope: {x: 0, y: 0, z: 0}
        tangentMode: 0
      - time: 3.9333334
        value: {x: 0, y: 0, z: 39.4}
        inSlope: {x: 0, y: 0, z: 0}
        outSlope: {x: 0, y: 0, z: 0}
        tangentMode: 0
      - time: 4.1833334
        value: {x: 0, y: 0, z: 20.306335}
        inSlope: {x: 0, y: 0, z: 0}
        outSlope: {x: 0, y: 0, z: 0}
        tangentMode: 0
      - time: 4.3333335
        value: {x: 0, y: 0, z: 14.2}
        inSlope: {x: 0, y: 0, z: 0}
        outSlope: {x: 0, y: 0, z: 0}
        tangentMode: 0
      - time: 4.4666667
        value: {x: 0, y: 0, z: 62}
        inSlope: {x: 0, y: 0, z: 0}
        outSlope: {x: 0, y: 0, z: 0}
        tangentMode: 0
      - time: 4.6
        value: {x: 0, y: 0, z: 47.8}
        inSlope: {x: 0, y: 0, z: 0}
        outSlope: {x: 0, y: 0, z: 0}
        tangentMode: 0
      - time: 4.733333
        value: {x: 0, y: 0, z: 62}
        inSlope: {x: 0, y: 0, z: 0}
        outSlope: {x: 0, y: 0, z: 0}
        tangentMode: 0
      m_PreInfinity: 2
      m_PostInfinity: 2
      m_RotationOrder: 4
    path: Root/Antenna
  - curve:
      serializedVersion: 2
      m_Curve:
      - time: 0
        value: {x: 0, y: 0, z: -16.443478}
        inSlope: {x: 0, y: 0, z: 24.13917}
        outSlope: {x: 0, y: 0, z: 24.13917}
        tangentMode: 0
      - time: 0.5333333
        value: {x: 0, y: 0, z: -4.38}
        inSlope: {x: 0, y: 0, z: 0}
        outSlope: {x: 0, y: 0, z: 0}
        tangentMode: 0
      - time: 1.2833333
        value: {x: 0, y: 0, z: -19.5}
        inSlope: {x: 0, y: 0, z: 0}
        outSlope: {x: 0, y: 0, z: 0}
        tangentMode: 0
      - time: 2.0333333
        value: {x: 0, y: 0, z: -4.38}
        inSlope: {x: 0, y: 0, z: 0}
        outSlope: {x: 0, y: 0, z: 0}
        tangentMode: 0
      - time: 2.7833333
        value: {x: 0, y: 0, z: -19.5}
        inSlope: {x: 0, y: 0, z: 0}
        outSlope: {x: 0, y: 0, z: 0}
        tangentMode: 0
      - time: 3.5333333
        value: {x: 0, y: 0, z: -4.38}
        inSlope: {x: 0, y: 0, z: 0}
        outSlope: {x: 0, y: 0, z: 0}
        tangentMode: 0
      - time: 4.2833333
        value: {x: 0, y: 0, z: -19.5}
        inSlope: {x: 0, y: 0, z: 0}
        outSlope: {x: 0, y: 0, z: 0}
        tangentMode: 0
      - time: 5.0333333
        value: {x: 0, y: 0, z: -4.38}
        inSlope: {x: 0, y: 0, z: 0}
        outSlope: {x: 0, y: 0, z: 0}
        tangentMode: 0
      - time: 5.7833333
        value: {x: 0, y: 0, z: -19.5}
        inSlope: {x: 0, y: 0, z: 0}
        outSlope: {x: 0, y: 0, z: 0}
        tangentMode: 0
      - time: 6
        value: {x: 0, y: 0, z: -16.443478}
        inSlope: {x: 0, y: 0, z: 21.400862}
        outSlope: {x: 0, y: 0, z: 21.400862}
        tangentMode: 0
      m_PreInfinity: 2
      m_PostInfinity: 2
      m_RotationOrder: 4
    path: Root/Arm
  - curve:
      serializedVersion: 2
      m_Curve:
      - time: 0
        value: {x: 0, y: 0, z: -81.14}
        inSlope: {x: 0, y: 0, z: 0}
        outSlope: {x: 0, y: 0, z: 0}
        tangentMode: 0
      - time: 1.4833333
        value: {x: 0, y: 0, z: -85.6}
        inSlope: {x: 0, y: 0, z: 0}
        outSlope: {x: 0, y: 0, z: 0}
        tangentMode: 0
      - time: 3
        value: {x: 0, y: 0, z: -81.14}
        inSlope: {x: 0, y: 0, z: 0}
        outSlope: {x: 0, y: 0, z: 0}
        tangentMode: 0
      - time: 4.4833336
        value: {x: 0, y: 0, z: -85.6}
        inSlope: {x: 0, y: 0, z: 0}
        outSlope: {x: 0, y: 0, z: 0}
        tangentMode: 0
      - time: 6
        value: {x: 0, y: 0, z: -81.14}
        inSlope: {x: 0, y: 0, z: 0}
        outSlope: {x: 0, y: 0, z: 0}
        tangentMode: 0
      m_PreInfinity: 2
      m_PostInfinity: 2
      m_RotationOrder: 4
    path: Root/Arm/Claw
  m_PositionCurves: []
  m_ScaleCurves: []
  m_FloatCurves:
  - curve:
      serializedVersion: 2
      m_Curve:
      - time: 0
        value: -12.09
        inSlope: 3.8533337
        outSlope: 3.8533337
        tangentMode: 10
      - time: 0.75
        value: -9.2
        inSlope: 0
        outSlope: 0
        tangentMode: 10
      - time: 1.5
        value: -12.09
        inSlope: 0
        outSlope: 0
        tangentMode: 10
      - time: 2.25
        value: -9.2
        inSlope: 0
        outSlope: 0
        tangentMode: 10
      - time: 3
        value: -12.09
        inSlope: 0
        outSlope: 0
        tangentMode: 10
      - time: 3.75
        value: -9.2
        inSlope: 0
        outSlope: 0
        tangentMode: 10
      - time: 4.5
        value: -12.09
        inSlope: 0
        outSlope: 0
        tangentMode: 10
      - time: 5.25
        value: -9.2
        inSlope: 0
        outSlope: 0
        tangentMode: 10
      - time: 6
        value: -12.09
        inSlope: -3.8533337
        outSlope: -3.8533337
        tangentMode: 10
      m_PreInfinity: 2
      m_PostInfinity: 2
      m_RotationOrder: 4
    attribute: m_AnchoredPosition.y
    path: Root
    classID: 224
    script: {fileID: 0}
  - curve:
      serializedVersion: 2
      m_Curve:
      - time: 0
        value: -133
        inSlope: 0
        outSlope: 0
        tangentMode: 0
      m_PreInfinity: 2
      m_PostInfinity: 2
      m_RotationOrder: 4
    attribute: m_AnchoredPosition.x
    path: Root/Antenna
    classID: 224
    script: {fileID: 0}
  - curve:
      serializedVersion: 2
      m_Curve:
      - time: 0
        value: 248
        inSlope: 0
        outSlope: 0
        tangentMode: 0
      m_PreInfinity: 2
      m_PostInfinity: 2
      m_RotationOrder: 4
    attribute: m_AnchoredPosition.y
    path: Root/Antenna
    classID: 224
    script: {fileID: 0}
  - curve:
      serializedVersion: 2
      m_Curve:
      - time: 0
        value: -131.6
        inSlope: 0
        outSlope: 0
        tangentMode: 0
      m_PreInfinity: 2
      m_PostInfinity: 2
      m_RotationOrder: 4
    attribute: m_AnchoredPosition.x
    path: Root/Lollipop01
    classID: 224
    script: {fileID: 0}
  - curve:
      serializedVersion: 2
      m_Curve:
      - time: 0
        value: 101
        inSlope: 0
        outSlope: 0
        tangentMode: 0
      m_PreInfinity: 2
      m_PostInfinity: 2
      m_RotationOrder: 4
    attribute: m_AnchoredPosition.y
    path: Root/Lollipop01
    classID: 224
    script: {fileID: 0}
  - curve:
      serializedVersion: 2
      m_Curve:
      - time: 0
        value: -106.4
        inSlope: 0
        outSlope: 0
        tangentMode: 10
      m_PreInfinity: 2
      m_PostInfinity: 2
      m_RotationOrder: 4
    attribute: m_AnchoredPosition.x
    path: Root/Lollipop02
    classID: 224
    script: {fileID: 0}
  - curve:
      serializedVersion: 2
      m_Curve:
      - time: 0
        value: 101
        inSlope: 0
        outSlope: 0
        tangentMode: 0
      m_PreInfinity: 2
      m_PostInfinity: 2
      m_RotationOrder: 4
    attribute: m_AnchoredPosition.y
    path: Root/Lollipop02
    classID: 224
    script: {fileID: 0}
  - curve:
      serializedVersion: 2
      m_Curve:
      - time: 0
        value: -80.7
        inSlope: 0
        outSlope: 0
        tangentMode: 10
      m_PreInfinity: 2
      m_PostInfinity: 2
      m_RotationOrder: 4
    attribute: m_AnchoredPosition.x
    path: Root/Lollipop03
    classID: 224
    script: {fileID: 0}
  - curve:
      serializedVersion: 2
      m_Curve:
      - time: 0
        value: 101
        inSlope: 0
        outSlope: 0
        tangentMode: 0
      m_PreInfinity: 2
      m_PostInfinity: 2
      m_RotationOrder: 4
    attribute: m_AnchoredPosition.y
    path: Root/Lollipop03
    classID: 224
    script: {fileID: 0}
  - curve:
      serializedVersion: 2
      m_Curve:
      - time: 0
        value: -55.6
        inSlope: 0
        outSlope: 0
        tangentMode: 10
      m_PreInfinity: 2
      m_PostInfinity: 2
      m_RotationOrder: 4
    attribute: m_AnchoredPosition.x
    path: Root/Lollipop04
    classID: 224
    script: {fileID: 0}
  - curve:
      serializedVersion: 2
      m_Curve:
      - time: 0
        value: 101
        inSlope: 0
        outSlope: 0
        tangentMode: 0
      m_PreInfinity: 2
      m_PostInfinity: 2
      m_RotationOrder: 4
    attribute: m_AnchoredPosition.y
    path: Root/Lollipop04
    classID: 224
    script: {fileID: 0}
  - curve:
      serializedVersion: 2
      m_Curve:
      - time: 0
        value: -33
        inSlope: 0
        outSlope: 0
        tangentMode: 10
      m_PreInfinity: 2
      m_PostInfinity: 2
      m_RotationOrder: 4
    attribute: m_AnchoredPosition.x
    path: Root/Lollipop05
    classID: 224
    script: {fileID: 0}
  - curve:
      serializedVersion: 2
      m_Curve:
      - time: 0
        value: 101
        inSlope: 0
        outSlope: 0
        tangentMode: 0
      m_PreInfinity: 2
      m_PostInfinity: 2
      m_RotationOrder: 4
    attribute: m_AnchoredPosition.y
    path: Root/Lollipop05
    classID: 224
    script: {fileID: 0}
  - curve:
      serializedVersion: 2
      m_Curve:
      - time: 3.1833334
        value: -7.8
        inSlope: 7.8688545
        outSlope: 7.8688545
        tangentMode: 10
      - time: 4.2
        value: 0.2
        inSlope: 0
        outSlope: 0
        tangentMode: 0
      - time: 4.3333335
        value: -7.8
        inSlope: 0
        outSlope: 0
        tangentMode: 0
      - time: 4.633333
        value: -10.19
        inSlope: 0
        outSlope: 0
        tangentMode: 0
      - time: 5.05
        value: -7.8
        inSlope: 0
        outSlope: 0
        tangentMode: 0
      m_PreInfinity: 2
      m_PostInfinity: 2
      m_RotationOrder: 4
    attribute: m_AnchoredPosition.y
    path: Root/Eye/Iris
    classID: 224
    script: {fileID: 0}
  - curve:
      serializedVersion: 2
      m_Curve:
      - time: 0
        value: 13.12
        inSlope: 0
        outSlope: 0
        tangentMode: 0
      - time: 3.1833334
        value: 13.12
        inSlope: 0
        outSlope: 0
        tangentMode: 0
      - time: 4.2
        value: 71.76
        inSlope: -264.35953
        outSlope: -264.35953
        tangentMode: 10
      - time: 4.3
        value: 13.12
        inSlope: -586.39777
        outSlope: -586.39777
        tangentMode: 10
      m_PreInfinity: 2
      m_PostInfinity: 2
      m_RotationOrder: 4
    attribute: m_SizeDelta.y
    path: Root/Eye/Iris
    classID: 224
    script: {fileID: 0}
  - curve:
      serializedVersion: 2
      m_Curve:
      - time: 0
        value: 27.4
        inSlope: 10.793073
        outSlope: 10.793073
        tangentMode: 10
      - time: 3.4
        value: 64.09645
        inSlope: 10.793096
        outSlope: 10.793096
        tangentMode: 10
      - time: 3.6333334
        value: 66.614845
        inSlope: 10.793098
        outSlope: 10.793098
        tangentMode: 10
      - time: 3.9333334
        value: 69.85277
        inSlope: 10.793076
        outSlope: 10.793076
        tangentMode: 10
      - time: 4.3333335
        value: 74.17
        inSlope: 10.793073
        outSlope: 10.793073
        tangentMode: 10
      m_PreInfinity: 2
      m_PostInfinity: 2
      m_RotationOrder: 4
    attribute: m_LocalPosition.z
    path: Root/Antenna
    classID: 224
    script: {fileID: 0}
  - curve:
      serializedVersion: 2
      m_Curve:
      - time: 0
        value: 0
        inSlope: Infinity
        outSlope: Infinity
        tangentMode: 31
      m_PreInfinity: 2
      m_PostInfinity: 2
      m_RotationOrder: 4
    attribute: m_IsActive
    path: Root/Arm/Claw
    classID: 1
    script: {fileID: 0}
  - curve:
      serializedVersion: 2
      m_Curve:
      - time: 0
        value: 1
        inSlope: Infinity
        outSlope: Infinity
        tangentMode: 31
      m_PreInfinity: 2
      m_PostInfinity: 2
      m_RotationOrder: 4
    attribute: m_IsActive
    path: Root/Arm/Claw3
    classID: 1
    script: {fileID: 0}
  m_PPtrCurves: []
  m_SampleRate: 60
  m_WrapMode: 0
  m_Bounds:
    m_Center: {x: 0, y: 0, z: 0}
    m_Extent: {x: 0, y: 0, z: 0}
  m_ClipBindingConstant:
    genericBindings:
    - path: 2531687880
      attribute: 4
      script: {fileID: 0}
      classID: 4
      customType: 14
      isPPtrCurve: 0
    - path: 1563210320
      attribute: 4
      script: {fileID: 0}
      classID: 4
      customType: 14
      isPPtrCurve: 0
    - path: 1316151649
      attribute: 4
      script: {fileID: 0}
      classID: 4
      customType: 14
      isPPtrCurve: 0
    - path: 3066451557
      attribute: 538195251
      script: {fileID: 0}
      classID: 224
      customType: 0
      isPPtrCurve: 0
    - path: 2463963395
      attribute: 538195251
      script: {fileID: 0}
      classID: 224
      customType: 0
      isPPtrCurve: 0
    - path: 2463963395
      attribute: 38095219
      script: {fileID: 0}
      classID: 224
      customType: 0
      isPPtrCurve: 0
    - path: 2531687880
      attribute: 2033536083
      script: {fileID: 0}
      classID: 224
      customType: 28
      isPPtrCurve: 0
    - path: 1316151649
      attribute: 2086281974
      script: {fileID: 0}
      classID: 1
      customType: 0
      isPPtrCurve: 0
    - path: 1462349236
      attribute: 2086281974
      script: {fileID: 0}
      classID: 1
      customType: 0
      isPPtrCurve: 0
    - path: 2531687880
      attribute: 1460864421
      script: {fileID: 0}
      classID: 224
      customType: 0
      isPPtrCurve: 0
    - path: 2531687880
      attribute: 538195251
      script: {fileID: 0}
      classID: 224
      customType: 0
      isPPtrCurve: 0
    - path: 2468716229
      attribute: 1460864421
      script: {fileID: 0}
      classID: 224
      customType: 0
      isPPtrCurve: 0
    - path: 2468716229
      attribute: 538195251
      script: {fileID: 0}
      classID: 224
      customType: 0
      isPPtrCurve: 0
    - path: 170708863
      attribute: 1460864421
      script: {fileID: 0}
      classID: 224
      customType: 0
      isPPtrCurve: 0
    - path: 170708863
      attribute: 538195251
      script: {fileID: 0}
      classID: 224
      customType: 0
      isPPtrCurve: 0
    - path: 2100035561
      attribute: 1460864421
      script: {fileID: 0}
      classID: 224
      customType: 0
      isPPtrCurve: 0
    - path: 2100035561
      attribute: 538195251
      script: {fileID: 0}
      classID: 224
      customType: 0
      isPPtrCurve: 0
    - path: 3813632586
      attribute: 1460864421
      script: {fileID: 0}
      classID: 224
      customType: 0
      isPPtrCurve: 0
    - path: 3813632586
      attribute: 538195251
      script: {fileID: 0}
      classID: 224
      customType: 0
      isPPtrCurve: 0
    - path: 2487769820
      attribute: 1460864421
      script: {fileID: 0}
      classID: 224
      customType: 0
      isPPtrCurve: 0
    - path: 2487769820
      attribute: 538195251
      script: {fileID: 0}
      classID: 224
      customType: 0
      isPPtrCurve: 0
    pptrCurveMapping: []
  m_AnimationClipSettings:
    serializedVersion: 2
    m_AdditiveReferencePoseClip: {fileID: 0}
    m_AdditiveReferencePoseTime: 0
    m_StartTime: 0
    m_StopTime: 6
    m_OrientationOffsetY: 0
    m_Level: 0
    m_CycleOffset: 0
    m_HasAdditiveReferencePose: 0
    m_LoopTime: 1
    m_LoopBlend: 0
    m_LoopBlendOrientation: 0
    m_LoopBlendPositionY: 0
    m_LoopBlendPositionXZ: 0
    m_KeepOriginalOrientation: 0
    m_KeepOriginalPositionY: 1
    m_KeepOriginalPositionXZ: 0
    m_HeightFromFeet: 0
    m_Mirror: 0
  m_EditorCurves:
  - curve:
      serializedVersion: 2
      m_Curve:
      - time: 0
        value: -12.09
        inSlope: 3.8533337
        outSlope: 3.8533337
        tangentMode: 10
      - time: 0.75
        value: -9.2
        inSlope: 0
        outSlope: 0
        tangentMode: 10
      - time: 1.5
        value: -12.09
        inSlope: 0
        outSlope: 0
        tangentMode: 10
      - time: 2.25
        value: -9.2
        inSlope: 0
        outSlope: 0
        tangentMode: 10
      - time: 3
        value: -12.09
        inSlope: 0
        outSlope: 0
        tangentMode: 10
      - time: 3.75
        value: -9.2
        inSlope: 0
        outSlope: 0
        tangentMode: 10
      - time: 4.5
        value: -12.09
        inSlope: 0
        outSlope: 0
        tangentMode: 10
      - time: 5.25
        value: -9.2
        inSlope: 0
        outSlope: 0
        tangentMode: 10
      - time: 6
        value: -12.09
        inSlope: -3.8533337
        outSlope: -3.8533337
        tangentMode: 10
      m_PreInfinity: 2
      m_PostInfinity: 2
      m_RotationOrder: 4
    attribute: m_AnchoredPosition.y
    path: Root
    classID: 224
    script: {fileID: 0}
  - curve:
      serializedVersion: 2
      m_Curve:
      - time: 3.2
        value: 0
        inSlope: 0
        outSlope: 0
        tangentMode: 0
      - time: 3.35
        value: 0
        inSlope: 0
        outSlope: 0
        tangentMode: 0
      - time: 3.4
        value: 0
        inSlope: 0
        outSlope: 0
        tangentMode: 0
      - time: 3.5833333
        value: 0
        inSlope: 0
        outSlope: 0
        tangentMode: 0
      - time: 3.6333334
        value: 0
        inSlope: 0
        outSlope: 0
        tangentMode: 0
      - time: 3.8833334
        value: 0
        inSlope: 0
        outSlope: 0
        tangentMode: 0
      - time: 3.9333334
        value: 0
        inSlope: 0
        outSlope: 0
        tangentMode: 0
      - time: 4.1833334
        value: 0
        inSlope: 0
        outSlope: 0
        tangentMode: 0
      - time: 4.3333335
        value: 0
        inSlope: 0
        outSlope: 0
        tangentMode: 0
      - time: 4.4666667
        value: 0
        inSlope: 0
        outSlope: 0
        tangentMode: 0
      - time: 4.6
        value: 0
        inSlope: 0
        outSlope: 0
        tangentMode: 0
      - time: 4.733333
        value: 0
        inSlope: 0
        outSlope: 0
        tangentMode: 0
      m_PreInfinity: 2
      m_PostInfinity: 2
      m_RotationOrder: 4
    attribute: localEulerAnglesRaw.x
    path: Root/Antenna
    classID: 224
    script: {fileID: 0}
  - curve:
      serializedVersion: 2
      m_Curve:
      - time: 3.2
        value: 0
        inSlope: 0
        outSlope: 0
        tangentMode: 0
      - time: 3.35
        value: 0
        inSlope: 0
        outSlope: 0
        tangentMode: 0
      - time: 3.4
        value: 0
        inSlope: 0
        outSlope: 0
        tangentMode: 0
      - time: 3.5833333
        value: 0
        inSlope: 0
        outSlope: 0
        tangentMode: 0
      - time: 3.6333334
        value: 0
        inSlope: 0
        outSlope: 0
        tangentMode: 0
      - time: 3.8833334
        value: 0
        inSlope: 0
        outSlope: 0
        tangentMode: 0
      - time: 3.9333334
        value: 0
        inSlope: 0
        outSlope: 0
        tangentMode: 0
      - time: 4.1833334
        value: 0
        inSlope: 0
        outSlope: 0
        tangentMode: 0
      - time: 4.3333335
        value: 0
        inSlope: 0
        outSlope: 0
        tangentMode: 0
      - time: 4.4666667
        value: 0
        inSlope: 0
        outSlope: 0
        tangentMode: 0
      - time: 4.6
        value: 0
        inSlope: 0
        outSlope: 0
        tangentMode: 0
      - time: 4.733333
        value: 0
        inSlope: 0
        outSlope: 0
        tangentMode: 0
      m_PreInfinity: 2
      m_PostInfinity: 2
      m_RotationOrder: 4
    attribute: localEulerAnglesRaw.y
    path: Root/Antenna
    classID: 224
    script: {fileID: 0}
  - curve:
      serializedVersion: 2
      m_Curve:
      - time: 3.2
        value: 62
        inSlope: 0
        outSlope: 0
        tangentMode: 0
      - time: 3.35
        value: 57.68595
        inSlope: 0
        outSlope: 0
        tangentMode: 0
      - time: 3.4
        value: 63.9
        inSlope: 0
        outSlope: 0
        tangentMode: 0
      - time: 3.5833333
        value: 49.29386
        inSlope: 0
        outSlope: 0
        tangentMode: 0
      - time: 3.6333334
        value: 55.9
        inSlope: 0
        outSlope: 0
        tangentMode: 0
      - time: 3.8833334
        value: 33.499023
        inSlope: 0
        outSlope: 0
        tangentMode: 0
      - time: 3.9333334
        value: 39.4
        inSlope: 0
        outSlope: 0
        tangentMode: 0
      - time: 4.1833334
        value: 20.306335
        inSlope: 0
        outSlope: 0
        tangentMode: 0
      - time: 4.3333335
        value: 14.2
        inSlope: 0
        outSlope: 0
        tangentMode: 0
      - time: 4.4666667
        value: 62
        inSlope: 0
        outSlope: 0
        tangentMode: 0
      - time: 4.6
        value: 47.8
        inSlope: 0
        outSlope: 0
        tangentMode: 0
      - time: 4.733333
        value: 62
        inSlope: 0
        outSlope: 0
        tangentMode: 0
      m_PreInfinity: 2
      m_PostInfinity: 2
      m_RotationOrder: 4
    attribute: localEulerAnglesRaw.z
    path: Root/Antenna
    classID: 224
    script: {fileID: 0}
  - curve:
      serializedVersion: 2
      m_Curve:
      - time: 0
        value: -133
        inSlope: 0
        outSlope: 0
        tangentMode: 0
      m_PreInfinity: 2
      m_PostInfinity: 2
      m_RotationOrder: 4
    attribute: m_AnchoredPosition.x
    path: Root/Antenna
    classID: 224
    script: {fileID: 0}
  - curve:
      serializedVersion: 2
      m_Curve:
      - time: 0
        value: 248
        inSlope: 0
        outSlope: 0
        tangentMode: 0
      m_PreInfinity: 2
      m_PostInfinity: 2
      m_RotationOrder: 4
    attribute: m_AnchoredPosition.y
    path: Root/Antenna
    classID: 224
    script: {fileID: 0}
  - curve:
      serializedVersion: 2
      m_Curve:
      - time: 0
        value: 0
        inSlope: 0
        outSlope: 0
        tangentMode: 0
      - time: 0.5333333
        value: 0
        inSlope: 0
        outSlope: 0
        tangentMode: 0
      - time: 1.2833333
        value: 0
        inSlope: 0
        outSlope: 0
        tangentMode: 0
      - time: 2.0333333
        value: 0
        inSlope: 0
        outSlope: 0
        tangentMode: 0
      - time: 2.7833333
        value: 0
        inSlope: 0
        outSlope: 0
        tangentMode: 0
      - time: 3.5333333
        value: 0
        inSlope: 0
        outSlope: 0
        tangentMode: 0
      - time: 4.2833333
        value: 0
        inSlope: 0
        outSlope: 0
        tangentMode: 0
      - time: 5.0333333
        value: 0
        inSlope: 0
        outSlope: 0
        tangentMode: 0
      - time: 5.7833333
        value: 0
        inSlope: 0
        outSlope: 0
        tangentMode: 0
      - time: 6
        value: 0
        inSlope: 0
        outSlope: 0
        tangentMode: 0
      m_PreInfinity: 2
      m_PostInfinity: 2
      m_RotationOrder: 4
    attribute: localEulerAnglesRaw.x
    path: Root/Arm
    classID: 224
    script: {fileID: 0}
  - curve:
      serializedVersion: 2
      m_Curve:
      - time: 0
        value: 0
        inSlope: 0
        outSlope: 0
        tangentMode: 0
      - time: 0.5333333
        value: 0
        inSlope: 0
        outSlope: 0
        tangentMode: 0
      - time: 1.2833333
        value: 0
        inSlope: 0
        outSlope: 0
        tangentMode: 0
      - time: 2.0333333
        value: 0
        inSlope: 0
        outSlope: 0
        tangentMode: 0
      - time: 2.7833333
        value: 0
        inSlope: 0
        outSlope: 0
        tangentMode: 0
      - time: 3.5333333
        value: 0
        inSlope: 0
        outSlope: 0
        tangentMode: 0
      - time: 4.2833333
        value: 0
        inSlope: 0
        outSlope: 0
        tangentMode: 0
      - time: 5.0333333
        value: 0
        inSlope: 0
        outSlope: 0
        tangentMode: 0
      - time: 5.7833333
        value: 0
        inSlope: 0
        outSlope: 0
        tangentMode: 0
      - time: 6
        value: 0
        inSlope: 0
        outSlope: 0
        tangentMode: 0
      m_PreInfinity: 2
      m_PostInfinity: 2
      m_RotationOrder: 4
    attribute: localEulerAnglesRaw.y
    path: Root/Arm
    classID: 224
    script: {fileID: 0}
  - curve:
      serializedVersion: 2
      m_Curve:
      - time: 0
        value: -16.443478
        inSlope: 24.13917
        outSlope: 24.13917
        tangentMode: 0
      - time: 0.5333333
        value: -4.38
        inSlope: 0
        outSlope: 0
        tangentMode: 0
      - time: 1.2833333
        value: -19.5
        inSlope: 0
        outSlope: 0
        tangentMode: 0
      - time: 2.0333333
        value: -4.38
        inSlope: 0
        outSlope: 0
        tangentMode: 0
      - time: 2.7833333
        value: -19.5
        inSlope: 0
        outSlope: 0
        tangentMode: 0
      - time: 3.5333333
        value: -4.38
        inSlope: 0
        outSlope: 0
        tangentMode: 0
      - time: 4.2833333
        value: -19.5
        inSlope: 0
        outSlope: 0
        tangentMode: 0
      - time: 5.0333333
        value: -4.38
        inSlope: 0
        outSlope: 0
        tangentMode: 0
      - time: 5.7833333
        value: -19.5
        inSlope: 0
        outSlope: 0
        tangentMode: 0
      - time: 6
        value: -16.443478
        inSlope: 21.400862
        outSlope: 21.400862
        tangentMode: 0
      m_PreInfinity: 2
      m_PostInfinity: 2
      m_RotationOrder: 4
    attribute: localEulerAnglesRaw.z
    path: Root/Arm
    classID: 224
    script: {fileID: 0}
  - curve:
      serializedVersion: 2
      m_Curve:
      - time: 0
        value: -131.6
        inSlope: 0
        outSlope: 0
        tangentMode: 0
      m_PreInfinity: 2
      m_PostInfinity: 2
      m_RotationOrder: 4
    attribute: m_AnchoredPosition.x
    path: Root/Lollipop01
    classID: 224
    script: {fileID: 0}
  - curve:
      serializedVersion: 2
      m_Curve:
      - time: 0
        value: 101
        inSlope: 0
        outSlope: 0
        tangentMode: 0
      m_PreInfinity: 2
      m_PostInfinity: 2
      m_RotationOrder: 4
    attribute: m_AnchoredPosition.y
    path: Root/Lollipop01
    classID: 224
    script: {fileID: 0}
  - curve:
      serializedVersion: 2
      m_Curve:
      - time: 0
        value: -106.4
        inSlope: 0
        outSlope: 0
        tangentMode: 10
      m_PreInfinity: 2
      m_PostInfinity: 2
      m_RotationOrder: 4
    attribute: m_AnchoredPosition.x
    path: Root/Lollipop02
    classID: 224
    script: {fileID: 0}
  - curve:
      serializedVersion: 2
      m_Curve:
      - time: 0
        value: 101
        inSlope: 0
        outSlope: 0
        tangentMode: 0
      m_PreInfinity: 2
      m_PostInfinity: 2
      m_RotationOrder: 4
    attribute: m_AnchoredPosition.y
    path: Root/Lollipop02
    classID: 224
    script: {fileID: 0}
  - curve:
      serializedVersion: 2
      m_Curve:
      - time: 0
        value: -80.7
        inSlope: 0
        outSlope: 0
        tangentMode: 10
      m_PreInfinity: 2
      m_PostInfinity: 2
      m_RotationOrder: 4
    attribute: m_AnchoredPosition.x
    path: Root/Lollipop03
    classID: 224
    script: {fileID: 0}
  - curve:
      serializedVersion: 2
      m_Curve:
      - time: 0
        value: 101
        inSlope: 0
        outSlope: 0
        tangentMode: 0
      m_PreInfinity: 2
      m_PostInfinity: 2
      m_RotationOrder: 4
    attribute: m_AnchoredPosition.y
    path: Root/Lollipop03
    classID: 224
    script: {fileID: 0}
  - curve:
      serializedVersion: 2
      m_Curve:
      - time: 0
        value: -55.6
        inSlope: 0
        outSlope: 0
        tangentMode: 10
      m_PreInfinity: 2
      m_PostInfinity: 2
      m_RotationOrder: 4
    attribute: m_AnchoredPosition.x
    path: Root/Lollipop04
    classID: 224
    script: {fileID: 0}
  - curve:
      serializedVersion: 2
      m_Curve:
      - time: 0
        value: 101
        inSlope: 0
        outSlope: 0
        tangentMode: 0
      m_PreInfinity: 2
      m_PostInfinity: 2
      m_RotationOrder: 4
    attribute: m_AnchoredPosition.y
    path: Root/Lollipop04
    classID: 224
    script: {fileID: 0}
  - curve:
      serializedVersion: 2
      m_Curve:
      - time: 0
        value: -33
        inSlope: 0
        outSlope: 0
        tangentMode: 10
      m_PreInfinity: 2
      m_PostInfinity: 2
      m_RotationOrder: 4
    attribute: m_AnchoredPosition.x
    path: Root/Lollipop05
    classID: 224
    script: {fileID: 0}
  - curve:
      serializedVersion: 2
      m_Curve:
      - time: 0
        value: 101
        inSlope: 0
        outSlope: 0
        tangentMode: 0
      m_PreInfinity: 2
      m_PostInfinity: 2
      m_RotationOrder: 4
    attribute: m_AnchoredPosition.y
    path: Root/Lollipop05
    classID: 224
    script: {fileID: 0}
  - curve:
      serializedVersion: 2
      m_Curve:
      - time: 3.1833334
        value: -7.8
        inSlope: 7.8688545
        outSlope: 7.8688545
        tangentMode: 10
      - time: 4.2
        value: 0.2
        inSlope: 0
        outSlope: 0
        tangentMode: 0
      - time: 4.3333335
        value: -7.8
        inSlope: 0
        outSlope: 0
        tangentMode: 0
      - time: 4.633333
        value: -10.19
        inSlope: 0
        outSlope: 0
        tangentMode: 0
      - time: 5.05
        value: -7.8
        inSlope: 0
        outSlope: 0
        tangentMode: 0
      m_PreInfinity: 2
      m_PostInfinity: 2
      m_RotationOrder: 4
    attribute: m_AnchoredPosition.y
    path: Root/Eye/Iris
    classID: 224
    script: {fileID: 0}
  - curve:
      serializedVersion: 2
      m_Curve:
      - time: 0
        value: 13.12
        inSlope: 0
        outSlope: 0
        tangentMode: 0
      - time: 3.1833334
        value: 13.12
        inSlope: 0
        outSlope: 0
        tangentMode: 0
      - time: 4.2
        value: 71.76
        inSlope: -264.35953
        outSlope: -264.35953
        tangentMode: 10
      - time: 4.3
        value: 13.12
        inSlope: -586.39777
        outSlope: -586.39777
        tangentMode: 10
      m_PreInfinity: 2
      m_PostInfinity: 2
      m_RotationOrder: 4
    attribute: m_SizeDelta.y
    path: Root/Eye/Iris
    classID: 224
    script: {fileID: 0}
  - curve:
      serializedVersion: 2
      m_Curve:
      - time: 0
        value: 27.4
        inSlope: 10.793073
        outSlope: 10.793073
        tangentMode: 10
      - time: 3.4
        value: 64.09645
        inSlope: 10.793096
        outSlope: 10.793096
        tangentMode: 10
      - time: 3.6333334
        value: 66.614845
        inSlope: 10.793098
        outSlope: 10.793098
        tangentMode: 10
      - time: 3.9333334
        value: 69.85277
        inSlope: 10.793076
        outSlope: 10.793076
        tangentMode: 10
      - time: 4.3333335
        value: 74.17
        inSlope: 10.793073
        outSlope: 10.793073
        tangentMode: 10
      m_PreInfinity: 2
      m_PostInfinity: 2
      m_RotationOrder: 4
    attribute: m_LocalPosition.z
    path: Root/Antenna
    classID: 224
    script: {fileID: 0}
  - curve:
      serializedVersion: 2
      m_Curve:
      - time: 0
        value: 0
        inSlope: Infinity
        outSlope: Infinity
        tangentMode: 31
      m_PreInfinity: 2
      m_PostInfinity: 2
      m_RotationOrder: 4
    attribute: m_IsActive
    path: Root/Arm/Claw
    classID: 1
    script: {fileID: 0}
  - curve:
      serializedVersion: 2
      m_Curve:
      - time: 0
        value: 1
        inSlope: Infinity
        outSlope: Infinity
        tangentMode: 31
      m_PreInfinity: 2
      m_PostInfinity: 2
      m_RotationOrder: 4
    attribute: m_IsActive
    path: Root/Arm/Claw3
    classID: 1
    script: {fileID: 0}
  - curve:
      serializedVersion: 2
      m_Curve:
      - time: 0
        value: 0
        inSlope: 0
        outSlope: 0
        tangentMode: 0
      - time: 1.4833333
        value: 0
        inSlope: 0
        outSlope: 0
        tangentMode: 0
      - time: 3
        value: 0
        inSlope: 0
        outSlope: 0
        tangentMode: 0
      - time: 4.4833336
        value: 0
        inSlope: 0
        outSlope: 0
        tangentMode: 0
      - time: 6
        value: 0
        inSlope: 0
        outSlope: 0
        tangentMode: 0
      m_PreInfinity: 2
      m_PostInfinity: 2
      m_RotationOrder: 4
    attribute: localEulerAnglesRaw.x
    path: Root/Arm/Claw
    classID: 224
    script: {fileID: 0}
  - curve:
      serializedVersion: 2
      m_Curve:
      - time: 0
        value: 0
        inSlope: 0
        outSlope: 0
        tangentMode: 0
      - time: 1.4833333
        value: 0
        inSlope: 0
        outSlope: 0
        tangentMode: 0
      - time: 3
        value: 0
        inSlope: 0
        outSlope: 0
        tangentMode: 0
      - time: 4.4833336
        value: 0
        inSlope: 0
        outSlope: 0
        tangentMode: 0
      - time: 6
        value: 0
        inSlope: 0
        outSlope: 0
        tangentMode: 0
      m_PreInfinity: 2
      m_PostInfinity: 2
      m_RotationOrder: 4
    attribute: localEulerAnglesRaw.y
    path: Root/Arm/Claw
    classID: 224
    script: {fileID: 0}
  - curve:
      serializedVersion: 2
      m_Curve:
      - time: 0
        value: -81.14
        inSlope: 0
        outSlope: 0
        tangentMode: 0
      - time: 1.4833333
        value: -85.6
        inSlope: 0
        outSlope: 0
        tangentMode: 0
      - time: 3
        value: -81.14
        inSlope: 0
        outSlope: 0
        tangentMode: 0
      - time: 4.4833336
        value: -85.6
        inSlope: 0
        outSlope: 0
        tangentMode: 0
      - time: 6
        value: -81.14
        inSlope: 0
        outSlope: 0
        tangentMode: 0
      m_PreInfinity: 2
      m_PostInfinity: 2
      m_RotationOrder: 4
    attribute: localEulerAnglesRaw.z
    path: Root/Arm/Claw
    classID: 224
    script: {fileID: 0}
  m_EulerEditorCurves:
  - curve:
      serializedVersion: 2
      m_Curve: []
      m_PreInfinity: 2
      m_PostInfinity: 2
      m_RotationOrder: 4
    attribute: m_LocalEulerAngles.z
    path: Root/Arm
    classID: 224
    script: {fileID: 0}
  - curve:
      serializedVersion: 2
      m_Curve: []
      m_PreInfinity: 2
      m_PostInfinity: 2
      m_RotationOrder: 4
    attribute: m_LocalEulerAngles.y
    path: Root/Arm
    classID: 224
    script: {fileID: 0}
  - curve:
      serializedVersion: 2
      m_Curve: []
      m_PreInfinity: 2
      m_PostInfinity: 2
      m_RotationOrder: 4
    attribute: m_LocalEulerAngles.x
    path: Root/Arm
    classID: 224
    script: {fileID: 0}
  - curve:
      serializedVersion: 2
      m_Curve: []
      m_PreInfinity: 2
      m_PostInfinity: 2
      m_RotationOrder: 4
    attribute: m_LocalEulerAngles.z
    path: Root/Antenna
    classID: 224
    script: {fileID: 0}
  - curve:
      serializedVersion: 2
      m_Curve: []
      m_PreInfinity: 2
      m_PostInfinity: 2
      m_RotationOrder: 4
    attribute: m_LocalEulerAngles.y
    path: Root/Antenna
    classID: 224
    script: {fileID: 0}
  - curve:
      serializedVersion: 2
      m_Curve: []
      m_PreInfinity: 2
      m_PostInfinity: 2
      m_RotationOrder: 4
    attribute: m_LocalEulerAngles.x
    path: Root/Antenna
    classID: 224
    script: {fileID: 0}
  - curve:
      serializedVersion: 2
      m_Curve: []
      m_PreInfinity: 2
      m_PostInfinity: 2
      m_RotationOrder: 4
    attribute: m_LocalEulerAngles.x
    path: Root/Arm/Claw
    classID: 224
    script: {fileID: 0}
  - curve:
      serializedVersion: 2
      m_Curve: []
      m_PreInfinity: 2
      m_PostInfinity: 2
      m_RotationOrder: 4
    attribute: m_LocalEulerAngles.y
    path: Root/Arm/Claw
    classID: 224
    script: {fileID: 0}
  - curve:
      serializedVersion: 2
      m_Curve: []
      m_PreInfinity: 2
      m_PostInfinity: 2
      m_RotationOrder: 4
    attribute: m_LocalEulerAngles.z
    path: Root/Arm/Claw
    classID: 224
    script: {fileID: 0}
  m_HasGenericRootTransform: 0
  m_HasMotionFloatCurves: 0
  m_GenerateMotionCurves: 0
  m_Events: []
