%YAML 1.1
%TAG !u! tag:unity3d.com,2011:
--- !u!74 &7400000
AnimationClip:
  m_ObjectHideFlags: 0
  m_PrefabParentObject: {fileID: 0}
  m_PrefabInternal: {fileID: 0}
  m_Name: ui_button_med_shine
  serializedVersion: 6
  m_Legacy: 0
  m_Compressed: 0
  m_UseHighQualityCurve: 1
  m_RotationCurves: []
  m_CompressedRotationCurves: []
  m_EulerCurves: []
  m_PositionCurves: []
  m_ScaleCurves: []
  m_FloatCurves: []
  m_PPtrCurves:
  - curve:
    - time: 0
      value: {fileID: 21300000, guid: 4ab8df9a6a486254483fbecc80f3a69b, type: 3}
    - time: 3
      value: {fileID: 21300000, guid: 4ab8df9a6a486254483fbecc80f3a69b, type: 3}
    - time: 3.0222223
      value: {fileID: 21300002, guid: 4ab8df9a6a486254483fbecc80f3a69b, type: 3}
    - time: 3.0444446
      value: {fileID: 21300004, guid: 4ab8df9a6a486254483fbecc80f3a69b, type: 3}
    - time: 3.0666666
      value: {fileID: 21300006, guid: 4ab8df9a6a486254483fbecc80f3a69b, type: 3}
    - time: 3.088889
      value: {fileID: 21300008, guid: 4ab8df9a6a486254483fbecc80f3a69b, type: 3}
    - time: 3.1111112
      value: {fileID: 21300010, guid: 4ab8df9a6a486254483fbecc80f3a69b, type: 3}
    - time: 3.1333334
      value: {fileID: 21300012, guid: 4ab8df9a6a486254483fbecc80f3a69b, type: 3}
    - time: 3.1555555
      value: {fileID: 21300014, guid: 4ab8df9a6a486254483fbecc80f3a69b, type: 3}
    - time: 3.1777778
      value: {fileID: 21300016, guid: 4ab8df9a6a486254483fbecc80f3a69b, type: 3}
    - time: 3.2
      value: {fileID: 21300018, guid: 4ab8df9a6a486254483fbecc80f3a69b, type: 3}
    - time: 3.2222223
      value: {fileID: 21300020, guid: 4ab8df9a6a486254483fbecc80f3a69b, type: 3}
    - time: 3.2444444
      value: {fileID: 21300022, guid: 4ab8df9a6a486254483fbecc80f3a69b, type: 3}
    - time: 3.2666667
      value: {fileID: 21300024, guid: 4ab8df9a6a486254483fbecc80f3a69b, type: 3}
    - time: 3.288889
      value: {fileID: 21300026, guid: 4ab8df9a6a486254483fbecc80f3a69b, type: 3}
    - time: 3.3111112
      value: {fileID: 21300028, guid: 4ab8df9a6a486254483fbecc80f3a69b, type: 3}
    - time: 3.3333333
      value: {fileID: 21300030, guid: 4ab8df9a6a486254483fbecc80f3a69b, type: 3}
    attribute: m_Sprite
    path: 
    classID: 114
    script: {fileID: -765806418, guid: f5f67c52d1564df4a8936ccd202a3bd8, type: 3}
  m_SampleRate: 45
  m_WrapMode: 0
  m_Bounds:
    m_Center: {x: 0, y: 0, z: 0}
    m_Extent: {x: 0, y: 0, z: 0}
  m_ClipBindingConstant:
    genericBindings:
    - path: 0
      attribute: 2015549526
      script: {fileID: -765806418, guid: f5f67c52d1564df4a8936ccd202a3bd8, type: 3}
      classID: 114
      customType: 0
      isPPtrCurve: 1
    pptrCurveMapping:
    - {fileID: 21300000, guid: 4ab8df9a6a486254483fbecc80f3a69b, type: 3}
    - {fileID: 21300000, guid: 4ab8df9a6a486254483fbecc80f3a69b, type: 3}
    - {fileID: 21300002, guid: 4ab8df9a6a486254483fbecc80f3a69b, type: 3}
    - {fileID: 21300004, guid: 4ab8df9a6a486254483fbecc80f3a69b, type: 3}
    - {fileID: 21300006, guid: 4ab8df9a6a486254483fbecc80f3a69b, type: 3}
    - {fileID: 21300008, guid: 4ab8df9a6a486254483fbecc80f3a69b, type: 3}
    - {fileID: 21300010, guid: 4ab8df9a6a486254483fbecc80f3a69b, type: 3}
    - {fileID: 21300012, guid: 4ab8df9a6a486254483fbecc80f3a69b, type: 3}
    - {fileID: 21300014, guid: 4ab8df9a6a486254483fbecc80f3a69b, type: 3}
    - {fileID: 21300016, guid: 4ab8df9a6a486254483fbecc80f3a69b, type: 3}
    - {fileID: 21300018, guid: 4ab8df9a6a486254483fbecc80f3a69b, type: 3}
    - {fileID: 21300020, guid: 4ab8df9a6a486254483fbecc80f3a69b, type: 3}
    - {fileID: 21300022, guid: 4ab8df9a6a486254483fbecc80f3a69b, type: 3}
    - {fileID: 21300024, guid: 4ab8df9a6a486254483fbecc80f3a69b, type: 3}
    - {fileID: 21300026, guid: 4ab8df9a6a486254483fbecc80f3a69b, type: 3}
    - {fileID: 21300028, guid: 4ab8df9a6a486254483fbecc80f3a69b, type: 3}
    - {fileID: 21300030, guid: 4ab8df9a6a486254483fbecc80f3a69b, type: 3}
  m_AnimationClipSettings:
    serializedVersion: 2
    m_AdditiveReferencePoseClip: {fileID: 0}
    m_AdditiveReferencePoseTime: 0
    m_StartTime: 0
    m_StopTime: 3.3555555
    m_OrientationOffsetY: 0
    m_Level: 0
    m_CycleOffset: 0
    m_HasAdditiveReferencePose: 0
    m_LoopTime: 1
    m_LoopBlend: 0
    m_LoopBlendOrientation: 0
    m_LoopBlendPositionY: 0
    m_LoopBlendPositionXZ: 0
    m_KeepOriginalOrientation: 0
    m_KeepOriginalPositionY: 1
    m_KeepOriginalPositionXZ: 0
    m_HeightFromFeet: 0
    m_Mirror: 0
  m_EditorCurves: []
  m_EulerEditorCurves: []
  m_HasGenericRootTransform: 0
  m_HasMotionFloatCurves: 0
  m_GenerateMotionCurves: 0
  m_Events: []
