%YAML 1.1
%TAG !u! tag:unity3d.com,2011:
--- !u!74 &7400000
AnimationClip:
  m_ObjectHideFlags: 0
  m_PrefabParentObject: {fileID: 0}
  m_PrefabInternal: {fileID: 0}
  m_Name: ui_loadingDots
  serializedVersion: 6
  m_Legacy: 0
  m_Compressed: 0
  m_UseHighQualityCurve: 1
  m_RotationCurves: []
  m_CompressedRotationCurves: []
  m_EulerCurves: []
  m_PositionCurves: []
  m_ScaleCurves:
  - curve:
      serializedVersion: 2
      m_Curve:
      - time: 0.21666667
        value: {x: 1, y: 1, z: 1}
        inSlope: {x: -9.999998, y: -9.999998, z: 0}
        outSlope: {x: -9.999998, y: -9.999998, z: 0}
        tangentMode: 0
      - time: 0.26666668
        value: {x: 0.5, y: 0.5, z: 1}
        inSlope: {x: -2.8571415, y: -2.8571415, z: 0}
        outSlope: {x: -2.8571415, y: -2.8571415, z: 0}
        tangentMode: 0
      - time: 0.38333333
        value: {x: 1, y: 1, z: 1}
        inSlope: {x: 2.1428576, y: 2.1428576, z: 0}
        outSlope: {x: 2.1428576, y: 2.1428576, z: 0}
        tangentMode: 0
      - time: 0.46666667
        value: {x: 1, y: 1, z: 1}
        inSlope: {x: 0, y: 0, z: 0}
        outSlope: {x: 0, y: 0, z: 0}
        tangentMode: 0
      - time: 2
        value: {x: 1, y: 1, z: 1}
        inSlope: {x: 0, y: 0, z: 0}
        outSlope: {x: 0, y: 0, z: 0}
        tangentMode: 0
      m_PreInfinity: 2
      m_PostInfinity: 2
      m_RotationOrder: 4
    path: LoadingDot3
  - curve:
      serializedVersion: 2
      m_Curve:
      - time: 0.1
        value: {x: 1, y: 1, z: 1}
        inSlope: {x: -9.999999, y: -9.999999, z: 0}
        outSlope: {x: -9.999999, y: -9.999999, z: 0}
        tangentMode: 0
      - time: 0.15
        value: {x: 0.5, y: 0.5, z: 1}
        inSlope: {x: -2.8571424, y: -2.8571424, z: 0}
        outSlope: {x: -2.8571424, y: -2.8571424, z: 0}
        tangentMode: 0
      - time: 0.26666668
        value: {x: 1, y: 1, z: 1}
        inSlope: {x: 2.142857, y: 2.142857, z: 0}
        outSlope: {x: 2.142857, y: 2.142857, z: 0}
        tangentMode: 0
      - time: 0.35
        value: {x: 1, y: 1, z: 1}
        inSlope: {x: 0, y: 0, z: 0}
        outSlope: {x: 0, y: 0, z: 0}
        tangentMode: 0
      - time: 2
        value: {x: 1, y: 1, z: 1}
        inSlope: {x: 0, y: 0, z: 0}
        outSlope: {x: 0, y: 0, z: 0}
        tangentMode: 0
      m_PreInfinity: 2
      m_PostInfinity: 2
      m_RotationOrder: 4
    path: LoadingDot2
  - curve:
      serializedVersion: 2
      m_Curve:
      - time: 0
        value: {x: 1, y: 1, z: 1}
        inSlope: {x: -10, y: -10, z: 0}
        outSlope: {x: -10, y: -10, z: 0}
        tangentMode: 0
      - time: 0.05
        value: {x: 0.5, y: 0.5, z: 1}
        inSlope: {x: -2.857143, y: -2.857143, z: 0}
        outSlope: {x: -2.857143, y: -2.857143, z: 0}
        tangentMode: 0
      - time: 0.16666667
        value: {x: 1, y: 1, z: 1}
        inSlope: {x: 2.142857, y: 2.142857, z: 0}
        outSlope: {x: 2.142857, y: 2.142857, z: 0}
        tangentMode: 0
      - time: 0.25
        value: {x: 1, y: 1, z: 1}
        inSlope: {x: 0, y: 0, z: 0}
        outSlope: {x: 0, y: 0, z: 0}
        tangentMode: 0
      - time: 2
        value: {x: 1, y: 1, z: 1}
        inSlope: {x: 0, y: 0, z: 0}
        outSlope: {x: 0, y: 0, z: 0}
        tangentMode: 0
      m_PreInfinity: 2
      m_PostInfinity: 2
      m_RotationOrder: 4
    path: LoadingDot1
  m_FloatCurves: []
  m_PPtrCurves: []
  m_SampleRate: 60
  m_WrapMode: 0
  m_Bounds:
    m_Center: {x: 0, y: 0, z: 0}
    m_Extent: {x: 0, y: 0, z: 0}
  m_ClipBindingConstant:
    genericBindings:
    - path: 742132813
      attribute: 3
      script: {fileID: 0}
      classID: 4
      customType: 0
      isPPtrCurve: 0
    - path: 1530608859
      attribute: 3
      script: {fileID: 0}
      classID: 4
      customType: 0
      isPPtrCurve: 0
    - path: 3258084705
      attribute: 3
      script: {fileID: 0}
      classID: 4
      customType: 0
      isPPtrCurve: 0
    pptrCurveMapping: []
  m_AnimationClipSettings:
    serializedVersion: 2
    m_AdditiveReferencePoseClip: {fileID: 0}
    m_AdditiveReferencePoseTime: 0
    m_StartTime: 0
    m_StopTime: 2
    m_OrientationOffsetY: 0
    m_Level: 0
    m_CycleOffset: 0
    m_HasAdditiveReferencePose: 0
    m_LoopTime: 1
    m_LoopBlend: 0
    m_LoopBlendOrientation: 0
    m_LoopBlendPositionY: 0
    m_LoopBlendPositionXZ: 0
    m_KeepOriginalOrientation: 0
    m_KeepOriginalPositionY: 1
    m_KeepOriginalPositionXZ: 0
    m_HeightFromFeet: 0
    m_Mirror: 0
  m_EditorCurves:
  - curve:
      serializedVersion: 2
      m_Curve:
      - time: 0.21666667
        value: 1
        inSlope: -9.999998
        outSlope: -9.999998
        tangentMode: 10
      - time: 0.26666668
        value: 0.5
        inSlope: -2.8571415
        outSlope: -2.8571415
        tangentMode: 10
      - time: 0.38333333
        value: 1
        inSlope: 2.1428576
        outSlope: 2.1428576
        tangentMode: 10
      - time: 0.46666667
        value: 1
        inSlope: 0
        outSlope: 0
        tangentMode: 10
      - time: 2
        value: 1
        inSlope: 0
        outSlope: 0
        tangentMode: 10
      m_PreInfinity: 2
      m_PostInfinity: 2
      m_RotationOrder: 4
    attribute: m_LocalScale.x
    path: LoadingDot3
    classID: 224
    script: {fileID: 0}
  - curve:
      serializedVersion: 2
      m_Curve:
      - time: 0.21666667
        value: 1
        inSlope: -9.999998
        outSlope: -9.999998
        tangentMode: 10
      - time: 0.26666668
        value: 0.5
        inSlope: -2.8571415
        outSlope: -2.8571415
        tangentMode: 10
      - time: 0.38333333
        value: 1
        inSlope: 2.1428576
        outSlope: 2.1428576
        tangentMode: 10
      - time: 0.46666667
        value: 1
        inSlope: 0
        outSlope: 0
        tangentMode: 10
      - time: 2
        value: 1
        inSlope: 0
        outSlope: 0
        tangentMode: 10
      m_PreInfinity: 2
      m_PostInfinity: 2
      m_RotationOrder: 4
    attribute: m_LocalScale.y
    path: LoadingDot3
    classID: 224
    script: {fileID: 0}
  - curve:
      serializedVersion: 2
      m_Curve:
      - time: 0.21666667
        value: 1
        inSlope: 0
        outSlope: 0
        tangentMode: 10
      - time: 0.26666668
        value: 1
        inSlope: 0
        outSlope: 0
        tangentMode: 10
      - time: 0.38333333
        value: 1
        inSlope: 0
        outSlope: 0
        tangentMode: 10
      - time: 0.46666667
        value: 1
        inSlope: 0
        outSlope: 0
        tangentMode: 10
      - time: 2
        value: 1
        inSlope: 0
        outSlope: 0
        tangentMode: 10
      m_PreInfinity: 2
      m_PostInfinity: 2
      m_RotationOrder: 4
    attribute: m_LocalScale.z
    path: LoadingDot3
    classID: 224
    script: {fileID: 0}
  - curve:
      serializedVersion: 2
      m_Curve:
      - time: 0.1
        value: 1
        inSlope: -9.999999
        outSlope: -9.999999
        tangentMode: 10
      - time: 0.15
        value: 0.5
        inSlope: -2.8571424
        outSlope: -2.8571424
        tangentMode: 10
      - time: 0.26666668
        value: 1
        inSlope: 2.142857
        outSlope: 2.142857
        tangentMode: 10
      - time: 0.35
        value: 1
        inSlope: 0
        outSlope: 0
        tangentMode: 10
      - time: 2
        value: 1
        inSlope: 0
        outSlope: 0
        tangentMode: 10
      m_PreInfinity: 2
      m_PostInfinity: 2
      m_RotationOrder: 4
    attribute: m_LocalScale.x
    path: LoadingDot2
    classID: 224
    script: {fileID: 0}
  - curve:
      serializedVersion: 2
      m_Curve:
      - time: 0.1
        value: 1
        inSlope: -9.999999
        outSlope: -9.999999
        tangentMode: 10
      - time: 0.15
        value: 0.5
        inSlope: -2.8571424
        outSlope: -2.8571424
        tangentMode: 10
      - time: 0.26666668
        value: 1
        inSlope: 2.142857
        outSlope: 2.142857
        tangentMode: 10
      - time: 0.35
        value: 1
        inSlope: 0
        outSlope: 0
        tangentMode: 10
      - time: 2
        value: 1
        inSlope: 0
        outSlope: 0
        tangentMode: 10
      m_PreInfinity: 2
      m_PostInfinity: 2
      m_RotationOrder: 4
    attribute: m_LocalScale.y
    path: LoadingDot2
    classID: 224
    script: {fileID: 0}
  - curve:
      serializedVersion: 2
      m_Curve:
      - time: 0.1
        value: 1
        inSlope: 0
        outSlope: 0
        tangentMode: 10
      - time: 0.15
        value: 1
        inSlope: 0
        outSlope: 0
        tangentMode: 10
      - time: 0.26666668
        value: 1
        inSlope: 0
        outSlope: 0
        tangentMode: 10
      - time: 0.35
        value: 1
        inSlope: 0
        outSlope: 0
        tangentMode: 10
      - time: 2
        value: 1
        inSlope: 0
        outSlope: 0
        tangentMode: 10
      m_PreInfinity: 2
      m_PostInfinity: 2
      m_RotationOrder: 4
    attribute: m_LocalScale.z
    path: LoadingDot2
    classID: 224
    script: {fileID: 0}
  - curve:
      serializedVersion: 2
      m_Curve:
      - time: 0
        value: 1
        inSlope: -10
        outSlope: -10
        tangentMode: 10
      - time: 0.05
        value: 0.5
        inSlope: -2.857143
        outSlope: -2.857143
        tangentMode: 10
      - time: 0.16666667
        value: 1
        inSlope: 2.142857
        outSlope: 2.142857
        tangentMode: 10
      - time: 0.25
        value: 1
        inSlope: 0
        outSlope: 0
        tangentMode: 10
      - time: 2
        value: 1
        inSlope: 0
        outSlope: 0
        tangentMode: 10
      m_PreInfinity: 2
      m_PostInfinity: 2
      m_RotationOrder: 4
    attribute: m_LocalScale.x
    path: LoadingDot1
    classID: 224
    script: {fileID: 0}
  - curve:
      serializedVersion: 2
      m_Curve:
      - time: 0
        value: 1
        inSlope: -10
        outSlope: -10
        tangentMode: 10
      - time: 0.05
        value: 0.5
        inSlope: -2.857143
        outSlope: -2.857143
        tangentMode: 10
      - time: 0.16666667
        value: 1
        inSlope: 2.142857
        outSlope: 2.142857
        tangentMode: 10
      - time: 0.25
        value: 1
        inSlope: 0
        outSlope: 0
        tangentMode: 10
      - time: 2
        value: 1
        inSlope: 0
        outSlope: 0
        tangentMode: 10
      m_PreInfinity: 2
      m_PostInfinity: 2
      m_RotationOrder: 4
    attribute: m_LocalScale.y
    path: LoadingDot1
    classID: 224
    script: {fileID: 0}
  - curve:
      serializedVersion: 2
      m_Curve:
      - time: 0
        value: 1
        inSlope: 0
        outSlope: 0
        tangentMode: 10
      - time: 0.05
        value: 1
        inSlope: 0
        outSlope: 0
        tangentMode: 10
      - time: 0.16666667
        value: 1
        inSlope: 0
        outSlope: 0
        tangentMode: 10
      - time: 0.25
        value: 1
        inSlope: 0
        outSlope: 0
        tangentMode: 10
      - time: 2
        value: 1
        inSlope: 0
        outSlope: 0
        tangentMode: 10
      m_PreInfinity: 2
      m_PostInfinity: 2
      m_RotationOrder: 4
    attribute: m_LocalScale.z
    path: LoadingDot1
    classID: 224
    script: {fileID: 0}
  m_EulerEditorCurves: []
  m_HasGenericRootTransform: 0
  m_HasMotionFloatCurves: 0
  m_GenerateMotionCurves: 0
  m_Events: []
