%YAML 1.1
%TAG !u! tag:unity3d.com,2011:
--- !u!74 &7400000
AnimationClip:
  m_ObjectHideFlags: 0
  m_PrefabParentObject: {fileID: 0}
  m_PrefabInternal: {fileID: 0}
  m_Name: ui_portrait_Darnelle
  serializedVersion: 6
  m_Legacy: 0
  m_Compressed: 0
  m_UseHighQualityCurve: 1
  m_RotationCurves: []
  m_CompressedRotationCurves: []
  m_EulerCurves:
  - curve:
      serializedVersion: 2
      m_Curve:
      - time: 0
        value: {x: 0, y: 0, z: 0.40942693}
        inSlope: {x: 0, y: 0, z: 0}
        outSlope: {x: 0, y: 0, z: 0}
        tangentMode: 0
      - time: 0.11666667
        value: {x: 0, y: 0, z: -0.17}
        inSlope: {x: 0, y: 0, z: 0}
        outSlope: {x: 0, y: 0, z: 0}
        tangentMode: 0
      - time: 0.5833333
        value: {x: 0, y: 0, z: 3.4515731}
        inSlope: {x: 0, y: 0, z: 5.586686}
        outSlope: {x: 0, y: 0, z: 5.586686}
        tangentMode: 0
      - time: 0.7
        value: {x: 0, y: 0, z: 4.031}
        inSlope: {x: 0, y: 0, z: 0}
        outSlope: {x: 0, y: 0, z: 0}
        tangentMode: 0
      - time: 1.1666666
        value: {x: 0, y: 0, z: 0.40942693}
        inSlope: {x: 0, y: 0, z: 0}
        outSlope: {x: 0, y: 0, z: 0}
        tangentMode: 0
      m_PreInfinity: 2
      m_PostInfinity: 2
      m_RotationOrder: 4
    path: root/HeadControl/antenna
  - curve:
      serializedVersion: 2
      m_Curve:
      - time: 0
        value: {x: 0, y: 0, z: -0.98725927}
        inSlope: {x: 0, y: 0, z: 0}
        outSlope: {x: 0, y: 0, z: 0}
        tangentMode: 0
      - time: 0.033333335
        value: {x: 0, y: 0, z: -1}
        inSlope: {x: 0, y: 0, z: 0}
        outSlope: {x: 0, y: 0, z: 0}
        tangentMode: 0
      - time: 0.5833333
        value: {x: 0, y: 0, z: -0.012740791}
        inSlope: {x: 0, y: 0, z: 0}
        outSlope: {x: 0, y: 0, z: 0}
        tangentMode: 0
      - time: 0.6166667
        value: {x: 0, y: 0, z: 0}
        inSlope: {x: 0, y: 0, z: 0}
        outSlope: {x: 0, y: 0, z: 0}
        tangentMode: 0
      - time: 1.1666666
        value: {x: 0, y: 0, z: -0.98725927}
        inSlope: {x: 0, y: 0, z: 0}
        outSlope: {x: 0, y: 0, z: 0}
        tangentMode: 0
      m_PreInfinity: 2
      m_PostInfinity: 2
      m_RotationOrder: 4
    path: root/clawArm
  - curve:
      serializedVersion: 2
      m_Curve:
      - time: 0
        value: {x: 0, y: 0, z: -2.427}
        inSlope: {x: 0, y: 0, z: 0}
        outSlope: {x: 0, y: 0, z: 0}
        tangentMode: 0
      - time: 0.5833333
        value: {x: 0, y: 0, z: 0}
        inSlope: {x: 0, y: 0, z: 0}
        outSlope: {x: 0, y: 0, z: 0}
        tangentMode: 0
      - time: 1.1666666
        value: {x: 0, y: 0, z: -2.427}
        inSlope: {x: 0, y: 0, z: 0}
        outSlope: {x: 0, y: 0, z: 0}
        tangentMode: 0
      m_PreInfinity: 2
      m_PostInfinity: 2
      m_RotationOrder: 4
    path: root/cloakFront
  - curve:
      serializedVersion: 2
      m_Curve:
      - time: 0
        value: {x: 0, y: 0, z: -1.9861999}
        inSlope: {x: 0, y: 0, z: 0}
        outSlope: {x: 0, y: 0, z: 0}
        tangentMode: 0
      - time: 0.15
        value: {x: 0, y: 0, z: -2.834}
        inSlope: {x: 0, y: 0, z: 0}
        outSlope: {x: 0, y: 0, z: 0}
        tangentMode: 0
      - time: 0.5833333
        value: {x: 0, y: 0, z: 0.24320006}
        inSlope: {x: 0, y: 0, z: 6.8890667}
        outSlope: {x: 0, y: 0, z: 6.8890667}
        tangentMode: 0
      - time: 0.73333335
        value: {x: 0, y: 0, z: 1.0910001}
        inSlope: {x: 0, y: 0, z: 0}
        outSlope: {x: 0, y: 0, z: 0}
        tangentMode: 0
      - time: 1.1666666
        value: {x: 0, y: 0, z: -1.9861999}
        inSlope: {x: 0, y: 0, z: 0}
        outSlope: {x: 0, y: 0, z: 0}
        tangentMode: 0
      m_PreInfinity: 2
      m_PostInfinity: 2
      m_RotationOrder: 4
    path: root/cloak
  - curve:
      serializedVersion: 2
      m_Curve:
      - time: 0
        value: {x: 0, y: 0, z: 1.08139}
        inSlope: {x: 0, y: 0, z: -4.231052}
        outSlope: {x: 0, y: 0, z: -6.338345}
        tangentMode: 0
      - time: 0.15
        value: {x: 0, y: 0, z: 0.44673222}
        inSlope: {x: 0, y: 0, z: -0.33929658}
        outSlope: {x: 0, y: 0, z: -0.33929658}
        tangentMode: 0
      - time: 0.73333335
        value: {x: 0, y: 0, z: 2.519}
        inSlope: {x: 0, y: 0, z: 0.11744833}
        outSlope: {x: 0, y: 0, z: 0.11744833}
        tangentMode: 0
      - time: 1.1666666
        value: {x: 0, y: 0, z: 1.08139}
        inSlope: {x: 0, y: 0, z: -6.62491}
        outSlope: {x: 0, y: 0, z: -3.317562}
        tangentMode: 0
      m_PreInfinity: 2
      m_PostInfinity: 2
      m_RotationOrder: 4
    path: root/beltItem1
  - curve:
      serializedVersion: 2
      m_Curve:
      - time: 0
        value: {x: 0, y: 0, z: -0.18517911}
        inSlope: {x: 0, y: 0, z: 4.6611905}
        outSlope: {x: 0, y: 0, z: 7.0589094}
        tangentMode: 0
      - time: 0.2
        value: {x: 0, y: 0, z: 0.747059}
        inSlope: {x: 0, y: 0, z: 0.42854488}
        outSlope: {x: 0, y: 0, z: 0.42854488}
        tangentMode: 0
      - time: 0.78333336
        value: {x: 0, y: 0, z: -1.4720001}
        inSlope: {x: 0, y: 0, z: -0.22358787}
        outSlope: {x: 0, y: 0, z: -0.22358787}
        tangentMode: 0
      - time: 1.1666666
        value: {x: 0, y: 0, z: -0.18517911}
        inSlope: {x: 0, y: 0, z: 6.526605}
        outSlope: {x: 0, y: 0, z: 3.356925}
        tangentMode: 0
      m_PreInfinity: 2
      m_PostInfinity: 2
      m_RotationOrder: 4
    path: root/beltItem2
  - curve:
      serializedVersion: 2
      m_Curve:
      - time: 0
        value: {x: 0, y: 0, z: -1.7210001}
        inSlope: {x: 0, y: 0, z: 0}
        outSlope: {x: 0, y: 0, z: 0}
        tangentMode: 0
      - time: 0.5833333
        value: {x: 0, y: 0, z: 0}
        inSlope: {x: 0, y: 0, z: 0}
        outSlope: {x: 0, y: 0, z: 0}
        tangentMode: 0
      - time: 1.1666666
        value: {x: 0, y: 0, z: -1.7210001}
        inSlope: {x: 0, y: 0, z: 0}
        outSlope: {x: 0, y: 0, z: 0}
        tangentMode: 0
      m_PreInfinity: 2
      m_PostInfinity: 2
      m_RotationOrder: 4
    path: root/headscarf
  - curve:
      serializedVersion: 2
      m_Curve:
      - time: 0
        value: {x: 0, y: 0, z: 0}
        inSlope: {x: 0, y: 0, z: 0}
        outSlope: {x: 0, y: 0, z: 0}
        tangentMode: 0
      - time: 0.5833333
        value: {x: 0, y: 0, z: 1}
        inSlope: {x: 0, y: 0, z: 0}
        outSlope: {x: 0, y: 0, z: 0}
        tangentMode: 0
      - time: 1.1666666
        value: {x: 0, y: 0, z: 0}
        inSlope: {x: 0, y: 0, z: 0}
        outSlope: {x: 0, y: 0, z: 0}
        tangentMode: 0
      m_PreInfinity: 2
      m_PostInfinity: 2
      m_RotationOrder: 4
    path: root/HeadControl/hat
  - curve:
      serializedVersion: 2
      m_Curve:
      - time: 0
        value: {x: 0, y: 0, z: -2.4}
        inSlope: {x: 0, y: 0, z: 0}
        outSlope: {x: 0, y: 0, z: 0}
        tangentMode: 0
      - time: 0.5833333
        value: {x: 0, y: 0, z: -3.69}
        inSlope: {x: 0, y: 0, z: 0}
        outSlope: {x: 0, y: 0, z: 0}
        tangentMode: 0
      - time: 1.1666666
        value: {x: 0, y: 0, z: -2.4}
        inSlope: {x: 0, y: 0, z: 0}
        outSlope: {x: 0, y: 0, z: 0}
        tangentMode: 0
      m_PreInfinity: 2
      m_PostInfinity: 2
      m_RotationOrder: 4
    path: root/nearArmUpper
  m_PositionCurves: []
  m_ScaleCurves:
  - curve:
      serializedVersion: 2
      m_Curve:
      - time: 0
        value: {x: 1, y: 1.0296178, z: 1}
        inSlope: {x: 0, y: 0, z: 0}
        outSlope: {x: 0, y: 0, z: 0}
        tangentMode: 0
      - time: 0.033333335
        value: {x: 1, y: 1.03, z: 1}
        inSlope: {x: 0, y: 0, z: 0}
        outSlope: {x: 0, y: 0, z: 0}
        tangentMode: 0
      - time: 0.5833333
        value: {x: 1, y: 1.0003822, z: 1}
        inSlope: {x: 0, y: -0.013711393, z: 0}
        outSlope: {x: 0, y: -0.013711393, z: 0}
        tangentMode: 0
      - time: 0.6166667
        value: {x: 1, y: 1, z: 1}
        inSlope: {x: 0, y: 0, z: 0}
        outSlope: {x: 0, y: 0, z: 0}
        tangentMode: 0
      - time: 1.1666666
        value: {x: 1, y: 1.0296178, z: 1}
        inSlope: {x: 0, y: 0, z: 0}
        outSlope: {x: 0, y: 0, z: 0}
        tangentMode: 0
      m_PreInfinity: 2
      m_PostInfinity: 2
      m_RotationOrder: 4
    path: root/headscarf
  - curve:
      serializedVersion: 2
      m_Curve:
      - time: 0
        value: {x: 1, y: 1.0625036, z: 1}
        inSlope: {x: 0, y: 0, z: 0}
        outSlope: {x: 0, y: 0, z: 0}
        tangentMode: 0
      - time: 0.5833333
        value: {x: 1, y: 1, z: 1}
        inSlope: {x: 0, y: 0, z: 0}
        outSlope: {x: 0, y: 0, z: 0}
        tangentMode: 0
      - time: 1.1666666
        value: {x: 1, y: 1.0625036, z: 1}
        inSlope: {x: 0, y: 0, z: 0}
        outSlope: {x: 0, y: 0, z: 0}
        tangentMode: 0
      m_PreInfinity: 2
      m_PostInfinity: 2
      m_RotationOrder: 4
    path: root/cloakFront
  - curve:
      serializedVersion: 2
      m_Curve:
      - time: 0
        value: {x: 1, y: 1.0374969, z: 1}
        inSlope: {x: 0, y: -0.06428044, z: 0}
        outSlope: {x: 0, y: -0.06428044, z: 0}
        tangentMode: 0
      - time: 0.5833333
        value: {x: 1, y: 1, z: 1}
        inSlope: {x: 0, y: 0, z: 0}
        outSlope: {x: 0, y: 0, z: 0}
        tangentMode: 0
      - time: 1.1666666
        value: {x: 1, y: 1.0374969, z: 1}
        inSlope: {x: 0, y: 0.06428044, z: 0}
        outSlope: {x: 0, y: 0.06428044, z: 0}
        tangentMode: 0
      m_PreInfinity: 2
      m_PostInfinity: 2
      m_RotationOrder: 4
    path: root/torso
  m_FloatCurves:
  - curve:
      serializedVersion: 2
      m_Curve:
      - time: 0
        value: 214
        inSlope: 0
        outSlope: 0
        tangentMode: 0
      - time: 0.5833333
        value: 214
        inSlope: 0
        outSlope: 0
        tangentMode: 0
      - time: 1.1666666
        value: 214
        inSlope: 0
        outSlope: 0
        tangentMode: 0
      m_PreInfinity: 2
      m_PostInfinity: 2
      m_RotationOrder: 4
    attribute: m_AnchoredPosition.y
    path: root/cloak
    classID: 224
    script: {fileID: 0}
  - curve:
      serializedVersion: 2
      m_Curve:
      - time: 0
        value: -4
        inSlope: 0
        outSlope: 0
        tangentMode: 0
      - time: 0.5833333
        value: -6
        inSlope: 0
        outSlope: 0
        tangentMode: 0
      - time: 1.1666666
        value: -4
        inSlope: 0
        outSlope: 0
        tangentMode: 0
      m_PreInfinity: 2
      m_PostInfinity: 2
      m_RotationOrder: 4
    attribute: m_AnchoredPosition.y
    path: root/hips
    classID: 224
    script: {fileID: 0}
  - curve:
      serializedVersion: 2
      m_Curve:
      - time: 0
        value: 133
        inSlope: 0
        outSlope: 0
        tangentMode: 0
      - time: 0.5833333
        value: 130
        inSlope: 0
        outSlope: 0
        tangentMode: 0
      - time: 1.1666666
        value: 133
        inSlope: 0
        outSlope: 0
        tangentMode: 0
      m_PreInfinity: 2
      m_PostInfinity: 2
      m_RotationOrder: 4
    attribute: m_AnchoredPosition.y
    path: root/torso
    classID: 224
    script: {fileID: 0}
  - curve:
      serializedVersion: 2
      m_Curve:
      - time: 0
        value: 348.89807
        inSlope: 0
        outSlope: 3.057861
        tangentMode: 21
      - time: 0.033333335
        value: 349
        inSlope: 3.057861
        outSlope: -14.36013
        tangentMode: 21
      - time: 0.5833333
        value: 341.10193
        inSlope: -14.36013
        outSlope: -3.0578587
        tangentMode: 21
      - time: 0.6166667
        value: 341
        inSlope: -3.0578587
        outSlope: 14.360131
        tangentMode: 21
      - time: 1.1666666
        value: 348.89807
        inSlope: 14.360131
        outSlope: 0
        tangentMode: 21
      m_PreInfinity: 2
      m_PostInfinity: 2
      m_RotationOrder: 4
    attribute: m_AnchoredPosition.y
    path: root/clawArm
    classID: 224
    script: {fileID: 0}
  - curve:
      serializedVersion: 2
      m_Curve:
      - time: 0
        value: 451.89807
        inSlope: 0
        outSlope: 0
        tangentMode: 0
      - time: 0.033333335
        value: 452
        inSlope: 0
        outSlope: 0
        tangentMode: 0
      - time: 0.5833333
        value: 444.10193
        inSlope: 0
        outSlope: 0
        tangentMode: 0
      - time: 0.6166667
        value: 444
        inSlope: 0
        outSlope: 0
        tangentMode: 0
      - time: 1.1666666
        value: 451.89807
        inSlope: 0
        outSlope: 0
        tangentMode: 0
      m_PreInfinity: 2
      m_PostInfinity: 2
      m_RotationOrder: 4
    attribute: m_AnchoredPosition.y
    path: root/headscarf
    classID: 224
    script: {fileID: 0}
  - curve:
      serializedVersion: 2
      m_Curve:
      - time: 0
        value: 127
        inSlope: 0
        outSlope: 0
        tangentMode: 0
      - time: 0.5833333
        value: 124
        inSlope: 0
        outSlope: 0
        tangentMode: 0
      - time: 1.1666666
        value: 127
        inSlope: 0
        outSlope: 0
        tangentMode: 0
      m_PreInfinity: 2
      m_PostInfinity: 2
      m_RotationOrder: 4
    attribute: m_AnchoredPosition.y
    path: root/belt
    classID: 224
    script: {fileID: 0}
  - curve:
      serializedVersion: 2
      m_Curve:
      - time: 0
        value: 295
        inSlope: 0
        outSlope: 0
        tangentMode: 0
      - time: 0.5833333
        value: 283.2
        inSlope: 0
        outSlope: 0
        tangentMode: 0
      - time: 1.1666666
        value: 295
        inSlope: 0
        outSlope: 0
        tangentMode: 0
      m_PreInfinity: 2
      m_PostInfinity: 2
      m_RotationOrder: 4
    attribute: m_AnchoredPosition.y
    path: root/cloakFront
    classID: 224
    script: {fileID: 0}
  - curve:
      serializedVersion: 2
      m_Curve:
      - time: 0
        value: 440.51407
        inSlope: 0
        outSlope: 0
        tangentMode: 0
      - time: 0.06666667
        value: 441
        inSlope: 0
        outSlope: 0
        tangentMode: 0
      - time: 0.5833333
        value: 431.48593
        inSlope: -11.094477
        outSlope: -11.094477
        tangentMode: 0
      - time: 0.65
        value: 431
        inSlope: 0
        outSlope: 0
        tangentMode: 0
      - time: 1.1666666
        value: 440.51407
        inSlope: 0
        outSlope: 0
        tangentMode: 0
      m_PreInfinity: 2
      m_PostInfinity: 2
      m_RotationOrder: 4
    attribute: m_AnchoredPosition.y
    path: root/HeadControl
    classID: 224
    script: {fileID: 0}
  - curve:
      serializedVersion: 2
      m_Curve:
      - time: 0
        value: 120
        inSlope: 0
        outSlope: 0
        tangentMode: 0
      - time: 0.5833333
        value: 116
        inSlope: 0
        outSlope: 0
        tangentMode: 0
      - time: 1.1666666
        value: 120
        inSlope: 0
        outSlope: 0
        tangentMode: 0
      m_PreInfinity: 2
      m_PostInfinity: 2
      m_RotationOrder: 4
    attribute: m_AnchoredPosition.y
    path: root/beltItem2
    classID: 224
    script: {fileID: 0}
  - curve:
      serializedVersion: 2
      m_Curve:
      - time: 0
        value: 127
        inSlope: 0
        outSlope: 0
        tangentMode: 0
      - time: 0.5833333
        value: 123
        inSlope: 0
        outSlope: 0
        tangentMode: 0
      - time: 1.1666666
        value: 127
        inSlope: 0
        outSlope: 0
        tangentMode: 0
      m_PreInfinity: 2
      m_PostInfinity: 2
      m_RotationOrder: 4
    attribute: m_AnchoredPosition.y
    path: root/beltItem1
    classID: 224
    script: {fileID: 0}
  - curve:
      serializedVersion: 2
      m_Curve:
      - time: 0
        value: 121.26238
        inSlope: 3.4043884
        outSlope: 3.4043884
        tangentMode: 10
      - time: 0.21666667
        value: 122
        inSlope: 0.32219374
        outSlope: 0.32219374
        tangentMode: 10
      - time: 0.8
        value: 120.39
        inSlope: -0.19038701
        outSlope: -0.19038701
        tangentMode: 10
      - time: 1.1666666
        value: 121.26238
        inSlope: 2.379227
        outSlope: 2.379227
        tangentMode: 10
      m_PreInfinity: 2
      m_PostInfinity: 2
      m_RotationOrder: 4
    attribute: m_AnchoredPosition.y
    path: root/HeadControl/eyebrow
    classID: 224
    script: {fileID: 0}
  - curve:
      serializedVersion: 2
      m_Curve:
      - time: 0
        value: 96.7
        inSlope: 0
        outSlope: 0
        tangentMode: 0
      - time: 0.5833333
        value: 97.6
        inSlope: 0
        outSlope: 0
        tangentMode: 0
      - time: 1.1666666
        value: 96.7
        inSlope: 0
        outSlope: 0
        tangentMode: 0
      m_PreInfinity: 2
      m_PostInfinity: 2
      m_RotationOrder: 4
    attribute: m_AnchoredPosition.y
    path: root/HeadControl/eyeballs
    classID: 224
    script: {fileID: 0}
  - curve:
      serializedVersion: 2
      m_Curve:
      - time: 0
        value: -10.1
        inSlope: 0
        outSlope: 0
        tangentMode: 0
      - time: 0.033333335
        value: -9.9
        inSlope: 0
        outSlope: 0
        tangentMode: 0
      - time: 0.56666666
        value: -8.91
        inSlope: 0
        outSlope: 0
        tangentMode: 0
      - time: 0.6166667
        value: -12
        inSlope: 0
        outSlope: 0
        tangentMode: 0
      - time: 1.1666666
        value: -10.1
        inSlope: 0
        outSlope: 0
        tangentMode: 0
      m_PreInfinity: 2
      m_PostInfinity: 2
      m_RotationOrder: 4
    attribute: m_AnchoredPosition.x
    path: root/clawArm/claw
    classID: 224
    script: {fileID: 0}
  - curve:
      serializedVersion: 2
      m_Curve:
      - time: 0
        value: 45.978252
        inSlope: 0
        outSlope: 0
        tangentMode: 0
      - time: 1.1666666
        value: 45.978252
        inSlope: 0
        outSlope: 0
        tangentMode: 0
      m_PreInfinity: 2
      m_PostInfinity: 2
      m_RotationOrder: 4
    attribute: m_AnchoredPosition.y
    path: root/clawArm/claw
    classID: 224
    script: {fileID: 0}
  - curve:
      serializedVersion: 2
      m_Curve:
      - time: 0
        value: 1.4900001
        inSlope: -2.554286
        outSlope: -2.554286
        tangentMode: 10
      - time: 0.5833333
        value: 0
        inSlope: -2.554286
        outSlope: -2.554286
        tangentMode: 10
      m_PreInfinity: 2
      m_PostInfinity: 2
      m_RotationOrder: 4
    attribute: m_LocalPosition.z
    path: root/HeadControl/hat
    classID: 224
    script: {fileID: 0}
  - curve:
      serializedVersion: 2
      m_Curve:
      - time: 0
        value: 327.2
        inSlope: 0
        outSlope: 0
        tangentMode: 0
      - time: 0.5833333
        value: 319
        inSlope: 0
        outSlope: 0
        tangentMode: 0
      - time: 1.1666666
        value: 327.2
        inSlope: 0
        outSlope: 0
        tangentMode: 0
      m_PreInfinity: 2
      m_PostInfinity: 2
      m_RotationOrder: 4
    attribute: m_AnchoredPosition.y
    path: root/nearArmUpper
    classID: 224
    script: {fileID: 0}
  - curve:
      serializedVersion: 2
      m_Curve:
      - time: 0
        value: -5.69
        inSlope: 9.754286
        outSlope: 9.754286
        tangentMode: 10
      - time: 0.5833333
        value: 0
        inSlope: 9.754286
        outSlope: 9.754286
        tangentMode: 10
      m_PreInfinity: 2
      m_PostInfinity: 2
      m_RotationOrder: 4
    attribute: m_LocalPosition.z
    path: root/nearArmUpper
    classID: 224
    script: {fileID: 0}
  m_PPtrCurves: []
  m_SampleRate: 60
  m_WrapMode: 0
  m_Bounds:
    m_Center: {x: 0, y: 0, z: 0}
    m_Extent: {x: 0, y: 0, z: 0}
  m_ClipBindingConstant:
    genericBindings:
    - path: 1646340105
      attribute: 4
      script: {fileID: 0}
      classID: 4
      customType: 14
      isPPtrCurve: 0
    - path: 368949443
      attribute: 4
      script: {fileID: 0}
      classID: 4
      customType: 14
      isPPtrCurve: 0
    - path: 2270027783
      attribute: 4
      script: {fileID: 0}
      classID: 4
      customType: 14
      isPPtrCurve: 0
    - path: 1066772839
      attribute: 4
      script: {fileID: 0}
      classID: 4
      customType: 14
      isPPtrCurve: 0
    - path: 289862722
      attribute: 4
      script: {fileID: 0}
      classID: 4
      customType: 14
      isPPtrCurve: 0
    - path: 2286921208
      attribute: 4
      script: {fileID: 0}
      classID: 4
      customType: 14
      isPPtrCurve: 0
    - path: 4285182099
      attribute: 4
      script: {fileID: 0}
      classID: 4
      customType: 14
      isPPtrCurve: 0
    - path: 3495684263
      attribute: 4
      script: {fileID: 0}
      classID: 4
      customType: 14
      isPPtrCurve: 0
    - path: 4231100501
      attribute: 4
      script: {fileID: 0}
      classID: 4
      customType: 14
      isPPtrCurve: 0
    - path: 4285182099
      attribute: 3
      script: {fileID: 0}
      classID: 4
      customType: 0
      isPPtrCurve: 0
    - path: 2270027783
      attribute: 3
      script: {fileID: 0}
      classID: 4
      customType: 0
      isPPtrCurve: 0
    - path: 2491927026
      attribute: 3
      script: {fileID: 0}
      classID: 4
      customType: 0
      isPPtrCurve: 0
    - path: 3236753623
      attribute: 538195251
      script: {fileID: 0}
      classID: 224
      customType: 0
      isPPtrCurve: 0
    - path: 2491927026
      attribute: 538195251
      script: {fileID: 0}
      classID: 224
      customType: 0
      isPPtrCurve: 0
    - path: 368949443
      attribute: 538195251
      script: {fileID: 0}
      classID: 224
      customType: 0
      isPPtrCurve: 0
    - path: 4285182099
      attribute: 538195251
      script: {fileID: 0}
      classID: 224
      customType: 0
      isPPtrCurve: 0
    - path: 3730317609
      attribute: 538195251
      script: {fileID: 0}
      classID: 224
      customType: 0
      isPPtrCurve: 0
    - path: 2270027783
      attribute: 538195251
      script: {fileID: 0}
      classID: 224
      customType: 0
      isPPtrCurve: 0
    - path: 2476536964
      attribute: 538195251
      script: {fileID: 0}
      classID: 224
      customType: 0
      isPPtrCurve: 0
    - path: 2286921208
      attribute: 538195251
      script: {fileID: 0}
      classID: 224
      customType: 0
      isPPtrCurve: 0
    - path: 289862722
      attribute: 538195251
      script: {fileID: 0}
      classID: 224
      customType: 0
      isPPtrCurve: 0
    - path: 2954454710
      attribute: 538195251
      script: {fileID: 0}
      classID: 224
      customType: 0
      isPPtrCurve: 0
    - path: 3495972198
      attribute: 538195251
      script: {fileID: 0}
      classID: 224
      customType: 0
      isPPtrCurve: 0
    - path: 2746247665
      attribute: 1460864421
      script: {fileID: 0}
      classID: 224
      customType: 0
      isPPtrCurve: 0
    - path: 3495684263
      attribute: 2033536083
      script: {fileID: 0}
      classID: 224
      customType: 28
      isPPtrCurve: 0
    - path: 4231100501
      attribute: 538195251
      script: {fileID: 0}
      classID: 224
      customType: 0
      isPPtrCurve: 0
    - path: 4231100501
      attribute: 2033536083
      script: {fileID: 0}
      classID: 224
      customType: 28
      isPPtrCurve: 0
    - path: 1066772839
      attribute: 538195251
      script: {fileID: 0}
      classID: 224
      customType: 0
      isPPtrCurve: 0
    - path: 2746247665
      attribute: 538195251
      script: {fileID: 0}
      classID: 224
      customType: 0
      isPPtrCurve: 0
    pptrCurveMapping: []
  m_AnimationClipSettings:
    serializedVersion: 2
    m_AdditiveReferencePoseClip: {fileID: 0}
    m_AdditiveReferencePoseTime: 0
    m_StartTime: 0
    m_StopTime: 1.1666666
    m_OrientationOffsetY: 0
    m_Level: 0
    m_CycleOffset: 0
    m_HasAdditiveReferencePose: 0
    m_LoopTime: 1
    m_LoopBlend: 0
    m_LoopBlendOrientation: 0
    m_LoopBlendPositionY: 0
    m_LoopBlendPositionXZ: 0
    m_KeepOriginalOrientation: 0
    m_KeepOriginalPositionY: 1
    m_KeepOriginalPositionXZ: 0
    m_HeightFromFeet: 0
    m_Mirror: 0
  m_EditorCurves:
  - curve:
      serializedVersion: 2
      m_Curve:
      - time: 0
        value: 214
        inSlope: 0
        outSlope: 0
        tangentMode: 0
      - time: 0.5833333
        value: 214
        inSlope: 0
        outSlope: 0
        tangentMode: 0
      - time: 1.1666666
        value: 214
        inSlope: 0
        outSlope: 0
        tangentMode: 0
      m_PreInfinity: 2
      m_PostInfinity: 2
      m_RotationOrder: 4
    attribute: m_AnchoredPosition.y
    path: root/cloak
    classID: 224
    script: {fileID: 0}
  - curve:
      serializedVersion: 2
      m_Curve:
      - time: 0
        value: -4
        inSlope: 0
        outSlope: 0
        tangentMode: 0
      - time: 0.5833333
        value: -6
        inSlope: 0
        outSlope: 0
        tangentMode: 0
      - time: 1.1666666
        value: -4
        inSlope: 0
        outSlope: 0
        tangentMode: 0
      m_PreInfinity: 2
      m_PostInfinity: 2
      m_RotationOrder: 4
    attribute: m_AnchoredPosition.y
    path: root/hips
    classID: 224
    script: {fileID: 0}
  - curve:
      serializedVersion: 2
      m_Curve:
      - time: 0
        value: 133
        inSlope: 0
        outSlope: 0
        tangentMode: 0
      - time: 0.5833333
        value: 130
        inSlope: 0
        outSlope: 0
        tangentMode: 0
      - time: 1.1666666
        value: 133
        inSlope: 0
        outSlope: 0
        tangentMode: 0
      m_PreInfinity: 2
      m_PostInfinity: 2
      m_RotationOrder: 4
    attribute: m_AnchoredPosition.y
    path: root/torso
    classID: 224
    script: {fileID: 0}
  - curve:
      serializedVersion: 2
      m_Curve:
      - time: 0
        value: 348.89807
        inSlope: 0
        outSlope: 3.057861
        tangentMode: 21
      - time: 0.033333335
        value: 349
        inSlope: 3.057861
        outSlope: -14.36013
        tangentMode: 21
      - time: 0.5833333
        value: 341.10193
        inSlope: -14.36013
        outSlope: -3.0578587
        tangentMode: 21
      - time: 0.6166667
        value: 341
        inSlope: -3.0578587
        outSlope: 14.360131
        tangentMode: 21
      - time: 1.1666666
        value: 348.89807
        inSlope: 14.360131
        outSlope: 0
        tangentMode: 21
      m_PreInfinity: 2
      m_PostInfinity: 2
      m_RotationOrder: 4
    attribute: m_AnchoredPosition.y
    path: root/clawArm
    classID: 224
    script: {fileID: 0}
  - curve:
      serializedVersion: 2
      m_Curve:
      - time: 0
        value: 451.89807
        inSlope: 0
        outSlope: 0
        tangentMode: 0
      - time: 0.033333335
        value: 452
        inSlope: 0
        outSlope: 0
        tangentMode: 0
      - time: 0.5833333
        value: 444.10193
        inSlope: 0
        outSlope: 0
        tangentMode: 0
      - time: 0.6166667
        value: 444
        inSlope: 0
        outSlope: 0
        tangentMode: 0
      - time: 1.1666666
        value: 451.89807
        inSlope: 0
        outSlope: 0
        tangentMode: 0
      m_PreInfinity: 2
      m_PostInfinity: 2
      m_RotationOrder: 4
    attribute: m_AnchoredPosition.y
    path: root/headscarf
    classID: 224
    script: {fileID: 0}
  - curve:
      serializedVersion: 2
      m_Curve:
      - time: 0
        value: 127
        inSlope: 0
        outSlope: 0
        tangentMode: 0
      - time: 0.5833333
        value: 124
        inSlope: 0
        outSlope: 0
        tangentMode: 0
      - time: 1.1666666
        value: 127
        inSlope: 0
        outSlope: 0
        tangentMode: 0
      m_PreInfinity: 2
      m_PostInfinity: 2
      m_RotationOrder: 4
    attribute: m_AnchoredPosition.y
    path: root/belt
    classID: 224
    script: {fileID: 0}
  - curve:
      serializedVersion: 2
      m_Curve:
      - time: 0
        value: 295
        inSlope: 0
        outSlope: 0
        tangentMode: 0
      - time: 0.5833333
        value: 283.2
        inSlope: 0
        outSlope: 0
        tangentMode: 0
      - time: 1.1666666
        value: 295
        inSlope: 0
        outSlope: 0
        tangentMode: 0
      m_PreInfinity: 2
      m_PostInfinity: 2
      m_RotationOrder: 4
    attribute: m_AnchoredPosition.y
    path: root/cloakFront
    classID: 224
    script: {fileID: 0}
  - curve:
      serializedVersion: 2
      m_Curve:
      - time: 0
        value: 440.51407
        inSlope: 0
        outSlope: 0
        tangentMode: 0
      - time: 0.06666667
        value: 441
        inSlope: 0
        outSlope: 0
        tangentMode: 0
      - time: 0.5833333
        value: 431.48593
        inSlope: -11.094477
        outSlope: -11.094477
        tangentMode: 0
      - time: 0.65
        value: 431
        inSlope: 0
        outSlope: 0
        tangentMode: 0
      - time: 1.1666666
        value: 440.51407
        inSlope: 0
        outSlope: 0
        tangentMode: 0
      m_PreInfinity: 2
      m_PostInfinity: 2
      m_RotationOrder: 4
    attribute: m_AnchoredPosition.y
    path: root/HeadControl
    classID: 224
    script: {fileID: 0}
  - curve:
      serializedVersion: 2
      m_Curve:
      - time: 0
        value: 1
        inSlope: 0
        outSlope: 0
        tangentMode: 0
      - time: 0.033333335
        value: 1
        inSlope: 0
        outSlope: 0
        tangentMode: 0
      - time: 0.5833333
        value: 1
        inSlope: 0
        outSlope: 0
        tangentMode: 0
      - time: 0.6166667
        value: 1
        inSlope: 0
        outSlope: 0
        tangentMode: 0
      - time: 1.1666666
        value: 1
        inSlope: 0
        outSlope: 0
        tangentMode: 0
      m_PreInfinity: 2
      m_PostInfinity: 2
      m_RotationOrder: 4
    attribute: m_LocalScale.x
    path: root/headscarf
    classID: 224
    script: {fileID: 0}
  - curve:
      serializedVersion: 2
      m_Curve:
      - time: 0
        value: 1.0296178
        inSlope: 0
        outSlope: 0
        tangentMode: 0
      - time: 0.033333335
        value: 1.03
        inSlope: 0
        outSlope: 0
        tangentMode: 0
      - time: 0.5833333
        value: 1.0003822
        inSlope: -0.013711393
        outSlope: -0.013711393
        tangentMode: 0
      - time: 0.6166667
        value: 1
        inSlope: 0
        outSlope: 0
        tangentMode: 0
      - time: 1.1666666
        value: 1.0296178
        inSlope: 0
        outSlope: 0
        tangentMode: 0
      m_PreInfinity: 2
      m_PostInfinity: 2
      m_RotationOrder: 4
    attribute: m_LocalScale.y
    path: root/headscarf
    classID: 224
    script: {fileID: 0}
  - curve:
      serializedVersion: 2
      m_Curve:
      - time: 0
        value: 1
        inSlope: 0
        outSlope: 0
        tangentMode: 0
      - time: 0.033333335
        value: 1
        inSlope: 0
        outSlope: 0
        tangentMode: 0
      - time: 0.5833333
        value: 1
        inSlope: 0
        outSlope: 0
        tangentMode: 0
      - time: 0.6166667
        value: 1
        inSlope: 0
        outSlope: 0
        tangentMode: 0
      - time: 1.1666666
        value: 1
        inSlope: 0
        outSlope: 0
        tangentMode: 0
      m_PreInfinity: 2
      m_PostInfinity: 2
      m_RotationOrder: 4
    attribute: m_LocalScale.z
    path: root/headscarf
    classID: 224
    script: {fileID: 0}
  - curve:
      serializedVersion: 2
      m_Curve:
      - time: 0
        value: 1
        inSlope: 0
        outSlope: 0
        tangentMode: 0
      - time: 0.5833333
        value: 1
        inSlope: 0
        outSlope: 0
        tangentMode: 0
      - time: 1.1666666
        value: 1
        inSlope: 0
        outSlope: 0
        tangentMode: 0
      m_PreInfinity: 2
      m_PostInfinity: 2
      m_RotationOrder: 4
    attribute: m_LocalScale.x
    path: root/cloakFront
    classID: 224
    script: {fileID: 0}
  - curve:
      serializedVersion: 2
      m_Curve:
      - time: 0
        value: 1.0625036
        inSlope: 0
        outSlope: 0
        tangentMode: 0
      - time: 0.5833333
        value: 1
        inSlope: 0
        outSlope: 0
        tangentMode: 0
      - time: 1.1666666
        value: 1.0625036
        inSlope: 0
        outSlope: 0
        tangentMode: 0
      m_PreInfinity: 2
      m_PostInfinity: 2
      m_RotationOrder: 4
    attribute: m_LocalScale.y
    path: root/cloakFront
    classID: 224
    script: {fileID: 0}
  - curve:
      serializedVersion: 2
      m_Curve:
      - time: 0
        value: 1
        inSlope: 0
        outSlope: 0
        tangentMode: 0
      - time: 0.5833333
        value: 1
        inSlope: 0
        outSlope: 0
        tangentMode: 0
      - time: 1.1666666
        value: 1
        inSlope: 0
        outSlope: 0
        tangentMode: 0
      m_PreInfinity: 2
      m_PostInfinity: 2
      m_RotationOrder: 4
    attribute: m_LocalScale.z
    path: root/cloakFront
    classID: 224
    script: {fileID: 0}
  - curve:
      serializedVersion: 2
      m_Curve:
      - time: 0
        value: 0
        inSlope: 0
        outSlope: 0
        tangentMode: 0
      - time: 0.11666667
        value: 0
        inSlope: 0
        outSlope: 0
        tangentMode: 0
      - time: 0.5833333
        value: 0
        inSlope: 0
        outSlope: 0
        tangentMode: 0
      - time: 0.7
        value: 0
        inSlope: 0
        outSlope: 0
        tangentMode: 0
      - time: 1.1666666
        value: 0
        inSlope: 0
        outSlope: 0
        tangentMode: 0
      m_PreInfinity: 2
      m_PostInfinity: 2
      m_RotationOrder: 4
    attribute: localEulerAnglesRaw.x
    path: root/HeadControl/antenna
    classID: 224
    script: {fileID: 0}
  - curve:
      serializedVersion: 2
      m_Curve:
      - time: 0
        value: 0
        inSlope: 0
        outSlope: 0
        tangentMode: 0
      - time: 0.11666667
        value: 0
        inSlope: 0
        outSlope: 0
        tangentMode: 0
      - time: 0.5833333
        value: 0
        inSlope: 0
        outSlope: 0
        tangentMode: 0
      - time: 0.7
        value: 0
        inSlope: 0
        outSlope: 0
        tangentMode: 0
      - time: 1.1666666
        value: 0
        inSlope: 0
        outSlope: 0
        tangentMode: 0
      m_PreInfinity: 2
      m_PostInfinity: 2
      m_RotationOrder: 4
    attribute: localEulerAnglesRaw.y
    path: root/HeadControl/antenna
    classID: 224
    script: {fileID: 0}
  - curve:
      serializedVersion: 2
      m_Curve:
      - time: 0
        value: 0.40942693
        inSlope: 0
        outSlope: 0
        tangentMode: 0
      - time: 0.11666667
        value: -0.17
        inSlope: 0
        outSlope: 0
        tangentMode: 0
      - time: 0.5833333
        value: 3.4515731
        inSlope: 5.586686
        outSlope: 5.586686
        tangentMode: 0
      - time: 0.7
        value: 4.031
        inSlope: 0
        outSlope: 0
        tangentMode: 0
      - time: 1.1666666
        value: 0.40942693
        inSlope: 0
        outSlope: 0
        tangentMode: 0
      m_PreInfinity: 2
      m_PostInfinity: 2
      m_RotationOrder: 4
    attribute: localEulerAnglesRaw.z
    path: root/HeadControl/antenna
    classID: 224
    script: {fileID: 0}
  - curve:
      serializedVersion: 2
      m_Curve:
      - time: 0
        value: 0
        inSlope: 0
        outSlope: 0
        tangentMode: 0
      - time: 0.033333335
        value: 0
        inSlope: 0
        outSlope: 0
        tangentMode: 0
      - time: 0.5833333
        value: 0
        inSlope: 0
        outSlope: 0
        tangentMode: 0
      - time: 0.6166667
        value: 0
        inSlope: 0
        outSlope: 0
        tangentMode: 0
      - time: 1.1666666
        value: 0
        inSlope: 0
        outSlope: 0
        tangentMode: 0
      m_PreInfinity: 2
      m_PostInfinity: 2
      m_RotationOrder: 4
    attribute: localEulerAnglesRaw.x
    path: root/clawArm
    classID: 224
    script: {fileID: 0}
  - curve:
      serializedVersion: 2
      m_Curve:
      - time: 0
        value: 0
        inSlope: 0
        outSlope: 0
        tangentMode: 0
      - time: 0.033333335
        value: 0
        inSlope: 0
        outSlope: 0
        tangentMode: 0
      - time: 0.5833333
        value: 0
        inSlope: 0
        outSlope: 0
        tangentMode: 0
      - time: 0.6166667
        value: 0
        inSlope: 0
        outSlope: 0
        tangentMode: 0
      - time: 1.1666666
        value: 0
        inSlope: 0
        outSlope: 0
        tangentMode: 0
      m_PreInfinity: 2
      m_PostInfinity: 2
      m_RotationOrder: 4
    attribute: localEulerAnglesRaw.y
    path: root/clawArm
    classID: 224
    script: {fileID: 0}
  - curve:
      serializedVersion: 2
      m_Curve:
      - time: 0
        value: -0.98725927
        inSlope: 0
        outSlope: 0
        tangentMode: 0
      - time: 0.033333335
        value: -1
        inSlope: 0
        outSlope: 0
        tangentMode: 0
      - time: 0.5833333
        value: -0.012740791
        inSlope: 0
        outSlope: 0
        tangentMode: 0
      - time: 0.6166667
        value: 0
        inSlope: 0
        outSlope: 0
        tangentMode: 0
      - time: 1.1666666
        value: -0.98725927
        inSlope: 0
        outSlope: 0
        tangentMode: 0
      m_PreInfinity: 2
      m_PostInfinity: 2
      m_RotationOrder: 4
    attribute: localEulerAnglesRaw.z
    path: root/clawArm
    classID: 224
    script: {fileID: 0}
  - curve:
      serializedVersion: 2
      m_Curve:
      - time: 0
        value: 0
        inSlope: 0
        outSlope: 0
        tangentMode: 0
      - time: 0.5833333
        value: 0
        inSlope: 0
        outSlope: 0
        tangentMode: 0
      - time: 1.1666666
        value: 0
        inSlope: 0
        outSlope: 0
        tangentMode: 0
      m_PreInfinity: 2
      m_PostInfinity: 2
      m_RotationOrder: 4
    attribute: localEulerAnglesRaw.x
    path: root/cloakFront
    classID: 224
    script: {fileID: 0}
  - curve:
      serializedVersion: 2
      m_Curve:
      - time: 0
        value: 0
        inSlope: 0
        outSlope: 0
        tangentMode: 0
      - time: 0.5833333
        value: 0
        inSlope: 0
        outSlope: 0
        tangentMode: 0
      - time: 1.1666666
        value: 0
        inSlope: 0
        outSlope: 0
        tangentMode: 0
      m_PreInfinity: 2
      m_PostInfinity: 2
      m_RotationOrder: 4
    attribute: localEulerAnglesRaw.y
    path: root/cloakFront
    classID: 224
    script: {fileID: 0}
  - curve:
      serializedVersion: 2
      m_Curve:
      - time: 0
        value: -2.427
        inSlope: 0
        outSlope: 0
        tangentMode: 0
      - time: 0.5833333
        value: 0
        inSlope: 0
        outSlope: 0
        tangentMode: 0
      - time: 1.1666666
        value: -2.427
        inSlope: 0
        outSlope: 0
        tangentMode: 0
      m_PreInfinity: 2
      m_PostInfinity: 2
      m_RotationOrder: 4
    attribute: localEulerAnglesRaw.z
    path: root/cloakFront
    classID: 224
    script: {fileID: 0}
  - curve:
      serializedVersion: 2
      m_Curve:
      - time: 0
        value: 0
        inSlope: 0
        outSlope: 0
        tangentMode: 0
      - time: 0.15
        value: 0
        inSlope: 0
        outSlope: 0
        tangentMode: 0
      - time: 0.5833333
        value: 0
        inSlope: 0
        outSlope: 0
        tangentMode: 0
      - time: 0.73333335
        value: 0
        inSlope: 0
        outSlope: 0
        tangentMode: 0
      - time: 1.1666666
        value: 0
        inSlope: 0
        outSlope: 0
        tangentMode: 0
      m_PreInfinity: 2
      m_PostInfinity: 2
      m_RotationOrder: 4
    attribute: localEulerAnglesRaw.x
    path: root/cloak
    classID: 224
    script: {fileID: 0}
  - curve:
      serializedVersion: 2
      m_Curve:
      - time: 0
        value: 0
        inSlope: 0
        outSlope: 0
        tangentMode: 0
      - time: 0.15
        value: 0
        inSlope: 0
        outSlope: 0
        tangentMode: 0
      - time: 0.5833333
        value: 0
        inSlope: 0
        outSlope: 0
        tangentMode: 0
      - time: 0.73333335
        value: 0
        inSlope: 0
        outSlope: 0
        tangentMode: 0
      - time: 1.1666666
        value: 0
        inSlope: 0
        outSlope: 0
        tangentMode: 0
      m_PreInfinity: 2
      m_PostInfinity: 2
      m_RotationOrder: 4
    attribute: localEulerAnglesRaw.y
    path: root/cloak
    classID: 224
    script: {fileID: 0}
  - curve:
      serializedVersion: 2
      m_Curve:
      - time: 0
        value: -1.9861999
        inSlope: 0
        outSlope: 0
        tangentMode: 0
      - time: 0.15
        value: -2.834
        inSlope: 0
        outSlope: 0
        tangentMode: 0
      - time: 0.5833333
        value: 0.24320006
        inSlope: 6.8890667
        outSlope: 6.8890667
        tangentMode: 0
      - time: 0.73333335
        value: 1.0910001
        inSlope: 0
        outSlope: 0
        tangentMode: 0
      - time: 1.1666666
        value: -1.9861999
        inSlope: 0
        outSlope: 0
        tangentMode: 0
      m_PreInfinity: 2
      m_PostInfinity: 2
      m_RotationOrder: 4
    attribute: localEulerAnglesRaw.z
    path: root/cloak
    classID: 224
    script: {fileID: 0}
  - curve:
      serializedVersion: 2
      m_Curve:
      - time: 0
        value: 120
        inSlope: 0
        outSlope: 0
        tangentMode: 0
      - time: 0.5833333
        value: 116
        inSlope: 0
        outSlope: 0
        tangentMode: 0
      - time: 1.1666666
        value: 120
        inSlope: 0
        outSlope: 0
        tangentMode: 0
      m_PreInfinity: 2
      m_PostInfinity: 2
      m_RotationOrder: 4
    attribute: m_AnchoredPosition.y
    path: root/beltItem2
    classID: 224
    script: {fileID: 0}
  - curve:
      serializedVersion: 2
      m_Curve:
      - time: 0
        value: 127
        inSlope: 0
        outSlope: 0
        tangentMode: 0
      - time: 0.5833333
        value: 123
        inSlope: 0
        outSlope: 0
        tangentMode: 0
      - time: 1.1666666
        value: 127
        inSlope: 0
        outSlope: 0
        tangentMode: 0
      m_PreInfinity: 2
      m_PostInfinity: 2
      m_RotationOrder: 4
    attribute: m_AnchoredPosition.y
    path: root/beltItem1
    classID: 224
    script: {fileID: 0}
  - curve:
      serializedVersion: 2
      m_Curve:
      - time: 0
        value: 1
        inSlope: 0
        outSlope: 0
        tangentMode: 10
      - time: 0.5833333
        value: 1
        inSlope: 0
        outSlope: 0
        tangentMode: 10
      - time: 1.1666666
        value: 1
        inSlope: 0
        outSlope: 0
        tangentMode: 10
      m_PreInfinity: 2
      m_PostInfinity: 2
      m_RotationOrder: 4
    attribute: m_LocalScale.x
    path: root/torso
    classID: 224
    script: {fileID: 0}
  - curve:
      serializedVersion: 2
      m_Curve:
      - time: 0
        value: 1.0374969
        inSlope: -0.06428044
        outSlope: -0.06428044
        tangentMode: 10
      - time: 0.5833333
        value: 1
        inSlope: 0
        outSlope: 0
        tangentMode: 10
      - time: 1.1666666
        value: 1.0374969
        inSlope: 0.06428044
        outSlope: 0.06428044
        tangentMode: 10
      m_PreInfinity: 2
      m_PostInfinity: 2
      m_RotationOrder: 4
    attribute: m_LocalScale.y
    path: root/torso
    classID: 224
    script: {fileID: 0}
  - curve:
      serializedVersion: 2
      m_Curve:
      - time: 0
        value: 1
        inSlope: 0
        outSlope: 0
        tangentMode: 10
      - time: 0.5833333
        value: 1
        inSlope: 0
        outSlope: 0
        tangentMode: 10
      - time: 1.1666666
        value: 1
        inSlope: 0
        outSlope: 0
        tangentMode: 10
      m_PreInfinity: 2
      m_PostInfinity: 2
      m_RotationOrder: 4
    attribute: m_LocalScale.z
    path: root/torso
    classID: 224
    script: {fileID: 0}
  - curve:
      serializedVersion: 2
      m_Curve:
      - time: 0
        value: 121.26238
        inSlope: 3.4043884
        outSlope: 3.4043884
        tangentMode: 10
      - time: 0.21666667
        value: 122
        inSlope: 0.32219374
        outSlope: 0.32219374
        tangentMode: 10
      - time: 0.8
        value: 120.39
        inSlope: -0.19038701
        outSlope: -0.19038701
        tangentMode: 10
      - time: 1.1666666
        value: 121.26238
        inSlope: 2.379227
        outSlope: 2.379227
        tangentMode: 10
      m_PreInfinity: 2
      m_PostInfinity: 2
      m_RotationOrder: 4
    attribute: m_AnchoredPosition.y
    path: root/HeadControl/eyebrow
    classID: 224
    script: {fileID: 0}
  - curve:
      serializedVersion: 2
      m_Curve:
      - time: 0
        value: 0
        inSlope: 0
        outSlope: 0
        tangentMode: 10
      - time: 0.15
        value: 0
        inSlope: 0
        outSlope: 0
        tangentMode: 10
      - time: 0.73333335
        value: 0
        inSlope: 0
        outSlope: 0
        tangentMode: 10
      - time: 1.1666666
        value: 0
        inSlope: 0
        outSlope: 0
        tangentMode: 10
      m_PreInfinity: 2
      m_PostInfinity: 2
      m_RotationOrder: 4
    attribute: localEulerAnglesRaw.x
    path: root/beltItem1
    classID: 224
    script: {fileID: 0}
  - curve:
      serializedVersion: 2
      m_Curve:
      - time: 0
        value: 0
        inSlope: 0
        outSlope: 0
        tangentMode: 10
      - time: 0.15
        value: 0
        inSlope: 0
        outSlope: 0
        tangentMode: 10
      - time: 0.73333335
        value: 0
        inSlope: 0
        outSlope: 0
        tangentMode: 10
      - time: 1.1666666
        value: 0
        inSlope: 0
        outSlope: 0
        tangentMode: 10
      m_PreInfinity: 2
      m_PostInfinity: 2
      m_RotationOrder: 4
    attribute: localEulerAnglesRaw.y
    path: root/beltItem1
    classID: 224
    script: {fileID: 0}
  - curve:
      serializedVersion: 2
      m_Curve:
      - time: 0
        value: 1.08139
        inSlope: -4.231052
        outSlope: -6.338345
        tangentMode: 1
      - time: 0.15
        value: 0.44673222
        inSlope: -0.33929658
        outSlope: -0.33929658
        tangentMode: 10
      - time: 0.73333335
        value: 2.519
        inSlope: 0.11744833
        outSlope: 0.11744833
        tangentMode: 10
      - time: 1.1666666
        value: 1.08139
        inSlope: -6.62491
        outSlope: -3.317562
        tangentMode: 1
      m_PreInfinity: 2
      m_PostInfinity: 2
      m_RotationOrder: 4
    attribute: localEulerAnglesRaw.z
    path: root/beltItem1
    classID: 224
    script: {fileID: 0}
  - curve:
      serializedVersion: 2
      m_Curve:
      - time: 0
        value: 0
        inSlope: 0
        outSlope: 0
        tangentMode: 10
      - time: 0.2
        value: 0
        inSlope: 0
        outSlope: 0
        tangentMode: 10
      - time: 0.78333336
        value: 0
        inSlope: 0
        outSlope: 0
        tangentMode: 10
      - time: 1.1666666
        value: 0
        inSlope: 0
        outSlope: 0
        tangentMode: 10
      m_PreInfinity: 2
      m_PostInfinity: 2
      m_RotationOrder: 4
    attribute: localEulerAnglesRaw.x
    path: root/beltItem2
    classID: 224
    script: {fileID: 0}
  - curve:
      serializedVersion: 2
      m_Curve:
      - time: 0
        value: 0
        inSlope: 0
        outSlope: 0
        tangentMode: 10
      - time: 0.2
        value: 0
        inSlope: 0
        outSlope: 0
        tangentMode: 10
      - time: 0.78333336
        value: 0
        inSlope: 0
        outSlope: 0
        tangentMode: 10
      - time: 1.1666666
        value: 0
        inSlope: 0
        outSlope: 0
        tangentMode: 10
      m_PreInfinity: 2
      m_PostInfinity: 2
      m_RotationOrder: 4
    attribute: localEulerAnglesRaw.y
    path: root/beltItem2
    classID: 224
    script: {fileID: 0}
  - curve:
      serializedVersion: 2
      m_Curve:
      - time: 0
        value: -0.18517911
        inSlope: 4.6611905
        outSlope: 7.0589094
        tangentMode: 1
      - time: 0.2
        value: 0.747059
        inSlope: 0.42854488
        outSlope: 0.42854488
        tangentMode: 10
      - time: 0.78333336
        value: -1.4720001
        inSlope: -0.22358787
        outSlope: -0.22358787
        tangentMode: 10
      - time: 1.1666666
        value: -0.18517911
        inSlope: 6.526605
        outSlope: 3.356925
        tangentMode: 1
      m_PreInfinity: 2
      m_PostInfinity: 2
      m_RotationOrder: 4
    attribute: localEulerAnglesRaw.z
    path: root/beltItem2
    classID: 224
    script: {fileID: 0}
  - curve:
      serializedVersion: 2
      m_Curve:
      - time: 0
        value: 96.7
        inSlope: 0
        outSlope: 0
        tangentMode: 0
      - time: 0.5833333
        value: 97.6
        inSlope: 0
        outSlope: 0
        tangentMode: 0
      - time: 1.1666666
        value: 96.7
        inSlope: 0
        outSlope: 0
        tangentMode: 0
      m_PreInfinity: 2
      m_PostInfinity: 2
      m_RotationOrder: 4
    attribute: m_AnchoredPosition.y
    path: root/HeadControl/eyeballs
    classID: 224
    script: {fileID: 0}
  - curve:
      serializedVersion: 2
      m_Curve:
      - time: 0
        value: 0
        inSlope: 0
        outSlope: 0
        tangentMode: 0
      - time: 0.5833333
        value: 0
        inSlope: 0
        outSlope: 0
        tangentMode: 0
      - time: 1.1666666
        value: 0
        inSlope: 0
        outSlope: 0
        tangentMode: 0
      m_PreInfinity: 2
      m_PostInfinity: 2
      m_RotationOrder: 4
    attribute: localEulerAnglesRaw.x
    path: root/headscarf
    classID: 224
    script: {fileID: 0}
  - curve:
      serializedVersion: 2
      m_Curve:
      - time: 0
        value: 0
        inSlope: 0
        outSlope: 0
        tangentMode: 0
      - time: 0.5833333
        value: 0
        inSlope: 0
        outSlope: 0
        tangentMode: 0
      - time: 1.1666666
        value: 0
        inSlope: 0
        outSlope: 0
        tangentMode: 0
      m_PreInfinity: 2
      m_PostInfinity: 2
      m_RotationOrder: 4
    attribute: localEulerAnglesRaw.y
    path: root/headscarf
    classID: 224
    script: {fileID: 0}
  - curve:
      serializedVersion: 2
      m_Curve:
      - time: 0
        value: -1.7210001
        inSlope: 0
        outSlope: 0
        tangentMode: 0
      - time: 0.5833333
        value: 0
        inSlope: 0
        outSlope: 0
        tangentMode: 0
      - time: 1.1666666
        value: -1.7210001
        inSlope: 0
        outSlope: 0
        tangentMode: 0
      m_PreInfinity: 2
      m_PostInfinity: 2
      m_RotationOrder: 4
    attribute: localEulerAnglesRaw.z
    path: root/headscarf
    classID: 224
    script: {fileID: 0}
  - curve:
      serializedVersion: 2
      m_Curve:
      - time: 0
        value: 0
        inSlope: 0
        outSlope: 0
        tangentMode: 0
      - time: 0.5833333
        value: 0
        inSlope: 0
        outSlope: 0
        tangentMode: 0
      - time: 1.1666666
        value: 0
        inSlope: 0
        outSlope: 0
        tangentMode: 0
      m_PreInfinity: 2
      m_PostInfinity: 2
      m_RotationOrder: 4
    attribute: localEulerAnglesRaw.x
    path: root/HeadControl/hat
    classID: 224
    script: {fileID: 0}
  - curve:
      serializedVersion: 2
      m_Curve:
      - time: 0
        value: 0
        inSlope: 0
        outSlope: 0
        tangentMode: 0
      - time: 0.5833333
        value: 0
        inSlope: 0
        outSlope: 0
        tangentMode: 0
      - time: 1.1666666
        value: 0
        inSlope: 0
        outSlope: 0
        tangentMode: 0
      m_PreInfinity: 2
      m_PostInfinity: 2
      m_RotationOrder: 4
    attribute: localEulerAnglesRaw.y
    path: root/HeadControl/hat
    classID: 224
    script: {fileID: 0}
  - curve:
      serializedVersion: 2
      m_Curve:
      - time: 0
        value: 0
        inSlope: 0
        outSlope: 0
        tangentMode: 0
      - time: 0.5833333
        value: 1
        inSlope: 0
        outSlope: 0
        tangentMode: 0
      - time: 1.1666666
        value: 0
        inSlope: 0
        outSlope: 0
        tangentMode: 0
      m_PreInfinity: 2
      m_PostInfinity: 2
      m_RotationOrder: 4
    attribute: localEulerAnglesRaw.z
    path: root/HeadControl/hat
    classID: 224
    script: {fileID: 0}
  - curve:
      serializedVersion: 2
      m_Curve:
      - time: 0
        value: -10.1
        inSlope: 0
        outSlope: 0
        tangentMode: 0
      - time: 0.033333335
        value: -9.9
        inSlope: 0
        outSlope: 0
        tangentMode: 0
      - time: 0.56666666
        value: -8.91
        inSlope: 0
        outSlope: 0
        tangentMode: 0
      - time: 0.6166667
        value: -12
        inSlope: 0
        outSlope: 0
        tangentMode: 0
      - time: 1.1666666
        value: -10.1
        inSlope: 0
        outSlope: 0
        tangentMode: 0
      m_PreInfinity: 2
      m_PostInfinity: 2
      m_RotationOrder: 4
    attribute: m_AnchoredPosition.x
    path: root/clawArm/claw
    classID: 224
    script: {fileID: 0}
  - curve:
      serializedVersion: 2
      m_Curve:
      - time: 0
        value: 45.978252
        inSlope: 0
        outSlope: 0
        tangentMode: 0
      - time: 1.1666666
        value: 45.978252
        inSlope: 0
        outSlope: 0
        tangentMode: 0
      m_PreInfinity: 2
      m_PostInfinity: 2
      m_RotationOrder: 4
    attribute: m_AnchoredPosition.y
    path: root/clawArm/claw
    classID: 224
    script: {fileID: 0}
  - curve:
      serializedVersion: 2
      m_Curve:
      - time: 0
        value: 1.4900001
        inSlope: -2.554286
        outSlope: -2.554286
        tangentMode: 10
      - time: 0.5833333
        value: 0
        inSlope: -2.554286
        outSlope: -2.554286
        tangentMode: 10
      m_PreInfinity: 2
      m_PostInfinity: 2
      m_RotationOrder: 4
    attribute: m_LocalPosition.z
    path: root/HeadControl/hat
    classID: 224
    script: {fileID: 0}
  - curve:
      serializedVersion: 2
      m_Curve:
      - time: 0
        value: 327.2
        inSlope: 0
        outSlope: 0
        tangentMode: 0
      - time: 0.5833333
        value: 319
        inSlope: 0
        outSlope: 0
        tangentMode: 0
      - time: 1.1666666
        value: 327.2
        inSlope: 0
        outSlope: 0
        tangentMode: 0
      m_PreInfinity: 2
      m_PostInfinity: 2
      m_RotationOrder: 4
    attribute: m_AnchoredPosition.y
    path: root/nearArmUpper
    classID: 224
    script: {fileID: 0}
  - curve:
      serializedVersion: 2
      m_Curve:
      - time: 0
        value: 0
        inSlope: 0
        outSlope: 0
        tangentMode: 0
      - time: 0.5833333
        value: 0
        inSlope: 0
        outSlope: 0
        tangentMode: 0
      - time: 1.1666666
        value: 0
        inSlope: 0
        outSlope: 0
        tangentMode: 0
      m_PreInfinity: 2
      m_PostInfinity: 2
      m_RotationOrder: 4
    attribute: localEulerAnglesRaw.x
    path: root/nearArmUpper
    classID: 224
    script: {fileID: 0}
  - curve:
      serializedVersion: 2
      m_Curve:
      - time: 0
        value: 0
        inSlope: 0
        outSlope: 0
        tangentMode: 0
      - time: 0.5833333
        value: 0
        inSlope: 0
        outSlope: 0
        tangentMode: 0
      - time: 1.1666666
        value: 0
        inSlope: 0
        outSlope: 0
        tangentMode: 0
      m_PreInfinity: 2
      m_PostInfinity: 2
      m_RotationOrder: 4
    attribute: localEulerAnglesRaw.y
    path: root/nearArmUpper
    classID: 224
    script: {fileID: 0}
  - curve:
      serializedVersion: 2
      m_Curve:
      - time: 0
        value: -2.4
        inSlope: 0
        outSlope: 0
        tangentMode: 0
      - time: 0.5833333
        value: -3.69
        inSlope: 0
        outSlope: 0
        tangentMode: 0
      - time: 1.1666666
        value: -2.4
        inSlope: 0
        outSlope: 0
        tangentMode: 0
      m_PreInfinity: 2
      m_PostInfinity: 2
      m_RotationOrder: 4
    attribute: localEulerAnglesRaw.z
    path: root/nearArmUpper
    classID: 224
    script: {fileID: 0}
  - curve:
      serializedVersion: 2
      m_Curve:
      - time: 0
        value: -5.69
        inSlope: 9.754286
        outSlope: 9.754286
        tangentMode: 10
      - time: 0.5833333
        value: 0
        inSlope: 9.754286
        outSlope: 9.754286
        tangentMode: 10
      m_PreInfinity: 2
      m_PostInfinity: 2
      m_RotationOrder: 4
    attribute: m_LocalPosition.z
    path: root/nearArmUpper
    classID: 224
    script: {fileID: 0}
  m_EulerEditorCurves:
  - curve:
      serializedVersion: 2
      m_Curve: []
      m_PreInfinity: 2
      m_PostInfinity: 2
      m_RotationOrder: 4
    attribute: m_LocalEulerAngles.z
    path: root/HeadControl/hat
    classID: 224
    script: {fileID: 0}
  - curve:
      serializedVersion: 2
      m_Curve: []
      m_PreInfinity: 2
      m_PostInfinity: 2
      m_RotationOrder: 4
    attribute: m_LocalEulerAngles.y
    path: root/HeadControl/hat
    classID: 224
    script: {fileID: 0}
  - curve:
      serializedVersion: 2
      m_Curve: []
      m_PreInfinity: 2
      m_PostInfinity: 2
      m_RotationOrder: 4
    attribute: m_LocalEulerAngles.x
    path: root/HeadControl/hat
    classID: 224
    script: {fileID: 0}
  - curve:
      serializedVersion: 2
      m_Curve: []
      m_PreInfinity: 2
      m_PostInfinity: 2
      m_RotationOrder: 4
    attribute: m_LocalEulerAngles.z
    path: root/cloakFront
    classID: 224
    script: {fileID: 0}
  - curve:
      serializedVersion: 2
      m_Curve: []
      m_PreInfinity: 2
      m_PostInfinity: 2
      m_RotationOrder: 4
    attribute: m_LocalEulerAngles.y
    path: root/cloakFront
    classID: 224
    script: {fileID: 0}
  - curve:
      serializedVersion: 2
      m_Curve: []
      m_PreInfinity: 2
      m_PostInfinity: 2
      m_RotationOrder: 4
    attribute: m_LocalEulerAngles.x
    path: root/cloakFront
    classID: 224
    script: {fileID: 0}
  - curve:
      serializedVersion: 2
      m_Curve: []
      m_PreInfinity: 2
      m_PostInfinity: 2
      m_RotationOrder: 4
    attribute: m_LocalEulerAngles.z
    path: root/headscarf
    classID: 224
    script: {fileID: 0}
  - curve:
      serializedVersion: 2
      m_Curve: []
      m_PreInfinity: 2
      m_PostInfinity: 2
      m_RotationOrder: 4
    attribute: m_LocalEulerAngles.y
    path: root/headscarf
    classID: 224
    script: {fileID: 0}
  - curve:
      serializedVersion: 2
      m_Curve: []
      m_PreInfinity: 2
      m_PostInfinity: 2
      m_RotationOrder: 4
    attribute: m_LocalEulerAngles.x
    path: root/headscarf
    classID: 224
    script: {fileID: 0}
  - curve:
      serializedVersion: 2
      m_Curve: []
      m_PreInfinity: 2
      m_PostInfinity: 2
      m_RotationOrder: 4
    attribute: m_LocalEulerAngles.z
    path: root/clawArm
    classID: 224
    script: {fileID: 0}
  - curve:
      serializedVersion: 2
      m_Curve: []
      m_PreInfinity: 2
      m_PostInfinity: 2
      m_RotationOrder: 4
    attribute: m_LocalEulerAngles.y
    path: root/clawArm
    classID: 224
    script: {fileID: 0}
  - curve:
      serializedVersion: 2
      m_Curve: []
      m_PreInfinity: 2
      m_PostInfinity: 2
      m_RotationOrder: 4
    attribute: m_LocalEulerAngles.x
    path: root/clawArm
    classID: 224
    script: {fileID: 0}
  - curve:
      serializedVersion: 2
      m_Curve: []
      m_PreInfinity: 2
      m_PostInfinity: 2
      m_RotationOrder: 4
    attribute: m_LocalEulerAngles.z
    path: root/HeadControl/antenna
    classID: 224
    script: {fileID: 0}
  - curve:
      serializedVersion: 2
      m_Curve: []
      m_PreInfinity: 2
      m_PostInfinity: 2
      m_RotationOrder: 4
    attribute: m_LocalEulerAngles.y
    path: root/HeadControl/antenna
    classID: 224
    script: {fileID: 0}
  - curve:
      serializedVersion: 2
      m_Curve: []
      m_PreInfinity: 2
      m_PostInfinity: 2
      m_RotationOrder: 4
    attribute: m_LocalEulerAngles.x
    path: root/HeadControl/antenna
    classID: 224
    script: {fileID: 0}
  - curve:
      serializedVersion: 2
      m_Curve: []
      m_PreInfinity: 2
      m_PostInfinity: 2
      m_RotationOrder: 4
    attribute: m_LocalEulerAngles.z
    path: root/cloak
    classID: 224
    script: {fileID: 0}
  - curve:
      serializedVersion: 2
      m_Curve: []
      m_PreInfinity: 2
      m_PostInfinity: 2
      m_RotationOrder: 4
    attribute: m_LocalEulerAngles.y
    path: root/cloak
    classID: 224
    script: {fileID: 0}
  - curve:
      serializedVersion: 2
      m_Curve: []
      m_PreInfinity: 2
      m_PostInfinity: 2
      m_RotationOrder: 4
    attribute: m_LocalEulerAngles.x
    path: root/cloak
    classID: 224
    script: {fileID: 0}
  - curve:
      serializedVersion: 2
      m_Curve: []
      m_PreInfinity: 2
      m_PostInfinity: 2
      m_RotationOrder: 4
    attribute: m_LocalEulerAngles.z
    path: root/beltItem1
    classID: 224
    script: {fileID: 0}
  - curve:
      serializedVersion: 2
      m_Curve: []
      m_PreInfinity: 2
      m_PostInfinity: 2
      m_RotationOrder: 4
    attribute: m_LocalEulerAngles.y
    path: root/beltItem1
    classID: 224
    script: {fileID: 0}
  - curve:
      serializedVersion: 2
      m_Curve: []
      m_PreInfinity: 2
      m_PostInfinity: 2
      m_RotationOrder: 4
    attribute: m_LocalEulerAngles.x
    path: root/beltItem1
    classID: 224
    script: {fileID: 0}
  - curve:
      serializedVersion: 2
      m_Curve: []
      m_PreInfinity: 2
      m_PostInfinity: 2
      m_RotationOrder: 4
    attribute: m_LocalEulerAngles.x
    path: root/beltItem2
    classID: 224
    script: {fileID: 0}
  - curve:
      serializedVersion: 2
      m_Curve: []
      m_PreInfinity: 2
      m_PostInfinity: 2
      m_RotationOrder: 4
    attribute: m_LocalEulerAngles.y
    path: root/beltItem2
    classID: 224
    script: {fileID: 0}
  - curve:
      serializedVersion: 2
      m_Curve: []
      m_PreInfinity: 2
      m_PostInfinity: 2
      m_RotationOrder: 4
    attribute: m_LocalEulerAngles.z
    path: root/beltItem2
    classID: 224
    script: {fileID: 0}
  - curve:
      serializedVersion: 2
      m_Curve: []
      m_PreInfinity: 2
      m_PostInfinity: 2
      m_RotationOrder: 4
    attribute: m_LocalEulerAngles.x
    path: root/nearArmUpper
    classID: 224
    script: {fileID: 0}
  - curve:
      serializedVersion: 2
      m_Curve: []
      m_PreInfinity: 2
      m_PostInfinity: 2
      m_RotationOrder: 4
    attribute: m_LocalEulerAngles.y
    path: root/nearArmUpper
    classID: 224
    script: {fileID: 0}
  - curve:
      serializedVersion: 2
      m_Curve: []
      m_PreInfinity: 2
      m_PostInfinity: 2
      m_RotationOrder: 4
    attribute: m_LocalEulerAngles.z
    path: root/nearArmUpper
    classID: 224
    script: {fileID: 0}
  m_HasGenericRootTransform: 0
  m_HasMotionFloatCurves: 0
  m_GenerateMotionCurves: 0
  m_Events: []
