%YAML 1.1
%TAG !u! tag:unity3d.com,2011:
--- !u!74 &7400000
AnimationClip:
  m_ObjectHideFlags: 0
  m_PrefabParentObject: {fileID: 0}
  m_PrefabInternal: {fileID: 0}
  m_Name: ui_RRSpinner
  serializedVersion: 6
  m_Legacy: 0
  m_Compressed: 0
  m_UseHighQualityCurve: 1
  m_RotationCurves: []
  m_CompressedRotationCurves: []
  m_EulerCurves: []
  m_PositionCurves: []
  m_ScaleCurves: []
  m_FloatCurves: []
  m_PPtrCurves:
  - curve:
    - time: 0
      value: {fileID: 21300000, guid: fe1785d136e1a2e44b8bedf3c7590c84, type: 3}
    - time: 0.022222223
      value: {fileID: 21300002, guid: fe1785d136e1a2e44b8bedf3c7590c84, type: 3}
    - time: 0.044444446
      value: {fileID: 21300004, guid: fe1785d136e1a2e44b8bedf3c7590c84, type: 3}
    - time: 0.06666667
      value: {fileID: 21300006, guid: fe1785d136e1a2e44b8bedf3c7590c84, type: 3}
    - time: 0.08888889
      value: {fileID: 21300008, guid: fe1785d136e1a2e44b8bedf3c7590c84, type: 3}
    - time: 0.11111111
      value: {fileID: 21300010, guid: fe1785d136e1a2e44b8bedf3c7590c84, type: 3}
    - time: 0.13333334
      value: {fileID: 21300012, guid: fe1785d136e1a2e44b8bedf3c7590c84, type: 3}
    - time: 0.15555556
      value: {fileID: 21300014, guid: fe1785d136e1a2e44b8bedf3c7590c84, type: 3}
    - time: 0.17777778
      value: {fileID: 21300016, guid: fe1785d136e1a2e44b8bedf3c7590c84, type: 3}
    - time: 0.2
      value: {fileID: 21300018, guid: fe1785d136e1a2e44b8bedf3c7590c84, type: 3}
    - time: 0.22222222
      value: {fileID: 21300020, guid: fe1785d136e1a2e44b8bedf3c7590c84, type: 3}
    - time: 0.24444444
      value: {fileID: 21300022, guid: fe1785d136e1a2e44b8bedf3c7590c84, type: 3}
    - time: 0.26666668
      value: {fileID: 21300024, guid: fe1785d136e1a2e44b8bedf3c7590c84, type: 3}
    - time: 0.2888889
      value: {fileID: 21300026, guid: fe1785d136e1a2e44b8bedf3c7590c84, type: 3}
    - time: 0.31111112
      value: {fileID: 21300028, guid: fe1785d136e1a2e44b8bedf3c7590c84, type: 3}
    - time: 0.33333334
      value: {fileID: 21300030, guid: fe1785d136e1a2e44b8bedf3c7590c84, type: 3}
    - time: 0.35555556
      value: {fileID: 21300032, guid: fe1785d136e1a2e44b8bedf3c7590c84, type: 3}
    - time: 0.37777779
      value: {fileID: 21300034, guid: fe1785d136e1a2e44b8bedf3c7590c84, type: 3}
    - time: 0.4
      value: {fileID: 21300036, guid: fe1785d136e1a2e44b8bedf3c7590c84, type: 3}
    - time: 0.42222223
      value: {fileID: 21300038, guid: fe1785d136e1a2e44b8bedf3c7590c84, type: 3}
    - time: 0.44444445
      value: {fileID: 21300040, guid: fe1785d136e1a2e44b8bedf3c7590c84, type: 3}
    - time: 0.46666667
      value: {fileID: 21300042, guid: fe1785d136e1a2e44b8bedf3c7590c84, type: 3}
    - time: 0.4888889
      value: {fileID: 21300044, guid: fe1785d136e1a2e44b8bedf3c7590c84, type: 3}
    - time: 0.51111114
      value: {fileID: 21300046, guid: fe1785d136e1a2e44b8bedf3c7590c84, type: 3}
    - time: 0.53333336
      value: {fileID: 21300048, guid: fe1785d136e1a2e44b8bedf3c7590c84, type: 3}
    - time: 0.5555556
      value: {fileID: 21300050, guid: fe1785d136e1a2e44b8bedf3c7590c84, type: 3}
    - time: 0.5777778
      value: {fileID: 21300052, guid: fe1785d136e1a2e44b8bedf3c7590c84, type: 3}
    - time: 0.6
      value: {fileID: 21300054, guid: fe1785d136e1a2e44b8bedf3c7590c84, type: 3}
    - time: 0.62222224
      value: {fileID: 21300056, guid: fe1785d136e1a2e44b8bedf3c7590c84, type: 3}
    - time: 0.64444447
      value: {fileID: 21300058, guid: fe1785d136e1a2e44b8bedf3c7590c84, type: 3}
    - time: 0.6666667
      value: {fileID: 21300060, guid: fe1785d136e1a2e44b8bedf3c7590c84, type: 3}
    - time: 2.6666667
      value: {fileID: 21300060, guid: fe1785d136e1a2e44b8bedf3c7590c84, type: 3}
    attribute: m_Sprite
    path: 
    classID: 114
    script: {fileID: -765806418, guid: f5f67c52d1564df4a8936ccd202a3bd8, type: 3}
  m_SampleRate: 45
  m_WrapMode: 0
  m_Bounds:
    m_Center: {x: 0, y: 0, z: 0}
    m_Extent: {x: 0, y: 0, z: 0}
  m_ClipBindingConstant:
    genericBindings:
    - path: 0
      attribute: 2015549526
      script: {fileID: -765806418, guid: f5f67c52d1564df4a8936ccd202a3bd8, type: 3}
      classID: 114
      customType: 0
      isPPtrCurve: 1
    pptrCurveMapping:
    - {fileID: 21300000, guid: fe1785d136e1a2e44b8bedf3c7590c84, type: 3}
    - {fileID: 21300002, guid: fe1785d136e1a2e44b8bedf3c7590c84, type: 3}
    - {fileID: 21300004, guid: fe1785d136e1a2e44b8bedf3c7590c84, type: 3}
    - {fileID: 21300006, guid: fe1785d136e1a2e44b8bedf3c7590c84, type: 3}
    - {fileID: 21300008, guid: fe1785d136e1a2e44b8bedf3c7590c84, type: 3}
    - {fileID: 21300010, guid: fe1785d136e1a2e44b8bedf3c7590c84, type: 3}
    - {fileID: 21300012, guid: fe1785d136e1a2e44b8bedf3c7590c84, type: 3}
    - {fileID: 21300014, guid: fe1785d136e1a2e44b8bedf3c7590c84, type: 3}
    - {fileID: 21300016, guid: fe1785d136e1a2e44b8bedf3c7590c84, type: 3}
    - {fileID: 21300018, guid: fe1785d136e1a2e44b8bedf3c7590c84, type: 3}
    - {fileID: 21300020, guid: fe1785d136e1a2e44b8bedf3c7590c84, type: 3}
    - {fileID: 21300022, guid: fe1785d136e1a2e44b8bedf3c7590c84, type: 3}
    - {fileID: 21300024, guid: fe1785d136e1a2e44b8bedf3c7590c84, type: 3}
    - {fileID: 21300026, guid: fe1785d136e1a2e44b8bedf3c7590c84, type: 3}
    - {fileID: 21300028, guid: fe1785d136e1a2e44b8bedf3c7590c84, type: 3}
    - {fileID: 21300030, guid: fe1785d136e1a2e44b8bedf3c7590c84, type: 3}
    - {fileID: 21300032, guid: fe1785d136e1a2e44b8bedf3c7590c84, type: 3}
    - {fileID: 21300034, guid: fe1785d136e1a2e44b8bedf3c7590c84, type: 3}
    - {fileID: 21300036, guid: fe1785d136e1a2e44b8bedf3c7590c84, type: 3}
    - {fileID: 21300038, guid: fe1785d136e1a2e44b8bedf3c7590c84, type: 3}
    - {fileID: 21300040, guid: fe1785d136e1a2e44b8bedf3c7590c84, type: 3}
    - {fileID: 21300042, guid: fe1785d136e1a2e44b8bedf3c7590c84, type: 3}
    - {fileID: 21300044, guid: fe1785d136e1a2e44b8bedf3c7590c84, type: 3}
    - {fileID: 21300046, guid: fe1785d136e1a2e44b8bedf3c7590c84, type: 3}
    - {fileID: 21300048, guid: fe1785d136e1a2e44b8bedf3c7590c84, type: 3}
    - {fileID: 21300050, guid: fe1785d136e1a2e44b8bedf3c7590c84, type: 3}
    - {fileID: 21300052, guid: fe1785d136e1a2e44b8bedf3c7590c84, type: 3}
    - {fileID: 21300054, guid: fe1785d136e1a2e44b8bedf3c7590c84, type: 3}
    - {fileID: 21300056, guid: fe1785d136e1a2e44b8bedf3c7590c84, type: 3}
    - {fileID: 21300058, guid: fe1785d136e1a2e44b8bedf3c7590c84, type: 3}
    - {fileID: 21300060, guid: fe1785d136e1a2e44b8bedf3c7590c84, type: 3}
    - {fileID: 21300060, guid: fe1785d136e1a2e44b8bedf3c7590c84, type: 3}
  m_AnimationClipSettings:
    serializedVersion: 2
    m_AdditiveReferencePoseClip: {fileID: 0}
    m_AdditiveReferencePoseTime: 0
    m_StartTime: 0
    m_StopTime: 2.688889
    m_OrientationOffsetY: 0
    m_Level: 0
    m_CycleOffset: 0
    m_HasAdditiveReferencePose: 0
    m_LoopTime: 1
    m_LoopBlend: 0
    m_LoopBlendOrientation: 0
    m_LoopBlendPositionY: 0
    m_LoopBlendPositionXZ: 0
    m_KeepOriginalOrientation: 0
    m_KeepOriginalPositionY: 1
    m_KeepOriginalPositionXZ: 0
    m_HeightFromFeet: 0
    m_Mirror: 0
  m_EditorCurves: []
  m_EulerEditorCurves: []
  m_HasGenericRootTransform: 0
  m_HasMotionFloatCurves: 0
  m_GenerateMotionCurves: 0
  m_Events: []
