%YAML 1.1
%TAG !u! tag:unity3d.com,2011:
--- !u!74 &7400000
AnimationClip:
  m_ObjectHideFlags: 0
  m_PrefabParentObject: {fileID: 0}
  m_PrefabInternal: {fileID: 0}
  m_Name: ui_sheen_continuous
  serializedVersion: 6
  m_Legacy: 0
  m_Compressed: 0
  m_UseHighQualityCurve: 1
  m_RotationCurves: []
  m_CompressedRotationCurves: []
  m_EulerCurves: []
  m_PositionCurves: []
  m_ScaleCurves: []
  m_FloatCurves:
  - curve:
      serializedVersion: 2
      m_Curve:
      - time: 0
        value: 723.9999
        inSlope: 0
        outSlope: 0
        tangentMode: 10
      m_PreInfinity: 2
      m_PostInfinity: 2
      m_RotationOrder: 4
    attribute: m_AnchoredPosition.x
    path: 
    classID: 224
    script: {fileID: 0}
  - curve:
      serializedVersion: 2
      m_Curve:
      - time: 0
        value: 351.6
        inSlope: 0
        outSlope: 0
        tangentMode: 10
      m_PreInfinity: 2
      m_PostInfinity: 2
      m_RotationOrder: 4
    attribute: m_SizeDelta.x
    path: 
    classID: 224
    script: {fileID: 0}
  m_PPtrCurves:
  - curve:
    - time: 0
      value: {fileID: 21300000, guid: 2ad92c7654db96742aa3c8ff991bef3b, type: 3}
    - time: 1.8
      value: {fileID: 21300000, guid: 138d77bfd0bd7a9499ff4d938d531bef, type: 3}
    - time: 1.8333334
      value: {fileID: 21300000, guid: e5dd504aecac54d4ba155c14ad52fb65, type: 3}
    - time: 1.8666667
      value: {fileID: 21300000, guid: a57bc9c1449944548a6b06687c3c7b28, type: 3}
    - time: 1.9
      value: {fileID: 21300000, guid: 1cfb2ec4632551348bbf1a0b5f4f2351, type: 3}
    - time: 1.9333333
      value: {fileID: 21300000, guid: 7d7beb02b947ad4489ae2c0756a151f1, type: 3}
    - time: 1.9666667
      value: {fileID: 21300000, guid: 5f798ea52d510c840a3527337b9d351b, type: 3}
    - time: 2
      value: {fileID: 21300000, guid: 2ad92c7654db96742aa3c8ff991bef3b, type: 3}
    attribute: m_Sprite
    path: 
    classID: 114
    script: {fileID: -765806418, guid: f5f67c52d1564df4a8936ccd202a3bd8, type: 3}
  m_SampleRate: 30
  m_WrapMode: 0
  m_Bounds:
    m_Center: {x: 0, y: 0, z: 0}
    m_Extent: {x: 0, y: 0, z: 0}
  m_ClipBindingConstant:
    genericBindings:
    - path: 0
      attribute: 2015549526
      script: {fileID: -765806418, guid: f5f67c52d1564df4a8936ccd202a3bd8, type: 3}
      classID: 114
      customType: 0
      isPPtrCurve: 1
    - path: 0
      attribute: 1460864421
      script: {fileID: 0}
      classID: 224
      customType: 0
      isPPtrCurve: 0
    - path: 0
      attribute: 1967290853
      script: {fileID: 0}
      classID: 224
      customType: 0
      isPPtrCurve: 0
    pptrCurveMapping:
    - {fileID: 21300000, guid: 2ad92c7654db96742aa3c8ff991bef3b, type: 3}
    - {fileID: 21300000, guid: 138d77bfd0bd7a9499ff4d938d531bef, type: 3}
    - {fileID: 21300000, guid: e5dd504aecac54d4ba155c14ad52fb65, type: 3}
    - {fileID: 21300000, guid: a57bc9c1449944548a6b06687c3c7b28, type: 3}
    - {fileID: 21300000, guid: 1cfb2ec4632551348bbf1a0b5f4f2351, type: 3}
    - {fileID: 21300000, guid: 7d7beb02b947ad4489ae2c0756a151f1, type: 3}
    - {fileID: 21300000, guid: 5f798ea52d510c840a3527337b9d351b, type: 3}
    - {fileID: 21300000, guid: 2ad92c7654db96742aa3c8ff991bef3b, type: 3}
  m_AnimationClipSettings:
    serializedVersion: 2
    m_AdditiveReferencePoseClip: {fileID: 0}
    m_AdditiveReferencePoseTime: 0
    m_StartTime: 0
    m_StopTime: 2.0333333
    m_OrientationOffsetY: 0
    m_Level: 0
    m_CycleOffset: 0
    m_HasAdditiveReferencePose: 0
    m_LoopTime: 1
    m_LoopBlend: 0
    m_LoopBlendOrientation: 0
    m_LoopBlendPositionY: 0
    m_LoopBlendPositionXZ: 0
    m_KeepOriginalOrientation: 0
    m_KeepOriginalPositionY: 1
    m_KeepOriginalPositionXZ: 0
    m_HeightFromFeet: 0
    m_Mirror: 0
  m_EditorCurves:
  - curve:
      serializedVersion: 2
      m_Curve:
      - time: 0
        value: 723.9999
        inSlope: 0
        outSlope: 0
        tangentMode: 10
      m_PreInfinity: 2
      m_PostInfinity: 2
      m_RotationOrder: 4
    attribute: m_AnchoredPosition.x
    path: 
    classID: 224
    script: {fileID: 0}
  - curve:
      serializedVersion: 2
      m_Curve:
      - time: 0
        value: 351.6
        inSlope: 0
        outSlope: 0
        tangentMode: 10
      m_PreInfinity: 2
      m_PostInfinity: 2
      m_RotationOrder: 4
    attribute: m_SizeDelta.x
    path: 
    classID: 224
    script: {fileID: 0}
  m_EulerEditorCurves: []
  m_HasGenericRootTransform: 0
  m_HasMotionFloatCurves: 0
  m_GenerateMotionCurves: 0
  m_Events: []
