%YAML 1.1
%TAG !u! tag:unity3d.com,2011:
--- !u!74 &7400000
AnimationClip:
  m_ObjectHideFlags: 0
  m_PrefabParentObject: {fileID: 0}
  m_PrefabInternal: {fileID: 0}
  m_Name: Fire
  serializedVersion: 6
  m_Legacy: 0
  m_Compressed: 0
  m_UseHighQualityCurve: 1
  m_RotationCurves: []
  m_CompressedRotationCurves: []
  m_EulerCurves:
  - curve:
      serializedVersion: 2
      m_Curve:
      - time: 0
        value: {x: 0, y: 0, z: 0}
        inSlope: {x: 0, y: 0, z: 343.49997}
        outSlope: {x: 0, y: 0, z: 343.49997}
        tangentMode: 0
      - time: 0.033333335
        value: {x: 0, y: 0, z: 11.45}
        inSlope: {x: 0, y: 0, z: 164.00293}
        outSlope: {x: 0, y: 0, z: 164.00293}
        tangentMode: 0
      - time: 0.8833333
        value: {x: 0, y: 0, z: -1.72}
        inSlope: {x: 0, y: 0, z: -3.0561519}
        outSlope: {x: 0, y: 0, z: -3.0561519}
        tangentMode: 0
      - time: 1.0666667
        value: {x: 0, y: 0, z: 0}
        inSlope: {x: 0, y: 0, z: 9.381815}
        outSlope: {x: 0, y: 0, z: 9.381815}
        tangentMode: 0
      m_PreInfinity: 2
      m_PostInfinity: 2
      m_RotationOrder: 4
    path: base/body
  m_PositionCurves:
  - curve:
      serializedVersion: 2
      m_Curve:
      - time: 0
        value: {x: 1.139008, y: 0.09014404, z: 0}
        inSlope: {x: -0.58809614, y: 0.7182716, z: 0}
        outSlope: {x: -0.58809614, y: 0.7182716, z: 0}
        tangentMode: 0
      - time: 0.083333336
        value: {x: 1.09, y: 0.15, z: 0}
        inSlope: {x: 0, y: 0, z: 0}
        outSlope: {x: 0, y: 0, z: 0}
        tangentMode: 0
      - time: 0.51666665
        value: {x: 1.09, y: 0.06, z: 0.03}
        inSlope: {x: 0, y: 0, z: 0}
        outSlope: {x: 0, y: 0, z: 0}
        tangentMode: 0
      - time: 0.8333333
        value: {x: 1.09, y: 0.09014404, z: 0}
        inSlope: {x: 0, y: 0, z: 0}
        outSlope: {x: 0, y: 0, z: 0}
        tangentMode: 0
      m_PreInfinity: 2
      m_PostInfinity: 2
      m_RotationOrder: 4
    path: base/body/barrel
  - curve:
      serializedVersion: 2
      m_Curve:
      - time: 0
        value: {x: -0.001917541, y: 1.3694668, z: 0}
        inSlope: {x: -2.4904122, y: 0, z: 0}
        outSlope: {x: -2.4904122, y: 0, z: 0}
        tangentMode: 0
      - time: 0.2
        value: {x: -0.5, y: 1.3694668, z: 0}
        inSlope: {x: -1.2452061, y: 0, z: 0}
        outSlope: {x: -1.2452061, y: 0, z: 0}
        tangentMode: 0
      - time: 0.41666666
        value: {x: -0.5, y: 1.3694668, z: 0}
        inSlope: {x: 0.672, y: 0.012639857, z: 0}
        outSlope: {x: 0.672, y: 0.012639857, z: 0}
        tangentMode: 0
      - time: 0.8333333
        value: {x: 0.06, y: 1.38, z: 0}
        inSlope: {x: 0.58354634, y: -0.0024075927, z: 0}
        outSlope: {x: 0.58354634, y: -0.0024075927, z: 0}
        tangentMode: 0
      - time: 1.1833333
        value: {x: -0.001917541, y: 1.3694668, z: 0}
        inSlope: {x: -0.17690727, y: -0.0300949, z: 0}
        outSlope: {x: -0.17690727, y: -0.0300949, z: 0}
        tangentMode: 0
      m_PreInfinity: 2
      m_PostInfinity: 2
      m_RotationOrder: 4
    path: base/body
  m_ScaleCurves: []
  m_FloatCurves: []
  m_PPtrCurves: []
  m_SampleRate: 60
  m_WrapMode: 0
  m_Bounds:
    m_Center: {x: 0, y: 0, z: 0}
    m_Extent: {x: 0, y: 0, z: 0}
  m_ClipBindingConstant:
    genericBindings:
    - path: 3464115094
      attribute: 1
      script: {fileID: 0}
      classID: 4
      customType: 0
      isPPtrCurve: 0
    - path: 3021546893
      attribute: 1
      script: {fileID: 0}
      classID: 4
      customType: 0
      isPPtrCurve: 0
    - path: 3021546893
      attribute: 4
      script: {fileID: 0}
      classID: 4
      customType: 14
      isPPtrCurve: 0
    pptrCurveMapping: []
  m_AnimationClipSettings:
    serializedVersion: 2
    m_AdditiveReferencePoseClip: {fileID: 0}
    m_AdditiveReferencePoseTime: 0
    m_StartTime: 0
    m_StopTime: 1.1833333
    m_OrientationOffsetY: 0
    m_Level: 0
    m_CycleOffset: 0
    m_HasAdditiveReferencePose: 0
    m_LoopTime: 0
    m_LoopBlend: 0
    m_LoopBlendOrientation: 0
    m_LoopBlendPositionY: 0
    m_LoopBlendPositionXZ: 0
    m_KeepOriginalOrientation: 0
    m_KeepOriginalPositionY: 1
    m_KeepOriginalPositionXZ: 0
    m_HeightFromFeet: 0
    m_Mirror: 0
  m_EditorCurves:
  - curve:
      serializedVersion: 2
      m_Curve:
      - time: 0
        value: 1.139008
        inSlope: -0.58809614
        outSlope: -0.58809614
        tangentMode: 10
      - time: 0.083333336
        value: 1.09
        inSlope: 0
        outSlope: 0
        tangentMode: 0
      - time: 0.51666665
        value: 1.09
        inSlope: 0
        outSlope: 0
        tangentMode: 0
      - time: 0.8333333
        value: 1.09
        inSlope: 0
        outSlope: 0
        tangentMode: 0
      m_PreInfinity: 2
      m_PostInfinity: 2
      m_RotationOrder: 4
    attribute: m_LocalPosition.x
    path: base/body/barrel
    classID: 4
    script: {fileID: 0}
  - curve:
      serializedVersion: 2
      m_Curve:
      - time: 0
        value: 0.09014404
        inSlope: 0.7182716
        outSlope: 0.7182716
        tangentMode: 10
      - time: 0.083333336
        value: 0.15
        inSlope: 0
        outSlope: 0
        tangentMode: 0
      - time: 0.51666665
        value: 0.06
        inSlope: 0
        outSlope: 0
        tangentMode: 0
      - time: 0.8333333
        value: 0.09014404
        inSlope: 0
        outSlope: 0
        tangentMode: 0
      m_PreInfinity: 2
      m_PostInfinity: 2
      m_RotationOrder: 4
    attribute: m_LocalPosition.y
    path: base/body/barrel
    classID: 4
    script: {fileID: 0}
  - curve:
      serializedVersion: 2
      m_Curve:
      - time: 0
        value: 0
        inSlope: 0
        outSlope: 0
        tangentMode: 10
      - time: 0.083333336
        value: 0
        inSlope: 0
        outSlope: 0
        tangentMode: 0
      - time: 0.51666665
        value: 0.03
        inSlope: 0
        outSlope: 0
        tangentMode: 0
      - time: 0.8333333
        value: 0
        inSlope: 0
        outSlope: 0
        tangentMode: 0
      m_PreInfinity: 2
      m_PostInfinity: 2
      m_RotationOrder: 4
    attribute: m_LocalPosition.z
    path: base/body/barrel
    classID: 4
    script: {fileID: 0}
  - curve:
      serializedVersion: 2
      m_Curve:
      - time: 0
        value: -0.001917541
        inSlope: -2.4904122
        outSlope: -2.4904122
        tangentMode: 10
      - time: 0.2
        value: -0.5
        inSlope: -1.2452061
        outSlope: -1.2452061
        tangentMode: 10
      - time: 0.41666666
        value: -0.5
        inSlope: 0.672
        outSlope: 0.672
        tangentMode: 10
      - time: 0.8333333
        value: 0.06
        inSlope: 0.58354634
        outSlope: 0.58354634
        tangentMode: 10
      - time: 1.1833333
        value: -0.001917541
        inSlope: -0.17690727
        outSlope: -0.17690727
        tangentMode: 10
      m_PreInfinity: 2
      m_PostInfinity: 2
      m_RotationOrder: 4
    attribute: m_LocalPosition.x
    path: base/body
    classID: 4
    script: {fileID: 0}
  - curve:
      serializedVersion: 2
      m_Curve:
      - time: 0
        value: 1.3694668
        inSlope: 0
        outSlope: 0
        tangentMode: 10
      - time: 0.2
        value: 1.3694668
        inSlope: 0
        outSlope: 0
        tangentMode: 10
      - time: 0.41666666
        value: 1.3694668
        inSlope: 0.012639857
        outSlope: 0.012639857
        tangentMode: 10
      - time: 0.8333333
        value: 1.38
        inSlope: -0.0024075927
        outSlope: -0.0024075927
        tangentMode: 10
      - time: 1.1833333
        value: 1.3694668
        inSlope: -0.0300949
        outSlope: -0.0300949
        tangentMode: 10
      m_PreInfinity: 2
      m_PostInfinity: 2
      m_RotationOrder: 4
    attribute: m_LocalPosition.y
    path: base/body
    classID: 4
    script: {fileID: 0}
  - curve:
      serializedVersion: 2
      m_Curve:
      - time: 0
        value: 0
        inSlope: 0
        outSlope: 0
        tangentMode: 10
      - time: 0.2
        value: 0
        inSlope: 0
        outSlope: 0
        tangentMode: 10
      - time: 0.41666666
        value: 0
        inSlope: 0
        outSlope: 0
        tangentMode: 10
      - time: 0.8333333
        value: 0
        inSlope: 0
        outSlope: 0
        tangentMode: 10
      - time: 1.1833333
        value: 0
        inSlope: 0
        outSlope: 0
        tangentMode: 10
      m_PreInfinity: 2
      m_PostInfinity: 2
      m_RotationOrder: 4
    attribute: m_LocalPosition.z
    path: base/body
    classID: 4
    script: {fileID: 0}
  - curve:
      serializedVersion: 2
      m_Curve:
      - time: 0
        value: 0
        inSlope: 0
        outSlope: 0
        tangentMode: 10
      - time: 0.033333335
        value: 0
        inSlope: 0
        outSlope: 0
        tangentMode: 10
      - time: 0.8833333
        value: 0
        inSlope: 0
        outSlope: 0
        tangentMode: 10
      - time: 1.0666667
        value: 0
        inSlope: 0
        outSlope: 0
        tangentMode: 10
      m_PreInfinity: 2
      m_PostInfinity: 2
      m_RotationOrder: 4
    attribute: localEulerAnglesRaw.x
    path: base/body
    classID: 4
    script: {fileID: 0}
  - curve:
      serializedVersion: 2
      m_Curve:
      - time: 0
        value: 0
        inSlope: 0
        outSlope: 0
        tangentMode: 10
      - time: 0.033333335
        value: 0
        inSlope: 0
        outSlope: 0
        tangentMode: 10
      - time: 0.8833333
        value: 0
        inSlope: 0
        outSlope: 0
        tangentMode: 10
      - time: 1.0666667
        value: 0
        inSlope: 0
        outSlope: 0
        tangentMode: 10
      m_PreInfinity: 2
      m_PostInfinity: 2
      m_RotationOrder: 4
    attribute: localEulerAnglesRaw.y
    path: base/body
    classID: 4
    script: {fileID: 0}
  - curve:
      serializedVersion: 2
      m_Curve:
      - time: 0
        value: 0
        inSlope: 343.49997
        outSlope: 343.49997
        tangentMode: 10
      - time: 0.033333335
        value: 11.45
        inSlope: 164.00293
        outSlope: 164.00293
        tangentMode: 10
      - time: 0.8833333
        value: -1.72
        inSlope: -3.0561519
        outSlope: -3.0561519
        tangentMode: 10
      - time: 1.0666667
        value: 0
        inSlope: 9.381815
        outSlope: 9.381815
        tangentMode: 10
      m_PreInfinity: 2
      m_PostInfinity: 2
      m_RotationOrder: 4
    attribute: localEulerAnglesRaw.z
    path: base/body
    classID: 4
    script: {fileID: 0}
  m_EulerEditorCurves:
  - curve:
      serializedVersion: 2
      m_Curve: []
      m_PreInfinity: 2
      m_PostInfinity: 2
      m_RotationOrder: 4
    attribute: m_LocalEulerAngles.x
    path: base/body
    classID: 4
    script: {fileID: 0}
  - curve:
      serializedVersion: 2
      m_Curve: []
      m_PreInfinity: 2
      m_PostInfinity: 2
      m_RotationOrder: 4
    attribute: m_LocalEulerAngles.y
    path: base/body
    classID: 4
    script: {fileID: 0}
  - curve:
      serializedVersion: 2
      m_Curve: []
      m_PreInfinity: 2
      m_PostInfinity: 2
      m_RotationOrder: 4
    attribute: m_LocalEulerAngles.z
    path: base/body
    classID: 4
    script: {fileID: 0}
  m_HasGenericRootTransform: 0
  m_HasMotionFloatCurves: 0
  m_GenerateMotionCurves: 0
  m_Events: []
