%YAML 1.1
%TAG !u! tag:unity3d.com,2011:
--- !u!74 &7400000
AnimationClip:
  m_ObjectHideFlags: 0
  m_PrefabParentObject: {fileID: 0}
  m_PrefabInternal: {fileID: 0}
  m_Name: env_inbox_BGItemR3_idle
  serializedVersion: 6
  m_Legacy: 0
  m_Compressed: 0
  m_UseHighQualityCurve: 1
  m_RotationCurves: []
  m_CompressedRotationCurves: []
  m_EulerCurves: []
  m_PositionCurves:
  - curve:
      serializedVersion: 2
      m_Curve:
      - time: 0
        value: {x: 24, y: 33.23, z: 45.91}
        inSlope: {x: 0, y: 0, z: 0}
        outSlope: {x: Infinity, y: Infinity, z: Infinity}
        tangentMode: 0
      - time: 0.41666666
        value: {x: 24, y: 33.23, z: 45.91}
        inSlope: {x: 0, y: -60.089996, z: 0}
        outSlope: {x: 0, y: -60.089996, z: 0}
        tangentMode: 0
      - time: 0.75
        value: {x: 24, y: -6.83, z: 45.91}
        inSlope: {x: 0, y: 5.2275004, z: 0}
        outSlope: {x: Infinity, y: Infinity, z: Infinity}
        tangentMode: 0
      - time: 1.4166666
        value: {x: 24, y: 33.23, z: 45.91}
        inSlope: {x: 0, y: -28.799994, z: 0}
        outSlope: {x: 0, y: -28.799994, z: 0}
        tangentMode: 0
      - time: 1.75
        value: {x: 24, y: -6, z: 45.91}
        inSlope: {x: 0, y: 5.2275004, z: 0}
        outSlope: {x: Infinity, y: Infinity, z: Infinity}
        tangentMode: 0
      - time: 3.5
        value: {x: 24, y: 33.23, z: 45.91}
        inSlope: {x: 0, y: 22.417143, z: 0}
        outSlope: {x: 0, y: 22.417143, z: 0}
        tangentMode: 0
      m_PreInfinity: 2
      m_PostInfinity: 2
      m_RotationOrder: 4
    path: 
  m_ScaleCurves: []
  m_FloatCurves: []
  m_PPtrCurves: []
  m_SampleRate: 60
  m_WrapMode: 0
  m_Bounds:
    m_Center: {x: 0, y: 0, z: 0}
    m_Extent: {x: 0, y: 0, z: 0}
  m_ClipBindingConstant:
    genericBindings:
    - path: 0
      attribute: 1
      script: {fileID: 0}
      classID: 4
      customType: 0
      isPPtrCurve: 0
    pptrCurveMapping: []
  m_AnimationClipSettings:
    serializedVersion: 2
    m_AdditiveReferencePoseClip: {fileID: 0}
    m_AdditiveReferencePoseTime: 0
    m_StartTime: 0
    m_StopTime: 3.5
    m_OrientationOffsetY: 0
    m_Level: 0
    m_CycleOffset: 0
    m_HasAdditiveReferencePose: 0
    m_LoopTime: 1
    m_LoopBlend: 0
    m_LoopBlendOrientation: 0
    m_LoopBlendPositionY: 0
    m_LoopBlendPositionXZ: 0
    m_KeepOriginalOrientation: 0
    m_KeepOriginalPositionY: 1
    m_KeepOriginalPositionXZ: 0
    m_HeightFromFeet: 0
    m_Mirror: 0
  m_EditorCurves:
  - curve:
      serializedVersion: 2
      m_Curve:
      - time: 0
        value: 24
        inSlope: 0
        outSlope: Infinity
        tangentMode: 25
      - time: 0.41666666
        value: 24
        inSlope: 0
        outSlope: 0
        tangentMode: 10
      - time: 0.75
        value: 24
        inSlope: 0
        outSlope: Infinity
        tangentMode: 25
      - time: 1.4166666
        value: 24
        inSlope: 0
        outSlope: 0
        tangentMode: 10
      - time: 1.75
        value: 24
        inSlope: 0
        outSlope: Infinity
        tangentMode: 25
      - time: 3.5
        value: 24
        inSlope: 0
        outSlope: 0
        tangentMode: 10
      m_PreInfinity: 2
      m_PostInfinity: 2
      m_RotationOrder: 4
    attribute: m_LocalPosition.x
    path: 
    classID: 4
    script: {fileID: 0}
  - curve:
      serializedVersion: 2
      m_Curve:
      - time: 0
        value: 33.23
        inSlope: 0
        outSlope: Infinity
        tangentMode: 25
      - time: 0.41666666
        value: 33.23
        inSlope: -60.089996
        outSlope: -60.089996
        tangentMode: 10
      - time: 0.75
        value: -6.83
        inSlope: 5.2275004
        outSlope: Infinity
        tangentMode: 25
      - time: 1.4166666
        value: 33.23
        inSlope: -28.799994
        outSlope: -28.799994
        tangentMode: 10
      - time: 1.75
        value: -6
        inSlope: 5.2275004
        outSlope: Infinity
        tangentMode: 25
      - time: 3.5
        value: 33.23
        inSlope: 22.417143
        outSlope: 22.417143
        tangentMode: 10
      m_PreInfinity: 2
      m_PostInfinity: 2
      m_RotationOrder: 4
    attribute: m_LocalPosition.y
    path: 
    classID: 4
    script: {fileID: 0}
  - curve:
      serializedVersion: 2
      m_Curve:
      - time: 0
        value: 45.91
        inSlope: 0
        outSlope: Infinity
        tangentMode: 25
      - time: 0.41666666
        value: 45.91
        inSlope: 0
        outSlope: 0
        tangentMode: 10
      - time: 0.75
        value: 45.91
        inSlope: 0
        outSlope: Infinity
        tangentMode: 25
      - time: 1.4166666
        value: 45.91
        inSlope: 0
        outSlope: 0
        tangentMode: 10
      - time: 1.75
        value: 45.91
        inSlope: 0
        outSlope: Infinity
        tangentMode: 25
      - time: 3.5
        value: 45.91
        inSlope: 0
        outSlope: 0
        tangentMode: 10
      m_PreInfinity: 2
      m_PostInfinity: 2
      m_RotationOrder: 4
    attribute: m_LocalPosition.z
    path: 
    classID: 4
    script: {fileID: 0}
  m_EulerEditorCurves: []
  m_HasGenericRootTransform: 1
  m_HasMotionFloatCurves: 0
  m_GenerateMotionCurves: 0
  m_Events: []
