%YAML 1.1
%TAG !u! tag:unity3d.com,2011:
--- !u!74 &7400000
AnimationClip:
  m_ObjectHideFlags: 0
  m_PrefabParentObject: {fileID: 0}
  m_PrefabInternal: {fileID: 0}
  m_Name: Fire
  serializedVersion: 6
  m_Legacy: 0
  m_Compressed: 0
  m_UseHighQualityCurve: 1
  m_RotationCurves: []
  m_CompressedRotationCurves: []
  m_EulerCurves:
  - curve:
      serializedVersion: 2
      m_Curve:
      - time: 0
        value: {x: 0, y: 0, z: 0}
        inSlope: {x: 0, y: 0, z: 126.12}
        outSlope: {x: 0, y: 0, z: 126.12}
        tangentMode: 0
      - time: 0.083333336
        value: {x: 0, y: 0, z: 10.51}
        inSlope: {x: 0, y: 0, z: 53.423416}
        outSlope: {x: 0, y: 0, z: 53.423416}
        tangentMode: 0
      - time: 0.76666665
        value: {x: 0, y: 0, z: -2.66}
        inSlope: {x: 0, y: 0, z: -3.4981246}
        outSlope: {x: 0, y: 0, z: -3.4981246}
        tangentMode: 0
      - time: 0.98333335
        value: {x: 0, y: 0, z: 0}
        inSlope: {x: 0, y: 0, z: 12.276921}
        outSlope: {x: 0, y: 0, z: 12.276921}
        tangentMode: 0
      m_PreInfinity: 2
      m_PostInfinity: 2
      m_RotationOrder: 4
    path: base/armature/body
  - curve:
      serializedVersion: 2
      m_Curve:
      - time: 0.033333335
        value: {x: 0, y: 0, z: 0}
        inSlope: {x: 0, y: 0, z: 0}
        outSlope: {x: 0, y: 0, z: 0}
        tangentMode: 0
      - time: 0.16666667
        value: {x: 0, y: 0, z: 10.53}
        inSlope: {x: 0, y: 0, z: 0}
        outSlope: {x: 0, y: 0, z: 0}
        tangentMode: 0
      - time: 0.3
        value: {x: 0, y: 0, z: -24.35}
        inSlope: {x: 0, y: 0, z: 0}
        outSlope: {x: 0, y: 0, z: 0}
        tangentMode: 0
      - time: 0.48333332
        value: {x: 0, y: 0, z: 0}
        inSlope: {x: 0, y: 0, z: 0}
        outSlope: {x: 0, y: 0, z: 0}
        tangentMode: 0
      - time: 0.6666667
        value: {x: 0, y: 0, z: -5}
        inSlope: {x: 0, y: 0, z: 0}
        outSlope: {x: 0, y: 0, z: 0}
        tangentMode: 0
      - time: 0.8833333
        value: {x: 0, y: 0, z: 0}
        inSlope: {x: 0, y: 0, z: 0}
        outSlope: {x: 0, y: 0, z: 0}
        tangentMode: 0
      m_PreInfinity: 2
      m_PostInfinity: 2
      m_RotationOrder: 4
    path: base/armature/body/armour
  m_PositionCurves:
  - curve:
      serializedVersion: 2
      m_Curve:
      - time: 0
        value: {x: 0.7105552, y: 0.0000792259, z: -0.036345202}
        inSlope: {x: -6.1583276, y: 0, z: 0}
        outSlope: {x: -6.1583276, y: 0, z: 0}
        tangentMode: 0
      - time: 0.06666667
        value: {x: 0.3, y: 0.0000792259, z: -0.036345202}
        inSlope: {x: -2.5193157, y: 0, z: 0}
        outSlope: {x: -2.5193157, y: 0, z: 0}
        tangentMode: 0
      - time: 0.43333334
        value: {x: 0.7105552, y: 0.0000792259, z: -0.036345202}
        inSlope: {x: 0.55984795, y: 0, z: 0}
        outSlope: {x: 0.55984795, y: 0, z: 0}
        tangentMode: 0
      - time: 0.5
        value: {x: 0.7105552, y: 0.0000792259, z: -0.036345202}
        inSlope: {x: 0, y: 0, z: 0}
        outSlope: {x: 0, y: 0, z: 0}
        tangentMode: 0
      m_PreInfinity: 2
      m_PostInfinity: 2
      m_RotationOrder: 4
    path: base/armature/body/barrel
  - curve:
      serializedVersion: 2
      m_Curve:
      - time: 0
        value: {x: -0.2341415, y: 1.3832529, z: 0}
        inSlope: {x: -1.9114386, y: -0.35439667, z: 0}
        outSlope: {x: -1.9114386, y: -0.35439667, z: 0}
        tangentMode: 0
      - time: 0.13333334
        value: {x: -0.489, y: 1.336, z: 0}
        inSlope: {x: -0.75451523, y: -0.13989341, z: 0}
        outSlope: {x: -0.75451523, y: -0.13989341, z: 0}
        tangentMode: 0
      - time: 0.76666665
        value: {x: -0.2341415, y: 1.3832529, z: 0}
        inSlope: {x: 0.40240815, y: 0.07460983, z: 0}
        outSlope: {x: 0.40240815, y: 0.07460983, z: 0}
        tangentMode: 0
      m_PreInfinity: 2
      m_PostInfinity: 2
      m_RotationOrder: 4
    path: base/armature/body
  m_ScaleCurves: []
  m_FloatCurves: []
  m_PPtrCurves: []
  m_SampleRate: 60
  m_WrapMode: 0
  m_Bounds:
    m_Center: {x: 0, y: 0, z: 0}
    m_Extent: {x: 0, y: 0, z: 0}
  m_ClipBindingConstant:
    genericBindings:
    - path: 3957594493
      attribute: 1
      script: {fileID: 0}
      classID: 4
      customType: 0
      isPPtrCurve: 0
    - path: 10311170
      attribute: 1
      script: {fileID: 0}
      classID: 4
      customType: 0
      isPPtrCurve: 0
    - path: 10311170
      attribute: 4
      script: {fileID: 0}
      classID: 4
      customType: 14
      isPPtrCurve: 0
    - path: 3866746457
      attribute: 4
      script: {fileID: 0}
      classID: 4
      customType: 14
      isPPtrCurve: 0
    pptrCurveMapping: []
  m_AnimationClipSettings:
    serializedVersion: 2
    m_AdditiveReferencePoseClip: {fileID: 0}
    m_AdditiveReferencePoseTime: 0
    m_StartTime: 0
    m_StopTime: 0.98333335
    m_OrientationOffsetY: 0
    m_Level: 0
    m_CycleOffset: 0
    m_HasAdditiveReferencePose: 0
    m_LoopTime: 0
    m_LoopBlend: 0
    m_LoopBlendOrientation: 0
    m_LoopBlendPositionY: 0
    m_LoopBlendPositionXZ: 0
    m_KeepOriginalOrientation: 0
    m_KeepOriginalPositionY: 1
    m_KeepOriginalPositionXZ: 0
    m_HeightFromFeet: 0
    m_Mirror: 0
  m_EditorCurves:
  - curve:
      serializedVersion: 2
      m_Curve:
      - time: 0
        value: 0.7105552
        inSlope: -6.1583276
        outSlope: -6.1583276
        tangentMode: 10
      - time: 0.06666667
        value: 0.3
        inSlope: -2.5193157
        outSlope: -2.5193157
        tangentMode: 10
      - time: 0.43333334
        value: 0.7105552
        inSlope: 0.55984795
        outSlope: 0.55984795
        tangentMode: 10
      - time: 0.5
        value: 0.7105552
        inSlope: 0
        outSlope: 0
        tangentMode: 10
      m_PreInfinity: 2
      m_PostInfinity: 2
      m_RotationOrder: 4
    attribute: m_LocalPosition.x
    path: base/armature/body/barrel
    classID: 4
    script: {fileID: 0}
  - curve:
      serializedVersion: 2
      m_Curve:
      - time: 0
        value: 0.0000792259
        inSlope: 0
        outSlope: 0
        tangentMode: 10
      - time: 0.06666667
        value: 0.0000792259
        inSlope: 0
        outSlope: 0
        tangentMode: 10
      - time: 0.43333334
        value: 0.0000792259
        inSlope: 0
        outSlope: 0
        tangentMode: 10
      - time: 0.5
        value: 0.0000792259
        inSlope: 0
        outSlope: 0
        tangentMode: 10
      m_PreInfinity: 2
      m_PostInfinity: 2
      m_RotationOrder: 4
    attribute: m_LocalPosition.y
    path: base/armature/body/barrel
    classID: 4
    script: {fileID: 0}
  - curve:
      serializedVersion: 2
      m_Curve:
      - time: 0
        value: -0.036345202
        inSlope: 0
        outSlope: 0
        tangentMode: 10
      - time: 0.06666667
        value: -0.036345202
        inSlope: 0
        outSlope: 0
        tangentMode: 10
      - time: 0.43333334
        value: -0.036345202
        inSlope: 0
        outSlope: 0
        tangentMode: 10
      - time: 0.5
        value: -0.036345202
        inSlope: 0
        outSlope: 0
        tangentMode: 10
      m_PreInfinity: 2
      m_PostInfinity: 2
      m_RotationOrder: 4
    attribute: m_LocalPosition.z
    path: base/armature/body/barrel
    classID: 4
    script: {fileID: 0}
  - curve:
      serializedVersion: 2
      m_Curve:
      - time: 0
        value: 0
        inSlope: 0
        outSlope: 0
        tangentMode: 10
      - time: 0.083333336
        value: 0
        inSlope: 0
        outSlope: 0
        tangentMode: 10
      - time: 0.76666665
        value: 0
        inSlope: 0
        outSlope: 0
        tangentMode: 10
      - time: 0.98333335
        value: 0
        inSlope: 0
        outSlope: 0
        tangentMode: 10
      m_PreInfinity: 2
      m_PostInfinity: 2
      m_RotationOrder: 4
    attribute: localEulerAnglesRaw.x
    path: base/armature/body
    classID: 4
    script: {fileID: 0}
  - curve:
      serializedVersion: 2
      m_Curve:
      - time: 0
        value: 0
        inSlope: 0
        outSlope: 0
        tangentMode: 10
      - time: 0.083333336
        value: 0
        inSlope: 0
        outSlope: 0
        tangentMode: 10
      - time: 0.76666665
        value: 0
        inSlope: 0
        outSlope: 0
        tangentMode: 10
      - time: 0.98333335
        value: 0
        inSlope: 0
        outSlope: 0
        tangentMode: 10
      m_PreInfinity: 2
      m_PostInfinity: 2
      m_RotationOrder: 4
    attribute: localEulerAnglesRaw.y
    path: base/armature/body
    classID: 4
    script: {fileID: 0}
  - curve:
      serializedVersion: 2
      m_Curve:
      - time: 0
        value: 0
        inSlope: 126.12
        outSlope: 126.12
        tangentMode: 10
      - time: 0.083333336
        value: 10.51
        inSlope: 53.423416
        outSlope: 53.423416
        tangentMode: 10
      - time: 0.76666665
        value: -2.66
        inSlope: -3.4981246
        outSlope: -3.4981246
        tangentMode: 10
      - time: 0.98333335
        value: 0
        inSlope: 12.276921
        outSlope: 12.276921
        tangentMode: 10
      m_PreInfinity: 2
      m_PostInfinity: 2
      m_RotationOrder: 4
    attribute: localEulerAnglesRaw.z
    path: base/armature/body
    classID: 4
    script: {fileID: 0}
  - curve:
      serializedVersion: 2
      m_Curve:
      - time: 0
        value: -0.2341415
        inSlope: -1.9114386
        outSlope: -1.9114386
        tangentMode: 10
      - time: 0.13333334
        value: -0.489
        inSlope: -0.75451523
        outSlope: -0.75451523
        tangentMode: 10
      - time: 0.76666665
        value: -0.2341415
        inSlope: 0.40240815
        outSlope: 0.40240815
        tangentMode: 10
      m_PreInfinity: 2
      m_PostInfinity: 2
      m_RotationOrder: 4
    attribute: m_LocalPosition.x
    path: base/armature/body
    classID: 4
    script: {fileID: 0}
  - curve:
      serializedVersion: 2
      m_Curve:
      - time: 0
        value: 1.3832529
        inSlope: -0.35439667
        outSlope: -0.35439667
        tangentMode: 10
      - time: 0.13333334
        value: 1.336
        inSlope: -0.13989341
        outSlope: -0.13989341
        tangentMode: 10
      - time: 0.76666665
        value: 1.3832529
        inSlope: 0.07460983
        outSlope: 0.07460983
        tangentMode: 10
      m_PreInfinity: 2
      m_PostInfinity: 2
      m_RotationOrder: 4
    attribute: m_LocalPosition.y
    path: base/armature/body
    classID: 4
    script: {fileID: 0}
  - curve:
      serializedVersion: 2
      m_Curve:
      - time: 0
        value: 0
        inSlope: 0
        outSlope: 0
        tangentMode: 10
      - time: 0.13333334
        value: 0
        inSlope: 0
        outSlope: 0
        tangentMode: 10
      - time: 0.76666665
        value: 0
        inSlope: 0
        outSlope: 0
        tangentMode: 10
      m_PreInfinity: 2
      m_PostInfinity: 2
      m_RotationOrder: 4
    attribute: m_LocalPosition.z
    path: base/armature/body
    classID: 4
    script: {fileID: 0}
  - curve:
      serializedVersion: 2
      m_Curve:
      - time: 0.033333335
        value: 0
        inSlope: 0
        outSlope: 0
        tangentMode: 0
      - time: 0.16666667
        value: 0
        inSlope: 0
        outSlope: 0
        tangentMode: 0
      - time: 0.3
        value: 0
        inSlope: 0
        outSlope: 0
        tangentMode: 0
      - time: 0.48333332
        value: 0
        inSlope: 0
        outSlope: 0
        tangentMode: 0
      - time: 0.6666667
        value: 0
        inSlope: 0
        outSlope: 0
        tangentMode: 0
      - time: 0.8833333
        value: 0
        inSlope: 0
        outSlope: 0
        tangentMode: 0
      m_PreInfinity: 2
      m_PostInfinity: 2
      m_RotationOrder: 4
    attribute: localEulerAnglesRaw.x
    path: base/armature/body/armour
    classID: 4
    script: {fileID: 0}
  - curve:
      serializedVersion: 2
      m_Curve:
      - time: 0.033333335
        value: 0
        inSlope: 0
        outSlope: 0
        tangentMode: 0
      - time: 0.16666667
        value: 0
        inSlope: 0
        outSlope: 0
        tangentMode: 0
      - time: 0.3
        value: 0
        inSlope: 0
        outSlope: 0
        tangentMode: 0
      - time: 0.48333332
        value: 0
        inSlope: 0
        outSlope: 0
        tangentMode: 0
      - time: 0.6666667
        value: 0
        inSlope: 0
        outSlope: 0
        tangentMode: 0
      - time: 0.8833333
        value: 0
        inSlope: 0
        outSlope: 0
        tangentMode: 0
      m_PreInfinity: 2
      m_PostInfinity: 2
      m_RotationOrder: 4
    attribute: localEulerAnglesRaw.y
    path: base/armature/body/armour
    classID: 4
    script: {fileID: 0}
  - curve:
      serializedVersion: 2
      m_Curve:
      - time: 0.033333335
        value: 0
        inSlope: 0
        outSlope: 0
        tangentMode: 0
      - time: 0.16666667
        value: 10.53
        inSlope: 0
        outSlope: 0
        tangentMode: 0
      - time: 0.3
        value: -24.35
        inSlope: 0
        outSlope: 0
        tangentMode: 0
      - time: 0.48333332
        value: 0
        inSlope: 0
        outSlope: 0
        tangentMode: 0
      - time: 0.6666667
        value: -5
        inSlope: 0
        outSlope: 0
        tangentMode: 0
      - time: 0.8833333
        value: 0
        inSlope: 0
        outSlope: 0
        tangentMode: 0
      m_PreInfinity: 2
      m_PostInfinity: 2
      m_RotationOrder: 4
    attribute: localEulerAnglesRaw.z
    path: base/armature/body/armour
    classID: 4
    script: {fileID: 0}
  m_EulerEditorCurves:
  - curve:
      serializedVersion: 2
      m_Curve: []
      m_PreInfinity: 2
      m_PostInfinity: 2
      m_RotationOrder: 4
    attribute: m_LocalEulerAngles.z
    path: base/armature/body
    classID: 4
    script: {fileID: 0}
  - curve:
      serializedVersion: 2
      m_Curve: []
      m_PreInfinity: 2
      m_PostInfinity: 2
      m_RotationOrder: 4
    attribute: m_LocalEulerAngles.y
    path: base/armature/body
    classID: 4
    script: {fileID: 0}
  - curve:
      serializedVersion: 2
      m_Curve: []
      m_PreInfinity: 2
      m_PostInfinity: 2
      m_RotationOrder: 4
    attribute: m_LocalEulerAngles.x
    path: base/armature/body
    classID: 4
    script: {fileID: 0}
  - curve:
      serializedVersion: 2
      m_Curve: []
      m_PreInfinity: 2
      m_PostInfinity: 2
      m_RotationOrder: 4
    attribute: m_LocalEulerAngles.x
    path: base/armature/body/armour
    classID: 4
    script: {fileID: 0}
  - curve:
      serializedVersion: 2
      m_Curve: []
      m_PreInfinity: 2
      m_PostInfinity: 2
      m_RotationOrder: 4
    attribute: m_LocalEulerAngles.y
    path: base/armature/body/armour
    classID: 4
    script: {fileID: 0}
  - curve:
      serializedVersion: 2
      m_Curve: []
      m_PreInfinity: 2
      m_PostInfinity: 2
      m_RotationOrder: 4
    attribute: m_LocalEulerAngles.z
    path: base/armature/body/armour
    classID: 4
    script: {fileID: 0}
  m_HasGenericRootTransform: 0
  m_HasMotionFloatCurves: 0
  m_GenerateMotionCurves: 0
  m_Events: []
