[
    {
        "Id":"AT_WO_Unpredictablaser", 
        "DisplayName":"Unpredictablaser", 
        "CardType":"Weapon", 
        "Cost":4, 
        "Attack":4, 
        "HP":4, 
        "Rarity":"epic", 
        "Manufacturer":"", 
        "CardDisplayText":"On Fire: Deal 1 damage to any random target", 
        "CardTextTrigger":"ThisWeaponFired", 
        "Condition":"", 
        "CardTextId":"DealDamage", 
        "CardTextTarget":"RandomAnything", 
        "CardParam1":"1", 
        "CardParam2":"", 
        "CardTextIdA":"", 
        "CardTextTargetA":"", 
        "CardParam1A":"", 
        "CardParam2A":"", 
        "DamageType":"Laser", 
        "Class":"Neutral"
    },
    {
        "Id":"AT_WN_PartyPooper", 
        "DisplayName":"Party Pooper", 
        "CardType":"Weapon", 
        "Cost":4, 
        "Attack":4, 
        "HP":4, 
        "Rarity":"common", 
        "Manufacturer":"", 
        "CardDisplayText":"On Install: Jettison all adjacent components", 
        "CardTextTrigger":"ThisComponentInstalled", 
        "Condition":"", 
        "CardTextId":"Jettison", 
        "CardTextTarget":"AllAdjacentComponents", 
        "CardParam1":"1", 
        "CardParam2":"", 
        "CardTextIdA":"", 
        "CardTextTargetA":"", 
        "CardParam1A":"", 
        "CardParam2A":"", 
        "DamageType":"", 
        "Class":""
    },
    {
        "Id":"AT_WU_ShieldedMissile", 
        "DisplayName":"Shielded Missile", 
        "CardType":"Weapon", 
        "Cost":3, 
        "Attack":3, 
        "HP":1, 
        "Rarity":"common", 
        "Manufacturer":"", 
        "CardDisplayText":"Shielded", 
        "CardTextTrigger":"ThisComponentInstalled", 
        "Condition":"", 
        "CardTextId":"Shield", 
        "CardTextTarget":"Self", 
        "CardParam1":"1", 
        "CardParam2":"", 
        "CardTextIdA":"", 
        "CardTextTargetA":"", 
        "CardParam1A":"", 
        "CardParam2A":"", 
        "DamageType":"Laser", 
        "Class":"Smuggler"
    },
    {
        "Id":"AT_WN_MidShielder", 
        "DisplayName":"MidShielder", 
        "CardType":"Weapon", 
        "Cost":2, 
        "Attack":2, 
        "HP":2, 
        "Rarity":"common", 
        "Manufacturer":"", 
        "CardDisplayText":"Shielded: If installed in the centre", 
        "CardTextTrigger":"ThisComponentInstalled", 
        "Condition":"InstalledCentre", 
        "CardTextId":"Shield", 
        "CardTextTarget":"Self", 
        "CardParam1":"1", 
        "CardParam2":"", 
        "CardTextIdA":"", 
        "CardTextTargetA":"", 
        "CardParam1A":"", 
        "CardParam2A":"", 
        "DamageType":"", 
        "Class":""
    },
    {
        "Id":"AT_WN_LargeJettLaser", 
        "DisplayName":"Large JettLaser", 
        "CardType":"Weapon", 
        "Cost":4, 
        "Attack":4, 
        "HP":5, 
        "Rarity":"common", 
        "Manufacturer":"", 
        "CardDisplayText":"On Install: Jettison a friendly target", 
        "CardTextTrigger":"ThisComponentInstalled", 
        "Condition":"", 
        "CardTextId":"Jettison", 
        "CardTextTarget":"FriendlyComponent", 
        "CardParam1":"", 
        "CardParam2":"", 
        "CardTextIdA":"", 
        "CardTextTargetA":"", 
        "CardParam1A":"", 
        "CardParam2A":"", 
        "DamageType":"Laser", 
        "Class":"Neutral"
    },
    {
        "Id":"AT_WN_TinyLaser", 
        "DisplayName":"Tiny Laser", 
        "CardType":"Weapon", 
        "Cost":0, 
        "Attack":1, 
        "HP":1, 
        "Rarity":"common", 
        "Manufacturer":"", 
        "CardDisplayText":"", 
        "CardTextTrigger":"", 
        "Condition":"", 
        "CardTextId":"", 
        "CardTextTarget":"", 
        "CardParam1":"", 
        "CardParam2":"", 
        "CardTextIdA":"", 
        "CardTextTargetA":"", 
        "CardParam1A":"", 
        "CardParam2A":"", 
        "DamageType":"Laser", 
        "Class":"Neutral"
    },
    {
        "Id":"AT_WN_AlphaBlaster", 
        "DisplayName":"Alpha Blaster", 
        "CardType":"Weapon", 
        "Cost":1, 
        "Attack":1, 
        "HP":3, 
        "Rarity":"common", 
        "Manufacturer":"", 
        "CardDisplayText":"", 
        "CardTextTrigger":"", 
        "Condition":"", 
        "CardTextId":"", 
        "CardTextTarget":"", 
        "CardParam1":"", 
        "CardParam2":"", 
        "CardTextIdA":"", 
        "CardTextTargetA":"", 
        "CardParam1A":"", 
        "CardParam2A":"", 
        "DamageType":"Laser", 
        "Class":"Neutral"
    },
    {
        "Id":"AT_WN_DrawLaser", 
        "DisplayName":"Draw Laser", 
        "CardType":"Weapon", 
        "Cost":2, 
        "Attack":1, 
        "HP":1, 
        "Rarity":"common", 
        "Manufacturer":"", 
        "CardDisplayText":"Jettison: Draw A Card", 
        "CardTextTrigger":"ThisComponentJettisoned", 
        "Condition":"", 
        "CardTextId":"CardDraw", 
        "CardTextTarget":"", 
        "CardParam1":"1", 
        "CardParam2":"", 
        "CardTextIdA":"", 
        "CardTextTargetA":"", 
        "CardParam1A":"", 
        "CardParam2A":"", 
        "DamageType":"Laser", 
        "Class":"Neutral"
    },
    {
        "Id":"AT_WN_PowerUp", 
        "DisplayName":"PowerUp", 
        "CardType":"Weapon", 
        "Cost":2, 
        "Attack":2, 
        "HP":1, 
        "Rarity":"common", 
        "Manufacturer":"", 
        "CardDisplayText":"On Install: Give friendly weapon +2 attack", 
        "CardTextTrigger":"ThisComponentInstalled", 
        "Condition":"", 
        "CardTextId":"BuffAttack", 
        "CardTextTarget":"FriendlyComponent", 
        "CardParam1":"2", 
        "CardParam2":"", 
        "CardTextIdA":"", 
        "CardTextTargetA":"", 
        "CardParam1A":"", 
        "CardParam2A":"", 
        "DamageType":"Laser", 
        "Class":"Neutral"
    },
    {
        "Id":"AT_WN_Instablaster", 
        "DisplayName":"Instablaster", 
        "CardType":"Weapon", 
        "Cost":2, 
        "Attack":1, 
        "HP":2, 
        "Rarity":"legendary", 
        "Manufacturer":"", 
        "CardDisplayText":"On Install: Deal 1 damage to any target", 
        "CardTextTrigger":"ThisComponentInstalled", 
        "Condition":"", 
        "CardTextId":"DealDamage", 
        "CardTextTarget":"Anything", 
        "CardParam1":"1", 
        "CardParam2":"", 
        "CardTextIdA":"", 
        "CardTextTargetA":"", 
        "CardParam1A":"", 
        "CardParam2A":"", 
        "DamageType":"Laser", 
        "Class":"Neutral"
    },
    {
        "Id":"AT_WN_HyperWinner", 
        "DisplayName":"HyperWinner", 
        "CardType":"Weapon", 
        "Cost":2, 
        "Attack":1, 
        "HP":3, 
        "Rarity":"common", 
        "Manufacturer":"", 
        "CardDisplayText":"Gain 1 attack at start of your turn", 
        "CardTextTrigger":"StartOfFriendlyTurn", 
        "Condition":"", 
        "CardTextId":"BuffAttack", 
        "CardTextTarget":"Self", 
        "CardParam1":"1", 
        "CardParam2":"", 
        "CardTextIdA":"", 
        "CardTextTargetA":"", 
        "CardParam1A":"", 
        "CardParam2A":"", 
        "DamageType":"", 
        "Class":""
    },
    {
        "Id":"AT_WN_PartingShot", 
        "DisplayName":"Parting Shot", 
        "CardType":"Weapon", 
        "Cost":2, 
        "Attack":2, 
        "HP":3, 
        "Rarity":"common", 
        "Manufacturer":"", 
        "CardDisplayText":"On Jettison: Deal 1 damage to a random enemy component", 
        "CardTextTrigger":"ThisComponentJettisoned", 
        "Condition":"", 
        "CardTextId":"DealDamage", 
        "CardTextTarget":"RandomEnemyComponent", 
        "CardParam1":"1", 
        "CardParam2":"", 
        "CardTextIdA":"", 
        "CardTextTargetA":"", 
        "CardParam1A":"", 
        "CardParam2A":"", 
        "DamageType":"Laser", 
        "Class":"Neutral"
    },
    {
        "Id":"AT_WO_CopyLaser", 
        "DisplayName":"Copy Laser", 
        "CardType":"Weapon", 
        "Cost":3, 
        "Attack":1, 
        "HP":1, 
        "Rarity":"epic", 
        "Manufacturer":"", 
        "CardDisplayText":"While Installed: Install a tiny laser in an adjacent socket at the end of each friendly turn", 
        "CardTextTrigger":"EndOfFriendlyTurn", 
        "Condition":"", 
        "CardTextId":"InstallTinyLaser", 
        "CardTextTarget":"RandomAdjacentSocket", 
        "CardParam1":"", 
        "CardParam2":"", 
        "CardTextIdA":"", 
        "CardTextTargetA":"", 
        "CardParam1A":"", 
        "CardParam2A":"", 
        "DamageType":"Laser", 
        "Class":"Neutral"
    },
    {
        "Id":"AT_WN_Enforcer", 
        "DisplayName":"Enforcer", 
        "CardType":"Weapon", 
        "Cost":3, 
        "Attack":1, 
        "HP":5, 
        "Rarity":"rare", 
        "Manufacturer":"", 
        "CardDisplayText":"On Install: Give target Component +2 health", 
        "CardTextTrigger":"ThisComponentInstalled", 
        "Condition":"", 
        "CardTextId":"BuffComponentHealth", 
        "CardTextTarget":"FriendlyComponent", 
        "CardParam1":"2", 
        "CardParam2":"", 
        "CardTextIdA":"", 
        "CardTextTargetA":"", 
        "CardParam1A":"", 
        "CardParam2A":"", 
        "DamageType":"Laser", 
        "Class":"Neutral"
    },
    {
        "Id":"AT_WN_CornerBlaster", 
        "DisplayName":"CornerBlaster", 
        "CardType":"Weapon", 
        "Cost":4, 
        "Attack":2, 
        "HP":5, 
        "Rarity":"common", 
        "Manufacturer":"", 
        "CardDisplayText":"Deal 1 damage to random enemy component if installed in corner", 
        "CardTextTrigger":"ThisComponentInstalled", 
        "Condition":"InstalledCorner", 
        "CardTextId":"DealDamage", 
        "CardTextTarget":"RandomEnemyComponent", 
        "CardParam1":"1", 
        "CardParam2":"", 
        "CardTextIdA":"", 
        "CardTextTargetA":"", 
        "CardParam1A":"", 
        "CardParam2A":"", 
        "DamageType":"", 
        "Class":""
    },
    {
        "Id":"AT_WN_BigBuddy", 
        "DisplayName":"Big Buddy", 
        "CardType":"Weapon", 
        "Cost":7, 
        "Attack":4, 
        "HP":5, 
        "Rarity":"legendary", 
        "Manufacturer":"", 
        "CardDisplayText":"On Install: Shield all adjacent sockets", 
        "CardTextTrigger":"ThisComponentInstalled", 
        "Condition":"", 
        "CardTextId":"Shield", 
        "CardTextTarget":"AllAdjacentSockets", 
        "CardParam1":"", 
        "CardParam2":"", 
        "CardTextIdA":"", 
        "CardTextTargetA":"", 
        "CardParam1A":"", 
        "CardParam2A":"", 
        "DamageType":"Laser", 
        "Class":"Neutral"
    },
    {
        "Id":"AT_WF_Sidekick", 
        "DisplayName":"Sidekick", 
        "CardType":"Weapon", 
        "Cost":7, 
        "Attack":4, 
        "HP":5, 
        "Rarity":"legendary", 
        "Manufacturer":"", 
        "CardDisplayText":"On install: Install a Tiny Laser in a random adjacent socket", 
        "CardTextTrigger":"ThisComponentInstalled", 
        "Condition":"", 
        "CardTextId":"InstallTinyLaser", 
        "CardTextTarget":"RandomAdjacentSocket", 
        "CardParam1":"", 
        "CardParam2":"", 
        "CardTextIdA":"", 
        "CardTextTargetA":"", 
        "CardParam1A":"", 
        "CardParam2A":"", 
        "DamageType":"Laser", 
        "Class":"Enforcer"
    },
    {
        "Id":"AT_WN_BFMissile", 
        "DisplayName":"BF Missile", 
        "CardType":"Weapon", 
        "Cost":7, 
        "Attack":10, 
        "HP":5, 
        "Rarity":"rare", 
        "Manufacturer":"", 
        "CardDisplayText":"", 
        "CardTextTrigger":"", 
        "Condition":"", 
        "CardTextId":"", 
        "CardTextTarget":"", 
        "CardParam1":"", 
        "CardParam2":"", 
        "CardTextIdA":"", 
        "CardTextTargetA":"", 
        "CardParam1A":"", 
        "CardParam2A":"", 
        "DamageType":"Laser", 
        "Class":"Neutral"
    },
    {
        "Id":"AT_WN_LonelyLaser", 
        "DisplayName":"Lonely Laser", 
        "CardType":"Weapon", 
        "Cost":8, 
        "Attack":10, 
        "HP":10, 
        "Rarity":"legendary", 
        "Manufacturer":"", 
        "CardDisplayText":"On Install: Jettison all friendly components", 
        "CardTextTrigger":"ThisComponentInstalled", 
        "Condition":"", 
        "CardTextId":"Jettison", 
        "CardTextTarget":"AllFriendlyComponents", 
        "CardParam1":"", 
        "CardParam2":"", 
        "CardTextIdA":"", 
        "CardTextTargetA":"", 
        "CardParam1A":"", 
        "CardParam2A":"", 
        "DamageType":"Laser", 
        "Class":"Neutral"
    },
    {
        "Id":"AT_TW_ShowOff", 
        "DisplayName":"Show Off", 
        "CardType":"Weapon", 
        "Cost":1, 
        "Attack":1, 
        "HP":1, 
        "Rarity":"common", 
        "Manufacturer":"", 
        "CardDisplayText":"Gains +1 attack when a friendly weapon is installed", 
        "CardTextTrigger":"FriendlyWeaponInstalled", 
        "Condition":"", 
        "CardTextId":"BuffAttack", 
        "CardTextTarget":"Self", 
        "CardParam1":"1", 
        "CardParam2":"", 
        "CardTextIdA":"", 
        "CardTextTargetA":"", 
        "CardParam1A":"", 
        "CardParam2A":"", 
        "DamageType":"", 
        "Class":"Neutral"
    },
    {
        "Id":"AT_WA_RagingLaser", 
        "DisplayName":"Raging Laser", 
        "CardType":"Weapon", 
        "Cost":3, 
        "Attack":1, 
        "HP":6, 
        "Rarity":"epic", 
        "Manufacturer":"", 
        "CardDisplayText":"Raging Laser Gains 2 attack every time it takes damage", 
        "CardTextTrigger":"ThisComponentDamaged", 
        "Condition":"", 
        "CardTextId":"BuffAttack", 
        "CardTextTarget":"Self", 
        "CardParam1":"2", 
        "CardParam2":"", 
        "CardTextIdA":"", 
        "CardTextTargetA":"", 
        "CardParam1A":"", 
        "CardParam2A":"", 
        "DamageType":"Laser", 
        "Class":"Ancient"
    },
    {
        "Id":"AT_TW_SocialClimber", 
        "DisplayName":"Social Climber", 
        "CardType":"Weapon", 
        "Cost":1, 
        "Attack":1, 
        "HP":1, 
        "Rarity":"common", 
        "Manufacturer":"", 
        "CardDisplayText":"Gains +1 attack when a weapon is installed adjacent", 
        "CardTextTrigger":"AdjacentWeaponInstalled", 
        "Condition":"", 
        "CardTextId":"BuffAttack", 
        "CardTextTarget":"Self", 
        "CardParam1":"1", 
        "CardParam2":"", 
        "CardTextIdA":"", 
        "CardTextTargetA":"", 
        "CardParam1A":"", 
        "CardParam2A":"", 
        "DamageType":"", 
        "Class":""
    },
    {
        "Id":"AT_TW_LaserVengeance", 
        "DisplayName":"Laser Vengeance", 
        "CardType":"Weapon", 
        "Cost":1, 
        "Attack":1, 
        "HP":1, 
        "Rarity":"common", 
        "Manufacturer":"", 
        "CardDisplayText":"Friendly weapon damaged: Deals 1 damage to a random enemy component", 
        "CardTextTrigger":"FriendlyWeaponDamaged", 
        "Condition":"", 
        "CardTextId":"DealDamage", 
        "CardTextTarget":"RandomEnemyComponent", 
        "CardParam1":"1", 
        "CardParam2":"", 
        "CardTextIdA":"", 
        "CardTextTargetA":"", 
        "CardParam1A":"", 
        "CardParam2A":"", 
        "DamageType":"", 
        "Class":""
    },
    {
        "Id":"AT_SW_AnyCompDestroyed", 
        "DisplayName":"Any Comp Destroyed", 
        "CardType":"Weapon", 
        "Cost":1, 
        "Attack":1, 
        "HP":1, 
        "Rarity":"common", 
        "Manufacturer":"", 
        "CardDisplayText":"Any component destroyed: buff own health +1", 
        "CardTextTrigger":"AnyComponentDestroyed", 
        "Condition":"", 
        "CardTextId":"BuffComponentHealth", 
        "CardTextTarget":"Self", 
        "CardParam1":"1", 
        "CardParam2":"", 
        "CardTextIdA":"", 
        "CardTextTargetA":"", 
        "CardParam1A":"", 
        "CardParam2A":"", 
        "DamageType":"", 
        "Class":""
    },
    {
        "Id":"AT_SW_FriendlyCompDestroyed", 
        "DisplayName":"Friendly Comp Destroyed", 
        "CardType":"Weapon", 
        "Cost":1, 
        "Attack":1, 
        "HP":1, 
        "Rarity":"common", 
        "Manufacturer":"", 
        "CardDisplayText":"Friendly component destroyed: buff own health +1", 
        "CardTextTrigger":"FriendlyComponentDestroyed", 
        "Condition":"", 
        "CardTextId":"BuffComponentHealth", 
        "CardTextTarget":"Self", 
        "CardParam1":"1", 
        "CardParam2":"", 
        "CardTextIdA":"", 
        "CardTextTargetA":"", 
        "CardParam1A":"", 
        "CardParam2A":"", 
        "DamageType":"", 
        "Class":""
    },
    {
        "Id":"AT_SW_EnemyCompDestroyed", 
        "DisplayName":"Enemy Comp Destroyed", 
        "CardType":"Weapon", 
        "Cost":1, 
        "Attack":1, 
        "HP":1, 
        "Rarity":"common", 
        "Manufacturer":"", 
        "CardDisplayText":"Enemy component destroyed: buff own health +1", 
        "CardTextTrigger":"EnemyComponentDestroyed", 
        "Condition":"", 
        "CardTextId":"BuffComponentHealth", 
        "CardTextTarget":"Self", 
        "CardParam1":"1", 
        "CardParam2":"", 
        "CardTextIdA":"", 
        "CardTextTargetA":"", 
        "CardParam1A":"", 
        "CardParam2A":"", 
        "DamageType":"", 
        "Class":""
    },
    {
        "Id":"AT_SW_ThisCompDestroyed", 
        "DisplayName":"This Comp Destroyed", 
        "CardType":"Weapon", 
        "Cost":1, 
        "Attack":1, 
        "HP":1, 
        "Rarity":"common", 
        "Manufacturer":"", 
        "CardDisplayText":"This component destroyed, shield this socket", 
        "CardTextTrigger":"ThisComponentDestroyed", 
        "Condition":"", 
        "CardTextId":"Shield", 
        "CardTextTarget":"Self", 
        "CardParam1":"1", 
        "CardParam2":"", 
        "CardTextIdA":"", 
        "CardTextTargetA":"", 
        "CardParam1A":"", 
        "CardParam2A":"", 
        "DamageType":"", 
        "Class":""
    },
    {
        "Id":"AT_TW_SpawnRandomComp", 
        "DisplayName":"Spawn Random Comp", 
        "CardType":"Weapon", 
        "Cost":1, 
        "Attack":1, 
        "HP":1, 
        "Rarity":"common", 
        "Manufacturer":"", 
        "CardDisplayText":"On install: Spawn a random component in a random friendly socket", 
        "CardTextTrigger":"ThisComponentInstalled", 
        "Condition":"", 
        "CardTextId":"SpawnRandomComponent", 
        "CardTextTarget":"RandomFriendlySocket", 
        "CardParam1":"", 
        "CardParam2":"", 
        "CardTextIdA":"", 
        "CardTextTargetA":"", 
        "CardParam1A":"", 
        "CardParam2A":"", 
        "DamageType":"", 
        "Class":""
    },
    {
        "Id":"AT_TW_SpawnRandomComp2", 
        "DisplayName":"Spawn Random Comp2", 
        "CardType":"Weapon", 
        "Cost":1, 
        "Attack":1, 
        "HP":1, 
        "Rarity":"common", 
        "Manufacturer":"", 
        "CardDisplayText":"On install: Spawn a random component of 2 cost in a random friendly socket", 
        "CardTextTrigger":"ThisComponentInstalled", 
        "Condition":"", 
        "CardTextId":"SpawnRandomComponent", 
        "CardTextTarget":"RandomFriendlySocket", 
        "CardParam1":"2", 
        "CardParam2":"", 
        "CardTextIdA":"", 
        "CardTextTargetA":"", 
        "CardParam1A":"", 
        "CardParam2A":"", 
        "DamageType":"", 
        "Class":""
    },
    {
        "Id":"AT_TW_ShieldAppeal", 
        "DisplayName":"Shield Appeal", 
        "CardType":"Weapon", 
        "Cost":1, 
        "Attack":1, 
        "HP":1, 
        "Rarity":"common", 
        "Manufacturer":"", 
        "CardDisplayText":"On install, gain +2 attack for every shield on the board", 
        "CardTextTrigger":"ThisComponentInstalled", 
        "Condition":"", 
        "CardTextId":"BuffAttack", 
        "CardTextTarget":"Self", 
        "CardParam1":"2", 
        "CardParam2":"NumberOfShields", 
        "CardTextIdA":"", 
        "CardTextTargetA":"", 
        "CardParam1A":"", 
        "CardParam2A":"", 
        "DamageType":"", 
        "Class":""
    },
    {
        "Id":"AT_WS_LaserLegacy", 
        "DisplayName":"Laser Legacy ", 
        "CardType":"Weapon", 
        "Cost":2, 
        "Attack":1, 
        "HP":2, 
        "Rarity":"", 
        "Manufacturer":"", 
        "CardDisplayText":"On jettison install a Tiny Laser in a random friendly socket", 
        "CardTextTrigger":"ThisComponentJettisoned", 
        "Condition":"", 
        "CardTextId":"InstallTinyLaser", 
        "CardTextTarget":"RandomFriendlySocket", 
        "CardParam1":"", 
        "CardParam2":"", 
        "CardTextIdA":"", 
        "CardTextTargetA":"", 
        "CardParam1A":"", 
        "CardParam2A":"", 
        "DamageType":"Laser", 
        "Class":"Smuggler"
    },
    {
        "Id":"AT_WA_RubbleBuff", 
        "DisplayName":"Rubble Buff", 
        "CardType":"Weapon", 
        "Cost":3, 
        "Attack":1, 
        "HP":6, 
        "Rarity":"", 
        "Manufacturer":"", 
        "CardDisplayText":"While installed Gain +1 +1 every time a component is destroyed", 
        "CardTextTrigger":"AnyComponentDestroyed", 
        "Condition":"", 
        "CardTextId":"BuffAttackAndHealth", 
        "CardTextTarget":"Self", 
        "CardParam1":"1", 
        "CardParam2":"1", 
        "CardTextIdA":"", 
        "CardTextTargetA":"", 
        "CardParam1A":"", 
        "CardParam2A":"", 
        "DamageType":"", 
        "Class":"Ancient"
    },
    {
        "Id":"AT_WA_RecklessSoul", 
        "DisplayName":"Reckless Soul", 
        "CardType":"Weapon", 
        "Cost":1, 
        "Attack":3, 
        "HP":2, 
        "Rarity":"Common", 
        "Manufacturer":"", 
        "CardDisplayText":"On Fire: Deal 1 damage to a random friendly component", 
        "CardTextTrigger":"ThisWeaponFired", 
        "Condition":"", 
        "CardTextId":"DealDamage", 
        "CardTextTarget":"RandomFriendlyComponent", 
        "CardParam1":"1", 
        "CardParam2":"", 
        "CardTextIdA":"", 
        "CardTextTargetA":"", 
        "CardParam1A":"", 
        "CardParam2A":"", 
        "DamageType":"Laser", 
        "Class":"Ancient"
    },
    {
        "Id":"AT_WA_ScatterShot", 
        "DisplayName":"Scatter Shot", 
        "CardType":"Weapon", 
        "Cost":4, 
        "Attack":1, 
        "HP":2, 
        "Rarity":"Epic", 
        "Manufacturer":"", 
        "CardDisplayText":"On Fire: Deal 1 damage to a random enemy component", 
        "CardTextTrigger":"ThisWeaponFired", 
        "Condition":"", 
        "CardTextId":"DealDamage", 
        "CardTextTarget":"RandomEnemyComponent", 
        "CardParam1":"1", 
        "CardParam2":"", 
        "CardTextIdA":"", 
        "CardTextTargetA":"", 
        "CardParam1A":"", 
        "CardParam2A":"", 
        "DamageType":"Laser", 
        "Class":"Ancient"
    },
    {
        "Id":"AT_WA_Ziggurat", 
        "DisplayName":"Ziggurat", 
        "CardType":"Weapon", 
        "Cost":2, 
        "Attack":2, 
        "HP":1, 
        "Rarity":"", 
        "Manufacturer":"", 
        "CardDisplayText":"Gain 1 health at the start of your turn", 
        "CardTextTrigger":"StartOfFriendlyTurn", 
        "Condition":"", 
        "CardTextId":"BuffComponentHealth", 
        "CardTextTarget":"Self", 
        "CardParam1":"1", 
        "CardParam2":"", 
        "CardTextIdA":"", 
        "CardTextTargetA":"", 
        "CardParam1A":"", 
        "CardParam2A":"", 
        "DamageType":"", 
        "Class":"Ancient"
    },
    {
        "Id":"AT_WA_GatheringStorm", 
        "DisplayName":"Gathering Storm", 
        "CardType":"Weapon", 
        "Cost":2, 
        "Attack":1, 
        "HP":3, 
        "Rarity":"common", 
        "Manufacturer":"", 
        "CardDisplayText":"Gain 1 attack at start of your turn", 
        "CardTextTrigger":"StartOfFriendlyTurn", 
        "Condition":"", 
        "CardTextId":"BuffAttack", 
        "CardTextTarget":"Self", 
        "CardParam1":"1", 
        "CardParam2":"", 
        "CardTextIdA":"", 
        "CardTextTargetA":"", 
        "CardParam1A":"", 
        "CardParam2A":"", 
        "DamageType":"", 
        "Class":"Ancient"
    },
    {
        "Id":"AT_WN_SmallSacrifice", 
        "DisplayName":"Small Sacrifice", 
        "CardType":"Weapon", 
        "Cost":2, 
        "Attack":2, 
        "HP":3, 
        "Rarity":"Common", 
        "Manufacturer":"", 
        "CardDisplayText":"On Install: Jettison a friendly Component", 
        "CardTextTrigger":"ThisComponentInstalled", 
        "Condition":"", 
        "CardTextId":"Jettison", 
        "CardTextTarget":"FriendlyComponent", 
        "CardParam1":"", 
        "CardParam2":"", 
        "CardTextIdA":"", 
        "CardTextTargetA":"", 
        "CardParam1A":"", 
        "CardParam2A":"", 
        "DamageType":"Laser", 
        "Class":"Neutral"
    },
    {
        "Id":"AT_WA_RisingRage", 
        "DisplayName":"Rising Rage", 
        "CardType":"Weapon", 
        "Cost":3, 
        "Attack":1, 
        "HP":6, 
        "Rarity":"Epic", 
        "Manufacturer":"", 
        "CardDisplayText":"Gain 2 attack every time it takes damage", 
        "CardTextTrigger":"ThisComponentDamaged", 
        "Condition":"", 
        "CardTextId":"BuffAttack", 
        "CardTextTarget":"Self", 
        "CardParam1":"2", 
        "CardParam2":"", 
        "CardTextIdA":"", 
        "CardTextTargetA":"", 
        "CardParam1A":"", 
        "CardParam2A":"", 
        "DamageType":"Laser", 
        "Class":"Ancient"
    },
    {
        "Id":"AT_WA_Schadenfreude", 
        "DisplayName":"Schadenfreude", 
        "CardType":"Weapon", 
        "Cost":6, 
        "Attack":1, 
        "HP":6, 
        "Rarity":"", 
        "Manufacturer":"", 
        "CardDisplayText":"While installed Gain +1 attack & +1 health every time an enemy component is destroyed", 
        "CardTextTrigger":"EnemyComponentDestroyed", 
        "Condition":"", 
        "CardTextId":"BuffAttackAndHealth", 
        "CardTextTarget":"Self", 
        "CardParam1":"1", 
        "CardParam2":"1", 
        "CardTextIdA":"", 
        "CardTextTargetA":"", 
        "CardParam1A":"", 
        "CardParam2A":"", 
        "DamageType":"Laser", 
        "Class":"Ancient"
    },
    {
        "Id":"AT_WA_CorneredBeast", 
        "DisplayName":"Cornered Beast", 
        "CardType":"Weapon", 
        "Cost":3, 
        "Attack":2, 
        "HP":5, 
        "Rarity":"common", 
        "Manufacturer":"", 
        "CardDisplayText":"Deal 1 damage to random enemy component if installed in corner", 
        "CardTextTrigger":"ThisComponentInstalled", 
        "Condition":"InstalledCorner", 
        "CardTextId":"DealDamage", 
        "CardTextTarget":"RandomEnemyComponent", 
        "CardParam1":"1", 
        "CardParam2":"", 
        "CardTextIdA":"", 
        "CardTextTargetA":"", 
        "CardParam1A":"", 
        "CardParam2A":"", 
        "DamageType":"", 
        "Class":"Ancient"
    },
    {
        "Id":"AT_WA_CornerStone", 
        "DisplayName":"Corner Stone", 
        "CardType":"Weapon", 
        "Cost":4, 
        "Attack":2, 
        "HP":2, 
        "Rarity":"", 
        "Manufacturer":"", 
        "CardDisplayText":"If Installed in Corner give Component +5 health", 
        "CardTextTrigger":"ThisComponentInstalled", 
        "Condition":"InstalledCorner", 
        "CardTextId":"BuffComponentHealth", 
        "CardTextTarget":"Self", 
        "CardParam1":"5", 
        "CardParam2":"", 
        "CardTextIdA":"", 
        "CardTextTargetA":"", 
        "CardParam1A":"", 
        "CardParam2A":"", 
        "DamageType":"", 
        "Class":"Ancient"
    },
    {
        "Id":"AT_WA_WildFire", 
        "DisplayName":"Wild Fire", 
        "CardType":"Weapon", 
        "Cost":5, 
        "Attack":4, 
        "HP":4, 
        "Rarity":"Epic", 
        "Manufacturer":"", 
        "CardDisplayText":"On Fire: Deal 1 damage to any random target", 
        "CardTextTrigger":"ThisWeaponFired", 
        "Condition":"", 
        "CardTextId":"DealDamage", 
        "CardTextTarget":"RandomAnything", 
        "CardParam1":"1", 
        "CardParam2":"", 
        "CardTextIdA":"", 
        "CardTextTargetA":"", 
        "CardParam1A":"", 
        "CardParam2A":"", 
        "DamageType":"Laser", 
        "Class":"Ancient"
    },
    {
        "Id":"AT_WN_MajorSacrifice", 
        "DisplayName":"Major Sacrifice", 
        "CardType":"Weapon", 
        "Cost":4, 
        "Attack":4, 
        "HP":5, 
        "Rarity":"Common", 
        "Manufacturer":"", 
        "CardDisplayText":"On Install: Jettison a friendly Component", 
        "CardTextTrigger":"ThisComponentInstalled", 
        "Condition":"", 
        "CardTextId":"Jettison", 
        "CardTextTarget":"FriendlyComponent", 
        "CardParam1":"", 
        "CardParam2":"", 
        "CardTextIdA":"", 
        "CardTextTargetA":"", 
        "CardParam1A":"", 
        "CardParam2A":"", 
        "DamageType":"Laser", 
        "Class":"Neutral"
    },
    {
        "Id":"AT_WA_CentralPillar", 
        "DisplayName":"Central Pillar", 
        "CardType":"Weapon", 
        "Cost":5, 
        "Attack":1, 
        "HP":6, 
        "Rarity":"", 
        "Manufacturer":"", 
        "CardDisplayText":"If installed in Center gain +5 Attack", 
        "CardTextTrigger":"ThisComponentInstalled", 
        "Condition":"InstalledCentre", 
        "CardTextId":"BuffAttack", 
        "CardTextTarget":"Self", 
        "CardParam1":"5", 
        "CardParam2":"", 
        "CardTextIdA":"", 
        "CardTextTargetA":"", 
        "CardParam1A":"", 
        "CardParam2A":"", 
        "DamageType":"", 
        "Class":"Ancient"
    },
    {
        "Id":"AT_WA_PurityDrive", 
        "DisplayName":"Purity Drive", 
        "CardType":"Weapon", 
        "Cost":5, 
        "Attack":2, 
        "HP":3, 
        "Rarity":"Epic", 
        "Manufacturer":"", 
        "CardDisplayText":"While Installed: Reduce the power cost of all cards by 1", 
        "CardTextTrigger":"WhileCardInPlay", 
        "Condition":"", 
        "CardTextId":"ChangePowerCost", 
        "CardTextTarget":"FriendlyCards", 
        "CardParam1":"-1", 
        "CardParam2":"", 
        "CardTextIdA":"", 
        "CardTextTargetA":"", 
        "CardParam1A":"", 
        "CardParam2A":"", 
        "DamageType":"Laser", 
        "Class":"Ancient"
    },
    {
        "Id":"AT_WA_HammerFall", 
        "DisplayName":"Hammer Fall", 
        "CardType":"Weapon", 
        "Cost":3, 
        "Attack":2, 
        "HP":4, 
        "Rarity":"", 
        "Manufacturer":"", 
        "CardDisplayText":"Adjacent Weapon Install: Deal 1 damage to a random enemy component.", 
        "CardTextTrigger":"AdjacentWeaponInstalled", 
        "Condition":"", 
        "CardTextId":"DealDamage", 
        "CardTextTarget":"RandomEnemyComponent", 
        "CardParam1":"1", 
        "CardParam2":"", 
        "CardTextIdA":"", 
        "CardTextTargetA":"", 
        "CardParam1A":"", 
        "CardParam2A":"", 
        "DamageType":"", 
        "Class":"Ancient"
    },
    {
        "Id":"AT_WA_PowerofTwo", 
        "DisplayName":"Power of Two", 
        "CardType":"Weapon", 
        "Cost":1, 
        "Attack":1, 
        "HP":2, 
        "Rarity":"Common", 
        "Manufacturer":"", 
        "CardDisplayText":"Gains +1 attack when a weapon is installed adjacent", 
        "CardTextTrigger":"AdjacentWeaponInstalled", 
        "Condition":"", 
        "CardTextId":"BuffAttack", 
        "CardTextTarget":"Self", 
        "CardParam1":"1", 
        "CardParam2":"", 
        "CardTextIdA":"", 
        "CardTextTargetA":"", 
        "CardParam1A":"", 
        "CardParam2A":"", 
        "DamageType":"", 
        "Class":"Ancient"
    },
    {
        "Id":"AT_WE_TrustySidearm", 
        "DisplayName":"Trusty Sidearm", 
        "CardType":"Weapon", 
        "Cost":6, 
        "Attack":4, 
        "HP":5, 
        "Rarity":"Legendary", 
        "Manufacturer":"", 
        "CardDisplayText":"On install: Spawn a 2 cost in a random adjacent socket", 
        "CardTextTrigger":"ThisComponentInstalled", 
        "Condition":"", 
        "CardTextId":"SpawnRandomComponent", 
        "CardTextTarget":"RandomAdjacentSocket", 
        "CardParam1":"2", 
        "CardParam2":"", 
        "CardTextIdA":"", 
        "CardTextTargetA":"", 
        "CardParam1A":"", 
        "CardParam2A":"", 
        "DamageType":"Laser", 
        "Class":"Enforcer"
    },
    {
        "Id":"AT_WE_SquadLeader", 
        "DisplayName":"Squad Leader", 
        "CardType":"Weapon", 
        "Cost":7, 
        "Attack":4, 
        "HP":5, 
        "Rarity":"Legendary", 
        "Manufacturer":"", 
        "CardDisplayText":"On Install: Shield all adjacent sockets", 
        "CardTextTrigger":"ThisComponentInstalled", 
        "Condition":"", 
        "CardTextId":"Shield", 
        "CardTextTarget":"AllAdjacentSockets", 
        "CardParam1":"", 
        "CardParam2":"", 
        "CardTextIdA":"", 
        "CardTextTargetA":"", 
        "CardParam1A":"", 
        "CardParam2A":"", 
        "DamageType":"Laser", 
        "Class":"Enforcer"
    },
    {
        "Id":"AT_WE_BackupBeacon", 
        "DisplayName":"Backup Beacon", 
        "CardType":"Weapon", 
        "Cost":4, 
        "Attack":1, 
        "HP":4, 
        "Rarity":"", 
        "Manufacturer":"", 
        "CardDisplayText":"Adjacent Weapon Installed: Draw A Card", 
        "CardTextTrigger":"AdjacentWeaponInstalled", 
        "Condition":"", 
        "CardTextId":"CardDraw", 
        "CardTextTarget":"", 
        "CardParam1":"1", 
        "CardParam2":"", 
        "CardTextIdA":"", 
        "CardTextTargetA":"", 
        "CardParam1A":"", 
        "CardParam2A":"", 
        "DamageType":"", 
        "Class":"Enforcer"
    },
    {
        "Id":"AT_WE_NewPartner", 
        "DisplayName":"New Partner", 
        "CardType":"Weapon", 
        "Cost":2, 
        "Attack":1, 
        "HP":2, 
        "Rarity":"Common", 
        "Manufacturer":"", 
        "CardDisplayText":"On Install: Give friendly weapon +2 attack", 
        "CardTextTrigger":"ThisComponentInstalled", 
        "Condition":"", 
        "CardTextId":"BuffAttack", 
        "CardTextTarget":"FriendlyComponent", 
        "CardParam1":"2", 
        "CardParam2":"", 
        "CardTextIdA":"", 
        "CardTextTargetA":"", 
        "CardParam1A":"", 
        "CardParam2A":"", 
        "DamageType":"Laser", 
        "Class":"Enforcer"
    },
    {
        "Id":"AT_WE_ShieldVenerator", 
        "DisplayName":"Shield Venerator", 
        "CardType":"Weapon", 
        "Cost":4, 
        "Attack":1, 
        "HP":6, 
        "Rarity":"Common", 
        "Manufacturer":"", 
        "CardDisplayText":"On install, gain +2 attack for every shield on the board", 
        "CardTextTrigger":"ThisComponentInstalled", 
        "Condition":"", 
        "CardTextId":"BuffAttack", 
        "CardTextTarget":"Self", 
        "CardParam1":"2", 
        "CardParam2":"NumberOfShields", 
        "CardTextIdA":"", 
        "CardTextTargetA":"", 
        "CardParam1A":"", 
        "CardParam2A":"", 
        "DamageType":"Laser", 
        "Class":"Enforcer"
    },
    {
        "Id":"AT_WE_RiotWrecker", 
        "DisplayName":"Riot Wrecker", 
        "CardType":"Weapon", 
        "Cost":2, 
        "Attack":2, 
        "HP":1, 
        "Rarity":"Epic", 
        "Manufacturer":"", 
        "CardDisplayText":"Shielded", 
        "CardTextTrigger":"ThisComponentInstalled", 
        "Condition":"", 
        "CardTextId":"Shield", 
        "CardTextTarget":"Self", 
        "CardParam1":"1", 
        "CardParam2":"", 
        "CardTextIdA":"", 
        "CardTextTargetA":"", 
        "CardParam1A":"", 
        "CardParam2A":"", 
        "DamageType":"Laser", 
        "Class":"Enforcer"
    },
    {
        "Id":"AT_WN_HardExit", 
        "DisplayName":"Hard Exit", 
        "CardType":"Weapon", 
        "Cost":2, 
        "Attack":2, 
        "HP":2, 
        "Rarity":"common", 
        "Manufacturer":"", 
        "CardDisplayText":"On Jettison: Deal 1 damage to a random enemy component", 
        "CardTextTrigger":"ThisComponentJettisoned", 
        "Condition":"", 
        "CardTextId":"DealDamage", 
        "CardTextTarget":"RandomEnemyComponent", 
        "CardParam1":"1", 
        "CardParam2":"", 
        "CardTextIdA":"", 
        "CardTextTargetA":"", 
        "CardParam1A":"", 
        "CardParam2A":"", 
        "DamageType":"Laser", 
        "Class":"Neutral"
    },
    {
        "Id":"AT_WN_DeadDraw", 
        "DisplayName":"Dead Draw", 
        "CardType":"Weapon", 
        "Cost":2, 
        "Attack":1, 
        "HP":3, 
        "Rarity":"Common", 
        "Manufacturer":"", 
        "CardDisplayText":"On Jettison: Draw A Card", 
        "CardTextTrigger":"ThisComponentJettisoned", 
        "Condition":"", 
        "CardTextId":"CardDraw", 
        "CardTextTarget":"", 
        "CardParam1":"1", 
        "CardParam2":"", 
        "CardTextIdA":"", 
        "CardTextTargetA":"", 
        "CardParam1A":"", 
        "CardParam2A":"", 
        "DamageType":"Laser", 
        "Class":"Neutral"
    },
    {
        "Id":"AT_WN_PlasmaClaw", 
        "DisplayName":"Plasma Claw", 
        "CardType":"Weapon", 
        "Cost":2, 
        "Attack":2, 
        "HP":2, 
        "Rarity":"common", 
        "Manufacturer":"", 
        "CardDisplayText":"On Install: Give friendly Component +1 Health", 
        "CardTextTrigger":"ThisComponentInstalled", 
        "Condition":"", 
        "CardTextId":"BuffComponentHealth", 
        "CardTextTarget":"FriendlyComponent", 
        "CardParam1":"1", 
        "CardParam2":"", 
        "CardTextIdA":"", 
        "CardTextTargetA":"", 
        "CardParam1A":"", 
        "CardParam2A":"", 
        "DamageType":"Laser", 
        "Class":"Neutral"
    },
    {
        "Id":"AT_WS_WreckRage", 
        "DisplayName":"Wreck Rage", 
        "CardType":"Weapon", 
        "Cost":3, 
        "Attack":2, 
        "HP":5, 
        "Rarity":"", 
        "Manufacturer":"", 
        "CardDisplayText":"Gains +1 Attack for every friendly jettisoned component", 
        "CardTextTrigger":"FriendlyComponentJettisoned", 
        "Condition":"", 
        "CardTextId":"BuffAttack", 
        "CardTextTarget":"Self", 
        "CardParam1":"1", 
        "CardParam2":"", 
        "CardTextIdA":"", 
        "CardTextTargetA":"", 
        "CardParam1A":"", 
        "CardParam2A":"", 
        "DamageType":"Laser", 
        "Class":"Smuggler"
    },
    {
        "Id":"AT_WS_Babymaker", 
        "DisplayName":"Babymaker", 
        "CardType":"Weapon", 
        "Cost":3, 
        "Attack":1, 
        "HP":4, 
        "Rarity":"Epic", 
        "Manufacturer":"", 
        "CardDisplayText":"While Installed: Install a tiny laser in an adjacent socket at the end of each friendly turn", 
        "CardTextTrigger":"EndOfFriendlyTurn", 
        "Condition":"", 
        "CardTextId":"InstallTinyLaser", 
        "CardTextTarget":"RandomAdjacentSocket", 
        "CardParam1":"", 
        "CardParam2":"", 
        "CardTextIdA":"", 
        "CardTextTargetA":"", 
        "CardParam1A":"", 
        "CardParam2A":"", 
        "DamageType":"Laser", 
        "Class":"Smuggler"
    },
    {
        "Id":"AT_WS_DeadMansTrigger", 
        "DisplayName":"Dead Man's Trigger", 
        "CardType":"Weapon", 
        "Cost":2, 
        "Attack":1, 
        "HP":3, 
        "Rarity":"Rare", 
        "Manufacturer":"", 
        "CardDisplayText":"On jettison: Deal 2 damage to a random component ", 
        "CardTextTrigger":"ThisComponentJettisoned", 
        "Condition":"", 
        "CardTextId":"DealDamage", 
        "CardTextTarget":"RandomComponent", 
        "CardParam1":"2", 
        "CardParam2":"", 
        "CardTextIdA":"", 
        "CardTextTargetA":"", 
        "CardParam1A":"", 
        "CardParam2A":"", 
        "DamageType":"Laser", 
        "Class":"Smuggler"
    },
    {
        "Id":"AT_WN_BadNeighbour", 
        "DisplayName":"Bad Neighbour", 
        "CardType":"Weapon", 
        "Cost":4, 
        "Attack":4, 
        "HP":5, 
        "Rarity":"common", 
        "Manufacturer":"", 
        "CardDisplayText":"On Install: Jettison all adjacent components", 
        "CardTextTrigger":"ThisComponentInstalled", 
        "Condition":"", 
        "CardTextId":"Jettison", 
        "CardTextTarget":"AllAdjacentComponents", 
        "CardParam1":"", 
        "CardParam2":"", 
        "CardTextIdA":"", 
        "CardTextTargetA":"", 
        "CardParam1A":"", 
        "CardParam2A":"", 
        "DamageType":"", 
        "Class":""
    }
]