%YAML 1.1
%TAG !u! tag:unity3d.com,2011:
--- !u!74 &7400000
AnimationClip:
  m_ObjectHideFlags: 0
  m_PrefabParentObject: {fileID: 0}
  m_PrefabInternal: {fileID: 0}
  m_Name: char_Luuka_idle
  serializedVersion: 6
  m_Legacy: 0
  m_Compressed: 0
  m_UseHighQualityCurve: 1
  m_RotationCurves: []
  m_CompressedRotationCurves: []
  m_EulerCurves:
  - curve:
      serializedVersion: 2
      m_Curve:
      - time: 0
        value: {x: 0, y: 0, z: -0.1}
        inSlope: {x: 0, y: 0, z: 1.4084222}
        outSlope: {x: 0, y: 0, z: 1.4084222}
        tangentMode: 0
      - time: 0.38333333
        value: {x: 0, y: 0, z: 0}
        inSlope: {x: 0, y: 0, z: 0}
        outSlope: {x: 0, y: 0, z: 0}
        tangentMode: 0
      - time: 1.55
        value: {x: 0, y: 0, z: -1}
        inSlope: {x: 0, y: 0, z: 0}
        outSlope: {x: 0, y: 0, z: 0}
        tangentMode: 0
      - time: 2
        value: {x: 0, y: 0, z: -0.1}
        inSlope: {x: 0, y: 0, z: 3.7690985}
        outSlope: {x: 0, y: 0, z: 3.7690985}
        tangentMode: 0
      m_PreInfinity: 2
      m_PostInfinity: 2
      m_RotationOrder: 4
    path: chest/RightArm
  - curve:
      serializedVersion: 2
      m_Curve:
      - time: 0
        value: {x: 0, y: 0, z: 24}
        inSlope: {x: 0, y: 0, z: -205.71428}
        outSlope: {x: 0, y: 0, z: -205.71428}
        tangentMode: 0
      - time: 0.11666667
        value: {x: 0, y: 0, z: 0}
        inSlope: {x: 0, y: 0, z: 85.114296}
        outSlope: {x: 0, y: 0, z: 85.114296}
        tangentMode: 0
      - time: 0.23333333
        value: {x: 0, y: 0, z: 43.86}
        inSlope: {x: 0, y: 0, z: 86.75604}
        outSlope: {x: 0, y: 0, z: 86.75604}
        tangentMode: 0
      - time: 0.45
        value: {x: 0, y: 0, z: 0}
        inSlope: {x: 0, y: 0, z: 86.75603}
        outSlope: {x: 0, y: 0, z: 86.75603}
        tangentMode: 0
      - time: 0.56666666
        value: {x: 0, y: 0, z: 43.86}
        inSlope: {x: 0, y: 0, z: 86.75605}
        outSlope: {x: 0, y: 0, z: 86.75605}
        tangentMode: 0
      - time: 0.78333336
        value: {x: 0, y: 0, z: 0}
        inSlope: {x: 0, y: 0, z: 86.75605}
        outSlope: {x: 0, y: 0, z: 86.75605}
        tangentMode: 0
      - time: 0.90000004
        value: {x: 0, y: 0, z: 43.86}
        inSlope: {x: 0, y: 0, z: 86.75602}
        outSlope: {x: 0, y: 0, z: 86.75602}
        tangentMode: 0
      - time: 1.1166667
        value: {x: 0, y: 0, z: 0}
        inSlope: {x: 0, y: 0, z: 86.75602}
        outSlope: {x: 0, y: 0, z: 86.75602}
        tangentMode: 0
      - time: 1.2333333
        value: {x: 0, y: 0, z: 43.86}
        inSlope: {x: 0, y: 0, z: 86.75605}
        outSlope: {x: 0, y: 0, z: 86.75605}
        tangentMode: 0
      - time: 1.45
        value: {x: 0, y: 0, z: 0}
        inSlope: {x: 0, y: 0, z: 86.75605}
        outSlope: {x: 0, y: 0, z: 86.75605}
        tangentMode: 0
      - time: 1.5666667
        value: {x: 0, y: 0, z: 43.86}
        inSlope: {x: 0, y: 0, z: 86.756}
        outSlope: {x: 0, y: 0, z: 86.756}
        tangentMode: 0
      - time: 1.7833333
        value: {x: 0, y: 0, z: 0}
        inSlope: {x: 0, y: 0, z: 86.756}
        outSlope: {x: 0, y: 0, z: 86.756}
        tangentMode: 0
      - time: 1.9
        value: {x: 0, y: 0, z: 43.86}
        inSlope: {x: 0, y: 0, z: 88.67144}
        outSlope: {x: 0, y: 0, z: 88.67144}
        tangentMode: 0
      - time: 2
        value: {x: 0, y: 0, z: 24}
        inSlope: {x: 0, y: 0, z: -198.59996}
        outSlope: {x: 0, y: 0, z: -198.59996}
        tangentMode: 0
      m_PreInfinity: 2
      m_PostInfinity: 2
      m_RotationOrder: 4
    path: Stovepipe/Pipe/Lid
  - curve:
      serializedVersion: 2
      m_Curve:
      - time: 0
        value: {x: 0, y: 0, z: -0.32399988}
        inSlope: {x: 0, y: 0, z: 1.2627274}
        outSlope: {x: 0, y: 0, z: 1.2627274}
        tangentMode: 0
      - time: 0.25
        value: {x: 0, y: 0, z: 0}
        inSlope: {x: 0, y: 0, z: 0}
        outSlope: {x: 0, y: 0, z: 0}
        tangentMode: 0
      - time: 1.4166666
        value: {x: 0, y: 0, z: -1.5000001}
        inSlope: {x: 0, y: 0, z: 0}
        outSlope: {x: 0, y: 0, z: 0}
        tangentMode: 0
      - time: 2
        value: {x: 0, y: 0, z: -0.32399988}
        inSlope: {x: 0, y: 0, z: 2.074573}
        outSlope: {x: 0, y: 0, z: 2.074573}
        tangentMode: 0
      m_PreInfinity: 2
      m_PostInfinity: 2
      m_RotationOrder: 4
    path: chest/chestFront/FrontPipe
  - curve:
      serializedVersion: 2
      m_Curve:
      - time: 0
        value: {x: 0, y: 0, z: 7.74}
        inSlope: {x: 0, y: 0, z: 5.9160004}
        outSlope: {x: 0, y: 0, z: 5.9160004}
        tangentMode: 0
      - time: 0.8333333
        value: {x: 0, y: 0, z: 12.67}
        inSlope: {x: 0, y: 0, z: -4.2920003}
        outSlope: {x: 0, y: 0, z: -4.2920003}
        tangentMode: 0
      - time: 1.4333333
        value: {x: 0, y: 0, z: 3.97}
        inSlope: {x: 0, y: 0, z: -3.9235303}
        outSlope: {x: 0, y: 0, z: -3.9235303}
        tangentMode: 0
      - time: 2
        value: {x: 0, y: 0, z: 7.74}
        inSlope: {x: 0, y: 0, z: 6.6529403}
        outSlope: {x: 0, y: 0, z: 6.6529403}
        tangentMode: 0
      m_PreInfinity: 2
      m_PostInfinity: 2
      m_RotationOrder: 4
    path: chest/neck/Head/hair03R
  - curve:
      serializedVersion: 2
      m_Curve:
      - time: 0
        value: {x: 0, y: 0, z: 11.085133}
        inSlope: {x: 0, y: 0, z: 0}
        outSlope: {x: 0, y: 0, z: 0}
        tangentMode: 0
      - time: 0.8333333
        value: {x: 0, y: 0, z: 14}
        inSlope: {x: 0, y: 0, z: 0}
        outSlope: {x: 0, y: 0, z: 0}
        tangentMode: 0
      - time: 2
        value: {x: 0, y: 0, z: 11.085133}
        inSlope: {x: 0, y: 0, z: 0}
        outSlope: {x: 0, y: 0, z: 0}
        tangentMode: 0
      m_PreInfinity: 2
      m_PostInfinity: 2
      m_RotationOrder: 4
    path: chest/neck/Head/hair02R
  - curve:
      serializedVersion: 2
      m_Curve:
      - time: 0
        value: {x: 0, y: 0, z: 9.934014}
        inSlope: {x: 0, y: 0, z: 3.283183}
        outSlope: {x: 0, y: 0, z: 3.283183}
        tangentMode: 0
      - time: 0.8333333
        value: {x: 0, y: 0, z: 12.67}
        inSlope: {x: 0, y: 0, z: 0.89543754}
        outSlope: {x: 0, y: 0, z: 0.89543754}
        tangentMode: 0
      - time: 1.4833333
        value: {x: 0, y: 0, z: 11.7}
        inSlope: {x: 0, y: 0, z: -2.4551723}
        outSlope: {x: 0, y: 0, z: -2.4551723}
        tangentMode: 0
      - time: 2
        value: {x: 0, y: 0, z: 9.934014}
        inSlope: {x: 0, y: 0, z: -3.4180365}
        outSlope: {x: 0, y: 0, z: -3.4180365}
        tangentMode: 0
      m_PreInfinity: 2
      m_PostInfinity: 2
      m_RotationOrder: 4
    path: chest/neck/Head/hair01R
  - curve:
      serializedVersion: 2
      m_Curve:
      - time: 0
        value: {x: 0, y: 0, z: 3.11}
        inSlope: {x: 0, y: 0, z: -8.412001}
        outSlope: {x: 0, y: 0, z: -8.412001}
        tangentMode: 0
      - time: 0.8333333
        value: {x: 0, y: 0, z: -3.9}
        inSlope: {x: 0, y: 0, z: 4.333535}
        outSlope: {x: 0, y: 0, z: 4.333535}
        tangentMode: 0
      - time: 1.55
        value: {x: 0, y: 0, z: 8.34}
        inSlope: {x: 0, y: 0, z: 2.7284245}
        outSlope: {x: 0, y: 0, z: 2.7284245}
        tangentMode: 0
      - time: 2
        value: {x: 0, y: 0, z: 3.11}
        inSlope: {x: 0, y: 0, z: -11.622222}
        outSlope: {x: 0, y: 0, z: -11.622222}
        tangentMode: 0
      m_PreInfinity: 2
      m_PostInfinity: 2
      m_RotationOrder: 4
    path: chest/neck/Head/hair03L
  m_PositionCurves: []
  m_ScaleCurves:
  - curve:
      serializedVersion: 2
      m_Curve:
      - time: 0
        value: {x: 1, y: 1, z: 1}
        inSlope: {x: 0, y: 0, z: 0}
        outSlope: {x: 0, y: 0, z: 0}
        tangentMode: 0
      - time: 0.18333334
        value: {x: 1, y: 1, z: 1}
        inSlope: {x: 0, y: 0.2019323, z: 0}
        outSlope: {x: 0, y: 0.2019323, z: 0}
        tangentMode: 0
      - time: 0.8333333
        value: {x: 1, y: 1.262512, z: 1}
        inSlope: {x: 0, y: 0.08942717, z: 0}
        outSlope: {x: 0, y: 0.08942717, z: 0}
        tangentMode: 0
      - time: 2
        value: {x: 1, y: 1, z: 1}
        inSlope: {x: 0, y: -0.22501025, z: 0}
        outSlope: {x: 0, y: -0.22501025, z: 0}
        tangentMode: 0
      m_PreInfinity: 2
      m_PostInfinity: 2
      m_RotationOrder: 4
    path: chest/neck/Head/Jaw
  - curve:
      serializedVersion: 2
      m_Curve:
      - time: 0
        value: {x: 1, y: 0.95, z: 1}
        inSlope: {x: 0, y: 0.11999996, z: 0}
        outSlope: {x: 0, y: 0.11999996, z: 0}
        tangentMode: 0
      - time: 0.8333333
        value: {x: 1, y: 1.05, z: 1}
        inSlope: {x: 0, y: 0.017142855, z: 0}
        outSlope: {x: 0, y: 0.017142855, z: 0}
        tangentMode: 0
      - time: 2
        value: {x: 1, y: 0.95, z: 1}
        inSlope: {x: 0, y: -0.08571425, z: 0}
        outSlope: {x: 0, y: -0.08571425, z: 0}
        tangentMode: 0
      m_PreInfinity: 2
      m_PostInfinity: 2
      m_RotationOrder: 4
    path: chest/neck/Head/EyeHolder
  m_FloatCurves:
  - curve:
      serializedVersion: 2
      m_Curve:
      - time: 0
        value: 81
        inSlope: 0
        outSlope: 0
        tangentMode: 0
      - time: 1.1666666
        value: 86
        inSlope: 0
        outSlope: 0
        tangentMode: 0
      - time: 2
        value: 81
        inSlope: 0
        outSlope: 0
        tangentMode: 0
      m_PreInfinity: 2
      m_PostInfinity: 2
      m_RotationOrder: 4
    attribute: m_AnchoredPosition.y
    path: hips
    classID: 224
    script: {fileID: 0}
  - curve:
      serializedVersion: 2
      m_Curve:
      - time: 0
        value: 139.7
        inSlope: 0
        outSlope: 0
        tangentMode: 0
      - time: 1.1666666
        value: 144.5
        inSlope: 0
        outSlope: 0
        tangentMode: 0
      - time: 2
        value: 139.7
        inSlope: 0
        outSlope: 0
        tangentMode: 0
      m_PreInfinity: 2
      m_PostInfinity: 2
      m_RotationOrder: 4
    attribute: m_AnchoredPosition.y
    path: tubes
    classID: 224
    script: {fileID: 0}
  - curve:
      serializedVersion: 2
      m_Curve:
      - time: 0
        value: 409
        inSlope: 0
        outSlope: 0
        tangentMode: 0
      - time: 1.1666666
        value: 430.4
        inSlope: 0
        outSlope: 0
        tangentMode: 0
      - time: 2
        value: 409
        inSlope: 0
        outSlope: 0
        tangentMode: 0
      m_PreInfinity: 2
      m_PostInfinity: 2
      m_RotationOrder: 4
    attribute: m_AnchoredPosition.y
    path: chest
    classID: 224
    script: {fileID: 0}
  - curve:
      serializedVersion: 2
      m_Curve:
      - time: 0
        value: 385.49652
        inSlope: 0
        outSlope: 0
        tangentMode: 0
      - time: 1.2166667
        value: 408
        inSlope: 0
        outSlope: 0
        tangentMode: 0
      - time: 2
        value: 385.49652
        inSlope: 0
        outSlope: 0
        tangentMode: 0
      m_PreInfinity: 2
      m_PostInfinity: 2
      m_RotationOrder: 4
    attribute: m_AnchoredPosition.y
    path: RightShoulderBack
    classID: 224
    script: {fileID: 0}
  - curve:
      serializedVersion: 2
      m_Curve:
      - time: 0
        value: 406.49652
        inSlope: 0
        outSlope: 0
        tangentMode: 0
      - time: 1.2166667
        value: 429
        inSlope: 0
        outSlope: 0
        tangentMode: 0
      - time: 2
        value: 406.49652
        inSlope: 0
        outSlope: 0
        tangentMode: 0
      m_PreInfinity: 2
      m_PostInfinity: 2
      m_RotationOrder: 4
    attribute: m_AnchoredPosition.y
    path: RightShoulderFront
    classID: 224
    script: {fileID: 0}
  - curve:
      serializedVersion: 2
      m_Curve:
      - time: 0
        value: 16.81
        inSlope: 0
        outSlope: 0
        tangentMode: 0
      - time: 1.1666666
        value: 12.9
        inSlope: 0
        outSlope: 0
        tangentMode: 0
      - time: 2
        value: 16.81
        inSlope: 0
        outSlope: 0
        tangentMode: 0
      m_PreInfinity: 2
      m_PostInfinity: 2
      m_RotationOrder: 4
    attribute: m_AnchoredPosition.y
    path: chest/LeftShoulder
    classID: 224
    script: {fileID: 0}
  - curve:
      serializedVersion: 2
      m_Curve:
      - time: 0
        value: 363
        inSlope: 0
        outSlope: 0
        tangentMode: 0
      - time: 1.1666666
        value: 375
        inSlope: 0
        outSlope: 0
        tangentMode: 0
      - time: 2
        value: 363
        inSlope: 0
        outSlope: 0
        tangentMode: 0
      m_PreInfinity: 2
      m_PostInfinity: 2
      m_RotationOrder: 4
    attribute: m_AnchoredPosition.y
    path: Backpack
    classID: 224
    script: {fileID: 0}
  - curve:
      serializedVersion: 2
      m_Curve:
      - time: 0
        value: 553.59247
        inSlope: 0
        outSlope: 0
        tangentMode: 0
      - time: 1.1666666
        value: 565
        inSlope: 0
        outSlope: 0
        tangentMode: 0
      - time: 2
        value: 553.59247
        inSlope: 0
        outSlope: 0
        tangentMode: 0
      m_PreInfinity: 2
      m_PostInfinity: 2
      m_RotationOrder: 4
    attribute: m_AnchoredPosition.y
    path: Stovepipe
    classID: 224
    script: {fileID: 0}
  - curve:
      serializedVersion: 2
      m_Curve:
      - time: 0
        value: -52.5
        inSlope: -132.85715
        outSlope: -132.85715
        tangentMode: 10
      - time: 0.11666667
        value: -68
        inSlope: -30.659344
        outSlope: -30.659344
        tangentMode: 10
      - time: 0.33333334
        value: -52.5
        inSlope: -30.659351
        outSlope: -30.659351
        tangentMode: 10
      - time: 0.45
        value: -68
        inSlope: -30.659355
        outSlope: -30.659355
        tangentMode: 10
      - time: 0.6666667
        value: -52.5
        inSlope: -30.65934
        outSlope: -30.65934
        tangentMode: 10
      - time: 0.78333336
        value: -68
        inSlope: -30.659332
        outSlope: -30.659332
        tangentMode: 10
      - time: 1
        value: -52.5
        inSlope: -30.659332
        outSlope: -30.659332
        tangentMode: 10
      - time: 1.1166667
        value: -68
        inSlope: -30.65934
        outSlope: -30.65934
        tangentMode: 10
      - time: 1.3333334
        value: -52.5
        inSlope: -30.65934
        outSlope: -30.65934
        tangentMode: 10
      - time: 1.45
        value: -68
        inSlope: -30.65932
        outSlope: -30.65932
        tangentMode: 10
      - time: 1.6666666
        value: -52.5
        inSlope: -30.65932
        outSlope: -30.65932
        tangentMode: 10
      - time: 1.7833333
        value: -68
        inSlope: -30.65934
        outSlope: -30.65934
        tangentMode: 10
      - time: 2
        value: -52.5
        inSlope: 71.53845
        outSlope: 71.53845
        tangentMode: 10
      m_PreInfinity: 2
      m_PostInfinity: 2
      m_RotationOrder: 4
    attribute: m_AnchoredPosition.y
    path: Stovepipe/Pipe
    classID: 224
    script: {fileID: 0}
  - curve:
      serializedVersion: 2
      m_Curve:
      - time: 0
        value: 10.90971
        inSlope: -7.321776
        outSlope: -7.321776
        tangentMode: 0
      - time: 0.16666667
        value: 10
        inSlope: -1.0148442
        outSlope: -1.0148442
        tangentMode: 10
      - time: 1.3333334
        value: 14
        inSlope: -0.6034322
        outSlope: -0.6034322
        tangentMode: 10
      - time: 2
        value: 10.90971
        inSlope: -4.6354356
        outSlope: -4.6354356
        tangentMode: 10
      m_PreInfinity: 2
      m_PostInfinity: 2
      m_RotationOrder: 4
    attribute: m_AnchoredPosition.y
    path: chest/neck/Head
    classID: 224
    script: {fileID: 0}
  - curve:
      serializedVersion: 2
      m_Curve:
      - time: 0
        value: -123
        inSlope: -7.028569
        outSlope: -7.028569
        tangentMode: 10
      - time: 1.1666666
        value: -131.2
        inSlope: 1.4057136
        outSlope: 1.4057136
        tangentMode: 10
      - time: 2
        value: -123
        inSlope: 9.839996
        outSlope: 9.839996
        tangentMode: 10
      m_PreInfinity: 2
      m_PostInfinity: 2
      m_RotationOrder: 4
    attribute: m_AnchoredPosition.y
    path: chest/RightArm
    classID: 224
    script: {fileID: 0}
  - curve:
      serializedVersion: 2
      m_Curve:
      - time: 0
        value: 180
        inSlope: 7.6363635
        outSlope: 7.6363635
        tangentMode: 10
      - time: 0.9166667
        value: 187
        inSlope: -0.38181853
        outSlope: -0.38181853
        tangentMode: 10
      - time: 1.75
        value: 180
        inSlope: -4.2000003
        outSlope: -4.2000003
        tangentMode: 10
      - time: 2
        value: 180
        inSlope: 0
        outSlope: 0
        tangentMode: 10
      m_PreInfinity: 2
      m_PostInfinity: 2
      m_RotationOrder: 4
    attribute: m_AnchoredPosition.x
    path: chest/chestFront/Lung
    classID: 224
    script: {fileID: 0}
  - curve:
      serializedVersion: 2
      m_Curve:
      - time: 0
        value: -68
        inSlope: -5.4545455
        outSlope: -5.4545455
        tangentMode: 10
      - time: 0.9166667
        value: -73
        inSlope: 0.27272725
        outSlope: 0.27272725
        tangentMode: 10
      - time: 1.75
        value: -68
        inSlope: 3
        outSlope: 3
        tangentMode: 10
      - time: 2
        value: -68
        inSlope: 0
        outSlope: 0
        tangentMode: 10
      m_PreInfinity: 2
      m_PostInfinity: 2
      m_RotationOrder: 4
    attribute: m_AnchoredPosition.y
    path: chest/chestFront/Lung
    classID: 224
    script: {fileID: 0}
  - curve:
      serializedVersion: 2
      m_Curve:
      - time: 0
        value: 353
        inSlope: 0
        outSlope: 0
        tangentMode: 0
      - time: 1.1666666
        value: 361
        inSlope: 0
        outSlope: 0
        tangentMode: 0
      - time: 2
        value: 353
        inSlope: 0
        outSlope: 0
        tangentMode: 0
      m_PreInfinity: 2
      m_PostInfinity: 2
      m_RotationOrder: 4
    attribute: m_AnchoredPosition.y
    path: LeftArmHolder
    classID: 224
    script: {fileID: 0}
  - curve:
      serializedVersion: 2
      m_Curve:
      - time: 0
        value: 68.09998
        inSlope: -30.899988
        outSlope: -30.899988
        tangentMode: 10
      - time: 1.1666666
        value: 32.05
        inSlope: 13.01052
        outSlope: 13.01052
        tangentMode: 10
      - time: 1.8
        value: 68.09998
        inSlope: 56.92103
        outSlope: 56.92103
        tangentMode: 10
      m_PreInfinity: 2
      m_PostInfinity: 2
      m_RotationOrder: 4
    attribute: m_AnchoredPosition.y
    path: Cylinder/Pump
    classID: 224
    script: {fileID: 0}
  - curve:
      serializedVersion: 2
      m_Curve:
      - time: 0
        value: -3.8270001
        inSlope: 2.982078
        outSlope: 2.982078
        tangentMode: 10
      - time: 1.2833333
        value: 0
        inSlope: 1.491039
        outSlope: 1.491039
        tangentMode: 10
      - time: 2
        value: 0
        inSlope: 0
        outSlope: 0
        tangentMode: 10
      m_PreInfinity: 2
      m_PostInfinity: 2
      m_RotationOrder: 4
    attribute: m_LocalPosition.z
    path: chest/RightArm
    classID: 224
    script: {fileID: 0}
  - curve:
      serializedVersion: 2
      m_Curve:
      - time: 0
        value: -44
        inSlope: 0
        outSlope: 0
        tangentMode: 0
      - time: 1.1666666
        value: -41
        inSlope: 0
        outSlope: 0
        tangentMode: 0
      - time: 2
        value: -44
        inSlope: 0
        outSlope: 0
        tangentMode: 0
      m_PreInfinity: 2
      m_PostInfinity: 2
      m_RotationOrder: 4
    attribute: m_AnchoredPosition.y
    path: chest/neck
    classID: 224
    script: {fileID: 0}
  m_PPtrCurves: []
  m_SampleRate: 60
  m_WrapMode: 0
  m_Bounds:
    m_Center: {x: 0, y: 0, z: 0}
    m_Extent: {x: 0, y: 0, z: 0}
  m_ClipBindingConstant:
    genericBindings:
    - path: 247313714
      attribute: 4
      script: {fileID: 0}
      classID: 4
      customType: 14
      isPPtrCurve: 0
    - path: 1612618123
      attribute: 4
      script: {fileID: 0}
      classID: 4
      customType: 14
      isPPtrCurve: 0
    - path: 2779862772
      attribute: 4
      script: {fileID: 0}
      classID: 4
      customType: 14
      isPPtrCurve: 0
    - path: 1256655734
      attribute: 4
      script: {fileID: 0}
      classID: 4
      customType: 14
      isPPtrCurve: 0
    - path: 1409038903
      attribute: 4
      script: {fileID: 0}
      classID: 4
      customType: 14
      isPPtrCurve: 0
    - path: 2026990068
      attribute: 4
      script: {fileID: 0}
      classID: 4
      customType: 14
      isPPtrCurve: 0
    - path: 2968008213
      attribute: 4
      script: {fileID: 0}
      classID: 4
      customType: 14
      isPPtrCurve: 0
    - path: 3335998843
      attribute: 3
      script: {fileID: 0}
      classID: 4
      customType: 0
      isPPtrCurve: 0
    - path: 3196391179
      attribute: 3
      script: {fileID: 0}
      classID: 4
      customType: 0
      isPPtrCurve: 0
    - path: 2128849199
      attribute: 538195251
      script: {fileID: 0}
      classID: 224
      customType: 0
      isPPtrCurve: 0
    - path: 205799830
      attribute: 538195251
      script: {fileID: 0}
      classID: 224
      customType: 0
      isPPtrCurve: 0
    - path: 4215583671
      attribute: 538195251
      script: {fileID: 0}
      classID: 224
      customType: 0
      isPPtrCurve: 0
    - path: 1527559401
      attribute: 538195251
      script: {fileID: 0}
      classID: 224
      customType: 0
      isPPtrCurve: 0
    - path: 2678480720
      attribute: 538195251
      script: {fileID: 0}
      classID: 224
      customType: 0
      isPPtrCurve: 0
    - path: 2596546290
      attribute: 538195251
      script: {fileID: 0}
      classID: 224
      customType: 0
      isPPtrCurve: 0
    - path: 4114868031
      attribute: 538195251
      script: {fileID: 0}
      classID: 224
      customType: 0
      isPPtrCurve: 0
    - path: 1246060680
      attribute: 538195251
      script: {fileID: 0}
      classID: 224
      customType: 0
      isPPtrCurve: 0
    - path: 3710433296
      attribute: 538195251
      script: {fileID: 0}
      classID: 224
      customType: 0
      isPPtrCurve: 0
    - path: 979541348
      attribute: 538195251
      script: {fileID: 0}
      classID: 224
      customType: 0
      isPPtrCurve: 0
    - path: 247313714
      attribute: 538195251
      script: {fileID: 0}
      classID: 224
      customType: 0
      isPPtrCurve: 0
    - path: 379066097
      attribute: 1460864421
      script: {fileID: 0}
      classID: 224
      customType: 0
      isPPtrCurve: 0
    - path: 379066097
      attribute: 538195251
      script: {fileID: 0}
      classID: 224
      customType: 0
      isPPtrCurve: 0
    - path: 1917480183
      attribute: 538195251
      script: {fileID: 0}
      classID: 224
      customType: 0
      isPPtrCurve: 0
    - path: 3296225570
      attribute: 538195251
      script: {fileID: 0}
      classID: 224
      customType: 0
      isPPtrCurve: 0
    - path: 247313714
      attribute: 2033536083
      script: {fileID: 0}
      classID: 224
      customType: 28
      isPPtrCurve: 0
    - path: 2837278365
      attribute: 538195251
      script: {fileID: 0}
      classID: 224
      customType: 0
      isPPtrCurve: 0
    pptrCurveMapping: []
  m_AnimationClipSettings:
    serializedVersion: 2
    m_AdditiveReferencePoseClip: {fileID: 0}
    m_AdditiveReferencePoseTime: 0
    m_StartTime: 0
    m_StopTime: 2
    m_OrientationOffsetY: 0
    m_Level: 0
    m_CycleOffset: 0
    m_HasAdditiveReferencePose: 0
    m_LoopTime: 1
    m_LoopBlend: 0
    m_LoopBlendOrientation: 0
    m_LoopBlendPositionY: 0
    m_LoopBlendPositionXZ: 0
    m_KeepOriginalOrientation: 0
    m_KeepOriginalPositionY: 1
    m_KeepOriginalPositionXZ: 0
    m_HeightFromFeet: 0
    m_Mirror: 0
  m_EditorCurves:
  - curve:
      serializedVersion: 2
      m_Curve:
      - time: 0
        value: 81
        inSlope: 0
        outSlope: 0
        tangentMode: 0
      - time: 1.1666666
        value: 86
        inSlope: 0
        outSlope: 0
        tangentMode: 0
      - time: 2
        value: 81
        inSlope: 0
        outSlope: 0
        tangentMode: 0
      m_PreInfinity: 2
      m_PostInfinity: 2
      m_RotationOrder: 4
    attribute: m_AnchoredPosition.y
    path: hips
    classID: 224
    script: {fileID: 0}
  - curve:
      serializedVersion: 2
      m_Curve:
      - time: 0
        value: 139.7
        inSlope: 0
        outSlope: 0
        tangentMode: 0
      - time: 1.1666666
        value: 144.5
        inSlope: 0
        outSlope: 0
        tangentMode: 0
      - time: 2
        value: 139.7
        inSlope: 0
        outSlope: 0
        tangentMode: 0
      m_PreInfinity: 2
      m_PostInfinity: 2
      m_RotationOrder: 4
    attribute: m_AnchoredPosition.y
    path: tubes
    classID: 224
    script: {fileID: 0}
  - curve:
      serializedVersion: 2
      m_Curve:
      - time: 0
        value: 409
        inSlope: 0
        outSlope: 0
        tangentMode: 0
      - time: 1.1666666
        value: 430.4
        inSlope: 0
        outSlope: 0
        tangentMode: 0
      - time: 2
        value: 409
        inSlope: 0
        outSlope: 0
        tangentMode: 0
      m_PreInfinity: 2
      m_PostInfinity: 2
      m_RotationOrder: 4
    attribute: m_AnchoredPosition.y
    path: chest
    classID: 224
    script: {fileID: 0}
  - curve:
      serializedVersion: 2
      m_Curve:
      - time: 0
        value: 385.49652
        inSlope: 0
        outSlope: 0
        tangentMode: 0
      - time: 1.2166667
        value: 408
        inSlope: 0
        outSlope: 0
        tangentMode: 0
      - time: 2
        value: 385.49652
        inSlope: 0
        outSlope: 0
        tangentMode: 0
      m_PreInfinity: 2
      m_PostInfinity: 2
      m_RotationOrder: 4
    attribute: m_AnchoredPosition.y
    path: RightShoulderBack
    classID: 224
    script: {fileID: 0}
  - curve:
      serializedVersion: 2
      m_Curve:
      - time: 0
        value: 406.49652
        inSlope: 0
        outSlope: 0
        tangentMode: 0
      - time: 1.2166667
        value: 429
        inSlope: 0
        outSlope: 0
        tangentMode: 0
      - time: 2
        value: 406.49652
        inSlope: 0
        outSlope: 0
        tangentMode: 0
      m_PreInfinity: 2
      m_PostInfinity: 2
      m_RotationOrder: 4
    attribute: m_AnchoredPosition.y
    path: RightShoulderFront
    classID: 224
    script: {fileID: 0}
  - curve:
      serializedVersion: 2
      m_Curve:
      - time: 0
        value: 16.81
        inSlope: 0
        outSlope: 0
        tangentMode: 0
      - time: 1.1666666
        value: 12.9
        inSlope: 0
        outSlope: 0
        tangentMode: 0
      - time: 2
        value: 16.81
        inSlope: 0
        outSlope: 0
        tangentMode: 0
      m_PreInfinity: 2
      m_PostInfinity: 2
      m_RotationOrder: 4
    attribute: m_AnchoredPosition.y
    path: chest/LeftShoulder
    classID: 224
    script: {fileID: 0}
  - curve:
      serializedVersion: 2
      m_Curve:
      - time: 0
        value: 0
        inSlope: 0
        outSlope: 0
        tangentMode: 0
      - time: 0.38333333
        value: 0
        inSlope: 0
        outSlope: 0
        tangentMode: 0
      - time: 1.55
        value: 0
        inSlope: 0
        outSlope: 0
        tangentMode: 0
      - time: 2
        value: 0
        inSlope: 0
        outSlope: 0
        tangentMode: 0
      m_PreInfinity: 2
      m_PostInfinity: 2
      m_RotationOrder: 4
    attribute: localEulerAnglesRaw.x
    path: chest/RightArm
    classID: 224
    script: {fileID: 0}
  - curve:
      serializedVersion: 2
      m_Curve:
      - time: 0
        value: 0
        inSlope: 0
        outSlope: 0
        tangentMode: 0
      - time: 0.38333333
        value: 0
        inSlope: 0
        outSlope: 0
        tangentMode: 0
      - time: 1.55
        value: 0
        inSlope: 0
        outSlope: 0
        tangentMode: 0
      - time: 2
        value: 0
        inSlope: 0
        outSlope: 0
        tangentMode: 0
      m_PreInfinity: 2
      m_PostInfinity: 2
      m_RotationOrder: 4
    attribute: localEulerAnglesRaw.y
    path: chest/RightArm
    classID: 224
    script: {fileID: 0}
  - curve:
      serializedVersion: 2
      m_Curve:
      - time: 0
        value: -0.1
        inSlope: 1.4084222
        outSlope: 1.4084222
        tangentMode: 0
      - time: 0.38333333
        value: 0
        inSlope: 0
        outSlope: 0
        tangentMode: 0
      - time: 1.55
        value: -1
        inSlope: 0
        outSlope: 0
        tangentMode: 0
      - time: 2
        value: -0.1
        inSlope: 3.7690985
        outSlope: 3.7690985
        tangentMode: 0
      m_PreInfinity: 2
      m_PostInfinity: 2
      m_RotationOrder: 4
    attribute: localEulerAnglesRaw.z
    path: chest/RightArm
    classID: 224
    script: {fileID: 0}
  - curve:
      serializedVersion: 2
      m_Curve:
      - time: 0
        value: 363
        inSlope: 0
        outSlope: 0
        tangentMode: 0
      - time: 1.1666666
        value: 375
        inSlope: 0
        outSlope: 0
        tangentMode: 0
      - time: 2
        value: 363
        inSlope: 0
        outSlope: 0
        tangentMode: 0
      m_PreInfinity: 2
      m_PostInfinity: 2
      m_RotationOrder: 4
    attribute: m_AnchoredPosition.y
    path: Backpack
    classID: 224
    script: {fileID: 0}
  - curve:
      serializedVersion: 2
      m_Curve:
      - time: 0
        value: 553.59247
        inSlope: 0
        outSlope: 0
        tangentMode: 0
      - time: 1.1666666
        value: 565
        inSlope: 0
        outSlope: 0
        tangentMode: 0
      - time: 2
        value: 553.59247
        inSlope: 0
        outSlope: 0
        tangentMode: 0
      m_PreInfinity: 2
      m_PostInfinity: 2
      m_RotationOrder: 4
    attribute: m_AnchoredPosition.y
    path: Stovepipe
    classID: 224
    script: {fileID: 0}
  - curve:
      serializedVersion: 2
      m_Curve:
      - time: 0
        value: -52.5
        inSlope: -132.85715
        outSlope: -132.85715
        tangentMode: 10
      - time: 0.11666667
        value: -68
        inSlope: -30.659344
        outSlope: -30.659344
        tangentMode: 10
      - time: 0.33333334
        value: -52.5
        inSlope: -30.659351
        outSlope: -30.659351
        tangentMode: 10
      - time: 0.45
        value: -68
        inSlope: -30.659355
        outSlope: -30.659355
        tangentMode: 10
      - time: 0.6666667
        value: -52.5
        inSlope: -30.65934
        outSlope: -30.65934
        tangentMode: 10
      - time: 0.78333336
        value: -68
        inSlope: -30.659332
        outSlope: -30.659332
        tangentMode: 10
      - time: 1
        value: -52.5
        inSlope: -30.659332
        outSlope: -30.659332
        tangentMode: 10
      - time: 1.1166667
        value: -68
        inSlope: -30.65934
        outSlope: -30.65934
        tangentMode: 10
      - time: 1.3333334
        value: -52.5
        inSlope: -30.65934
        outSlope: -30.65934
        tangentMode: 10
      - time: 1.45
        value: -68
        inSlope: -30.65932
        outSlope: -30.65932
        tangentMode: 10
      - time: 1.6666666
        value: -52.5
        inSlope: -30.65932
        outSlope: -30.65932
        tangentMode: 10
      - time: 1.7833333
        value: -68
        inSlope: -30.65934
        outSlope: -30.65934
        tangentMode: 10
      - time: 2
        value: -52.5
        inSlope: 71.53845
        outSlope: 71.53845
        tangentMode: 10
      m_PreInfinity: 2
      m_PostInfinity: 2
      m_RotationOrder: 4
    attribute: m_AnchoredPosition.y
    path: Stovepipe/Pipe
    classID: 224
    script: {fileID: 0}
  - curve:
      serializedVersion: 2
      m_Curve:
      - time: 0
        value: 0
        inSlope: 0
        outSlope: 0
        tangentMode: 10
      - time: 0.11666667
        value: 0
        inSlope: 0
        outSlope: 0
        tangentMode: 10
      - time: 0.23333333
        value: 0
        inSlope: 0
        outSlope: 0
        tangentMode: 10
      - time: 0.45
        value: 0
        inSlope: 0
        outSlope: 0
        tangentMode: 10
      - time: 0.56666666
        value: 0
        inSlope: 0
        outSlope: 0
        tangentMode: 10
      - time: 0.78333336
        value: 0
        inSlope: 0
        outSlope: 0
        tangentMode: 10
      - time: 0.90000004
        value: 0
        inSlope: 0
        outSlope: 0
        tangentMode: 10
      - time: 1.1166667
        value: 0
        inSlope: 0
        outSlope: 0
        tangentMode: 10
      - time: 1.2333333
        value: 0
        inSlope: 0
        outSlope: 0
        tangentMode: 10
      - time: 1.45
        value: 0
        inSlope: 0
        outSlope: 0
        tangentMode: 10
      - time: 1.5666667
        value: 0
        inSlope: 0
        outSlope: 0
        tangentMode: 10
      - time: 1.7833333
        value: 0
        inSlope: 0
        outSlope: 0
        tangentMode: 10
      - time: 1.9
        value: 0
        inSlope: 0
        outSlope: 0
        tangentMode: 10
      - time: 2
        value: 0
        inSlope: 0
        outSlope: 0
        tangentMode: 10
      m_PreInfinity: 2
      m_PostInfinity: 2
      m_RotationOrder: 4
    attribute: localEulerAnglesRaw.x
    path: Stovepipe/Pipe/Lid
    classID: 224
    script: {fileID: 0}
  - curve:
      serializedVersion: 2
      m_Curve:
      - time: 0
        value: 0
        inSlope: 0
        outSlope: 0
        tangentMode: 10
      - time: 0.11666667
        value: 0
        inSlope: 0
        outSlope: 0
        tangentMode: 10
      - time: 0.23333333
        value: 0
        inSlope: 0
        outSlope: 0
        tangentMode: 10
      - time: 0.45
        value: 0
        inSlope: 0
        outSlope: 0
        tangentMode: 10
      - time: 0.56666666
        value: 0
        inSlope: 0
        outSlope: 0
        tangentMode: 10
      - time: 0.78333336
        value: 0
        inSlope: 0
        outSlope: 0
        tangentMode: 10
      - time: 0.90000004
        value: 0
        inSlope: 0
        outSlope: 0
        tangentMode: 10
      - time: 1.1166667
        value: 0
        inSlope: 0
        outSlope: 0
        tangentMode: 10
      - time: 1.2333333
        value: 0
        inSlope: 0
        outSlope: 0
        tangentMode: 10
      - time: 1.45
        value: 0
        inSlope: 0
        outSlope: 0
        tangentMode: 10
      - time: 1.5666667
        value: 0
        inSlope: 0
        outSlope: 0
        tangentMode: 10
      - time: 1.7833333
        value: 0
        inSlope: 0
        outSlope: 0
        tangentMode: 10
      - time: 1.9
        value: 0
        inSlope: 0
        outSlope: 0
        tangentMode: 10
      - time: 2
        value: 0
        inSlope: 0
        outSlope: 0
        tangentMode: 10
      m_PreInfinity: 2
      m_PostInfinity: 2
      m_RotationOrder: 4
    attribute: localEulerAnglesRaw.y
    path: Stovepipe/Pipe/Lid
    classID: 224
    script: {fileID: 0}
  - curve:
      serializedVersion: 2
      m_Curve:
      - time: 0
        value: 24
        inSlope: -205.71428
        outSlope: -205.71428
        tangentMode: 10
      - time: 0.11666667
        value: 0
        inSlope: 85.114296
        outSlope: 85.114296
        tangentMode: 10
      - time: 0.23333333
        value: 43.86
        inSlope: 86.75604
        outSlope: 86.75604
        tangentMode: 10
      - time: 0.45
        value: 0
        inSlope: 86.75603
        outSlope: 86.75603
        tangentMode: 10
      - time: 0.56666666
        value: 43.86
        inSlope: 86.75605
        outSlope: 86.75605
        tangentMode: 10
      - time: 0.78333336
        value: 0
        inSlope: 86.75605
        outSlope: 86.75605
        tangentMode: 10
      - time: 0.90000004
        value: 43.86
        inSlope: 86.75602
        outSlope: 86.75602
        tangentMode: 10
      - time: 1.1166667
        value: 0
        inSlope: 86.75602
        outSlope: 86.75602
        tangentMode: 10
      - time: 1.2333333
        value: 43.86
        inSlope: 86.75605
        outSlope: 86.75605
        tangentMode: 10
      - time: 1.45
        value: 0
        inSlope: 86.75605
        outSlope: 86.75605
        tangentMode: 10
      - time: 1.5666667
        value: 43.86
        inSlope: 86.756
        outSlope: 86.756
        tangentMode: 10
      - time: 1.7833333
        value: 0
        inSlope: 86.756
        outSlope: 86.756
        tangentMode: 10
      - time: 1.9
        value: 43.86
        inSlope: 88.67144
        outSlope: 88.67144
        tangentMode: 10
      - time: 2
        value: 24
        inSlope: -198.59996
        outSlope: -198.59996
        tangentMode: 10
      m_PreInfinity: 2
      m_PostInfinity: 2
      m_RotationOrder: 4
    attribute: localEulerAnglesRaw.z
    path: Stovepipe/Pipe/Lid
    classID: 224
    script: {fileID: 0}
  - curve:
      serializedVersion: 2
      m_Curve:
      - time: 0
        value: 10.90971
        inSlope: -7.321776
        outSlope: -7.321776
        tangentMode: 0
      - time: 0.16666667
        value: 10
        inSlope: -1.0148442
        outSlope: -1.0148442
        tangentMode: 10
      - time: 1.3333334
        value: 14
        inSlope: -0.6034322
        outSlope: -0.6034322
        tangentMode: 10
      - time: 2
        value: 10.90971
        inSlope: -4.6354356
        outSlope: -4.6354356
        tangentMode: 10
      m_PreInfinity: 2
      m_PostInfinity: 2
      m_RotationOrder: 4
    attribute: m_AnchoredPosition.y
    path: chest/neck/Head
    classID: 224
    script: {fileID: 0}
  - curve:
      serializedVersion: 2
      m_Curve:
      - time: 0
        value: 0
        inSlope: 0
        outSlope: 0
        tangentMode: 0
      - time: 0.25
        value: 0
        inSlope: 0
        outSlope: 0
        tangentMode: 0
      - time: 1.4166666
        value: 0
        inSlope: 0
        outSlope: 0
        tangentMode: 0
      - time: 2
        value: 0
        inSlope: 0
        outSlope: 0
        tangentMode: 0
      m_PreInfinity: 2
      m_PostInfinity: 2
      m_RotationOrder: 4
    attribute: localEulerAnglesRaw.x
    path: chest/chestFront/FrontPipe
    classID: 224
    script: {fileID: 0}
  - curve:
      serializedVersion: 2
      m_Curve:
      - time: 0
        value: 0
        inSlope: 0
        outSlope: 0
        tangentMode: 0
      - time: 0.25
        value: 0
        inSlope: 0
        outSlope: 0
        tangentMode: 0
      - time: 1.4166666
        value: 0
        inSlope: 0
        outSlope: 0
        tangentMode: 0
      - time: 2
        value: 0
        inSlope: 0
        outSlope: 0
        tangentMode: 0
      m_PreInfinity: 2
      m_PostInfinity: 2
      m_RotationOrder: 4
    attribute: localEulerAnglesRaw.y
    path: chest/chestFront/FrontPipe
    classID: 224
    script: {fileID: 0}
  - curve:
      serializedVersion: 2
      m_Curve:
      - time: 0
        value: -0.32399988
        inSlope: 1.2627274
        outSlope: 1.2627274
        tangentMode: 0
      - time: 0.25
        value: 0
        inSlope: 0
        outSlope: 0
        tangentMode: 0
      - time: 1.4166666
        value: -1.5000001
        inSlope: 0
        outSlope: 0
        tangentMode: 0
      - time: 2
        value: -0.32399988
        inSlope: 2.074573
        outSlope: 2.074573
        tangentMode: 0
      m_PreInfinity: 2
      m_PostInfinity: 2
      m_RotationOrder: 4
    attribute: localEulerAnglesRaw.z
    path: chest/chestFront/FrontPipe
    classID: 224
    script: {fileID: 0}
  - curve:
      serializedVersion: 2
      m_Curve:
      - time: 0
        value: 1
        inSlope: 0
        outSlope: 0
        tangentMode: 10
      - time: 0.18333334
        value: 1
        inSlope: 0
        outSlope: 0
        tangentMode: 10
      - time: 0.8333333
        value: 1
        inSlope: 0
        outSlope: 0
        tangentMode: 10
      - time: 2
        value: 1
        inSlope: 0
        outSlope: 0
        tangentMode: 10
      m_PreInfinity: 2
      m_PostInfinity: 2
      m_RotationOrder: 4
    attribute: m_LocalScale.x
    path: chest/neck/Head/Jaw
    classID: 224
    script: {fileID: 0}
  - curve:
      serializedVersion: 2
      m_Curve:
      - time: 0
        value: 1
        inSlope: 0
        outSlope: 0
        tangentMode: 10
      - time: 0.18333334
        value: 1
        inSlope: 0.2019323
        outSlope: 0.2019323
        tangentMode: 10
      - time: 0.8333333
        value: 1.262512
        inSlope: 0.08942717
        outSlope: 0.08942717
        tangentMode: 10
      - time: 2
        value: 1
        inSlope: -0.22501025
        outSlope: -0.22501025
        tangentMode: 10
      m_PreInfinity: 2
      m_PostInfinity: 2
      m_RotationOrder: 4
    attribute: m_LocalScale.y
    path: chest/neck/Head/Jaw
    classID: 224
    script: {fileID: 0}
  - curve:
      serializedVersion: 2
      m_Curve:
      - time: 0
        value: 1
        inSlope: 0
        outSlope: 0
        tangentMode: 10
      - time: 0.18333334
        value: 1
        inSlope: 0
        outSlope: 0
        tangentMode: 10
      - time: 0.8333333
        value: 1
        inSlope: 0
        outSlope: 0
        tangentMode: 10
      - time: 2
        value: 1
        inSlope: 0
        outSlope: 0
        tangentMode: 10
      m_PreInfinity: 2
      m_PostInfinity: 2
      m_RotationOrder: 4
    attribute: m_LocalScale.z
    path: chest/neck/Head/Jaw
    classID: 224
    script: {fileID: 0}
  - curve:
      serializedVersion: 2
      m_Curve:
      - time: 0
        value: -123
        inSlope: -7.028569
        outSlope: -7.028569
        tangentMode: 10
      - time: 1.1666666
        value: -131.2
        inSlope: 1.4057136
        outSlope: 1.4057136
        tangentMode: 10
      - time: 2
        value: -123
        inSlope: 9.839996
        outSlope: 9.839996
        tangentMode: 10
      m_PreInfinity: 2
      m_PostInfinity: 2
      m_RotationOrder: 4
    attribute: m_AnchoredPosition.y
    path: chest/RightArm
    classID: 224
    script: {fileID: 0}
  - curve:
      serializedVersion: 2
      m_Curve:
      - time: 0
        value: 0
        inSlope: 0
        outSlope: 0
        tangentMode: 10
      - time: 0.8333333
        value: 0
        inSlope: 0
        outSlope: 0
        tangentMode: 10
      - time: 1.4333333
        value: 0
        inSlope: 0
        outSlope: 0
        tangentMode: 10
      - time: 2
        value: 0
        inSlope: 0
        outSlope: 0
        tangentMode: 10
      m_PreInfinity: 2
      m_PostInfinity: 2
      m_RotationOrder: 4
    attribute: localEulerAnglesRaw.x
    path: chest/neck/Head/hair03R
    classID: 224
    script: {fileID: 0}
  - curve:
      serializedVersion: 2
      m_Curve:
      - time: 0
        value: 0
        inSlope: 0
        outSlope: 0
        tangentMode: 10
      - time: 0.8333333
        value: 0
        inSlope: 0
        outSlope: 0
        tangentMode: 10
      - time: 1.4333333
        value: 0
        inSlope: 0
        outSlope: 0
        tangentMode: 10
      - time: 2
        value: 0
        inSlope: 0
        outSlope: 0
        tangentMode: 10
      m_PreInfinity: 2
      m_PostInfinity: 2
      m_RotationOrder: 4
    attribute: localEulerAnglesRaw.y
    path: chest/neck/Head/hair03R
    classID: 224
    script: {fileID: 0}
  - curve:
      serializedVersion: 2
      m_Curve:
      - time: 0
        value: 7.74
        inSlope: 5.9160004
        outSlope: 5.9160004
        tangentMode: 10
      - time: 0.8333333
        value: 12.67
        inSlope: -4.2920003
        outSlope: -4.2920003
        tangentMode: 10
      - time: 1.4333333
        value: 3.97
        inSlope: -3.9235303
        outSlope: -3.9235303
        tangentMode: 10
      - time: 2
        value: 7.74
        inSlope: 6.6529403
        outSlope: 6.6529403
        tangentMode: 10
      m_PreInfinity: 2
      m_PostInfinity: 2
      m_RotationOrder: 4
    attribute: localEulerAnglesRaw.z
    path: chest/neck/Head/hair03R
    classID: 224
    script: {fileID: 0}
  - curve:
      serializedVersion: 2
      m_Curve:
      - time: 0
        value: 0
        inSlope: 0
        outSlope: 0
        tangentMode: 0
      - time: 0.8333333
        value: 0
        inSlope: 0
        outSlope: 0
        tangentMode: 0
      - time: 2
        value: 0
        inSlope: 0
        outSlope: 0
        tangentMode: 0
      m_PreInfinity: 2
      m_PostInfinity: 2
      m_RotationOrder: 4
    attribute: localEulerAnglesRaw.x
    path: chest/neck/Head/hair02R
    classID: 224
    script: {fileID: 0}
  - curve:
      serializedVersion: 2
      m_Curve:
      - time: 0
        value: 0
        inSlope: 0
        outSlope: 0
        tangentMode: 0
      - time: 0.8333333
        value: 0
        inSlope: 0
        outSlope: 0
        tangentMode: 0
      - time: 2
        value: 0
        inSlope: 0
        outSlope: 0
        tangentMode: 0
      m_PreInfinity: 2
      m_PostInfinity: 2
      m_RotationOrder: 4
    attribute: localEulerAnglesRaw.y
    path: chest/neck/Head/hair02R
    classID: 224
    script: {fileID: 0}
  - curve:
      serializedVersion: 2
      m_Curve:
      - time: 0
        value: 11.085133
        inSlope: 0
        outSlope: 0
        tangentMode: 0
      - time: 0.8333333
        value: 14
        inSlope: 0
        outSlope: 0
        tangentMode: 0
      - time: 2
        value: 11.085133
        inSlope: 0
        outSlope: 0
        tangentMode: 0
      m_PreInfinity: 2
      m_PostInfinity: 2
      m_RotationOrder: 4
    attribute: localEulerAnglesRaw.z
    path: chest/neck/Head/hair02R
    classID: 224
    script: {fileID: 0}
  - curve:
      serializedVersion: 2
      m_Curve:
      - time: 0
        value: 0
        inSlope: 0
        outSlope: 0
        tangentMode: 10
      - time: 0.8333333
        value: 0
        inSlope: 0
        outSlope: 0
        tangentMode: 10
      - time: 1.4833333
        value: 0
        inSlope: 0
        outSlope: 0
        tangentMode: 10
      - time: 2
        value: 0
        inSlope: 0
        outSlope: 0
        tangentMode: 10
      m_PreInfinity: 2
      m_PostInfinity: 2
      m_RotationOrder: 4
    attribute: localEulerAnglesRaw.x
    path: chest/neck/Head/hair01R
    classID: 224
    script: {fileID: 0}
  - curve:
      serializedVersion: 2
      m_Curve:
      - time: 0
        value: 0
        inSlope: 0
        outSlope: 0
        tangentMode: 10
      - time: 0.8333333
        value: 0
        inSlope: 0
        outSlope: 0
        tangentMode: 10
      - time: 1.4833333
        value: 0
        inSlope: 0
        outSlope: 0
        tangentMode: 10
      - time: 2
        value: 0
        inSlope: 0
        outSlope: 0
        tangentMode: 10
      m_PreInfinity: 2
      m_PostInfinity: 2
      m_RotationOrder: 4
    attribute: localEulerAnglesRaw.y
    path: chest/neck/Head/hair01R
    classID: 224
    script: {fileID: 0}
  - curve:
      serializedVersion: 2
      m_Curve:
      - time: 0
        value: 9.934014
        inSlope: 3.283183
        outSlope: 3.283183
        tangentMode: 10
      - time: 0.8333333
        value: 12.67
        inSlope: 0.89543754
        outSlope: 0.89543754
        tangentMode: 10
      - time: 1.4833333
        value: 11.7
        inSlope: -2.4551723
        outSlope: -2.4551723
        tangentMode: 10
      - time: 2
        value: 9.934014
        inSlope: -3.4180365
        outSlope: -3.4180365
        tangentMode: 10
      m_PreInfinity: 2
      m_PostInfinity: 2
      m_RotationOrder: 4
    attribute: localEulerAnglesRaw.z
    path: chest/neck/Head/hair01R
    classID: 224
    script: {fileID: 0}
  - curve:
      serializedVersion: 2
      m_Curve:
      - time: 0
        value: 0
        inSlope: 0
        outSlope: 0
        tangentMode: 10
      - time: 0.8333333
        value: 0
        inSlope: 0
        outSlope: 0
        tangentMode: 10
      - time: 1.55
        value: 0
        inSlope: 0
        outSlope: 0
        tangentMode: 10
      - time: 2
        value: 0
        inSlope: 0
        outSlope: 0
        tangentMode: 10
      m_PreInfinity: 2
      m_PostInfinity: 2
      m_RotationOrder: 4
    attribute: localEulerAnglesRaw.x
    path: chest/neck/Head/hair03L
    classID: 224
    script: {fileID: 0}
  - curve:
      serializedVersion: 2
      m_Curve:
      - time: 0
        value: 0
        inSlope: 0
        outSlope: 0
        tangentMode: 10
      - time: 0.8333333
        value: 0
        inSlope: 0
        outSlope: 0
        tangentMode: 10
      - time: 1.55
        value: 0
        inSlope: 0
        outSlope: 0
        tangentMode: 10
      - time: 2
        value: 0
        inSlope: 0
        outSlope: 0
        tangentMode: 10
      m_PreInfinity: 2
      m_PostInfinity: 2
      m_RotationOrder: 4
    attribute: localEulerAnglesRaw.y
    path: chest/neck/Head/hair03L
    classID: 224
    script: {fileID: 0}
  - curve:
      serializedVersion: 2
      m_Curve:
      - time: 0
        value: 3.11
        inSlope: -8.412001
        outSlope: -8.412001
        tangentMode: 10
      - time: 0.8333333
        value: -3.9
        inSlope: 4.333535
        outSlope: 4.333535
        tangentMode: 10
      - time: 1.55
        value: 8.34
        inSlope: 2.7284245
        outSlope: 2.7284245
        tangentMode: 10
      - time: 2
        value: 3.11
        inSlope: -11.622222
        outSlope: -11.622222
        tangentMode: 10
      m_PreInfinity: 2
      m_PostInfinity: 2
      m_RotationOrder: 4
    attribute: localEulerAnglesRaw.z
    path: chest/neck/Head/hair03L
    classID: 224
    script: {fileID: 0}
  - curve:
      serializedVersion: 2
      m_Curve:
      - time: 0
        value: 1
        inSlope: 0
        outSlope: 0
        tangentMode: 10
      - time: 0.8333333
        value: 1
        inSlope: 0
        outSlope: 0
        tangentMode: 10
      - time: 2
        value: 1
        inSlope: 0
        outSlope: 0
        tangentMode: 10
      m_PreInfinity: 2
      m_PostInfinity: 2
      m_RotationOrder: 4
    attribute: m_LocalScale.x
    path: chest/neck/Head/EyeHolder
    classID: 224
    script: {fileID: 0}
  - curve:
      serializedVersion: 2
      m_Curve:
      - time: 0
        value: 0.95
        inSlope: 0.11999996
        outSlope: 0.11999996
        tangentMode: 10
      - time: 0.8333333
        value: 1.05
        inSlope: 0.017142855
        outSlope: 0.017142855
        tangentMode: 10
      - time: 2
        value: 0.95
        inSlope: -0.08571425
        outSlope: -0.08571425
        tangentMode: 10
      m_PreInfinity: 2
      m_PostInfinity: 2
      m_RotationOrder: 4
    attribute: m_LocalScale.y
    path: chest/neck/Head/EyeHolder
    classID: 224
    script: {fileID: 0}
  - curve:
      serializedVersion: 2
      m_Curve:
      - time: 0
        value: 1
        inSlope: 0
        outSlope: 0
        tangentMode: 10
      - time: 0.8333333
        value: 1
        inSlope: 0
        outSlope: 0
        tangentMode: 10
      - time: 2
        value: 1
        inSlope: 0
        outSlope: 0
        tangentMode: 10
      m_PreInfinity: 2
      m_PostInfinity: 2
      m_RotationOrder: 4
    attribute: m_LocalScale.z
    path: chest/neck/Head/EyeHolder
    classID: 224
    script: {fileID: 0}
  - curve:
      serializedVersion: 2
      m_Curve:
      - time: 0
        value: 180
        inSlope: 7.6363635
        outSlope: 7.6363635
        tangentMode: 10
      - time: 0.9166667
        value: 187
        inSlope: -0.38181853
        outSlope: -0.38181853
        tangentMode: 10
      - time: 1.75
        value: 180
        inSlope: -4.2000003
        outSlope: -4.2000003
        tangentMode: 10
      - time: 2
        value: 180
        inSlope: 0
        outSlope: 0
        tangentMode: 10
      m_PreInfinity: 2
      m_PostInfinity: 2
      m_RotationOrder: 4
    attribute: m_AnchoredPosition.x
    path: chest/chestFront/Lung
    classID: 224
    script: {fileID: 0}
  - curve:
      serializedVersion: 2
      m_Curve:
      - time: 0
        value: -68
        inSlope: -5.4545455
        outSlope: -5.4545455
        tangentMode: 10
      - time: 0.9166667
        value: -73
        inSlope: 0.27272725
        outSlope: 0.27272725
        tangentMode: 10
      - time: 1.75
        value: -68
        inSlope: 3
        outSlope: 3
        tangentMode: 10
      - time: 2
        value: -68
        inSlope: 0
        outSlope: 0
        tangentMode: 10
      m_PreInfinity: 2
      m_PostInfinity: 2
      m_RotationOrder: 4
    attribute: m_AnchoredPosition.y
    path: chest/chestFront/Lung
    classID: 224
    script: {fileID: 0}
  - curve:
      serializedVersion: 2
      m_Curve:
      - time: 0
        value: 353
        inSlope: 0
        outSlope: 0
        tangentMode: 0
      - time: 1.1666666
        value: 361
        inSlope: 0
        outSlope: 0
        tangentMode: 0
      - time: 2
        value: 353
        inSlope: 0
        outSlope: 0
        tangentMode: 0
      m_PreInfinity: 2
      m_PostInfinity: 2
      m_RotationOrder: 4
    attribute: m_AnchoredPosition.y
    path: LeftArmHolder
    classID: 224
    script: {fileID: 0}
  - curve:
      serializedVersion: 2
      m_Curve:
      - time: 0
        value: 68.09998
        inSlope: -30.899988
        outSlope: -30.899988
        tangentMode: 10
      - time: 1.1666666
        value: 32.05
        inSlope: 13.01052
        outSlope: 13.01052
        tangentMode: 10
      - time: 1.8
        value: 68.09998
        inSlope: 56.92103
        outSlope: 56.92103
        tangentMode: 10
      m_PreInfinity: 2
      m_PostInfinity: 2
      m_RotationOrder: 4
    attribute: m_AnchoredPosition.y
    path: Cylinder/Pump
    classID: 224
    script: {fileID: 0}
  - curve:
      serializedVersion: 2
      m_Curve:
      - time: 0
        value: -3.8270001
        inSlope: 2.982078
        outSlope: 2.982078
        tangentMode: 10
      - time: 1.2833333
        value: 0
        inSlope: 1.491039
        outSlope: 1.491039
        tangentMode: 10
      - time: 2
        value: 0
        inSlope: 0
        outSlope: 0
        tangentMode: 10
      m_PreInfinity: 2
      m_PostInfinity: 2
      m_RotationOrder: 4
    attribute: m_LocalPosition.z
    path: chest/RightArm
    classID: 224
    script: {fileID: 0}
  - curve:
      serializedVersion: 2
      m_Curve:
      - time: 0
        value: -44
        inSlope: 0
        outSlope: 0
        tangentMode: 0
      - time: 1.1666666
        value: -41
        inSlope: 0
        outSlope: 0
        tangentMode: 0
      - time: 2
        value: -44
        inSlope: 0
        outSlope: 0
        tangentMode: 0
      m_PreInfinity: 2
      m_PostInfinity: 2
      m_RotationOrder: 4
    attribute: m_AnchoredPosition.y
    path: chest/neck
    classID: 224
    script: {fileID: 0}
  m_EulerEditorCurves:
  - curve:
      serializedVersion: 2
      m_Curve: []
      m_PreInfinity: 2
      m_PostInfinity: 2
      m_RotationOrder: 4
    attribute: m_LocalEulerAngles.z
    path: chest/neck/Head/hair03R
    classID: 224
    script: {fileID: 0}
  - curve:
      serializedVersion: 2
      m_Curve: []
      m_PreInfinity: 2
      m_PostInfinity: 2
      m_RotationOrder: 4
    attribute: m_LocalEulerAngles.y
    path: chest/neck/Head/hair03R
    classID: 224
    script: {fileID: 0}
  - curve:
      serializedVersion: 2
      m_Curve: []
      m_PreInfinity: 2
      m_PostInfinity: 2
      m_RotationOrder: 4
    attribute: m_LocalEulerAngles.x
    path: chest/neck/Head/hair03R
    classID: 224
    script: {fileID: 0}
  - curve:
      serializedVersion: 2
      m_Curve: []
      m_PreInfinity: 2
      m_PostInfinity: 2
      m_RotationOrder: 4
    attribute: m_LocalEulerAngles.z
    path: Stovepipe/Pipe/Lid
    classID: 224
    script: {fileID: 0}
  - curve:
      serializedVersion: 2
      m_Curve: []
      m_PreInfinity: 2
      m_PostInfinity: 2
      m_RotationOrder: 4
    attribute: m_LocalEulerAngles.y
    path: Stovepipe/Pipe/Lid
    classID: 224
    script: {fileID: 0}
  - curve:
      serializedVersion: 2
      m_Curve: []
      m_PreInfinity: 2
      m_PostInfinity: 2
      m_RotationOrder: 4
    attribute: m_LocalEulerAngles.x
    path: Stovepipe/Pipe/Lid
    classID: 224
    script: {fileID: 0}
  - curve:
      serializedVersion: 2
      m_Curve: []
      m_PreInfinity: 2
      m_PostInfinity: 2
      m_RotationOrder: 4
    attribute: m_LocalEulerAngles.x
    path: chest/neck/Head/hair01R
    classID: 224
    script: {fileID: 0}
  - curve:
      serializedVersion: 2
      m_Curve: []
      m_PreInfinity: 2
      m_PostInfinity: 2
      m_RotationOrder: 4
    attribute: m_LocalEulerAngles.y
    path: chest/neck/Head/hair01R
    classID: 224
    script: {fileID: 0}
  - curve:
      serializedVersion: 2
      m_Curve: []
      m_PreInfinity: 2
      m_PostInfinity: 2
      m_RotationOrder: 4
    attribute: m_LocalEulerAngles.z
    path: chest/neck/Head/hair01R
    classID: 224
    script: {fileID: 0}
  - curve:
      serializedVersion: 2
      m_Curve: []
      m_PreInfinity: 2
      m_PostInfinity: 2
      m_RotationOrder: 4
    attribute: m_LocalEulerAngles.x
    path: chest/chestFront/FrontPipe
    classID: 224
    script: {fileID: 0}
  - curve:
      serializedVersion: 2
      m_Curve: []
      m_PreInfinity: 2
      m_PostInfinity: 2
      m_RotationOrder: 4
    attribute: m_LocalEulerAngles.y
    path: chest/chestFront/FrontPipe
    classID: 224
    script: {fileID: 0}
  - curve:
      serializedVersion: 2
      m_Curve: []
      m_PreInfinity: 2
      m_PostInfinity: 2
      m_RotationOrder: 4
    attribute: m_LocalEulerAngles.z
    path: chest/chestFront/FrontPipe
    classID: 224
    script: {fileID: 0}
  - curve:
      serializedVersion: 2
      m_Curve: []
      m_PreInfinity: 2
      m_PostInfinity: 2
      m_RotationOrder: 4
    attribute: m_LocalEulerAngles.z
    path: chest/neck/Head/hair03L
    classID: 224
    script: {fileID: 0}
  - curve:
      serializedVersion: 2
      m_Curve: []
      m_PreInfinity: 2
      m_PostInfinity: 2
      m_RotationOrder: 4
    attribute: m_LocalEulerAngles.y
    path: chest/neck/Head/hair03L
    classID: 224
    script: {fileID: 0}
  - curve:
      serializedVersion: 2
      m_Curve: []
      m_PreInfinity: 2
      m_PostInfinity: 2
      m_RotationOrder: 4
    attribute: m_LocalEulerAngles.x
    path: chest/neck/Head/hair03L
    classID: 224
    script: {fileID: 0}
  - curve:
      serializedVersion: 2
      m_Curve: []
      m_PreInfinity: 2
      m_PostInfinity: 2
      m_RotationOrder: 4
    attribute: m_LocalEulerAngles.z
    path: chest/neck/Head/hair02R
    classID: 224
    script: {fileID: 0}
  - curve:
      serializedVersion: 2
      m_Curve: []
      m_PreInfinity: 2
      m_PostInfinity: 2
      m_RotationOrder: 4
    attribute: m_LocalEulerAngles.y
    path: chest/neck/Head/hair02R
    classID: 224
    script: {fileID: 0}
  - curve:
      serializedVersion: 2
      m_Curve: []
      m_PreInfinity: 2
      m_PostInfinity: 2
      m_RotationOrder: 4
    attribute: m_LocalEulerAngles.x
    path: chest/neck/Head/hair02R
    classID: 224
    script: {fileID: 0}
  - curve:
      serializedVersion: 2
      m_Curve: []
      m_PreInfinity: 2
      m_PostInfinity: 2
      m_RotationOrder: 4
    attribute: m_LocalEulerAngles.x
    path: chest/RightArm
    classID: 224
    script: {fileID: 0}
  - curve:
      serializedVersion: 2
      m_Curve: []
      m_PreInfinity: 2
      m_PostInfinity: 2
      m_RotationOrder: 4
    attribute: m_LocalEulerAngles.y
    path: chest/RightArm
    classID: 224
    script: {fileID: 0}
  - curve:
      serializedVersion: 2
      m_Curve: []
      m_PreInfinity: 2
      m_PostInfinity: 2
      m_RotationOrder: 4
    attribute: m_LocalEulerAngles.z
    path: chest/RightArm
    classID: 224
    script: {fileID: 0}
  m_HasGenericRootTransform: 0
  m_HasMotionFloatCurves: 0
  m_GenerateMotionCurves: 0
  m_Events: []
