%YAML 1.1
%TAG !u! tag:unity3d.com,2011:
--- !u!74 &7400000
AnimationClip:
  m_ObjectHideFlags: 0
  m_PrefabParentObject: {fileID: 0}
  m_PrefabInternal: {fileID: 0}
  m_Name: Fire
  serializedVersion: 6
  m_Legacy: 0
  m_Compressed: 0
  m_UseHighQualityCurve: 1
  m_RotationCurves: []
  m_CompressedRotationCurves: []
  m_EulerCurves:
  - curve:
      serializedVersion: 2
      m_Curve:
      - time: 0
        value: {x: 0, y: 0, z: -20}
        inSlope: {x: 0, y: 0, z: -120.59999}
        outSlope: {x: 0, y: 0, z: -120.59999}
        tangentMode: 0
      - time: 0.16666667
        value: {x: 0, y: 0, z: -40.1}
        inSlope: {x: 0, y: 0, z: -30.149996}
        outSlope: {x: 0, y: 0, z: -30.149996}
        tangentMode: 0
      - time: 0.5
        value: {x: 0, y: 0, z: -20}
        inSlope: {x: 0, y: 0, z: 60.3}
        outSlope: {x: 0, y: 0, z: 60.3}
        tangentMode: 0
      m_PreInfinity: 2
      m_PostInfinity: 2
      m_RotationOrder: 4
    path: base/armature001
  - curve:
      serializedVersion: 2
      m_Curve:
      - time: 0
        value: {x: 0, y: 0, z: 90}
        inSlope: {x: 0, y: 0, z: 127.19998}
        outSlope: {x: 0, y: 0, z: 127.19998}
        tangentMode: 0
      - time: 0.16666667
        value: {x: 0, y: 0, z: 111.2}
        inSlope: {x: 0, y: 0, z: 31.799994}
        outSlope: {x: 0, y: 0, z: 31.799994}
        tangentMode: 0
      - time: 0.5
        value: {x: 0, y: 0, z: 90}
        inSlope: {x: 0, y: 0, z: -63.599995}
        outSlope: {x: 0, y: 0, z: -63.599995}
        tangentMode: 0
      m_PreInfinity: 2
      m_PostInfinity: 2
      m_RotationOrder: 4
    path: base/armature001/armature002
  - curve:
      serializedVersion: 2
      m_Curve:
      - time: 0
        value: {x: 0, y: 0, z: -110}
        inSlope: {x: 0, y: 0, z: 57}
        outSlope: {x: 0, y: 0, z: 57}
        tangentMode: 0
      - time: 0.16666667
        value: {x: 0, y: 0, z: -100.5}
        inSlope: {x: 0, y: 0, z: 14.249999}
        outSlope: {x: 0, y: 0, z: 14.249999}
        tangentMode: 0
      - time: 0.5
        value: {x: 0, y: 0, z: -110}
        inSlope: {x: 0, y: 0, z: -28.500002}
        outSlope: {x: 0, y: 0, z: -28.500002}
        tangentMode: 0
      m_PreInfinity: 2
      m_PostInfinity: 2
      m_RotationOrder: 4
    path: base/armature001/armature002/armature003
  - curve:
      serializedVersion: 2
      m_Curve:
      - time: 0
        value: {x: 0, y: 0, z: 42}
        inSlope: {x: 0, y: 0, z: 199.99998}
        outSlope: {x: 0, y: 0, z: 199.99998}
        tangentMode: 0
      - time: 0.15
        value: {x: 0, y: 0, z: 72}
        inSlope: {x: 0, y: 0, z: 0}
        outSlope: {x: 0, y: 0, z: 0}
        tangentMode: 0
      - time: 0.6
        value: {x: 0, y: 0, z: 42}
        inSlope: {x: 0, y: 0, z: 0}
        outSlope: {x: 0, y: 0, z: 0}
        tangentMode: 0
      - time: 0.6666667
        value: {x: 0, y: 0, z: 42}
        inSlope: {x: 0, y: 0, z: 0}
        outSlope: {x: 0, y: 0, z: 0}
        tangentMode: 0
      m_PreInfinity: 2
      m_PostInfinity: 2
      m_RotationOrder: 4
    path: base/armature001/armature002/armature003/body
  - curve:
      serializedVersion: 2
      m_Curve:
      - time: 0
        value: {x: 0, y: 0, z: 0}
        inSlope: {x: 0, y: 0, z: -681.99994}
        outSlope: {x: 0, y: 0, z: -681.99994}
        tangentMode: 0
      - time: 0.05
        value: {x: 0, y: 0, z: -34.1}
        inSlope: {x: 0, y: 0, z: -15.200012}
        outSlope: {x: 0, y: 0, z: -15.200012}
        tangentMode: 0
      - time: 0.15
        value: {x: 0, y: 0, z: 31.06}
        inSlope: {x: 0, y: 0, z: 48.07495}
        outSlope: {x: 0, y: 0, z: 48.07495}
        tangentMode: 0
      - time: 0.28333333
        value: {x: 0, y: 0, z: -43}
        inSlope: {x: 0, y: 0, z: -63.22499}
        outSlope: {x: 0, y: 0, z: -63.22499}
        tangentMode: 0
      - time: 0.41666666
        value: {x: 0, y: 0, z: 14.2}
        inSlope: {x: 0, y: 0, z: 93.3}
        outSlope: {x: 0, y: 0, z: 93.3}
        tangentMode: 0
      - time: 0.5833333
        value: {x: 0, y: 0, z: -26.2}
        inSlope: {x: 0, y: 0, z: 13.799973}
        outSlope: {x: 0, y: 0, z: 13.799973}
        tangentMode: 0
      - time: 0.7
        value: {x: 0, y: 0, z: 5.3}
        inSlope: {x: 0, y: 0, z: 0}
        outSlope: {x: 0, y: 0, z: 0}
        tangentMode: 0
      - time: 0.8
        value: {x: 0, y: 0, z: -8}
        inSlope: {x: 0, y: 0, z: 0}
        outSlope: {x: 0, y: 0, z: 0}
        tangentMode: 0
      - time: 0.9
        value: {x: 0, y: 0, z: 1.61}
        inSlope: {x: 0, y: 0, z: 0}
        outSlope: {x: 0, y: 0, z: 0}
        tangentMode: 0
      - time: 0.98333335
        value: {x: 0, y: 0, z: 0}
        inSlope: {x: 0, y: 0, z: 0}
        outSlope: {x: 0, y: 0, z: 0}
        tangentMode: 0
      - time: 1.05
        value: {x: 0, y: 0, z: -0.5}
        inSlope: {x: 0, y: 0, z: 0}
        outSlope: {x: 0, y: 0, z: 0}
        tangentMode: 0
      - time: 1.0833334
        value: {x: 0, y: 0, z: 0.3125003}
        inSlope: {x: 0, y: 0, z: 0}
        outSlope: {x: 0, y: 0, z: 0}
        tangentMode: 0
      - time: 1.1166667
        value: {x: 0, y: 0, z: 0}
        inSlope: {x: 0, y: 0, z: -9.375018}
        outSlope: {x: 0, y: 0, z: -9.375018}
        tangentMode: 0
      m_PreInfinity: 2
      m_PostInfinity: 2
      m_RotationOrder: 4
    path: base/armature001/armature002/armature003/body/antenna
  m_PositionCurves:
  - curve:
      serializedVersion: 2
      m_Curve:
      - time: 0
        value: {x: -0.009052202, y: 0.1251955, z: -0.008746803}
        inSlope: {x: -3.6142168, y: -0.0029325483, z: -0.0037979519}
        outSlope: {x: -3.6142168, y: -0.0029325483, z: -0.0037979519}
        tangentMode: 0
      - time: 0.06666667
        value: {x: -0.25, y: 0.125, z: -0.009}
        inSlope: {x: -1.5880649, y: -0.0012885439, z: -0.001668797}
        outSlope: {x: -1.5880649, y: -0.0012885439, z: -0.001668797}
        tangentMode: 0
      - time: 0.6166667
        value: {x: -0.009052202, y: 0.1251955, z: -0.008746803}
        inSlope: {x: 0.4380869, y: 0.00035546042, z: 0.0004603578}
        outSlope: {x: 0.4380869, y: 0.00035546042, z: 0.0004603578}
        tangentMode: 0
      m_PreInfinity: 2
      m_PostInfinity: 2
      m_RotationOrder: 4
    path: base/armature001/armature002/armature003/body/barrels
  m_ScaleCurves: []
  m_FloatCurves: []
  m_PPtrCurves: []
  m_SampleRate: 60
  m_WrapMode: 0
  m_Bounds:
    m_Center: {x: 0, y: 0, z: 0}
    m_Extent: {x: 0, y: 0, z: 0}
  m_ClipBindingConstant:
    genericBindings:
    - path: 1483770015
      attribute: 1
      script: {fileID: 0}
      classID: 4
      customType: 0
      isPPtrCurve: 0
    - path: 4071756774
      attribute: 4
      script: {fileID: 0}
      classID: 4
      customType: 14
      isPPtrCurve: 0
    - path: 2661069440
      attribute: 4
      script: {fileID: 0}
      classID: 4
      customType: 14
      isPPtrCurve: 0
    - path: 4123291557
      attribute: 4
      script: {fileID: 0}
      classID: 4
      customType: 14
      isPPtrCurve: 0
    - path: 1538279345
      attribute: 4
      script: {fileID: 0}
      classID: 4
      customType: 14
      isPPtrCurve: 0
    - path: 395986554
      attribute: 4
      script: {fileID: 0}
      classID: 4
      customType: 14
      isPPtrCurve: 0
    pptrCurveMapping: []
  m_AnimationClipSettings:
    serializedVersion: 2
    m_AdditiveReferencePoseClip: {fileID: 0}
    m_AdditiveReferencePoseTime: 0
    m_StartTime: 0
    m_StopTime: 1.1166667
    m_OrientationOffsetY: 0
    m_Level: 0
    m_CycleOffset: 0
    m_HasAdditiveReferencePose: 0
    m_LoopTime: 0
    m_LoopBlend: 0
    m_LoopBlendOrientation: 0
    m_LoopBlendPositionY: 0
    m_LoopBlendPositionXZ: 0
    m_KeepOriginalOrientation: 0
    m_KeepOriginalPositionY: 1
    m_KeepOriginalPositionXZ: 0
    m_HeightFromFeet: 0
    m_Mirror: 0
  m_EditorCurves:
  - curve:
      serializedVersion: 2
      m_Curve:
      - time: 0
        value: 0
        inSlope: 0
        outSlope: 0
        tangentMode: 10
      - time: 0.16666667
        value: 0
        inSlope: 0
        outSlope: 0
        tangentMode: 10
      - time: 0.5
        value: 0
        inSlope: 0
        outSlope: 0
        tangentMode: 10
      m_PreInfinity: 2
      m_PostInfinity: 2
      m_RotationOrder: 4
    attribute: localEulerAnglesRaw.x
    path: base/armature001
    classID: 4
    script: {fileID: 0}
  - curve:
      serializedVersion: 2
      m_Curve:
      - time: 0
        value: 0
        inSlope: 0
        outSlope: 0
        tangentMode: 10
      - time: 0.16666667
        value: 0
        inSlope: 0
        outSlope: 0
        tangentMode: 10
      - time: 0.5
        value: 0
        inSlope: 0
        outSlope: 0
        tangentMode: 10
      m_PreInfinity: 2
      m_PostInfinity: 2
      m_RotationOrder: 4
    attribute: localEulerAnglesRaw.y
    path: base/armature001
    classID: 4
    script: {fileID: 0}
  - curve:
      serializedVersion: 2
      m_Curve:
      - time: 0
        value: -20
        inSlope: -120.59999
        outSlope: -120.59999
        tangentMode: 10
      - time: 0.16666667
        value: -40.1
        inSlope: -30.149996
        outSlope: -30.149996
        tangentMode: 10
      - time: 0.5
        value: -20
        inSlope: 60.3
        outSlope: 60.3
        tangentMode: 10
      m_PreInfinity: 2
      m_PostInfinity: 2
      m_RotationOrder: 4
    attribute: localEulerAnglesRaw.z
    path: base/armature001
    classID: 4
    script: {fileID: 0}
  - curve:
      serializedVersion: 2
      m_Curve:
      - time: 0
        value: 0
        inSlope: 0
        outSlope: 0
        tangentMode: 10
      - time: 0.16666667
        value: 0
        inSlope: 0
        outSlope: 0
        tangentMode: 10
      - time: 0.5
        value: 0
        inSlope: 0
        outSlope: 0
        tangentMode: 10
      m_PreInfinity: 2
      m_PostInfinity: 2
      m_RotationOrder: 4
    attribute: localEulerAnglesRaw.x
    path: base/armature001/armature002
    classID: 4
    script: {fileID: 0}
  - curve:
      serializedVersion: 2
      m_Curve:
      - time: 0
        value: 0
        inSlope: 0
        outSlope: 0
        tangentMode: 10
      - time: 0.16666667
        value: 0
        inSlope: 0
        outSlope: 0
        tangentMode: 10
      - time: 0.5
        value: 0
        inSlope: 0
        outSlope: 0
        tangentMode: 10
      m_PreInfinity: 2
      m_PostInfinity: 2
      m_RotationOrder: 4
    attribute: localEulerAnglesRaw.y
    path: base/armature001/armature002
    classID: 4
    script: {fileID: 0}
  - curve:
      serializedVersion: 2
      m_Curve:
      - time: 0
        value: 90
        inSlope: 127.19998
        outSlope: 127.19998
        tangentMode: 10
      - time: 0.16666667
        value: 111.2
        inSlope: 31.799994
        outSlope: 31.799994
        tangentMode: 10
      - time: 0.5
        value: 90
        inSlope: -63.599995
        outSlope: -63.599995
        tangentMode: 10
      m_PreInfinity: 2
      m_PostInfinity: 2
      m_RotationOrder: 4
    attribute: localEulerAnglesRaw.z
    path: base/armature001/armature002
    classID: 4
    script: {fileID: 0}
  - curve:
      serializedVersion: 2
      m_Curve:
      - time: 0
        value: 0
        inSlope: 0
        outSlope: 0
        tangentMode: 10
      - time: 0.16666667
        value: 0
        inSlope: 0
        outSlope: 0
        tangentMode: 10
      - time: 0.5
        value: 0
        inSlope: 0
        outSlope: 0
        tangentMode: 10
      m_PreInfinity: 2
      m_PostInfinity: 2
      m_RotationOrder: 4
    attribute: localEulerAnglesRaw.x
    path: base/armature001/armature002/armature003
    classID: 4
    script: {fileID: 0}
  - curve:
      serializedVersion: 2
      m_Curve:
      - time: 0
        value: 0
        inSlope: 0
        outSlope: 0
        tangentMode: 10
      - time: 0.16666667
        value: 0
        inSlope: 0
        outSlope: 0
        tangentMode: 10
      - time: 0.5
        value: 0
        inSlope: 0
        outSlope: 0
        tangentMode: 10
      m_PreInfinity: 2
      m_PostInfinity: 2
      m_RotationOrder: 4
    attribute: localEulerAnglesRaw.y
    path: base/armature001/armature002/armature003
    classID: 4
    script: {fileID: 0}
  - curve:
      serializedVersion: 2
      m_Curve:
      - time: 0
        value: -110
        inSlope: 57
        outSlope: 57
        tangentMode: 10
      - time: 0.16666667
        value: -100.5
        inSlope: 14.249999
        outSlope: 14.249999
        tangentMode: 10
      - time: 0.5
        value: -110
        inSlope: -28.500002
        outSlope: -28.500002
        tangentMode: 10
      m_PreInfinity: 2
      m_PostInfinity: 2
      m_RotationOrder: 4
    attribute: localEulerAnglesRaw.z
    path: base/armature001/armature002/armature003
    classID: 4
    script: {fileID: 0}
  - curve:
      serializedVersion: 2
      m_Curve:
      - time: 0
        value: 0
        inSlope: 0
        outSlope: 0
        tangentMode: 10
      - time: 0.15
        value: 0
        inSlope: 0
        outSlope: 0
        tangentMode: 0
      - time: 0.6
        value: 0
        inSlope: 0
        outSlope: 0
        tangentMode: 0
      - time: 0.6666667
        value: 0
        inSlope: 0
        outSlope: 0
        tangentMode: 0
      m_PreInfinity: 2
      m_PostInfinity: 2
      m_RotationOrder: 4
    attribute: localEulerAnglesRaw.x
    path: base/armature001/armature002/armature003/body
    classID: 4
    script: {fileID: 0}
  - curve:
      serializedVersion: 2
      m_Curve:
      - time: 0
        value: 0
        inSlope: 0
        outSlope: 0
        tangentMode: 10
      - time: 0.15
        value: 0
        inSlope: 0
        outSlope: 0
        tangentMode: 0
      - time: 0.6
        value: 0
        inSlope: 0
        outSlope: 0
        tangentMode: 0
      - time: 0.6666667
        value: 0
        inSlope: 0
        outSlope: 0
        tangentMode: 0
      m_PreInfinity: 2
      m_PostInfinity: 2
      m_RotationOrder: 4
    attribute: localEulerAnglesRaw.y
    path: base/armature001/armature002/armature003/body
    classID: 4
    script: {fileID: 0}
  - curve:
      serializedVersion: 2
      m_Curve:
      - time: 0
        value: 42
        inSlope: 199.99998
        outSlope: 199.99998
        tangentMode: 10
      - time: 0.15
        value: 72
        inSlope: 0
        outSlope: 0
        tangentMode: 0
      - time: 0.6
        value: 42
        inSlope: 0
        outSlope: 0
        tangentMode: 0
      - time: 0.6666667
        value: 42
        inSlope: 0
        outSlope: 0
        tangentMode: 0
      m_PreInfinity: 2
      m_PostInfinity: 2
      m_RotationOrder: 4
    attribute: localEulerAnglesRaw.z
    path: base/armature001/armature002/armature003/body
    classID: 4
    script: {fileID: 0}
  - curve:
      serializedVersion: 2
      m_Curve:
      - time: 0
        value: 0
        inSlope: 0
        outSlope: 0
        tangentMode: 10
      - time: 0.05
        value: 0
        inSlope: 0
        outSlope: 0
        tangentMode: 10
      - time: 0.15
        value: 0
        inSlope: 0
        outSlope: 0
        tangentMode: 10
      - time: 0.28333333
        value: 0
        inSlope: 0
        outSlope: 0
        tangentMode: 10
      - time: 0.41666666
        value: 0
        inSlope: 0
        outSlope: 0
        tangentMode: 10
      - time: 0.5833333
        value: 0
        inSlope: 0
        outSlope: 0
        tangentMode: 10
      - time: 0.7
        value: 0
        inSlope: 0
        outSlope: 0
        tangentMode: 0
      - time: 0.8
        value: 0
        inSlope: 0
        outSlope: 0
        tangentMode: 0
      - time: 0.9
        value: 0
        inSlope: 0
        outSlope: 0
        tangentMode: 0
      - time: 0.98333335
        value: 0
        inSlope: 0
        outSlope: 0
        tangentMode: 0
      - time: 1.05
        value: 0
        inSlope: 0
        outSlope: 0
        tangentMode: 0
      - time: 1.0833334
        value: 0
        inSlope: 0
        outSlope: 0
        tangentMode: 0
      - time: 1.1166667
        value: 0
        inSlope: 0
        outSlope: 0
        tangentMode: 10
      m_PreInfinity: 2
      m_PostInfinity: 2
      m_RotationOrder: 4
    attribute: localEulerAnglesRaw.x
    path: base/armature001/armature002/armature003/body/antenna
    classID: 4
    script: {fileID: 0}
  - curve:
      serializedVersion: 2
      m_Curve:
      - time: 0
        value: 0
        inSlope: 0
        outSlope: 0
        tangentMode: 10
      - time: 0.05
        value: 0
        inSlope: 0
        outSlope: 0
        tangentMode: 10
      - time: 0.15
        value: 0
        inSlope: 0
        outSlope: 0
        tangentMode: 10
      - time: 0.28333333
        value: 0
        inSlope: 0
        outSlope: 0
        tangentMode: 10
      - time: 0.41666666
        value: 0
        inSlope: 0
        outSlope: 0
        tangentMode: 10
      - time: 0.5833333
        value: 0
        inSlope: 0
        outSlope: 0
        tangentMode: 10
      - time: 0.7
        value: 0
        inSlope: 0
        outSlope: 0
        tangentMode: 0
      - time: 0.8
        value: 0
        inSlope: 0
        outSlope: 0
        tangentMode: 0
      - time: 0.9
        value: 0
        inSlope: 0
        outSlope: 0
        tangentMode: 0
      - time: 0.98333335
        value: 0
        inSlope: 0
        outSlope: 0
        tangentMode: 0
      - time: 1.05
        value: 0
        inSlope: 0
        outSlope: 0
        tangentMode: 0
      - time: 1.0833334
        value: 0
        inSlope: 0
        outSlope: 0
        tangentMode: 0
      - time: 1.1166667
        value: 0
        inSlope: 0
        outSlope: 0
        tangentMode: 10
      m_PreInfinity: 2
      m_PostInfinity: 2
      m_RotationOrder: 4
    attribute: localEulerAnglesRaw.y
    path: base/armature001/armature002/armature003/body/antenna
    classID: 4
    script: {fileID: 0}
  - curve:
      serializedVersion: 2
      m_Curve:
      - time: 0
        value: 0
        inSlope: -681.99994
        outSlope: -681.99994
        tangentMode: 10
      - time: 0.05
        value: -34.1
        inSlope: -15.200012
        outSlope: -15.200012
        tangentMode: 10
      - time: 0.15
        value: 31.06
        inSlope: 48.07495
        outSlope: 48.07495
        tangentMode: 10
      - time: 0.28333333
        value: -43
        inSlope: -63.22499
        outSlope: -63.22499
        tangentMode: 10
      - time: 0.41666666
        value: 14.2
        inSlope: 93.3
        outSlope: 93.3
        tangentMode: 10
      - time: 0.5833333
        value: -26.2
        inSlope: 13.799973
        outSlope: 13.799973
        tangentMode: 10
      - time: 0.7
        value: 5.3
        inSlope: 0
        outSlope: 0
        tangentMode: 0
      - time: 0.8
        value: -8
        inSlope: 0
        outSlope: 0
        tangentMode: 0
      - time: 0.9
        value: 1.61
        inSlope: 0
        outSlope: 0
        tangentMode: 0
      - time: 0.98333335
        value: 0
        inSlope: 0
        outSlope: 0
        tangentMode: 0
      - time: 1.05
        value: -0.5
        inSlope: 0
        outSlope: 0
        tangentMode: 0
      - time: 1.0833334
        value: 0.3125003
        inSlope: 0
        outSlope: 0
        tangentMode: 0
      - time: 1.1166667
        value: 0
        inSlope: -9.375018
        outSlope: -9.375018
        tangentMode: 10
      m_PreInfinity: 2
      m_PostInfinity: 2
      m_RotationOrder: 4
    attribute: localEulerAnglesRaw.z
    path: base/armature001/armature002/armature003/body/antenna
    classID: 4
    script: {fileID: 0}
  - curve:
      serializedVersion: 2
      m_Curve:
      - time: 0
        value: -0.009052202
        inSlope: -3.6142168
        outSlope: -3.6142168
        tangentMode: 10
      - time: 0.06666667
        value: -0.25
        inSlope: -1.5880649
        outSlope: -1.5880649
        tangentMode: 10
      - time: 0.6166667
        value: -0.009052202
        inSlope: 0.4380869
        outSlope: 0.4380869
        tangentMode: 10
      m_PreInfinity: 2
      m_PostInfinity: 2
      m_RotationOrder: 4
    attribute: m_LocalPosition.x
    path: base/armature001/armature002/armature003/body/barrels
    classID: 4
    script: {fileID: 0}
  - curve:
      serializedVersion: 2
      m_Curve:
      - time: 0
        value: 0.1251955
        inSlope: -0.0029325483
        outSlope: -0.0029325483
        tangentMode: 10
      - time: 0.06666667
        value: 0.125
        inSlope: -0.0012885439
        outSlope: -0.0012885439
        tangentMode: 10
      - time: 0.6166667
        value: 0.1251955
        inSlope: 0.00035546042
        outSlope: 0.00035546042
        tangentMode: 10
      m_PreInfinity: 2
      m_PostInfinity: 2
      m_RotationOrder: 4
    attribute: m_LocalPosition.y
    path: base/armature001/armature002/armature003/body/barrels
    classID: 4
    script: {fileID: 0}
  - curve:
      serializedVersion: 2
      m_Curve:
      - time: 0
        value: -0.008746803
        inSlope: -0.0037979519
        outSlope: -0.0037979519
        tangentMode: 10
      - time: 0.06666667
        value: -0.009
        inSlope: -0.001668797
        outSlope: -0.001668797
        tangentMode: 10
      - time: 0.6166667
        value: -0.008746803
        inSlope: 0.0004603578
        outSlope: 0.0004603578
        tangentMode: 10
      m_PreInfinity: 2
      m_PostInfinity: 2
      m_RotationOrder: 4
    attribute: m_LocalPosition.z
    path: base/armature001/armature002/armature003/body/barrels
    classID: 4
    script: {fileID: 0}
  m_EulerEditorCurves:
  - curve:
      serializedVersion: 2
      m_Curve: []
      m_PreInfinity: 2
      m_PostInfinity: 2
      m_RotationOrder: 4
    attribute: m_LocalEulerAngles.z
    path: base/armature001/armature002/armature003/body
    classID: 4
    script: {fileID: 0}
  - curve:
      serializedVersion: 2
      m_Curve: []
      m_PreInfinity: 2
      m_PostInfinity: 2
      m_RotationOrder: 4
    attribute: m_LocalEulerAngles.y
    path: base/armature001/armature002/armature003/body
    classID: 4
    script: {fileID: 0}
  - curve:
      serializedVersion: 2
      m_Curve: []
      m_PreInfinity: 2
      m_PostInfinity: 2
      m_RotationOrder: 4
    attribute: m_LocalEulerAngles.x
    path: base/armature001/armature002/armature003/body
    classID: 4
    script: {fileID: 0}
  - curve:
      serializedVersion: 2
      m_Curve: []
      m_PreInfinity: 2
      m_PostInfinity: 2
      m_RotationOrder: 4
    attribute: m_LocalEulerAngles.z
    path: base/armature001/armature002
    classID: 4
    script: {fileID: 0}
  - curve:
      serializedVersion: 2
      m_Curve: []
      m_PreInfinity: 2
      m_PostInfinity: 2
      m_RotationOrder: 4
    attribute: m_LocalEulerAngles.y
    path: base/armature001/armature002
    classID: 4
    script: {fileID: 0}
  - curve:
      serializedVersion: 2
      m_Curve: []
      m_PreInfinity: 2
      m_PostInfinity: 2
      m_RotationOrder: 4
    attribute: m_LocalEulerAngles.x
    path: base/armature001/armature002
    classID: 4
    script: {fileID: 0}
  - curve:
      serializedVersion: 2
      m_Curve: []
      m_PreInfinity: 2
      m_PostInfinity: 2
      m_RotationOrder: 4
    attribute: m_LocalEulerAngles.z
    path: base/armature001
    classID: 4
    script: {fileID: 0}
  - curve:
      serializedVersion: 2
      m_Curve: []
      m_PreInfinity: 2
      m_PostInfinity: 2
      m_RotationOrder: 4
    attribute: m_LocalEulerAngles.y
    path: base/armature001
    classID: 4
    script: {fileID: 0}
  - curve:
      serializedVersion: 2
      m_Curve: []
      m_PreInfinity: 2
      m_PostInfinity: 2
      m_RotationOrder: 4
    attribute: m_LocalEulerAngles.x
    path: base/armature001
    classID: 4
    script: {fileID: 0}
  - curve:
      serializedVersion: 2
      m_Curve: []
      m_PreInfinity: 2
      m_PostInfinity: 2
      m_RotationOrder: 4
    attribute: m_LocalEulerAngles.x
    path: base/armature001/armature002/armature003
    classID: 4
    script: {fileID: 0}
  - curve:
      serializedVersion: 2
      m_Curve: []
      m_PreInfinity: 2
      m_PostInfinity: 2
      m_RotationOrder: 4
    attribute: m_LocalEulerAngles.y
    path: base/armature001/armature002/armature003
    classID: 4
    script: {fileID: 0}
  - curve:
      serializedVersion: 2
      m_Curve: []
      m_PreInfinity: 2
      m_PostInfinity: 2
      m_RotationOrder: 4
    attribute: m_LocalEulerAngles.z
    path: base/armature001/armature002/armature003
    classID: 4
    script: {fileID: 0}
  - curve:
      serializedVersion: 2
      m_Curve: []
      m_PreInfinity: 2
      m_PostInfinity: 2
      m_RotationOrder: 4
    attribute: m_LocalEulerAngles.z
    path: base/armature001/armature002/armature003/body/antenna
    classID: 4
    script: {fileID: 0}
  - curve:
      serializedVersion: 2
      m_Curve: []
      m_PreInfinity: 2
      m_PostInfinity: 2
      m_RotationOrder: 4
    attribute: m_LocalEulerAngles.y
    path: base/armature001/armature002/armature003/body/antenna
    classID: 4
    script: {fileID: 0}
  - curve:
      serializedVersion: 2
      m_Curve: []
      m_PreInfinity: 2
      m_PostInfinity: 2
      m_RotationOrder: 4
    attribute: m_LocalEulerAngles.x
    path: base/armature001/armature002/armature003/body/antenna
    classID: 4
    script: {fileID: 0}
  m_HasGenericRootTransform: 0
  m_HasMotionFloatCurves: 0
  m_GenerateMotionCurves: 0
  m_Events: []
