%YAML 1.1
%TAG !u! tag:unity3d.com,2011:
--- !u!74 &7400000
AnimationClip:
  m_ObjectHideFlags: 0
  m_PrefabParentObject: {fileID: 0}
  m_PrefabInternal: {fileID: 0}
  m_Name: Fire
  serializedVersion: 6
  m_Legacy: 0
  m_Compressed: 0
  m_UseHighQualityCurve: 1
  m_RotationCurves: []
  m_CompressedRotationCurves: []
  m_EulerCurves: []
  m_PositionCurves:
  - curve:
      serializedVersion: 2
      m_Curve:
      - time: 0
        value: {x: 1.082826, y: 0.100158095, z: 0}
        inSlope: {x: -1.2565207, y: 0, z: 0}
        outSlope: {x: -1.2565207, y: 0, z: 0}
        tangentMode: 0
      - time: 0.05
        value: {x: 1.02, y: 0.100158095, z: 0}
        inSlope: {x: -0.6282604, y: 0, z: 0}
        outSlope: {x: -0.6282604, y: 0, z: 0}
        tangentMode: 0
      - time: 0.15
        value: {x: 1.02, y: 0.100158095, z: 0}
        inSlope: {x: 0.33000007, y: 0, z: 0}
        outSlope: {x: 0.33000007, y: 0, z: 0}
        tangentMode: 0
      - time: 0.31666666
        value: {x: 1.13, y: 0.100158095, z: 0}
        inSlope: {x: 0.22113706, y: 0, z: 0}
        outSlope: {x: 0.22113706, y: 0, z: 0}
        tangentMode: 0
      - time: 0.53333336
        value: {x: 1.082826, y: 0.100158095, z: 0}
        inSlope: {x: -0.21772602, y: 0, z: 0}
        outSlope: {x: -0.21772602, y: 0, z: 0}
        tangentMode: 0
      m_PreInfinity: 2
      m_PostInfinity: 2
      m_RotationOrder: 4
    path: base/body/barrel
  - curve:
      serializedVersion: 2
      m_Curve:
      - time: 0
        value: {x: -0.060527325, y: 1.2620678, z: 0}
        inSlope: {x: 0, y: 0, z: 0}
        outSlope: {x: 0, y: 0, z: 0}
        tangentMode: 0
      - time: 0.16666667
        value: {x: -0.3, y: 1.2620678, z: 0}
        inSlope: {x: 0, y: 0, z: 0}
        outSlope: {x: 0, y: 0, z: 0}
        tangentMode: 0
      - time: 0.41666666
        value: {x: 0.05, y: 1.2620678, z: 0}
        inSlope: {x: 0, y: 0, z: 0}
        outSlope: {x: 0, y: 0, z: 0}
        tangentMode: 0
      - time: 0.5833333
        value: {x: -0.060527325, y: 1.2620678, z: 0}
        inSlope: {x: 0, y: 0, z: 0}
        outSlope: {x: 0, y: 0, z: 0}
        tangentMode: 0
      m_PreInfinity: 2
      m_PostInfinity: 2
      m_RotationOrder: 4
    path: base/body
  - curve:
      serializedVersion: 2
      m_Curve:
      - time: 0
        value: {x: 0, y: 0, z: 0}
        inSlope: {x: 0, y: -2.85, z: 0}
        outSlope: {x: 0, y: -2.85, z: 0}
        tangentMode: 0
      - time: 0.06666667
        value: {x: 0, y: -0.19, z: 0}
        inSlope: {x: 0, y: -1.425, z: 0}
        outSlope: {x: 0, y: -1.425, z: 0}
        tangentMode: 0
      - time: 0.25
        value: {x: 0, y: -0.19, z: 0}
        inSlope: {x: 0, y: 0.43846154, z: 0}
        outSlope: {x: 0, y: 0.43846154, z: 0}
        tangentMode: 0
      - time: 0.46666667
        value: {x: 0, y: 0, z: 0}
        inSlope: {x: 0, y: 0.43846154, z: 0}
        outSlope: {x: 0, y: 0.43846154, z: 0}
        tangentMode: 0
      - time: 1
        value: {x: 0, y: 0, z: 0}
        inSlope: {x: 0, y: 0, z: 0}
        outSlope: {x: 0, y: 0, z: 0}
        tangentMode: 0
      m_PreInfinity: 2
      m_PostInfinity: 2
      m_RotationOrder: 4
    path: base/body/corners
  m_ScaleCurves: []
  m_FloatCurves: []
  m_PPtrCurves: []
  m_SampleRate: 60
  m_WrapMode: 0
  m_Bounds:
    m_Center: {x: 0, y: 0, z: 0}
    m_Extent: {x: 0, y: 0, z: 0}
  m_ClipBindingConstant:
    genericBindings:
    - path: 3464115094
      attribute: 1
      script: {fileID: 0}
      classID: 4
      customType: 0
      isPPtrCurve: 0
    - path: 3021546893
      attribute: 1
      script: {fileID: 0}
      classID: 4
      customType: 0
      isPPtrCurve: 0
    - path: 1348419189
      attribute: 1
      script: {fileID: 0}
      classID: 4
      customType: 0
      isPPtrCurve: 0
    pptrCurveMapping: []
  m_AnimationClipSettings:
    serializedVersion: 2
    m_AdditiveReferencePoseClip: {fileID: 0}
    m_AdditiveReferencePoseTime: 0
    m_StartTime: 0
    m_StopTime: 1
    m_OrientationOffsetY: 0
    m_Level: 0
    m_CycleOffset: 0
    m_HasAdditiveReferencePose: 0
    m_LoopTime: 0
    m_LoopBlend: 0
    m_LoopBlendOrientation: 0
    m_LoopBlendPositionY: 0
    m_LoopBlendPositionXZ: 0
    m_KeepOriginalOrientation: 0
    m_KeepOriginalPositionY: 1
    m_KeepOriginalPositionXZ: 0
    m_HeightFromFeet: 0
    m_Mirror: 0
  m_EditorCurves:
  - curve:
      serializedVersion: 2
      m_Curve:
      - time: 0
        value: 1.082826
        inSlope: -1.2565207
        outSlope: -1.2565207
        tangentMode: 10
      - time: 0.05
        value: 1.02
        inSlope: -0.6282604
        outSlope: -0.6282604
        tangentMode: 10
      - time: 0.15
        value: 1.02
        inSlope: 0.33000007
        outSlope: 0.33000007
        tangentMode: 10
      - time: 0.31666666
        value: 1.13
        inSlope: 0.22113706
        outSlope: 0.22113706
        tangentMode: 10
      - time: 0.53333336
        value: 1.082826
        inSlope: -0.21772602
        outSlope: -0.21772602
        tangentMode: 10
      m_PreInfinity: 2
      m_PostInfinity: 2
      m_RotationOrder: 4
    attribute: m_LocalPosition.x
    path: base/body/barrel
    classID: 4
    script: {fileID: 0}
  - curve:
      serializedVersion: 2
      m_Curve:
      - time: 0
        value: 0.100158095
        inSlope: 0
        outSlope: 0
        tangentMode: 10
      - time: 0.05
        value: 0.100158095
        inSlope: 0
        outSlope: 0
        tangentMode: 10
      - time: 0.15
        value: 0.100158095
        inSlope: 0
        outSlope: 0
        tangentMode: 10
      - time: 0.31666666
        value: 0.100158095
        inSlope: 0
        outSlope: 0
        tangentMode: 10
      - time: 0.53333336
        value: 0.100158095
        inSlope: 0
        outSlope: 0
        tangentMode: 10
      m_PreInfinity: 2
      m_PostInfinity: 2
      m_RotationOrder: 4
    attribute: m_LocalPosition.y
    path: base/body/barrel
    classID: 4
    script: {fileID: 0}
  - curve:
      serializedVersion: 2
      m_Curve:
      - time: 0
        value: 0
        inSlope: 0
        outSlope: 0
        tangentMode: 10
      - time: 0.05
        value: 0
        inSlope: 0
        outSlope: 0
        tangentMode: 10
      - time: 0.15
        value: 0
        inSlope: 0
        outSlope: 0
        tangentMode: 10
      - time: 0.31666666
        value: 0
        inSlope: 0
        outSlope: 0
        tangentMode: 10
      - time: 0.53333336
        value: 0
        inSlope: 0
        outSlope: 0
        tangentMode: 10
      m_PreInfinity: 2
      m_PostInfinity: 2
      m_RotationOrder: 4
    attribute: m_LocalPosition.z
    path: base/body/barrel
    classID: 4
    script: {fileID: 0}
  - curve:
      serializedVersion: 2
      m_Curve:
      - time: 0
        value: -0.060527325
        inSlope: 0
        outSlope: 0
        tangentMode: 0
      - time: 0.16666667
        value: -0.3
        inSlope: 0
        outSlope: 0
        tangentMode: 0
      - time: 0.41666666
        value: 0.05
        inSlope: 0
        outSlope: 0
        tangentMode: 0
      - time: 0.5833333
        value: -0.060527325
        inSlope: 0
        outSlope: 0
        tangentMode: 0
      m_PreInfinity: 2
      m_PostInfinity: 2
      m_RotationOrder: 4
    attribute: m_LocalPosition.x
    path: base/body
    classID: 4
    script: {fileID: 0}
  - curve:
      serializedVersion: 2
      m_Curve:
      - time: 0
        value: 1.2620678
        inSlope: 0
        outSlope: 0
        tangentMode: 0
      - time: 0.16666667
        value: 1.2620678
        inSlope: 0
        outSlope: 0
        tangentMode: 0
      - time: 0.41666666
        value: 1.2620678
        inSlope: 0
        outSlope: 0
        tangentMode: 0
      - time: 0.5833333
        value: 1.2620678
        inSlope: 0
        outSlope: 0
        tangentMode: 0
      m_PreInfinity: 2
      m_PostInfinity: 2
      m_RotationOrder: 4
    attribute: m_LocalPosition.y
    path: base/body
    classID: 4
    script: {fileID: 0}
  - curve:
      serializedVersion: 2
      m_Curve:
      - time: 0
        value: 0
        inSlope: 0
        outSlope: 0
        tangentMode: 0
      - time: 0.16666667
        value: 0
        inSlope: 0
        outSlope: 0
        tangentMode: 0
      - time: 0.41666666
        value: 0
        inSlope: 0
        outSlope: 0
        tangentMode: 0
      - time: 0.5833333
        value: 0
        inSlope: 0
        outSlope: 0
        tangentMode: 0
      m_PreInfinity: 2
      m_PostInfinity: 2
      m_RotationOrder: 4
    attribute: m_LocalPosition.z
    path: base/body
    classID: 4
    script: {fileID: 0}
  - curve:
      serializedVersion: 2
      m_Curve:
      - time: 0
        value: 0
        inSlope: 0
        outSlope: 0
        tangentMode: 10
      - time: 0.06666667
        value: 0
        inSlope: 0
        outSlope: 0
        tangentMode: 10
      - time: 0.25
        value: 0
        inSlope: 0
        outSlope: 0
        tangentMode: 10
      - time: 0.46666667
        value: 0
        inSlope: 0
        outSlope: 0
        tangentMode: 10
      - time: 1
        value: 0
        inSlope: 0
        outSlope: 0
        tangentMode: 10
      m_PreInfinity: 2
      m_PostInfinity: 2
      m_RotationOrder: 4
    attribute: m_LocalPosition.x
    path: base/body/corners
    classID: 4
    script: {fileID: 0}
  - curve:
      serializedVersion: 2
      m_Curve:
      - time: 0
        value: 0
        inSlope: -2.85
        outSlope: -2.85
        tangentMode: 10
      - time: 0.06666667
        value: -0.19
        inSlope: -1.425
        outSlope: -1.425
        tangentMode: 10
      - time: 0.25
        value: -0.19
        inSlope: 0.43846154
        outSlope: 0.43846154
        tangentMode: 10
      - time: 0.46666667
        value: 0
        inSlope: 0.43846154
        outSlope: 0.43846154
        tangentMode: 10
      - time: 1
        value: 0
        inSlope: 0
        outSlope: 0
        tangentMode: 10
      m_PreInfinity: 2
      m_PostInfinity: 2
      m_RotationOrder: 4
    attribute: m_LocalPosition.y
    path: base/body/corners
    classID: 4
    script: {fileID: 0}
  - curve:
      serializedVersion: 2
      m_Curve:
      - time: 0
        value: 0
        inSlope: 0
        outSlope: 0
        tangentMode: 10
      - time: 0.06666667
        value: 0
        inSlope: 0
        outSlope: 0
        tangentMode: 10
      - time: 0.25
        value: 0
        inSlope: 0
        outSlope: 0
        tangentMode: 10
      - time: 0.46666667
        value: 0
        inSlope: 0
        outSlope: 0
        tangentMode: 10
      - time: 1
        value: 0
        inSlope: 0
        outSlope: 0
        tangentMode: 10
      m_PreInfinity: 2
      m_PostInfinity: 2
      m_RotationOrder: 4
    attribute: m_LocalPosition.z
    path: base/body/corners
    classID: 4
    script: {fileID: 0}
  m_EulerEditorCurves: []
  m_HasGenericRootTransform: 0
  m_HasMotionFloatCurves: 0
  m_GenerateMotionCurves: 0
  m_Events: []
