%YAML 1.1
%TAG !u! tag:unity3d.com,2011:
--- !u!74 &7400000
AnimationClip:
  m_ObjectHideFlags: 0
  m_PrefabParentObject: {fileID: 0}
  m_PrefabInternal: {fileID: 0}
  m_Name: Fire
  serializedVersion: 6
  m_Legacy: 0
  m_Compressed: 0
  m_UseHighQualityCurve: 1
  m_RotationCurves: []
  m_CompressedRotationCurves: []
  m_EulerCurves:
  - curve:
      serializedVersion: 2
      m_Curve:
      - time: 0.05
        value: {x: 0, y: 0, z: 0}
        inSlope: {x: 0, y: 0, z: 291.95996}
        outSlope: {x: 0, y: 0, z: 291.95996}
        tangentMode: 0
      - time: 0.13333334
        value: {x: 0, y: 0, z: 24.33}
        inSlope: {x: 0, y: 0, z: 97.31998}
        outSlope: {x: 0, y: 0, z: 97.31998}
        tangentMode: 0
      - time: 0.38333333
        value: {x: 0, y: 0, z: 0}
        inSlope: {x: 0, y: 0, z: -97.32001}
        outSlope: {x: 0, y: 0, z: -97.32001}
        tangentMode: 0
      m_PreInfinity: 2
      m_PostInfinity: 2
      m_RotationOrder: 4
    path: base/armature/body/barrelR
  - curve:
      serializedVersion: 2
      m_Curve:
      - time: 0
        value: {x: 0, y: 0, z: 0}
        inSlope: {x: 0, y: 0, z: 291.96}
        outSlope: {x: 0, y: 0, z: 291.96}
        tangentMode: 0
      - time: 0.083333336
        value: {x: 0, y: 0, z: 24.33}
        inSlope: {x: 0, y: 0, z: 97.31999}
        outSlope: {x: 0, y: 0, z: 97.31999}
        tangentMode: 0
      - time: 0.33333334
        value: {x: 0, y: 0, z: 0}
        inSlope: {x: 0, y: 0, z: -97.32}
        outSlope: {x: 0, y: 0, z: -97.32}
        tangentMode: 0
      m_PreInfinity: 2
      m_PostInfinity: 2
      m_RotationOrder: 4
    path: base/armature/body/barrelL
  - curve:
      serializedVersion: 2
      m_Curve:
      - time: 0
        value: {x: 0, y: 0, z: 0}
        inSlope: {x: 0, y: 0, z: 112.740005}
        outSlope: {x: 0, y: 0, z: 112.740005}
        tangentMode: 0
      - time: 0.16666667
        value: {x: 0, y: 0, z: 18.79}
        inSlope: {x: 0, y: 0, z: 30.747274}
        outSlope: {x: 0, y: 0, z: 30.747274}
        tangentMode: 0
      - time: 0.53333336
        value: {x: 0, y: 0, z: 0}
        inSlope: {x: 0, y: 0, z: -51.245457}
        outSlope: {x: 0, y: 0, z: -51.245457}
        tangentMode: 0
      m_PreInfinity: 2
      m_PostInfinity: 2
      m_RotationOrder: 4
    path: base/armature
  m_PositionCurves: []
  m_ScaleCurves: []
  m_FloatCurves: []
  m_PPtrCurves: []
  m_SampleRate: 60
  m_WrapMode: 0
  m_Bounds:
    m_Center: {x: 0, y: 0, z: 0}
    m_Extent: {x: 0, y: 0, z: 0}
  m_ClipBindingConstant:
    genericBindings:
    - path: 2033727181
      attribute: 4
      script: {fileID: 0}
      classID: 4
      customType: 14
      isPPtrCurve: 0
    - path: 2201422766
      attribute: 4
      script: {fileID: 0}
      classID: 4
      customType: 14
      isPPtrCurve: 0
    - path: 1045598153
      attribute: 4
      script: {fileID: 0}
      classID: 4
      customType: 14
      isPPtrCurve: 0
    pptrCurveMapping: []
  m_AnimationClipSettings:
    serializedVersion: 2
    m_AdditiveReferencePoseClip: {fileID: 0}
    m_AdditiveReferencePoseTime: 0
    m_StartTime: 0
    m_StopTime: 0.53333336
    m_OrientationOffsetY: 0
    m_Level: 0
    m_CycleOffset: 0
    m_HasAdditiveReferencePose: 0
    m_LoopTime: 0
    m_LoopBlend: 0
    m_LoopBlendOrientation: 0
    m_LoopBlendPositionY: 0
    m_LoopBlendPositionXZ: 0
    m_KeepOriginalOrientation: 0
    m_KeepOriginalPositionY: 1
    m_KeepOriginalPositionXZ: 0
    m_HeightFromFeet: 0
    m_Mirror: 0
  m_EditorCurves:
  - curve:
      serializedVersion: 2
      m_Curve:
      - time: 0.05
        value: 0
        inSlope: 0
        outSlope: 0
        tangentMode: 10
      - time: 0.13333334
        value: 0
        inSlope: 0
        outSlope: 0
        tangentMode: 10
      - time: 0.38333333
        value: 0
        inSlope: 0
        outSlope: 0
        tangentMode: 10
      m_PreInfinity: 2
      m_PostInfinity: 2
      m_RotationOrder: 4
    attribute: localEulerAnglesRaw.x
    path: base/armature/body/barrelR
    classID: 4
    script: {fileID: 0}
  - curve:
      serializedVersion: 2
      m_Curve:
      - time: 0.05
        value: 0
        inSlope: 0
        outSlope: 0
        tangentMode: 10
      - time: 0.13333334
        value: 0
        inSlope: 0
        outSlope: 0
        tangentMode: 10
      - time: 0.38333333
        value: 0
        inSlope: 0
        outSlope: 0
        tangentMode: 10
      m_PreInfinity: 2
      m_PostInfinity: 2
      m_RotationOrder: 4
    attribute: localEulerAnglesRaw.y
    path: base/armature/body/barrelR
    classID: 4
    script: {fileID: 0}
  - curve:
      serializedVersion: 2
      m_Curve:
      - time: 0.05
        value: 0
        inSlope: 291.95996
        outSlope: 291.95996
        tangentMode: 10
      - time: 0.13333334
        value: 24.33
        inSlope: 97.31998
        outSlope: 97.31998
        tangentMode: 10
      - time: 0.38333333
        value: 0
        inSlope: -97.32001
        outSlope: -97.32001
        tangentMode: 10
      m_PreInfinity: 2
      m_PostInfinity: 2
      m_RotationOrder: 4
    attribute: localEulerAnglesRaw.z
    path: base/armature/body/barrelR
    classID: 4
    script: {fileID: 0}
  - curve:
      serializedVersion: 2
      m_Curve:
      - time: 0
        value: 0
        inSlope: 0
        outSlope: 0
        tangentMode: 10
      - time: 0.083333336
        value: 0
        inSlope: 0
        outSlope: 0
        tangentMode: 10
      - time: 0.33333334
        value: 0
        inSlope: 0
        outSlope: 0
        tangentMode: 10
      m_PreInfinity: 2
      m_PostInfinity: 2
      m_RotationOrder: 4
    attribute: localEulerAnglesRaw.x
    path: base/armature/body/barrelL
    classID: 4
    script: {fileID: 0}
  - curve:
      serializedVersion: 2
      m_Curve:
      - time: 0
        value: 0
        inSlope: 0
        outSlope: 0
        tangentMode: 10
      - time: 0.083333336
        value: 0
        inSlope: 0
        outSlope: 0
        tangentMode: 10
      - time: 0.33333334
        value: 0
        inSlope: 0
        outSlope: 0
        tangentMode: 10
      m_PreInfinity: 2
      m_PostInfinity: 2
      m_RotationOrder: 4
    attribute: localEulerAnglesRaw.y
    path: base/armature/body/barrelL
    classID: 4
    script: {fileID: 0}
  - curve:
      serializedVersion: 2
      m_Curve:
      - time: 0
        value: 0
        inSlope: 291.96
        outSlope: 291.96
        tangentMode: 10
      - time: 0.083333336
        value: 24.33
        inSlope: 97.31999
        outSlope: 97.31999
        tangentMode: 10
      - time: 0.33333334
        value: 0
        inSlope: -97.32
        outSlope: -97.32
        tangentMode: 10
      m_PreInfinity: 2
      m_PostInfinity: 2
      m_RotationOrder: 4
    attribute: localEulerAnglesRaw.z
    path: base/armature/body/barrelL
    classID: 4
    script: {fileID: 0}
  - curve:
      serializedVersion: 2
      m_Curve:
      - time: 0
        value: 0
        inSlope: 0
        outSlope: 0
        tangentMode: 10
      - time: 0.16666667
        value: 0
        inSlope: 0
        outSlope: 0
        tangentMode: 10
      - time: 0.53333336
        value: 0
        inSlope: 0
        outSlope: 0
        tangentMode: 10
      m_PreInfinity: 2
      m_PostInfinity: 2
      m_RotationOrder: 4
    attribute: localEulerAnglesRaw.x
    path: base/armature
    classID: 4
    script: {fileID: 0}
  - curve:
      serializedVersion: 2
      m_Curve:
      - time: 0
        value: 0
        inSlope: 0
        outSlope: 0
        tangentMode: 10
      - time: 0.16666667
        value: 0
        inSlope: 0
        outSlope: 0
        tangentMode: 10
      - time: 0.53333336
        value: 0
        inSlope: 0
        outSlope: 0
        tangentMode: 10
      m_PreInfinity: 2
      m_PostInfinity: 2
      m_RotationOrder: 4
    attribute: localEulerAnglesRaw.y
    path: base/armature
    classID: 4
    script: {fileID: 0}
  - curve:
      serializedVersion: 2
      m_Curve:
      - time: 0
        value: 0
        inSlope: 112.740005
        outSlope: 112.740005
        tangentMode: 10
      - time: 0.16666667
        value: 18.79
        inSlope: 30.747274
        outSlope: 30.747274
        tangentMode: 10
      - time: 0.53333336
        value: 0
        inSlope: -51.245457
        outSlope: -51.245457
        tangentMode: 10
      m_PreInfinity: 2
      m_PostInfinity: 2
      m_RotationOrder: 4
    attribute: localEulerAnglesRaw.z
    path: base/armature
    classID: 4
    script: {fileID: 0}
  m_EulerEditorCurves:
  - curve:
      serializedVersion: 2
      m_Curve: []
      m_PreInfinity: 2
      m_PostInfinity: 2
      m_RotationOrder: 4
    attribute: m_LocalEulerAngles.z
    path: base/armature/body/barrelL
    classID: 4
    script: {fileID: 0}
  - curve:
      serializedVersion: 2
      m_Curve: []
      m_PreInfinity: 2
      m_PostInfinity: 2
      m_RotationOrder: 4
    attribute: m_LocalEulerAngles.y
    path: base/armature/body/barrelL
    classID: 4
    script: {fileID: 0}
  - curve:
      serializedVersion: 2
      m_Curve: []
      m_PreInfinity: 2
      m_PostInfinity: 2
      m_RotationOrder: 4
    attribute: m_LocalEulerAngles.x
    path: base/armature/body/barrelL
    classID: 4
    script: {fileID: 0}
  - curve:
      serializedVersion: 2
      m_Curve: []
      m_PreInfinity: 2
      m_PostInfinity: 2
      m_RotationOrder: 4
    attribute: m_LocalEulerAngles.z
    path: base/armature
    classID: 4
    script: {fileID: 0}
  - curve:
      serializedVersion: 2
      m_Curve: []
      m_PreInfinity: 2
      m_PostInfinity: 2
      m_RotationOrder: 4
    attribute: m_LocalEulerAngles.y
    path: base/armature
    classID: 4
    script: {fileID: 0}
  - curve:
      serializedVersion: 2
      m_Curve: []
      m_PreInfinity: 2
      m_PostInfinity: 2
      m_RotationOrder: 4
    attribute: m_LocalEulerAngles.x
    path: base/armature
    classID: 4
    script: {fileID: 0}
  - curve:
      serializedVersion: 2
      m_Curve: []
      m_PreInfinity: 2
      m_PostInfinity: 2
      m_RotationOrder: 4
    attribute: m_LocalEulerAngles.x
    path: base/armature/body/barrelR
    classID: 4
    script: {fileID: 0}
  - curve:
      serializedVersion: 2
      m_Curve: []
      m_PreInfinity: 2
      m_PostInfinity: 2
      m_RotationOrder: 4
    attribute: m_LocalEulerAngles.y
    path: base/armature/body/barrelR
    classID: 4
    script: {fileID: 0}
  - curve:
      serializedVersion: 2
      m_Curve: []
      m_PreInfinity: 2
      m_PostInfinity: 2
      m_RotationOrder: 4
    attribute: m_LocalEulerAngles.z
    path: base/armature/body/barrelR
    classID: 4
    script: {fileID: 0}
  m_HasGenericRootTransform: 0
  m_HasMotionFloatCurves: 0
  m_GenerateMotionCurves: 0
  m_Events: []
