%YAML 1.1
%TAG !u! tag:unity3d.com,2011:
--- !u!74 &7400000
AnimationClip:
  m_ObjectHideFlags: 0
  m_PrefabParentObject: {fileID: 0}
  m_PrefabInternal: {fileID: 0}
  m_Name: Fire
  serializedVersion: 6
  m_Legacy: 0
  m_Compressed: 0
  m_UseHighQualityCurve: 1
  m_RotationCurves: []
  m_CompressedRotationCurves: []
  m_EulerCurves:
  - curve:
      serializedVersion: 2
      m_Curve:
      - time: 0
        value: {x: 0, y: 0, z: 0}
        inSlope: {x: 0, y: 0, z: 0}
        outSlope: {x: 0, y: 0, z: 0}
        tangentMode: 0
      - time: 0.6666667
        value: {x: 360, y: 0, z: 0}
        inSlope: {x: 0, y: 0, z: 0}
        outSlope: {x: 0, y: 0, z: 0}
        tangentMode: 0
      m_PreInfinity: 2
      m_PostInfinity: 2
      m_RotationOrder: 4
    path: base/Body/Body2
  - curve:
      serializedVersion: 2
      m_Curve:
      - time: 0
        value: {x: 0, y: 0, z: 0}
        inSlope: {x: 0, y: 0, z: 0}
        outSlope: {x: 0, y: 0, z: 0}
        tangentMode: 0
      - time: 0.06666667
        value: {x: 0, y: 0, z: 12.670001}
        inSlope: {x: 0, y: 0, z: 0}
        outSlope: {x: 0, y: 0, z: 0}
        tangentMode: 0
      - time: 0.31666666
        value: {x: 0, y: 0, z: 0}
        inSlope: {x: 0, y: 0, z: 0}
        outSlope: {x: 0, y: 0, z: 0}
        tangentMode: 0
      m_PreInfinity: 2
      m_PostInfinity: 2
      m_RotationOrder: 4
    path: base/Body
  m_PositionCurves:
  - curve:
      serializedVersion: 2
      m_Curve:
      - time: 0
        value: {x: 0, y: 1.7017664, z: 0}
        inSlope: {x: -3.4, y: 0, z: 0}
        outSlope: {x: -3.4, y: 0, z: 0}
        tangentMode: 0
      - time: 0.1
        value: {x: -0.34, y: 1.7017664, z: 0}
        inSlope: {x: -0.6, y: 0, z: 0}
        outSlope: {x: -0.6, y: 0, z: 0}
        tangentMode: 0
      - time: 0.25
        value: {x: -0.01, y: 1.7017664, z: 0}
        inSlope: {x: 1.25, y: 0, z: 0}
        outSlope: {x: 1.25, y: 0, z: 0}
        tangentMode: 0
      - time: 0.28333333
        value: {x: 0, y: 1.7017664, z: 0}
        inSlope: {x: 0.3, y: 0, z: 0}
        outSlope: {x: 0.3, y: 0, z: 0}
        tangentMode: 0
      m_PreInfinity: 2
      m_PostInfinity: 2
      m_RotationOrder: 4
    path: base/Body
  - curve:
      serializedVersion: 2
      m_Curve:
      - time: 0
        value: {x: 1.4, y: 0.11038184, z: 0}
        inSlope: {x: -1.9199996, y: 0, z: 0}
        outSlope: {x: -1.9199996, y: 0, z: 0}
        tangentMode: 0
      - time: 0.16666667
        value: {x: 1.08, y: 0.11038184, z: 0}
        inSlope: {x: 0, y: 0, z: 0}
        outSlope: {x: 0, y: 0, z: 0}
        tangentMode: 0
      - time: 0.33333334
        value: {x: 1.4, y: 0.11038184, z: 0}
        inSlope: {x: 0.9599998, y: 0, z: 0}
        outSlope: {x: -0, y: -0, z: -0}
        tangentMode: 0
      - time: 1.5
        value: {x: 1.4, y: 0.11038184, z: 0}
        inSlope: {x: 0, y: 0, z: 0}
        outSlope: {x: 0, y: 0, z: 0}
        tangentMode: 0
      m_PreInfinity: 2
      m_PostInfinity: 2
      m_RotationOrder: 4
    path: base/Body/Barrel1
  - curve:
      serializedVersion: 2
      m_Curve:
      - time: 0
        value: {x: 0, y: 0, z: 0}
        inSlope: {x: -0.41399997, y: 0.59999996, z: 0}
        outSlope: {x: -0.41399997, y: 0.59999996, z: 0}
        tangentMode: 0
      - time: 0.16666667
        value: {x: -0.069, y: 0.1, z: 0}
        inSlope: {x: -0.04776922, y: 0.069230735, z: 0}
        outSlope: {x: -0.04776922, y: 0.069230735, z: 0}
        tangentMode: 0
      - time: 0.38333333
        value: {x: 0, y: 0, z: 0}
        inSlope: {x: 0.31846154, y: -0.4615385, z: 0}
        outSlope: {x: 0.31846154, y: -0.4615385, z: 0}
        tangentMode: 0
      m_PreInfinity: 2
      m_PostInfinity: 2
      m_RotationOrder: 4
    path: base/Body/BodyB
  - curve:
      serializedVersion: 2
      m_Curve:
      - time: 0
        value: {x: 0, y: 0, z: 0}
        inSlope: {x: -0.39, y: -0.71999997, z: 0}
        outSlope: {x: -0.39, y: -0.71999997, z: 0}
        tangentMode: 0
      - time: 0.16666667
        value: {x: -0.065, y: -0.12, z: 0}
        inSlope: {x: -0.044999987, y: -0.083076894, z: 0}
        outSlope: {x: -0.044999987, y: -0.083076894, z: 0}
        tangentMode: 0
      - time: 0.38333333
        value: {x: 0, y: 0, z: 0}
        inSlope: {x: 0.3, y: 0.5538462, z: 0}
        outSlope: {x: 0.3, y: 0.5538462, z: 0}
        tangentMode: 0
      m_PreInfinity: 2
      m_PostInfinity: 2
      m_RotationOrder: 4
    path: base/Body/BodyT
  - curve:
      serializedVersion: 2
      m_Curve:
      - time: 0
        value: {x: 0, y: 0, z: 0}
        inSlope: {x: -0.39, y: 0, z: -0.696}
        outSlope: {x: -0.39, y: 0, z: -0.696}
        tangentMode: 0
      - time: 0.16666667
        value: {x: -0.065, y: 0, z: -0.116}
        inSlope: {x: -0.044999987, y: 0, z: -0.08030766}
        outSlope: {x: -0.044999987, y: 0, z: -0.08030766}
        tangentMode: 0
      - time: 0.38333333
        value: {x: 0, y: 0, z: 0}
        inSlope: {x: 0.3, y: 0, z: 0.53538465}
        outSlope: {x: 0.3, y: 0, z: 0.53538465}
        tangentMode: 0
      m_PreInfinity: 2
      m_PostInfinity: 2
      m_RotationOrder: 4
    path: base/Body/BodyL
  - curve:
      serializedVersion: 2
      m_Curve:
      - time: 0
        value: {x: 0, y: 0, z: 0}
        inSlope: {x: -0.348, y: 0, z: 0.672}
        outSlope: {x: -0.348, y: 0, z: 0.672}
        tangentMode: 0
      - time: 0.16666667
        value: {x: -0.058, y: 0, z: 0.112}
        inSlope: {x: -0.04015383, y: 0, z: 0.07753843}
        outSlope: {x: -0.04015383, y: 0, z: 0.07753843}
        tangentMode: 0
      - time: 0.38333333
        value: {x: 0, y: 0, z: 0}
        inSlope: {x: 0.26769233, y: 0, z: -0.5169231}
        outSlope: {x: 0.26769233, y: 0, z: -0.5169231}
        tangentMode: 0
      m_PreInfinity: 2
      m_PostInfinity: 2
      m_RotationOrder: 4
    path: base/Body/BodyR
  m_ScaleCurves: []
  m_FloatCurves: []
  m_PPtrCurves: []
  m_SampleRate: 60
  m_WrapMode: 0
  m_Bounds:
    m_Center: {x: 0, y: 0, z: 0}
    m_Extent: {x: 0, y: 0, z: 0}
  m_ClipBindingConstant:
    genericBindings:
    - path: 338397875
      attribute: 1
      script: {fileID: 0}
      classID: 4
      customType: 0
      isPPtrCurve: 0
    - path: 1307722129
      attribute: 1
      script: {fileID: 0}
      classID: 4
      customType: 0
      isPPtrCurve: 0
    - path: 615223736
      attribute: 1
      script: {fileID: 0}
      classID: 4
      customType: 0
      isPPtrCurve: 0
    - path: 3497993449
      attribute: 1
      script: {fileID: 0}
      classID: 4
      customType: 0
      isPPtrCurve: 0
    - path: 3272850623
      attribute: 1
      script: {fileID: 0}
      classID: 4
      customType: 0
      isPPtrCurve: 0
    - path: 958169564
      attribute: 1
      script: {fileID: 0}
      classID: 4
      customType: 0
      isPPtrCurve: 0
    - path: 1957617796
      attribute: 4
      script: {fileID: 0}
      classID: 4
      customType: 14
      isPPtrCurve: 0
    - path: 338397875
      attribute: 4
      script: {fileID: 0}
      classID: 4
      customType: 14
      isPPtrCurve: 0
    pptrCurveMapping: []
  m_AnimationClipSettings:
    serializedVersion: 2
    m_AdditiveReferencePoseClip: {fileID: 0}
    m_AdditiveReferencePoseTime: 0
    m_StartTime: 0
    m_StopTime: 1.5
    m_OrientationOffsetY: 0
    m_Level: 0
    m_CycleOffset: 0
    m_HasAdditiveReferencePose: 0
    m_LoopTime: 0
    m_LoopBlend: 0
    m_LoopBlendOrientation: 0
    m_LoopBlendPositionY: 0
    m_LoopBlendPositionXZ: 0
    m_KeepOriginalOrientation: 0
    m_KeepOriginalPositionY: 1
    m_KeepOriginalPositionXZ: 0
    m_HeightFromFeet: 0
    m_Mirror: 0
  m_EditorCurves:
  - curve:
      serializedVersion: 2
      m_Curve:
      - time: 0
        value: 0
        inSlope: -3.4
        outSlope: -3.4
        tangentMode: 10
      - time: 0.1
        value: -0.34
        inSlope: -0.6
        outSlope: -0.6
        tangentMode: 10
      - time: 0.25
        value: -0.01
        inSlope: 1.25
        outSlope: 1.25
        tangentMode: 10
      - time: 0.28333333
        value: 0
        inSlope: 0.3
        outSlope: 0.3
        tangentMode: 10
      m_PreInfinity: 2
      m_PostInfinity: 2
      m_RotationOrder: 4
    attribute: m_LocalPosition.x
    path: base/Body
    classID: 4
    script: {fileID: 0}
  - curve:
      serializedVersion: 2
      m_Curve:
      - time: 0
        value: 1.7017664
        inSlope: 0
        outSlope: 0
        tangentMode: 10
      - time: 0.1
        value: 1.7017664
        inSlope: 0
        outSlope: 0
        tangentMode: 10
      - time: 0.25
        value: 1.7017664
        inSlope: 0
        outSlope: 0
        tangentMode: 10
      - time: 0.28333333
        value: 1.7017664
        inSlope: 0
        outSlope: 0
        tangentMode: 10
      m_PreInfinity: 2
      m_PostInfinity: 2
      m_RotationOrder: 4
    attribute: m_LocalPosition.y
    path: base/Body
    classID: 4
    script: {fileID: 0}
  - curve:
      serializedVersion: 2
      m_Curve:
      - time: 0
        value: 0
        inSlope: 0
        outSlope: 0
        tangentMode: 10
      - time: 0.1
        value: 0
        inSlope: 0
        outSlope: 0
        tangentMode: 10
      - time: 0.25
        value: 0
        inSlope: 0
        outSlope: 0
        tangentMode: 10
      - time: 0.28333333
        value: 0
        inSlope: 0
        outSlope: 0
        tangentMode: 10
      m_PreInfinity: 2
      m_PostInfinity: 2
      m_RotationOrder: 4
    attribute: m_LocalPosition.z
    path: base/Body
    classID: 4
    script: {fileID: 0}
  - curve:
      serializedVersion: 2
      m_Curve:
      - time: 0
        value: 0
        inSlope: 0
        outSlope: 0
        tangentMode: 0
      - time: 0.6666667
        value: 360
        inSlope: 0
        outSlope: 0
        tangentMode: 0
      m_PreInfinity: 2
      m_PostInfinity: 2
      m_RotationOrder: 4
    attribute: localEulerAnglesRaw.x
    path: base/Body/Body2
    classID: 4
    script: {fileID: 0}
  - curve:
      serializedVersion: 2
      m_Curve:
      - time: 0
        value: 0
        inSlope: 0
        outSlope: 0
        tangentMode: 0
      - time: 0.6666667
        value: 0
        inSlope: 0
        outSlope: 0
        tangentMode: 0
      m_PreInfinity: 2
      m_PostInfinity: 2
      m_RotationOrder: 4
    attribute: localEulerAnglesRaw.y
    path: base/Body/Body2
    classID: 4
    script: {fileID: 0}
  - curve:
      serializedVersion: 2
      m_Curve:
      - time: 0
        value: 0
        inSlope: 0
        outSlope: 0
        tangentMode: 0
      - time: 0.6666667
        value: 0
        inSlope: 0
        outSlope: 0
        tangentMode: 0
      m_PreInfinity: 2
      m_PostInfinity: 2
      m_RotationOrder: 4
    attribute: localEulerAnglesRaw.z
    path: base/Body/Body2
    classID: 4
    script: {fileID: 0}
  - curve:
      serializedVersion: 2
      m_Curve:
      - time: 0
        value: 1.4
        inSlope: -1.9199996
        outSlope: -1.9199996
        tangentMode: 10
      - time: 0.16666667
        value: 1.08
        inSlope: 0
        outSlope: 0
        tangentMode: 10
      - time: 0.33333334
        value: 1.4
        inSlope: 0.9599998
        outSlope: -0
        tangentMode: 17
      - time: 1.5
        value: 1.4
        inSlope: 0
        outSlope: 0
        tangentMode: 10
      m_PreInfinity: 2
      m_PostInfinity: 2
      m_RotationOrder: 4
    attribute: m_LocalPosition.x
    path: base/Body/Barrel1
    classID: 4
    script: {fileID: 0}
  - curve:
      serializedVersion: 2
      m_Curve:
      - time: 0
        value: 0.11038184
        inSlope: 0
        outSlope: 0
        tangentMode: 10
      - time: 0.16666667
        value: 0.11038184
        inSlope: 0
        outSlope: 0
        tangentMode: 10
      - time: 0.33333334
        value: 0.11038184
        inSlope: 0
        outSlope: -0
        tangentMode: 17
      - time: 1.5
        value: 0.11038184
        inSlope: 0
        outSlope: 0
        tangentMode: 10
      m_PreInfinity: 2
      m_PostInfinity: 2
      m_RotationOrder: 4
    attribute: m_LocalPosition.y
    path: base/Body/Barrel1
    classID: 4
    script: {fileID: 0}
  - curve:
      serializedVersion: 2
      m_Curve:
      - time: 0
        value: 0
        inSlope: 0
        outSlope: 0
        tangentMode: 10
      - time: 0.16666667
        value: 0
        inSlope: 0
        outSlope: 0
        tangentMode: 10
      - time: 0.33333334
        value: 0
        inSlope: 0
        outSlope: -0
        tangentMode: 17
      - time: 1.5
        value: 0
        inSlope: 0
        outSlope: 0
        tangentMode: 10
      m_PreInfinity: 2
      m_PostInfinity: 2
      m_RotationOrder: 4
    attribute: m_LocalPosition.z
    path: base/Body/Barrel1
    classID: 4
    script: {fileID: 0}
  - curve:
      serializedVersion: 2
      m_Curve:
      - time: 0
        value: 0
        inSlope: -0.41399997
        outSlope: -0.41399997
        tangentMode: 10
      - time: 0.16666667
        value: -0.069
        inSlope: -0.04776922
        outSlope: -0.04776922
        tangentMode: 10
      - time: 0.38333333
        value: 0
        inSlope: 0.31846154
        outSlope: 0.31846154
        tangentMode: 10
      m_PreInfinity: 2
      m_PostInfinity: 2
      m_RotationOrder: 4
    attribute: m_LocalPosition.x
    path: base/Body/BodyB
    classID: 4
    script: {fileID: 0}
  - curve:
      serializedVersion: 2
      m_Curve:
      - time: 0
        value: 0
        inSlope: 0.59999996
        outSlope: 0.59999996
        tangentMode: 10
      - time: 0.16666667
        value: 0.1
        inSlope: 0.069230735
        outSlope: 0.069230735
        tangentMode: 10
      - time: 0.38333333
        value: 0
        inSlope: -0.4615385
        outSlope: -0.4615385
        tangentMode: 10
      m_PreInfinity: 2
      m_PostInfinity: 2
      m_RotationOrder: 4
    attribute: m_LocalPosition.y
    path: base/Body/BodyB
    classID: 4
    script: {fileID: 0}
  - curve:
      serializedVersion: 2
      m_Curve:
      - time: 0
        value: 0
        inSlope: 0
        outSlope: 0
        tangentMode: 10
      - time: 0.16666667
        value: 0
        inSlope: 0
        outSlope: 0
        tangentMode: 10
      - time: 0.38333333
        value: 0
        inSlope: 0
        outSlope: 0
        tangentMode: 10
      m_PreInfinity: 2
      m_PostInfinity: 2
      m_RotationOrder: 4
    attribute: m_LocalPosition.z
    path: base/Body/BodyB
    classID: 4
    script: {fileID: 0}
  - curve:
      serializedVersion: 2
      m_Curve:
      - time: 0
        value: 0
        inSlope: -0.39
        outSlope: -0.39
        tangentMode: 10
      - time: 0.16666667
        value: -0.065
        inSlope: -0.044999987
        outSlope: -0.044999987
        tangentMode: 10
      - time: 0.38333333
        value: 0
        inSlope: 0.3
        outSlope: 0.3
        tangentMode: 10
      m_PreInfinity: 2
      m_PostInfinity: 2
      m_RotationOrder: 4
    attribute: m_LocalPosition.x
    path: base/Body/BodyT
    classID: 4
    script: {fileID: 0}
  - curve:
      serializedVersion: 2
      m_Curve:
      - time: 0
        value: 0
        inSlope: -0.71999997
        outSlope: -0.71999997
        tangentMode: 10
      - time: 0.16666667
        value: -0.12
        inSlope: -0.083076894
        outSlope: -0.083076894
        tangentMode: 10
      - time: 0.38333333
        value: 0
        inSlope: 0.5538462
        outSlope: 0.5538462
        tangentMode: 10
      m_PreInfinity: 2
      m_PostInfinity: 2
      m_RotationOrder: 4
    attribute: m_LocalPosition.y
    path: base/Body/BodyT
    classID: 4
    script: {fileID: 0}
  - curve:
      serializedVersion: 2
      m_Curve:
      - time: 0
        value: 0
        inSlope: 0
        outSlope: 0
        tangentMode: 10
      - time: 0.16666667
        value: 0
        inSlope: 0
        outSlope: 0
        tangentMode: 10
      - time: 0.38333333
        value: 0
        inSlope: 0
        outSlope: 0
        tangentMode: 10
      m_PreInfinity: 2
      m_PostInfinity: 2
      m_RotationOrder: 4
    attribute: m_LocalPosition.z
    path: base/Body/BodyT
    classID: 4
    script: {fileID: 0}
  - curve:
      serializedVersion: 2
      m_Curve:
      - time: 0
        value: 0
        inSlope: -0.39
        outSlope: -0.39
        tangentMode: 10
      - time: 0.16666667
        value: -0.065
        inSlope: -0.044999987
        outSlope: -0.044999987
        tangentMode: 10
      - time: 0.38333333
        value: 0
        inSlope: 0.3
        outSlope: 0.3
        tangentMode: 10
      m_PreInfinity: 2
      m_PostInfinity: 2
      m_RotationOrder: 4
    attribute: m_LocalPosition.x
    path: base/Body/BodyL
    classID: 4
    script: {fileID: 0}
  - curve:
      serializedVersion: 2
      m_Curve:
      - time: 0
        value: 0
        inSlope: 0
        outSlope: 0
        tangentMode: 10
      - time: 0.16666667
        value: 0
        inSlope: 0
        outSlope: 0
        tangentMode: 10
      - time: 0.38333333
        value: 0
        inSlope: 0
        outSlope: 0
        tangentMode: 10
      m_PreInfinity: 2
      m_PostInfinity: 2
      m_RotationOrder: 4
    attribute: m_LocalPosition.y
    path: base/Body/BodyL
    classID: 4
    script: {fileID: 0}
  - curve:
      serializedVersion: 2
      m_Curve:
      - time: 0
        value: 0
        inSlope: -0.696
        outSlope: -0.696
        tangentMode: 10
      - time: 0.16666667
        value: -0.116
        inSlope: -0.08030766
        outSlope: -0.08030766
        tangentMode: 10
      - time: 0.38333333
        value: 0
        inSlope: 0.53538465
        outSlope: 0.53538465
        tangentMode: 10
      m_PreInfinity: 2
      m_PostInfinity: 2
      m_RotationOrder: 4
    attribute: m_LocalPosition.z
    path: base/Body/BodyL
    classID: 4
    script: {fileID: 0}
  - curve:
      serializedVersion: 2
      m_Curve:
      - time: 0
        value: 0
        inSlope: -0.348
        outSlope: -0.348
        tangentMode: 10
      - time: 0.16666667
        value: -0.058
        inSlope: -0.04015383
        outSlope: -0.04015383
        tangentMode: 10
      - time: 0.38333333
        value: 0
        inSlope: 0.26769233
        outSlope: 0.26769233
        tangentMode: 10
      m_PreInfinity: 2
      m_PostInfinity: 2
      m_RotationOrder: 4
    attribute: m_LocalPosition.x
    path: base/Body/BodyR
    classID: 4
    script: {fileID: 0}
  - curve:
      serializedVersion: 2
      m_Curve:
      - time: 0
        value: 0
        inSlope: 0
        outSlope: 0
        tangentMode: 10
      - time: 0.16666667
        value: 0
        inSlope: 0
        outSlope: 0
        tangentMode: 10
      - time: 0.38333333
        value: 0
        inSlope: 0
        outSlope: 0
        tangentMode: 10
      m_PreInfinity: 2
      m_PostInfinity: 2
      m_RotationOrder: 4
    attribute: m_LocalPosition.y
    path: base/Body/BodyR
    classID: 4
    script: {fileID: 0}
  - curve:
      serializedVersion: 2
      m_Curve:
      - time: 0
        value: 0
        inSlope: 0.672
        outSlope: 0.672
        tangentMode: 10
      - time: 0.16666667
        value: 0.112
        inSlope: 0.07753843
        outSlope: 0.07753843
        tangentMode: 10
      - time: 0.38333333
        value: 0
        inSlope: -0.5169231
        outSlope: -0.5169231
        tangentMode: 10
      m_PreInfinity: 2
      m_PostInfinity: 2
      m_RotationOrder: 4
    attribute: m_LocalPosition.z
    path: base/Body/BodyR
    classID: 4
    script: {fileID: 0}
  - curve:
      serializedVersion: 2
      m_Curve:
      - time: 0
        value: 0
        inSlope: 0
        outSlope: 0
        tangentMode: 0
      - time: 0.06666667
        value: 0
        inSlope: 0
        outSlope: 0
        tangentMode: 0
      - time: 0.31666666
        value: 0
        inSlope: 0
        outSlope: 0
        tangentMode: 0
      m_PreInfinity: 2
      m_PostInfinity: 2
      m_RotationOrder: 4
    attribute: localEulerAnglesRaw.x
    path: base/Body
    classID: 4
    script: {fileID: 0}
  - curve:
      serializedVersion: 2
      m_Curve:
      - time: 0
        value: 0
        inSlope: 0
        outSlope: 0
        tangentMode: 0
      - time: 0.06666667
        value: 0
        inSlope: 0
        outSlope: 0
        tangentMode: 0
      - time: 0.31666666
        value: 0
        inSlope: 0
        outSlope: 0
        tangentMode: 0
      m_PreInfinity: 2
      m_PostInfinity: 2
      m_RotationOrder: 4
    attribute: localEulerAnglesRaw.y
    path: base/Body
    classID: 4
    script: {fileID: 0}
  - curve:
      serializedVersion: 2
      m_Curve:
      - time: 0
        value: 0
        inSlope: 0
        outSlope: 0
        tangentMode: 0
      - time: 0.06666667
        value: 12.670001
        inSlope: 0
        outSlope: 0
        tangentMode: 0
      - time: 0.31666666
        value: 0
        inSlope: 0
        outSlope: 0
        tangentMode: 0
      m_PreInfinity: 2
      m_PostInfinity: 2
      m_RotationOrder: 4
    attribute: localEulerAnglesRaw.z
    path: base/Body
    classID: 4
    script: {fileID: 0}
  m_EulerEditorCurves:
  - curve:
      serializedVersion: 2
      m_Curve: []
      m_PreInfinity: 2
      m_PostInfinity: 2
      m_RotationOrder: 4
    attribute: m_LocalEulerAngles.x
    path: base/Body/Body2
    classID: 4
    script: {fileID: 0}
  - curve:
      serializedVersion: 2
      m_Curve: []
      m_PreInfinity: 2
      m_PostInfinity: 2
      m_RotationOrder: 4
    attribute: m_LocalEulerAngles.y
    path: base/Body/Body2
    classID: 4
    script: {fileID: 0}
  - curve:
      serializedVersion: 2
      m_Curve: []
      m_PreInfinity: 2
      m_PostInfinity: 2
      m_RotationOrder: 4
    attribute: m_LocalEulerAngles.z
    path: base/Body/Body2
    classID: 4
    script: {fileID: 0}
  - curve:
      serializedVersion: 2
      m_Curve: []
      m_PreInfinity: 2
      m_PostInfinity: 2
      m_RotationOrder: 4
    attribute: m_LocalEulerAngles.x
    path: base/Body
    classID: 4
    script: {fileID: 0}
  - curve:
      serializedVersion: 2
      m_Curve: []
      m_PreInfinity: 2
      m_PostInfinity: 2
      m_RotationOrder: 4
    attribute: m_LocalEulerAngles.y
    path: base/Body
    classID: 4
    script: {fileID: 0}
  - curve:
      serializedVersion: 2
      m_Curve: []
      m_PreInfinity: 2
      m_PostInfinity: 2
      m_RotationOrder: 4
    attribute: m_LocalEulerAngles.z
    path: base/Body
    classID: 4
    script: {fileID: 0}
  m_HasGenericRootTransform: 0
  m_HasMotionFloatCurves: 0
  m_GenerateMotionCurves: 0
  m_Events: []
