%YAML 1.1
%TAG !u! tag:unity3d.com,2011:
--- !u!74 &7400000
AnimationClip:
  m_ObjectHideFlags: 0
  m_PrefabParentObject: {fileID: 0}
  m_PrefabInternal: {fileID: 0}
  m_Name: Fire
  serializedVersion: 6
  m_Legacy: 0
  m_Compressed: 0
  m_UseHighQualityCurve: 1
  m_RotationCurves: []
  m_CompressedRotationCurves: []
  m_EulerCurves:
  - curve:
      serializedVersion: 2
      m_Curve:
      - time: 0
        value: {x: 0, y: 0, z: 0}
        inSlope: {x: 0, y: 0, z: 236.99998}
        outSlope: {x: 0, y: 0, z: 236.99998}
        tangentMode: 0
      - time: 0.06666667
        value: {x: 0, y: 0, z: 15.8}
        inSlope: {x: 0, y: 0, z: 108.62499}
        outSlope: {x: 0, y: 0, z: 108.62499}
        tangentMode: 0
      - time: 0.8666667
        value: {x: 0, y: 0, z: 0}
        inSlope: {x: 0, y: 0, z: -19.75}
        outSlope: {x: 0, y: 0, z: -19.75}
        tangentMode: 0
      m_PreInfinity: 2
      m_PostInfinity: 2
      m_RotationOrder: 4
    path: base/armature
  m_PositionCurves:
  - curve:
      serializedVersion: 2
      m_Curve:
      - time: 0
        value: {x: 0, y: 0.77670467, z: 0}
        inSlope: {x: 0, y: 0, z: 3.2999997}
        outSlope: {x: 0, y: 0, z: 3.2999997}
        tangentMode: 0
      - time: 0.06666667
        value: {x: 0, y: 0.77670467, z: 0.22}
        inSlope: {x: 0, y: 0, z: 1.6499999}
        outSlope: {x: Infinity, y: Infinity, z: Infinity}
        tangentMode: 0
      - time: 0.48333332
        value: {x: 0, y: 0.77670467, z: 0.22}
        inSlope: {x: 0, y: 0, z: 0}
        outSlope: {x: 0, y: 0, z: 0}
        tangentMode: 0
      - time: 0.6333333
        value: {x: 0, y: 0.77670467, z: 0}
        inSlope: {x: 0, y: 0, z: 0}
        outSlope: {x: 0, y: 0, z: 0}
        tangentMode: 0
      m_PreInfinity: 2
      m_PostInfinity: 2
      m_RotationOrder: 4
    path: base/armature/body/armourR
  - curve:
      serializedVersion: 2
      m_Curve:
      - time: 0
        value: {x: 0, y: 0.77670467, z: 0}
        inSlope: {x: 0, y: 0, z: -3.1499996}
        outSlope: {x: 0, y: 0, z: -3.1499996}
        tangentMode: 0
      - time: 0.06666667
        value: {x: 0, y: 0.77670467, z: -0.21}
        inSlope: {x: 0, y: 0, z: -1.5749998}
        outSlope: {x: Infinity, y: Infinity, z: Infinity}
        tangentMode: 0
      - time: 0.48333332
        value: {x: 0, y: 0.77670467, z: -0.21}
        inSlope: {x: 0, y: 0, z: 0}
        outSlope: {x: 0, y: 0, z: 0}
        tangentMode: 0
      - time: 0.6333333
        value: {x: 0, y: 0.77670467, z: 0}
        inSlope: {x: 0, y: 0, z: 0}
        outSlope: {x: 0, y: 0, z: 0}
        tangentMode: 0
      m_PreInfinity: 2
      m_PostInfinity: 2
      m_RotationOrder: 4
    path: base/armature/body/armourL
  - curve:
      serializedVersion: 2
      m_Curve:
      - time: 0.06666667
        value: {x: 0, y: 0, z: 0}
        inSlope: {x: 0, y: 3.84, z: 0}
        outSlope: {x: 0, y: 3.84, z: 0}
        tangentMode: 0
      - time: 0.15
        value: {x: 0, y: 0.32, z: 0}
        inSlope: {x: 0, y: 1.536, z: 0}
        outSlope: {x: 0, y: 1.536, z: 0}
        tangentMode: 0
      - time: 0.56666666
        value: {x: 0, y: 0, z: 0}
        inSlope: {x: 0, y: -0.768, z: 0}
        outSlope: {x: 0, y: -0.768, z: 0}
        tangentMode: 0
      m_PreInfinity: 2
      m_PostInfinity: 2
      m_RotationOrder: 4
    path: base/armature/body/cap
  m_ScaleCurves: []
  m_FloatCurves: []
  m_PPtrCurves: []
  m_SampleRate: 60
  m_WrapMode: 0
  m_Bounds:
    m_Center: {x: 0, y: 0, z: 0}
    m_Extent: {x: 0, y: 0, z: 0}
  m_ClipBindingConstant:
    genericBindings:
    - path: 1161187291
      attribute: 1
      script: {fileID: 0}
      classID: 4
      customType: 0
      isPPtrCurve: 0
    - path: 3208213176
      attribute: 1
      script: {fileID: 0}
      classID: 4
      customType: 0
      isPPtrCurve: 0
    - path: 3115339785
      attribute: 1
      script: {fileID: 0}
      classID: 4
      customType: 0
      isPPtrCurve: 0
    - path: 1045598153
      attribute: 4
      script: {fileID: 0}
      classID: 4
      customType: 14
      isPPtrCurve: 0
    pptrCurveMapping: []
  m_AnimationClipSettings:
    serializedVersion: 2
    m_AdditiveReferencePoseClip: {fileID: 0}
    m_AdditiveReferencePoseTime: 0
    m_StartTime: 0
    m_StopTime: 0.8666667
    m_OrientationOffsetY: 0
    m_Level: 0
    m_CycleOffset: 0
    m_HasAdditiveReferencePose: 0
    m_LoopTime: 0
    m_LoopBlend: 0
    m_LoopBlendOrientation: 0
    m_LoopBlendPositionY: 0
    m_LoopBlendPositionXZ: 0
    m_KeepOriginalOrientation: 0
    m_KeepOriginalPositionY: 1
    m_KeepOriginalPositionXZ: 0
    m_HeightFromFeet: 0
    m_Mirror: 0
  m_EditorCurves:
  - curve:
      serializedVersion: 2
      m_Curve:
      - time: 0
        value: 0
        inSlope: 0
        outSlope: 0
        tangentMode: 10
      - time: 0.06666667
        value: 0
        inSlope: 0
        outSlope: 0
        tangentMode: 10
      - time: 0.8666667
        value: 0
        inSlope: 0
        outSlope: 0
        tangentMode: 10
      m_PreInfinity: 2
      m_PostInfinity: 2
      m_RotationOrder: 4
    attribute: localEulerAnglesRaw.x
    path: base/armature
    classID: 4
    script: {fileID: 0}
  - curve:
      serializedVersion: 2
      m_Curve:
      - time: 0
        value: 0
        inSlope: 0
        outSlope: 0
        tangentMode: 10
      - time: 0.06666667
        value: 0
        inSlope: 0
        outSlope: 0
        tangentMode: 10
      - time: 0.8666667
        value: 0
        inSlope: 0
        outSlope: 0
        tangentMode: 10
      m_PreInfinity: 2
      m_PostInfinity: 2
      m_RotationOrder: 4
    attribute: localEulerAnglesRaw.y
    path: base/armature
    classID: 4
    script: {fileID: 0}
  - curve:
      serializedVersion: 2
      m_Curve:
      - time: 0
        value: 0
        inSlope: 236.99998
        outSlope: 236.99998
        tangentMode: 10
      - time: 0.06666667
        value: 15.8
        inSlope: 108.62499
        outSlope: 108.62499
        tangentMode: 10
      - time: 0.8666667
        value: 0
        inSlope: -19.75
        outSlope: -19.75
        tangentMode: 10
      m_PreInfinity: 2
      m_PostInfinity: 2
      m_RotationOrder: 4
    attribute: localEulerAnglesRaw.z
    path: base/armature
    classID: 4
    script: {fileID: 0}
  - curve:
      serializedVersion: 2
      m_Curve:
      - time: 0
        value: 0
        inSlope: 0
        outSlope: 0
        tangentMode: 10
      - time: 0.06666667
        value: 0
        inSlope: 0
        outSlope: Infinity
        tangentMode: 25
      - time: 0.48333332
        value: 0
        inSlope: 0
        outSlope: 0
        tangentMode: 0
      - time: 0.6333333
        value: 0
        inSlope: 0
        outSlope: 0
        tangentMode: 0
      m_PreInfinity: 2
      m_PostInfinity: 2
      m_RotationOrder: 4
    attribute: m_LocalPosition.x
    path: base/armature/body/armourR
    classID: 4
    script: {fileID: 0}
  - curve:
      serializedVersion: 2
      m_Curve:
      - time: 0
        value: 0.77670467
        inSlope: 0
        outSlope: 0
        tangentMode: 10
      - time: 0.06666667
        value: 0.77670467
        inSlope: 0
        outSlope: Infinity
        tangentMode: 25
      - time: 0.48333332
        value: 0.77670467
        inSlope: 0
        outSlope: 0
        tangentMode: 0
      - time: 0.6333333
        value: 0.77670467
        inSlope: 0
        outSlope: 0
        tangentMode: 0
      m_PreInfinity: 2
      m_PostInfinity: 2
      m_RotationOrder: 4
    attribute: m_LocalPosition.y
    path: base/armature/body/armourR
    classID: 4
    script: {fileID: 0}
  - curve:
      serializedVersion: 2
      m_Curve:
      - time: 0
        value: 0
        inSlope: 3.2999997
        outSlope: 3.2999997
        tangentMode: 10
      - time: 0.06666667
        value: 0.22
        inSlope: 1.6499999
        outSlope: Infinity
        tangentMode: 25
      - time: 0.48333332
        value: 0.22
        inSlope: 0
        outSlope: 0
        tangentMode: 0
      - time: 0.6333333
        value: 0
        inSlope: 0
        outSlope: 0
        tangentMode: 0
      m_PreInfinity: 2
      m_PostInfinity: 2
      m_RotationOrder: 4
    attribute: m_LocalPosition.z
    path: base/armature/body/armourR
    classID: 4
    script: {fileID: 0}
  - curve:
      serializedVersion: 2
      m_Curve:
      - time: 0
        value: 0
        inSlope: 0
        outSlope: 0
        tangentMode: 10
      - time: 0.06666667
        value: 0
        inSlope: 0
        outSlope: Infinity
        tangentMode: 25
      - time: 0.48333332
        value: 0
        inSlope: 0
        outSlope: 0
        tangentMode: 0
      - time: 0.6333333
        value: 0
        inSlope: 0
        outSlope: 0
        tangentMode: 0
      m_PreInfinity: 2
      m_PostInfinity: 2
      m_RotationOrder: 4
    attribute: m_LocalPosition.x
    path: base/armature/body/armourL
    classID: 4
    script: {fileID: 0}
  - curve:
      serializedVersion: 2
      m_Curve:
      - time: 0
        value: 0.77670467
        inSlope: 0
        outSlope: 0
        tangentMode: 10
      - time: 0.06666667
        value: 0.77670467
        inSlope: 0
        outSlope: Infinity
        tangentMode: 25
      - time: 0.48333332
        value: 0.77670467
        inSlope: 0
        outSlope: 0
        tangentMode: 0
      - time: 0.6333333
        value: 0.77670467
        inSlope: 0
        outSlope: 0
        tangentMode: 0
      m_PreInfinity: 2
      m_PostInfinity: 2
      m_RotationOrder: 4
    attribute: m_LocalPosition.y
    path: base/armature/body/armourL
    classID: 4
    script: {fileID: 0}
  - curve:
      serializedVersion: 2
      m_Curve:
      - time: 0
        value: 0
        inSlope: -3.1499996
        outSlope: -3.1499996
        tangentMode: 10
      - time: 0.06666667
        value: -0.21
        inSlope: -1.5749998
        outSlope: Infinity
        tangentMode: 25
      - time: 0.48333332
        value: -0.21
        inSlope: 0
        outSlope: 0
        tangentMode: 0
      - time: 0.6333333
        value: 0
        inSlope: 0
        outSlope: 0
        tangentMode: 0
      m_PreInfinity: 2
      m_PostInfinity: 2
      m_RotationOrder: 4
    attribute: m_LocalPosition.z
    path: base/armature/body/armourL
    classID: 4
    script: {fileID: 0}
  - curve:
      serializedVersion: 2
      m_Curve:
      - time: 0.06666667
        value: 0
        inSlope: 0
        outSlope: 0
        tangentMode: 10
      - time: 0.15
        value: 0
        inSlope: 0
        outSlope: 0
        tangentMode: 10
      - time: 0.56666666
        value: 0
        inSlope: 0
        outSlope: 0
        tangentMode: 10
      m_PreInfinity: 2
      m_PostInfinity: 2
      m_RotationOrder: 4
    attribute: m_LocalPosition.x
    path: base/armature/body/cap
    classID: 4
    script: {fileID: 0}
  - curve:
      serializedVersion: 2
      m_Curve:
      - time: 0.06666667
        value: 0
        inSlope: 3.84
        outSlope: 3.84
        tangentMode: 10
      - time: 0.15
        value: 0.32
        inSlope: 1.536
        outSlope: 1.536
        tangentMode: 10
      - time: 0.56666666
        value: 0
        inSlope: -0.768
        outSlope: -0.768
        tangentMode: 10
      m_PreInfinity: 2
      m_PostInfinity: 2
      m_RotationOrder: 4
    attribute: m_LocalPosition.y
    path: base/armature/body/cap
    classID: 4
    script: {fileID: 0}
  - curve:
      serializedVersion: 2
      m_Curve:
      - time: 0.06666667
        value: 0
        inSlope: 0
        outSlope: 0
        tangentMode: 10
      - time: 0.15
        value: 0
        inSlope: 0
        outSlope: 0
        tangentMode: 10
      - time: 0.56666666
        value: 0
        inSlope: 0
        outSlope: 0
        tangentMode: 10
      m_PreInfinity: 2
      m_PostInfinity: 2
      m_RotationOrder: 4
    attribute: m_LocalPosition.z
    path: base/armature/body/cap
    classID: 4
    script: {fileID: 0}
  m_EulerEditorCurves:
  - curve:
      serializedVersion: 2
      m_Curve: []
      m_PreInfinity: 2
      m_PostInfinity: 2
      m_RotationOrder: 4
    attribute: m_LocalEulerAngles.x
    path: base/armature
    classID: 4
    script: {fileID: 0}
  - curve:
      serializedVersion: 2
      m_Curve: []
      m_PreInfinity: 2
      m_PostInfinity: 2
      m_RotationOrder: 4
    attribute: m_LocalEulerAngles.y
    path: base/armature
    classID: 4
    script: {fileID: 0}
  - curve:
      serializedVersion: 2
      m_Curve: []
      m_PreInfinity: 2
      m_PostInfinity: 2
      m_RotationOrder: 4
    attribute: m_LocalEulerAngles.z
    path: base/armature
    classID: 4
    script: {fileID: 0}
  m_HasGenericRootTransform: 0
  m_HasMotionFloatCurves: 0
  m_GenerateMotionCurves: 0
  m_Events: []
