%YAML 1.1
%TAG !u! tag:unity3d.com,2011:
--- !u!74 &7400000
AnimationClip:
  m_ObjectHideFlags: 0
  m_PrefabParentObject: {fileID: 0}
  m_PrefabInternal: {fileID: 0}
  m_Name: Idle
  serializedVersion: 6
  m_Legacy: 0
  m_Compressed: 0
  m_UseHighQualityCurve: 1
  m_RotationCurves: []
  m_CompressedRotationCurves: []
  m_EulerCurves: []
  m_PositionCurves:
  - curve:
      serializedVersion: 2
      m_Curve:
      - time: 0
        value: {x: 0.0056808214, y: 1.7443397, z: 0.04833534}
        inSlope: {x: 0, y: 0.07893982, z: 0}
        outSlope: {x: 0, y: 0.07893982, z: 0}
        tangentMode: 0
      - time: 0.9000001
        value: {x: 0.0056808214, y: 1.945, z: 0.04833534}
        inSlope: {x: 0, y: 0, z: 0}
        outSlope: {x: 0, y: 0, z: 0}
        tangentMode: 0
      - time: 1.9
        value: {x: 0.0056808214, y: 1.7385594, z: 0.04833534}
        inSlope: {x: 0, y: 0, z: 0}
        outSlope: {x: 0, y: 0, z: 0}
        tangentMode: 0
      - time: 2
        value: {x: 0.0056808214, y: 1.7443397, z: 0.04833534}
        inSlope: {x: 0, y: 0, z: 0}
        outSlope: {x: 0, y: 0, z: 0}
        tangentMode: 0
      m_PreInfinity: 2
      m_PostInfinity: 2
      m_RotationOrder: 4
    path: base/head
  - curve:
      serializedVersion: 2
      m_Curve:
      - time: 0
        value: {x: 0.0056808214, y: 0.96823096, z: 0.04833534}
        inSlope: {x: 0, y: 0, z: 0}
        outSlope: {x: 0, y: 0, z: 0}
        tangentMode: 0
      - time: 1
        value: {x: 0.0056808214, y: 1.118, z: 0.04833534}
        inSlope: {x: 0, y: 0, z: 0}
        outSlope: {x: 0, y: 0, z: 0}
        tangentMode: 0
      - time: 2
        value: {x: 0.0056808214, y: 0.96823096, z: 0.04833534}
        inSlope: {x: 0, y: 0, z: 0}
        outSlope: {x: 0, y: 0, z: 0}
        tangentMode: 0
      m_PreInfinity: 2
      m_PostInfinity: 2
      m_RotationOrder: 4
    path: base/body
  - curve:
      serializedVersion: 2
      m_Curve:
      - time: 0
        value: {x: 0.0056808214, y: 0.48533666, z: -0.0115574}
        inSlope: {x: 0, y: 0, z: 0}
        outSlope: {x: 0, y: 0, z: 0}
        tangentMode: 0
      - time: 0.083333336
        value: {x: 0.0056808214, y: 0.48343667, z: -0.0115574}
        inSlope: {x: 0, y: 0, z: 0}
        outSlope: {x: 0, y: 0, z: 0}
        tangentMode: 0
      - time: 1.0833334
        value: {x: 0.0056808214, y: 0.58, z: -0.0115574}
        inSlope: {x: 0, y: 0, z: 0}
        outSlope: {x: 0, y: 0, z: 0}
        tangentMode: 0
      - time: 2
        value: {x: 0.0056808214, y: 0.48533666, z: -0.0115574}
        inSlope: {x: 0, y: 0, z: 0}
        outSlope: {x: 0, y: 0, z: 0}
        tangentMode: 0
      m_PreInfinity: 2
      m_PostInfinity: 2
      m_RotationOrder: 4
    path: base/tail
  - curve:
      serializedVersion: 2
      m_Curve:
      - time: 0
        value: {x: 0.0056808214, y: 0.7827525, z: 0.19458488}
        inSlope: {x: 0, y: 0, z: 0}
        outSlope: {x: 0, y: 0, z: 0}
        tangentMode: 0
      - time: 1
        value: {x: 0.0056808214, y: 0.932, z: 0.19458488}
        inSlope: {x: 0, y: 0, z: 0}
        outSlope: {x: 0, y: 0, z: 0}
        tangentMode: 0
      - time: 2
        value: {x: 0.0056808214, y: 0.7827525, z: 0.19458488}
        inSlope: {x: 0, y: 0, z: 0}
        outSlope: {x: 0, y: 0, z: 0}
        tangentMode: 0
      m_PreInfinity: 2
      m_PostInfinity: 2
      m_RotationOrder: 4
    path: base/wings
  m_ScaleCurves: []
  m_FloatCurves: []
  m_PPtrCurves: []
  m_SampleRate: 60
  m_WrapMode: 0
  m_Bounds:
    m_Center: {x: 0, y: 0, z: 0}
    m_Extent: {x: 0, y: 0, z: 0}
  m_ClipBindingConstant:
    genericBindings:
    - path: 3359824035
      attribute: 1
      script: {fileID: 0}
      classID: 4
      customType: 0
      isPPtrCurve: 0
    - path: 3021546893
      attribute: 1
      script: {fileID: 0}
      classID: 4
      customType: 0
      isPPtrCurve: 0
    - path: 327588450
      attribute: 1
      script: {fileID: 0}
      classID: 4
      customType: 0
      isPPtrCurve: 0
    - path: 3691959444
      attribute: 1
      script: {fileID: 0}
      classID: 4
      customType: 0
      isPPtrCurve: 0
    pptrCurveMapping: []
  m_AnimationClipSettings:
    serializedVersion: 2
    m_AdditiveReferencePoseClip: {fileID: 0}
    m_AdditiveReferencePoseTime: 0
    m_StartTime: 0
    m_StopTime: 2
    m_OrientationOffsetY: 0
    m_Level: 0
    m_CycleOffset: 0
    m_HasAdditiveReferencePose: 0
    m_LoopTime: 1
    m_LoopBlend: 0
    m_LoopBlendOrientation: 0
    m_LoopBlendPositionY: 0
    m_LoopBlendPositionXZ: 0
    m_KeepOriginalOrientation: 0
    m_KeepOriginalPositionY: 1
    m_KeepOriginalPositionXZ: 0
    m_HeightFromFeet: 0
    m_Mirror: 0
  m_EditorCurves:
  - curve:
      serializedVersion: 2
      m_Curve:
      - time: 0
        value: 0.0056808214
        inSlope: 0
        outSlope: 0
        tangentMode: 0
      - time: 0.9000001
        value: 0.0056808214
        inSlope: 0
        outSlope: 0
        tangentMode: 0
      - time: 1.9
        value: 0.0056808214
        inSlope: 0
        outSlope: 0
        tangentMode: 0
      - time: 2
        value: 0.0056808214
        inSlope: 0
        outSlope: 0
        tangentMode: 0
      m_PreInfinity: 2
      m_PostInfinity: 2
      m_RotationOrder: 4
    attribute: m_LocalPosition.x
    path: base/head
    classID: 4
    script: {fileID: 0}
  - curve:
      serializedVersion: 2
      m_Curve:
      - time: 0
        value: 1.7443397
        inSlope: 0.07893982
        outSlope: 0.07893982
        tangentMode: 0
      - time: 0.9000001
        value: 1.945
        inSlope: 0
        outSlope: 0
        tangentMode: 0
      - time: 1.9
        value: 1.7385594
        inSlope: 0
        outSlope: 0
        tangentMode: 0
      - time: 2
        value: 1.7443397
        inSlope: 0
        outSlope: 0
        tangentMode: 0
      m_PreInfinity: 2
      m_PostInfinity: 2
      m_RotationOrder: 4
    attribute: m_LocalPosition.y
    path: base/head
    classID: 4
    script: {fileID: 0}
  - curve:
      serializedVersion: 2
      m_Curve:
      - time: 0
        value: 0.04833534
        inSlope: 0
        outSlope: 0
        tangentMode: 0
      - time: 0.9000001
        value: 0.04833534
        inSlope: 0
        outSlope: 0
        tangentMode: 0
      - time: 1.9
        value: 0.04833534
        inSlope: 0
        outSlope: 0
        tangentMode: 0
      - time: 2
        value: 0.04833534
        inSlope: 0
        outSlope: 0
        tangentMode: 0
      m_PreInfinity: 2
      m_PostInfinity: 2
      m_RotationOrder: 4
    attribute: m_LocalPosition.z
    path: base/head
    classID: 4
    script: {fileID: 0}
  - curve:
      serializedVersion: 2
      m_Curve:
      - time: 0
        value: 0.0056808214
        inSlope: 0
        outSlope: 0
        tangentMode: 0
      - time: 1
        value: 0.0056808214
        inSlope: 0
        outSlope: 0
        tangentMode: 0
      - time: 2
        value: 0.0056808214
        inSlope: 0
        outSlope: 0
        tangentMode: 0
      m_PreInfinity: 2
      m_PostInfinity: 2
      m_RotationOrder: 4
    attribute: m_LocalPosition.x
    path: base/body
    classID: 4
    script: {fileID: 0}
  - curve:
      serializedVersion: 2
      m_Curve:
      - time: 0
        value: 0.96823096
        inSlope: 0
        outSlope: 0
        tangentMode: 0
      - time: 1
        value: 1.118
        inSlope: 0
        outSlope: 0
        tangentMode: 0
      - time: 2
        value: 0.96823096
        inSlope: 0
        outSlope: 0
        tangentMode: 0
      m_PreInfinity: 2
      m_PostInfinity: 2
      m_RotationOrder: 4
    attribute: m_LocalPosition.y
    path: base/body
    classID: 4
    script: {fileID: 0}
  - curve:
      serializedVersion: 2
      m_Curve:
      - time: 0
        value: 0.04833534
        inSlope: 0
        outSlope: 0
        tangentMode: 0
      - time: 1
        value: 0.04833534
        inSlope: 0
        outSlope: 0
        tangentMode: 0
      - time: 2
        value: 0.04833534
        inSlope: 0
        outSlope: 0
        tangentMode: 0
      m_PreInfinity: 2
      m_PostInfinity: 2
      m_RotationOrder: 4
    attribute: m_LocalPosition.z
    path: base/body
    classID: 4
    script: {fileID: 0}
  - curve:
      serializedVersion: 2
      m_Curve:
      - time: 0
        value: 0.0056808214
        inSlope: 0
        outSlope: 0
        tangentMode: 0
      - time: 0.083333336
        value: 0.0056808214
        inSlope: 0
        outSlope: 0
        tangentMode: 0
      - time: 1.0833334
        value: 0.0056808214
        inSlope: 0
        outSlope: 0
        tangentMode: 0
      - time: 2
        value: 0.0056808214
        inSlope: 0
        outSlope: 0
        tangentMode: 0
      m_PreInfinity: 2
      m_PostInfinity: 2
      m_RotationOrder: 4
    attribute: m_LocalPosition.x
    path: base/tail
    classID: 4
    script: {fileID: 0}
  - curve:
      serializedVersion: 2
      m_Curve:
      - time: 0
        value: 0.48533666
        inSlope: 0
        outSlope: 0
        tangentMode: 0
      - time: 0.083333336
        value: 0.48343667
        inSlope: 0
        outSlope: 0
        tangentMode: 0
      - time: 1.0833334
        value: 0.58
        inSlope: 0
        outSlope: 0
        tangentMode: 0
      - time: 2
        value: 0.48533666
        inSlope: 0
        outSlope: 0
        tangentMode: 0
      m_PreInfinity: 2
      m_PostInfinity: 2
      m_RotationOrder: 4
    attribute: m_LocalPosition.y
    path: base/tail
    classID: 4
    script: {fileID: 0}
  - curve:
      serializedVersion: 2
      m_Curve:
      - time: 0
        value: -0.0115574
        inSlope: 0
        outSlope: 0
        tangentMode: 0
      - time: 0.083333336
        value: -0.0115574
        inSlope: 0
        outSlope: 0
        tangentMode: 0
      - time: 1.0833334
        value: -0.0115574
        inSlope: 0
        outSlope: 0
        tangentMode: 0
      - time: 2
        value: -0.0115574
        inSlope: 0
        outSlope: 0
        tangentMode: 0
      m_PreInfinity: 2
      m_PostInfinity: 2
      m_RotationOrder: 4
    attribute: m_LocalPosition.z
    path: base/tail
    classID: 4
    script: {fileID: 0}
  - curve:
      serializedVersion: 2
      m_Curve:
      - time: 0
        value: 0.0056808214
        inSlope: 0
        outSlope: 0
        tangentMode: 0
      - time: 1
        value: 0.0056808214
        inSlope: 0
        outSlope: 0
        tangentMode: 0
      - time: 2
        value: 0.0056808214
        inSlope: 0
        outSlope: 0
        tangentMode: 0
      m_PreInfinity: 2
      m_PostInfinity: 2
      m_RotationOrder: 4
    attribute: m_LocalPosition.x
    path: base/wings
    classID: 4
    script: {fileID: 0}
  - curve:
      serializedVersion: 2
      m_Curve:
      - time: 0
        value: 0.7827525
        inSlope: 0
        outSlope: 0
        tangentMode: 0
      - time: 1
        value: 0.932
        inSlope: 0
        outSlope: 0
        tangentMode: 0
      - time: 2
        value: 0.7827525
        inSlope: 0
        outSlope: 0
        tangentMode: 0
      m_PreInfinity: 2
      m_PostInfinity: 2
      m_RotationOrder: 4
    attribute: m_LocalPosition.y
    path: base/wings
    classID: 4
    script: {fileID: 0}
  - curve:
      serializedVersion: 2
      m_Curve:
      - time: 0
        value: 0.19458488
        inSlope: 0
        outSlope: 0
        tangentMode: 0
      - time: 1
        value: 0.19458488
        inSlope: 0
        outSlope: 0
        tangentMode: 0
      - time: 2
        value: 0.19458488
        inSlope: 0
        outSlope: 0
        tangentMode: 0
      m_PreInfinity: 2
      m_PostInfinity: 2
      m_RotationOrder: 4
    attribute: m_LocalPosition.z
    path: base/wings
    classID: 4
    script: {fileID: 0}
  m_EulerEditorCurves: []
  m_HasGenericRootTransform: 0
  m_HasMotionFloatCurves: 0
  m_GenerateMotionCurves: 0
  m_Events: []
