%YAML 1.1
%TAG !u! tag:unity3d.com,2011:
--- !u!21 &2100000
Material:
  serializedVersion: 6
  m_ObjectHideFlags: 0
  m_PrefabParentObject: {fileID: 0}
  m_PrefabInternal: {fileID: 0}
  m_Name: ship_tutorialDrone03
  m_Shader: {fileID: 4800000, guid: f3e3af2f747ec8748aa7e6795aa87d4c, type: 3}
  m_ShaderKeywords: TCP2_DISABLE_WRAPPED_LIGHT TCP2_RIMO TCP2_SPEC TCP2_STYLIZED_FRESNEL
    _EMISSION _METALLICGLOSSMAP _NORMALMAP
  m_LightmapFlags: 1
  m_CustomRenderQueue: -1
  stringTagMap: {}
  m_SavedProperties:
    serializedVersion: 2
    m_TexEnvs:
    - first:
        name: _BumpMap
      second:
        m_Texture: {fileID: 2800000, guid: 01df4aacee96bab4bb1f329793fd77a0, type: 3}
        m_Scale: {x: 1, y: 1}
        m_Offset: {x: 0, y: 0}
    - first:
        name: _DetailAlbedoMap
      second:
        m_Texture: {fileID: 0}
        m_Scale: {x: 1, y: 1}
        m_Offset: {x: 0, y: 0}
    - first:
        name: _DetailMask
      second:
        m_Texture: {fileID: 0}
        m_Scale: {x: 1, y: 1}
        m_Offset: {x: 0, y: 0}
    - first:
        name: _DetailNormalMap
      second:
        m_Texture: {fileID: 0}
        m_Scale: {x: 1, y: 1}
        m_Offset: {x: 0, y: 0}
    - first:
        name: _EmissionMap
      second:
        m_Texture: {fileID: 0}
        m_Scale: {x: 1, y: 1}
        m_Offset: {x: 0, y: 0}
    - first:
        name: _MainTex
      second:
        m_Texture: {fileID: 2800000, guid: f5e55c8afe181e74c9479191f5a4c725, type: 3}
        m_Scale: {x: 1, y: 1}
        m_Offset: {x: 0, y: 0}
    - first:
        name: _MetallicGlossMap
      second:
        m_Texture: {fileID: 2800000, guid: 6fe5bf322ca50e84b99bb502c394fc60, type: 3}
        m_Scale: {x: 1, y: 1}
        m_Offset: {x: 0, y: 0}
    - first:
        name: _OcclusionMap
      second:
        m_Texture: {fileID: 0}
        m_Scale: {x: 1, y: 1}
        m_Offset: {x: 0, y: 0}
    - first:
        name: _ParallaxMap
      second:
        m_Texture: {fileID: 0}
        m_Scale: {x: 1, y: 1}
        m_Offset: {x: 0, y: 0}
    - first:
        name: _Ramp
      second:
        m_Texture: {fileID: 0}
        m_Scale: {x: 1, y: 1}
        m_Offset: {x: 0, y: 0}
    m_Floats:
    - first:
        name: _BumpScale
      second: 0.5
    - first:
        name: _Cutoff
      second: 0.5
    - first:
        name: _DetailNormalMapScale
      second: 1
    - first:
        name: _DstBlend
      second: 0
    - first:
        name: _GlossMapScale
      second: 0.729
    - first:
        name: _Glossiness
      second: 0.5
    - first:
        name: _GlossyReflections
      second: 1
    - first:
        name: _Layer
      second: 1
    - first:
        name: _Metallic
      second: 0
    - first:
        name: _Mode
      second: 0
    - first:
        name: _OcclusionStrength
      second: 1
    - first:
        name: _Parallax
      second: 0.02
    - first:
        name: _RampSmooth
      second: 0.321
    - first:
        name: _RampSmoothAdd
      second: 0.75
    - first:
        name: _RampThreshold
      second: 0.5
    - first:
        name: _RimMax
      second: 0.85
    - first:
        name: _RimMin
      second: 0.6
    - first:
        name: _RimStrength
      second: 0.53
    - first:
        name: _Shininess
      second: 0.1
    - first:
        name: _SmoothnessTextureChannel
      second: 0
    - first:
        name: _SpecBlend
      second: 1
    - first:
        name: _SpecSmooth
      second: 1
    - first:
        name: _SpecularHighlights
      second: 1
    - first:
        name: _SrcBlend
      second: 1
    - first:
        name: _TCP2_DISABLE_WRAPPED_LIGHT
      second: 1
    - first:
        name: _TCP2_RAMPTEXT
      second: 0
    - first:
        name: _TCP2_SPEC_TOON
      second: 0
    - first:
        name: _TCP2_STYLIZED_FRESNEL
      second: 1
    - first:
        name: _UVSec
      second: 0
    - first:
        name: _ZWrite
      second: 1
    m_Colors:
    - first:
        name: _Color
      second: {r: 0.9705882, g: 0.89676046, b: 0.863538, a: 1}
    - first:
        name: _EmissionColor
      second: {r: 0, g: 0, b: 0, a: 1}
    - first:
        name: _HColor
      second: {r: 1, g: 1, b: 1, a: 1}
    - first:
        name: _RimColor
      second: {r: 0.8, g: 0.8, b: 0.8, a: 0.6}
    - first:
        name: _RimDir
      second: {r: 0, g: 0, b: 1, a: 0}
    - first:
        name: _SColor
      second: {r: 0.23895787, g: 0.17371324, b: 0.375, a: 1}
    - first:
        name: _SpecColor
      second: {r: 0.5, g: 0.5, b: 0.5, a: 1}
