%YAML 1.1
%TAG !u! tag:unity3d.com,2011:
--- !u!74 &7400000
AnimationClip:
  m_ObjectHideFlags: 0
  m_PrefabParentObject: {fileID: 0}
  m_PrefabInternal: {fileID: 0}
  m_Name: GarbageToss
  serializedVersion: 6
  m_Legacy: 0
  m_Compressed: 0
  m_UseHighQualityCurve: 1
  m_RotationCurves: []
  m_CompressedRotationCurves: []
  m_EulerCurves:
  - curve:
      serializedVersion: 2
      m_Curve:
      - time: 0
        value: {x: 0, y: 0, z: 18.217}
        inSlope: {x: 0, y: 0, z: -274.04663}
        outSlope: {x: 0, y: 0, z: -274.04663}
        tangentMode: 0
      - time: 0.15
        value: {x: 0, y: 0, z: -22.89}
        inSlope: {x: 0, y: 0, z: -97.475136}
        outSlope: {x: 0, y: 0, z: -97.475136}
        tangentMode: 0
      - time: 0.33333334
        value: {x: 0, y: 0, z: -8.389}
        inSlope: {x: 0, y: 0, z: 8.474607}
        outSlope: {x: 0, y: 0, z: 8.474607}
        tangentMode: 0
      - time: 0.56666666
        value: {x: 0, y: 0, z: -22.89}
        inSlope: {x: 0, y: 0, z: 21.864885}
        outSlope: {x: 0, y: 0, z: 21.864885}
        tangentMode: 0
      - time: 1
        value: {x: 0, y: 0, z: 22.99}
        inSlope: {x: 0, y: 0, z: 13.753849}
        outSlope: {x: 0, y: 0, z: 13.753849}
        tangentMode: 0
      - time: 1.2166667
        value: {x: 0, y: 0, z: 6.01}
        inSlope: {x: 0, y: 0, z: -59.75461}
        outSlope: {x: 0, y: 0, z: -59.75461}
        tangentMode: 0
      - time: 1.5666667
        value: {x: 0, y: 0, z: -8.389}
        inSlope: {x: 0, y: 0, z: -41.14}
        outSlope: {x: 0, y: 0, z: -41.14}
        tangentMode: 0
      m_PreInfinity: 2
      m_PostInfinity: 2
      m_RotationOrder: 4
    path: Dome/Antenna
  - curve:
      serializedVersion: 2
      m_Curve:
      - time: 0
        value: {x: 0, y: 0, z: 90}
        inSlope: {x: 0, y: 0, z: 18.38404}
        outSlope: {x: 0, y: 0, z: 18.38404}
        tangentMode: 0
      - time: 0.33333334
        value: {x: 0, y: 0, z: 96.12801}
        inSlope: {x: 0, y: 0, z: 9.19202}
        outSlope: {x: 0, y: 0, z: 9.19202}
        tangentMode: 0
      - time: 0.6666667
        value: {x: 0, y: 0, z: 96.12801}
        inSlope: {x: 0, y: 0, z: -5.4070706}
        outSlope: {x: 0, y: 0, z: -5.4070706}
        tangentMode: 0
      - time: 1.2333333
        value: {x: 0, y: 0, z: 90}
        inSlope: {x: 0, y: 0, z: -10.814141}
        outSlope: {x: 0, y: 0, z: -10.814141}
        tangentMode: 0
      m_PreInfinity: 2
      m_PostInfinity: 2
      m_RotationOrder: 4
    path: Dome/Eye
  - curve:
      serializedVersion: 2
      m_Curve:
      - time: 0
        value: {x: -3.313, y: 5.323, z: -49.36532}
        inSlope: {x: 0, y: 0, z: -6.4405055}
        outSlope: {x: 0, y: 0, z: -6.4405055}
        tangentMode: 0
      - time: 0.033333335
        value: {x: -3.313, y: 5.323, z: -49.58}
        inSlope: {x: 0, y: 0, z: -41.901157}
        outSlope: {x: 0, y: 0, z: -41.901157}
        tangentMode: 0
      - time: 0.21666667
        value: {x: -3.313, y: 5.323, z: -63.763}
        inSlope: {x: -8.233636, y: -2.5418186, z: -71.020905}
        outSlope: {x: -8.233636, y: -2.5418186, z: -71.020905}
        tangentMode: 0
      - time: 0.4
        value: {x: -6.332, y: 4.391, z: -75.621}
        inSlope: {x: -3.4667935, y: -1.0702393, z: 30.129482}
        outSlope: {x: -3.4667935, y: -1.0702393, z: 30.129482}
        tangentMode: 0
      - time: 0.71666664
        value: {x: -3.313, y: 5.323, z: -36.057}
        inSlope: {x: 5.5064073, y: 2.9207096, z: 74.16687}
        outSlope: {x: 5.5064073, y: 2.9207096, z: 74.16687}
        tangentMode: 0
      - time: 1.1
        value: {x: -2.746, y: 6.434, z: -27.089}
        inSlope: {x: 3.6817079, y: -5.444441, z: 41.022778}
        outSlope: {x: 3.6817079, y: -5.444441, z: 41.022778}
        tangentMode: 0
      - time: 1.5666667
        value: {x: 0, y: 0, z: 0.2813644}
        inSlope: {x: 5.8842854, y: -13.787142, z: 58.65078}
        outSlope: {x: 5.8842854, y: -13.787142, z: 58.65078}
        tangentMode: 0
      m_PreInfinity: 2
      m_PostInfinity: 2
      m_RotationOrder: 4
    path: Arm1
  - curve:
      serializedVersion: 2
      m_Curve:
      - time: 0
        value: {x: 0, y: 0, z: 276.1}
        inSlope: {x: 0, y: 0, z: -2.823594}
        outSlope: {x: 0, y: 0, z: -2.823594}
        tangentMode: 0
      - time: 0.28333333
        value: {x: 0, y: 0, z: 275.3}
        inSlope: {x: 0, y: 0, z: -27.554546}
        outSlope: {x: 0, y: 0, z: -27.554546}
        tangentMode: 0
      - time: 0.4
        value: {x: 0, y: 0, z: 269.2}
        inSlope: {x: 0, y: 0, z: 31.436356}
        outSlope: {x: 0, y: 0, z: 31.436356}
        tangentMode: 0
      - time: 0.78333336
        value: {x: 0, y: 0, z: 313.344}
        inSlope: {x: 0, y: 0, z: -10.372219}
        outSlope: {x: 0, y: 0, z: -10.372219}
        tangentMode: 0
      - time: 1.1666666
        value: {x: 0, y: 0, z: 261.248}
        inSlope: {x: 0, y: 0, z: -97.13104}
        outSlope: {x: 0, y: 0, z: -97.13104}
        tangentMode: 0
      - time: 1.5666667
        value: {x: 0, y: 0, z: 237.9042}
        inSlope: {x: 0, y: 0, z: -58.359436}
        outSlope: {x: 0, y: 0, z: -58.359436}
        tangentMode: 0
      m_PreInfinity: 2
      m_PostInfinity: 2
      m_RotationOrder: 4
    path: Arm1/Arm2
  - curve:
      serializedVersion: 2
      m_Curve:
      - time: 0
        value: {x: 0, y: 0, z: 140.5335}
        inSlope: {x: 2.7063162, y: 3.1136847, z: 67.67212}
        outSlope: {x: 2.7063162, y: 3.1136847, z: 67.67212}
        tangentMode: 0
      - time: 0.31666666
        value: {x: 0.8570001, y: 0.9860001, z: 161.963}
        inSlope: {x: -3.7888422, y: -4.3591576, z: 81.99206}
        outSlope: {x: -3.7888422, y: -4.3591576, z: 81.99206}
        tangentMode: 0
      - time: 0.4
        value: {x: 0, y: 0, z: 169.989}
        inSlope: {x: -5.142, y: -5.916, z: 79.00267}
        outSlope: {x: -5.142, y: -5.916, z: 79.00267}
        tangentMode: 0
      - time: 0.85
        value: {x: 0, y: 0, z: 197.751}
        inSlope: {x: 1.044662, y: 1.1879957, z: 1.9713287}
        outSlope: {x: 1.044662, y: 1.1879957, z: 1.9713287}
        tangentMode: 0
      - time: 1.3
        value: {x: 0.9401957, y: 1.069196, z: 171.7632}
        inSlope: {x: -0.5942519, y: -0.67578745, z: -70.876205}
        outSlope: {x: -0.5942519, y: -0.67578745, z: -70.876205}
        tangentMode: 0
      - time: 1.4166666
        value: {x: 0.5577824, y: 0.6343132, z: 161.963}
        inSlope: {x: -3.4981875, y: -3.9781592, z: -113.432495}
        outSlope: {x: -3.4981875, y: -3.9781592, z: -113.432495}
        tangentMode: 0
      - time: 1.5666667
        value: {x: 0, y: 0, z: 140.5335}
        inSlope: {x: -3.718547, y: -4.228752, z: -142.86327}
        outSlope: {x: -3.718547, y: -4.228752, z: -142.86327}
        tangentMode: 0
      m_PreInfinity: 2
      m_PostInfinity: 2
      m_RotationOrder: 4
    path: Arm1/Arm2/Hand
  - curve:
      serializedVersion: 2
      m_Curve:
      - time: 0
        value: {x: 0, y: 0, z: -90}
        inSlope: {x: 0, y: 0, z: -1.3316727}
        outSlope: {x: 0, y: 0, z: -1.3316727}
        tangentMode: 0
      - time: 0.6
        value: {x: 0, y: 0, z: -90.799}
        inSlope: {x: 0, y: 0, z: -73.02583}
        outSlope: {x: 0, y: 0, z: -73.02583}
        tangentMode: 0
      - time: 0.68333334
        value: {x: 0, y: 0, z: -102.859}
        inSlope: {x: 0, y: 0, z: -177.84187}
        outSlope: {x: 0, y: 0, z: -177.84187}
        tangentMode: 0
      - time: 0.95
        value: {x: 0, y: 0, z: -159.116}
        inSlope: {x: 0, y: 0, z: -70.06238}
        outSlope: {x: 0, y: 0, z: -70.06238}
        tangentMode: 0
      - time: 1.2833333
        value: {x: 0, y: 0, z: -135.503}
        inSlope: {x: 0, y: 0, z: 80.34361}
        outSlope: {x: 0, y: 0, z: 80.34361}
        tangentMode: 0
      - time: 1.5666667
        value: {x: 0, y: 0, z: -110.046}
        inSlope: {x: 0, y: 0, z: 89.848236}
        outSlope: {x: 0, y: 0, z: 89.848236}
        tangentMode: 0
      m_PreInfinity: 2
      m_PostInfinity: 2
      m_RotationOrder: 4
    path: Arm1/Arm2/Hand/ClawLower
  - curve:
      serializedVersion: 2
      m_Curve:
      - time: 0
        value: {x: 0, y: 0, z: -120.0272}
        inSlope: {x: 0, y: 0, z: -36.589672}
        outSlope: {x: 0, y: 0, z: -36.589672}
        tangentMode: 0
      - time: 0.6
        value: {x: 0, y: 0, z: -141.981}
        inSlope: {x: 0, y: 0, z: -306.92487}
        outSlope: {x: 0, y: 0, z: -306.92487}
        tangentMode: 0
      - time: 0.68333334
        value: {x: 0, y: 0, z: -190.086}
        inSlope: {x: 0, y: 0, z: -257.10565}
        outSlope: {x: 0, y: 0, z: -257.10565}
        tangentMode: 0
      - time: 0.95
        value: {x: 0, y: 0, z: -173.273}
        inSlope: {x: 0, y: 0, z: 74.69665}
        outSlope: {x: 0, y: 0, z: 74.69665}
        tangentMode: 0
      - time: 1.5666667
        value: {x: 0, y: 0, z: -120.0272}
        inSlope: {x: 0, y: 0, z: 86.34453}
        outSlope: {x: 0, y: 0, z: 86.34453}
        tangentMode: 0
      m_PreInfinity: 2
      m_PostInfinity: 2
      m_RotationOrder: 4
    path: Arm1/Arm2/Hand/clawUpper
  - curve:
      serializedVersion: 2
      m_Curve:
      - time: 0.5833333
        value: {x: -0, y: 180, z: 40.799995}
        inSlope: {x: 263.3993, y: -223.79916, z: 956.99774}
        outSlope: {x: 263.3993, y: -223.79916, z: 956.99774}
        tangentMode: 0
      - time: 0.6
        value: {x: 4.39, y: 176.27, z: 56.75}
        inSlope: {x: 149.32166, y: -76.69169, z: 721.49896}
        outSlope: {x: 149.32166, y: -76.69169, z: 721.49896}
        tangentMode: 0
      - time: 0.68333334
        value: {x: 7.327, y: 182.13799, z: 97.25001}
        inSlope: {x: 0, y: 0, z: 0}
        outSlope: {x: 0, y: 0, z: 0}
        tangentMode: 0
      - time: 0.9
        value: {x: -0, y: 180, z: 40.799995}
        inSlope: {x: -33.81693, y: -9.867625, z: -260.53854}
        outSlope: {x: -33.81693, y: -9.867625, z: -260.53854}
        tangentMode: 0
      m_PreInfinity: 2
      m_PostInfinity: 2
      m_RotationOrder: 4
    path: Arm1/Arm2/Hand/leftHalf
  - curve:
      serializedVersion: 2
      m_Curve:
      - time: 0
        value: {x: 0, y: 200, z: 360}
        inSlope: {x: 0, y: -60.000046, z: -32.675995}
        outSlope: {x: 0, y: -60.000046, z: -32.675995}
        tangentMode: 0
      - time: 0.33333334
        value: {x: 0, y: 179.99998, z: 349.108}
        inSlope: {x: 0, y: -29.999987, z: -3.625204}
        outSlope: {x: 0, y: -29.999987, z: -3.625204}
        tangentMode: 0
      - time: 0.75
        value: {x: 0, y: 180.00002, z: 359.702}
        inSlope: {x: 4.3272935e-15, y: 27.551046, z: 11.524513}
        outSlope: {x: 4.3272935e-15, y: 27.551046, z: 11.524513}
        tangentMode: 0
      - time: 1.5666667
        value: {x: 7.067913e-15, y: 225, z: 357.76114}
        inSlope: {x: 8.654587e-15, y: 55.10202, z: -2.3765593}
        outSlope: {x: 8.654587e-15, y: 55.10202, z: -2.3765593}
        tangentMode: 0
      m_PreInfinity: 2
      m_PostInfinity: 2
      m_RotationOrder: 4
    path: 
  m_PositionCurves:
  - curve:
      serializedVersion: 2
      m_Curve:
      - time: 0
        value: {x: -0, y: -0.1326177, z: 0}
        inSlope: {x: 0, y: -0.6192582, z: 0}
        outSlope: {x: 0, y: -0.6192582, z: 0}
        tangentMode: 0
      - time: 0.38333333
        value: {x: -0, y: -0.37, z: 0}
        inSlope: {x: 0, y: -0.012901247, z: 0}
        outSlope: {x: 0, y: -0.012901247, z: 0}
        tangentMode: 0
      - time: 0.78333336
        value: {x: -0, y: -0.1326177, z: 0}
        inSlope: {x: 0, y: -0.012901276, z: 0}
        outSlope: {x: 0, y: -0.012901276, z: 0}
        tangentMode: 0
      - time: 1.1666666
        value: {x: -0, y: -0.37, z: 0}
        inSlope: {x: 0, y: -0.012901336, z: 0}
        outSlope: {x: 0, y: -0.012901336, z: 0}
        tangentMode: 0
      - time: 1.5666667
        value: {x: -0, y: -0.1326177, z: 0}
        inSlope: {x: 0, y: 0.5934556, z: 0}
        outSlope: {x: 0, y: 0.5934556, z: 0}
        tangentMode: 0
      m_PreInfinity: 2
      m_PostInfinity: 2
      m_RotationOrder: 4
    path: Innard01
  - curve:
      serializedVersion: 2
      m_Curve:
      - time: 0
        value: {x: 0, y: -0.1502, z: 0}
        inSlope: {x: -0, y: 0.26373446, z: 0}
        outSlope: {x: -0, y: 0.26373446, z: 0}
        tangentMode: 0
      - time: 0.06666667
        value: {x: -0, y: -0.1326177, z: 0}
        inSlope: {x: 0, y: -0.17776188, z: 0}
        outSlope: {x: 0, y: -0.17776188, z: 0}
        tangentMode: 0
      - time: 0.45
        value: {x: -0, y: -0.37, z: 0}
        inSlope: {x: 0, y: -0.012901247, z: 0}
        outSlope: {x: 0, y: -0.012901247, z: 0}
        tangentMode: 0
      - time: 0.85
        value: {x: -0, y: -0.1326177, z: 0}
        inSlope: {x: 0, y: -0.012901247, z: 0}
        outSlope: {x: 0, y: -0.012901247, z: 0}
        tangentMode: 0
      - time: 1.2333333
        value: {x: -0, y: -0.37, z: 0}
        inSlope: {x: 0, y: 0.02007085, z: 0}
        outSlope: {x: 0, y: 0.02007085, z: 0}
        tangentMode: 0
      - time: 1.5666667
        value: {x: 0, y: -0.1502, z: 0}
        inSlope: {x: 0, y: 0.6593999, z: 0}
        outSlope: {x: 0, y: 0.6593999, z: 0}
        tangentMode: 0
      m_PreInfinity: 2
      m_PostInfinity: 2
      m_RotationOrder: 4
    path: Innard02
  - curve:
      serializedVersion: 2
      m_Curve:
      - time: 0
        value: {x: 0, y: -0.1941613, z: 0}
        inSlope: {x: -0, y: 0.46157697, z: 0}
        outSlope: {x: -0, y: 0.46157697, z: 0}
        tangentMode: 0
      - time: 0.13333334
        value: {x: -0, y: -0.1326177, z: 0}
        inSlope: {x: 0, y: -0.07884063, z: 0}
        outSlope: {x: 0, y: -0.07884063, z: 0}
        tangentMode: 0
      - time: 0.51666665
        value: {x: -0, y: -0.37, z: 0}
        inSlope: {x: 0, y: -0.012901247, z: 0}
        outSlope: {x: 0, y: -0.012901247, z: 0}
        tangentMode: 0
      - time: 0.9166667
        value: {x: -0, y: -0.1326177, z: 0}
        inSlope: {x: 0, y: -0.012901276, z: 0}
        outSlope: {x: 0, y: -0.012901276, z: 0}
        tangentMode: 0
      - time: 1.3
        value: {x: -0, y: -0.37, z: 0}
        inSlope: {x: 0, y: 0.020068318, z: 0}
        outSlope: {x: 0, y: 0.020068318, z: 0}
        tangentMode: 0
      - time: 1.5666667
        value: {x: 0, y: -0.1941613, z: 0}
        inSlope: {x: 0, y: 0.6593949, z: 0}
        outSlope: {x: 0, y: 0.6593949, z: 0}
        tangentMode: 0
      m_PreInfinity: 2
      m_PostInfinity: 2
      m_RotationOrder: 4
    path: Innard03
  - curve:
      serializedVersion: 2
      m_Curve:
      - time: 0
        value: {x: 0, y: -0.2513089, z: 0}
        inSlope: {x: -0, y: 0.64740646, z: 0}
        outSlope: {x: -0, y: 0.64740646, z: 0}
        tangentMode: 0
      - time: 0.18333334
        value: {x: -0, y: -0.1326177, z: 0}
        inSlope: {x: 0, y: 0.014074117, z: 0}
        outSlope: {x: 0, y: 0.014074117, z: 0}
        tangentMode: 0
      - time: 0.56666666
        value: {x: -0, y: -0.37, z: 0}
        inSlope: {x: 0, y: -0.012901217, z: 0}
        outSlope: {x: 0, y: -0.012901217, z: 0}
        tangentMode: 0
      - time: 0.96666664
        value: {x: -0, y: -0.1326177, z: 0}
        inSlope: {x: 0, y: -0.012901157, z: 0}
        outSlope: {x: 0, y: -0.012901157, z: 0}
        tangentMode: 0
      - time: 1.35
        value: {x: -0, y: -0.37, z: 0}
        inSlope: {x: 0, y: -0.035726517, z: 0}
        outSlope: {x: 0, y: -0.035726517, z: 0}
        tangentMode: 0
      - time: 1.5666667
        value: {x: 0, y: -0.2513089, z: 0}
        inSlope: {x: 0, y: 0.5478051, z: 0}
        outSlope: {x: 0, y: 0.5478051, z: 0}
        tangentMode: 0
      m_PreInfinity: 2
      m_PostInfinity: 2
      m_RotationOrder: 4
    path: Innard04
  - curve:
      serializedVersion: 2
      m_Curve:
      - time: 0
        value: {x: 0, y: -0.3084565, z: 0}
        inSlope: {x: -0, y: 0.70335525, z: 0}
        outSlope: {x: -0, y: 0.70335525, z: 0}
        tangentMode: 0
      - time: 0.25
        value: {x: -0, y: -0.1326177, z: 0}
        inSlope: {x: 0, y: 0.042048514, z: 0}
        outSlope: {x: 0, y: 0.042048514, z: 0}
        tangentMode: 0
      - time: 0.6333333
        value: {x: -0, y: -0.37, z: 0}
        inSlope: {x: 0, y: -0.012901217, z: 0}
        outSlope: {x: 0, y: -0.012901217, z: 0}
        tangentMode: 0
      - time: 1.0333333
        value: {x: -0, y: -0.1326177, z: 0}
        inSlope: {x: 0, y: -0.012901217, z: 0}
        outSlope: {x: 0, y: -0.012901217, z: 0}
        tangentMode: 0
      - time: 1.4166666
        value: {x: -0, y: -0.37, z: 0}
        inSlope: {x: 0, y: -0.10448426, z: 0}
        outSlope: {x: 0, y: -0.10448426, z: 0}
        tangentMode: 0
      - time: 1.5666667
        value: {x: 0, y: -0.3084565, z: 0}
        inSlope: {x: 0, y: 0.4102897, z: 0}
        outSlope: {x: 0, y: 0.4102897, z: 0}
        tangentMode: 0
      m_PreInfinity: 2
      m_PostInfinity: 2
      m_RotationOrder: 4
    path: Innard05
  - curve:
      serializedVersion: 2
      m_Curve:
      - time: 0
        value: {x: -0.5301327, y: 0.6217954, z: 0}
        inSlope: {x: 0, y: 0, z: 0}
        outSlope: {x: 0, y: 0, z: 0}
        tangentMode: 0
      - time: 0.33333334
        value: {x: -0.59, y: 0.76, z: 0}
        inSlope: {x: -0.044800937, y: 0.04230684, z: 0}
        outSlope: {x: -0.044800937, y: 0.04230684, z: 0}
        tangentMode: 0
      - time: 0.6666667
        value: {x: -0.56, y: 0.65, z: 0}
        inSlope: {x: 0.07135345, y: -0.23506705, z: 0}
        outSlope: {x: 0.07135345, y: -0.23506705, z: 0}
        tangentMode: 0
      - time: 1.2333333
        value: {x: -0.5301327, y: 0.5705907, z: 0}
        inSlope: {x: 0.052706987, y: -0.14013407, z: 0}
        outSlope: {x: 0.052706987, y: -0.14013407, z: 0}
        tangentMode: 0
      m_PreInfinity: 2
      m_PostInfinity: 2
      m_RotationOrder: 4
    path: Dome/Eye
  - curve:
      serializedVersion: 2
      m_Curve:
      - time: 0
        value: {x: 0.04, y: 0.34, z: 0.09}
        inSlope: {x: 0, y: 0, z: 0}
        outSlope: {x: 0, y: 0, z: 0}
        tangentMode: 0
      - time: 0.26666668
        value: {x: 0.05, y: 0.34, z: 0.09}
        inSlope: {x: 0.018750003, y: 0, z: 0}
        outSlope: {x: 0.018750003, y: 0, z: 0}
        tangentMode: 0
      - time: 0.55
        value: {x: 0.05, y: 0.34, z: 0.09}
        inSlope: {x: -0.48, y: 0, z: 0}
        outSlope: {x: -0.48, y: 0, z: 0}
        tangentMode: 0
      - time: 0.8
        value: {x: -0.19, y: 0.34, z: 0.09}
        inSlope: {x: -0.17999998, y: 0, z: -0.31500003}
        outSlope: {x: -0.17999998, y: 0, z: -0.31500003}
        tangentMode: 0
      - time: 1.1333333
        value: {x: 0.01, y: 0.34, z: -0.12}
        inSlope: {x: 0.3, y: 0, z: -0.072692364}
        outSlope: {x: 0.3, y: 0, z: -0.072692364}
        tangentMode: 0
      - time: 1.5666667
        value: {x: 0.01, y: 0.34, z: 0.09}
        inSlope: {x: 0, y: 0, z: 0.48461533}
        outSlope: {x: 0, y: 0, z: 0.48461533}
        tangentMode: 0
      m_PreInfinity: 2
      m_PostInfinity: 2
      m_RotationOrder: 4
    path: Dome/Eye/Iris
  - curve:
      serializedVersion: 2
      m_Curve:
      - time: 0
        value: {x: -0.6, y: -0.6, z: 0.06}
        inSlope: {x: 0, y: 0, z: 0}
        outSlope: {x: 0, y: 0, z: 0}
        tangentMode: 0
      m_PreInfinity: 2
      m_PostInfinity: 2
      m_RotationOrder: 4
    path: Arm1
  - curve:
      serializedVersion: 2
      m_Curve:
      - time: 0.5833333
        value: {x: -2.08, y: 1.72, z: -2.81}
        inSlope: {x: -21.59995, y: -37.1999, z: -43.799885}
        outSlope: {x: -21.59995, y: -37.1999, z: -43.799885}
        tangentMode: 0
      - time: 0.6
        value: {x: -2.44, y: 1.1, z: -3.54}
        inSlope: {x: -48.14998, y: -8.32495, z: -32.324944}
        outSlope: {x: -48.14998, y: -8.32495, z: -32.324944}
        tangentMode: 0
      - time: 0.6666667
        value: {x: -7.42, y: 2.47, z: -4.93}
        inSlope: {x: 0, y: 0, z: 0}
        outSlope: {x: 0, y: 0, z: 0}
        tangentMode: 0
      - time: 0.68333334
        value: {x: -7.89, y: 2.25, z: -4.96}
        inSlope: {x: 0, y: 0, z: 0}
        outSlope: {x: 0, y: 0, z: 0}
        tangentMode: 0
      - time: 0.9
        value: {x: -2.08, y: 1.72, z: -2.81}
        inSlope: {x: 26.815388, y: -2.446154, z: 9.923079}
        outSlope: {x: 26.815388, y: -2.446154, z: 9.923079}
        tangentMode: 0
      m_PreInfinity: 2
      m_PostInfinity: 2
      m_RotationOrder: 4
    path: Arm1/Arm2/Hand/leftHalf
  - curve:
      serializedVersion: 2
      m_Curve:
      - time: 0
        value: {x: -4.8, y: 0, z: 0}
        inSlope: {x: 0, y: 0, z: 0}
        outSlope: {x: 0, y: 0, z: 0}
        tangentMode: 0
      - time: 0.33333334
        value: {x: -5.18, y: 0.96, z: 0.51}
        inSlope: {x: 0, y: 0, z: 0}
        outSlope: {x: 0, y: 0, z: 0}
        tangentMode: 0
      - time: 0.6666667
        value: {x: -4.8, y: 0, z: 0.51}
        inSlope: {x: 0, y: 0, z: 0}
        outSlope: {x: 0, y: 0, z: 0}
        tangentMode: 0
      - time: 1.5666667
        value: {x: 1.3, y: 0, z: 0}
        inSlope: {x: 6.777778, y: 0, z: -0.56666666}
        outSlope: {x: 6.777778, y: 0, z: -0.56666666}
        tangentMode: 0
      m_PreInfinity: 2
      m_PostInfinity: 2
      m_RotationOrder: 4
    path: 
  m_ScaleCurves: []
  m_FloatCurves:
  - curve:
      serializedVersion: 2
      m_Curve:
      - time: 0
        value: 1
        inSlope: Infinity
        outSlope: Infinity
        tangentMode: 31
      - time: 0.68333334
        value: 0
        inSlope: Infinity
        outSlope: Infinity
        tangentMode: 31
      m_PreInfinity: 2
      m_PostInfinity: 2
      m_RotationOrder: 4
    attribute: m_IsActive
    path: Arm1/Arm2/Hand/leftHalf
    classID: 1
    script: {fileID: 0}
  m_PPtrCurves: []
  m_SampleRate: 60
  m_WrapMode: 0
  m_Bounds:
    m_Center: {x: 0, y: 0, z: 0}
    m_Extent: {x: 0, y: 0, z: 0}
  m_ClipBindingConstant:
    genericBindings:
    - path: 514145506
      attribute: 1
      script: {fileID: 0}
      classID: 4
      customType: 0
      isPPtrCurve: 0
    - path: 2276224344
      attribute: 1
      script: {fileID: 0}
      classID: 4
      customType: 0
      isPPtrCurve: 0
    - path: 4037762510
      attribute: 1
      script: {fileID: 0}
      classID: 4
      customType: 0
      isPPtrCurve: 0
    - path: 1859111021
      attribute: 1
      script: {fileID: 0}
      classID: 4
      customType: 0
      isPPtrCurve: 0
    - path: 432601339
      attribute: 1
      script: {fileID: 0}
      classID: 4
      customType: 0
      isPPtrCurve: 0
    - path: 496397536
      attribute: 1
      script: {fileID: 0}
      classID: 4
      customType: 0
      isPPtrCurve: 0
    - path: 373240595
      attribute: 1
      script: {fileID: 0}
      classID: 4
      customType: 0
      isPPtrCurve: 0
    - path: 400216882
      attribute: 1
      script: {fileID: 0}
      classID: 4
      customType: 0
      isPPtrCurve: 0
    - path: 0
      attribute: 1
      script: {fileID: 0}
      classID: 4
      customType: 0
      isPPtrCurve: 0
    - path: 3398284251
      attribute: 4
      script: {fileID: 0}
      classID: 4
      customType: 14
      isPPtrCurve: 0
    - path: 496397536
      attribute: 4
      script: {fileID: 0}
      classID: 4
      customType: 14
      isPPtrCurve: 0
    - path: 3558099370
      attribute: 4
      script: {fileID: 0}
      classID: 4
      customType: 14
      isPPtrCurve: 0
    - path: 3407483891
      attribute: 4
      script: {fileID: 0}
      classID: 4
      customType: 14
      isPPtrCurve: 0
    - path: 1461749690
      attribute: 4
      script: {fileID: 0}
      classID: 4
      customType: 14
      isPPtrCurve: 0
    - path: 2348589078
      attribute: 4
      script: {fileID: 0}
      classID: 4
      customType: 14
      isPPtrCurve: 0
    - path: 1774749194
      attribute: 4
      script: {fileID: 0}
      classID: 4
      customType: 14
      isPPtrCurve: 0
    - path: 400216882
      attribute: 4
      script: {fileID: 0}
      classID: 4
      customType: 14
      isPPtrCurve: 0
    - path: 0
      attribute: 4
      script: {fileID: 0}
      classID: 4
      customType: 14
      isPPtrCurve: 0
    - path: 400216882
      attribute: 2086281974
      script: {fileID: 0}
      classID: 1
      customType: 0
      isPPtrCurve: 0
    - path: 3558099370
      attribute: 1
      script: {fileID: 0}
      classID: 4
      customType: 0
      isPPtrCurve: 0
    pptrCurveMapping: []
  m_AnimationClipSettings:
    serializedVersion: 2
    m_AdditiveReferencePoseClip: {fileID: 0}
    m_AdditiveReferencePoseTime: 0
    m_StartTime: 0
    m_StopTime: 1.5666667
    m_OrientationOffsetY: 0
    m_Level: 0
    m_CycleOffset: 0
    m_HasAdditiveReferencePose: 0
    m_LoopTime: 1
    m_LoopBlend: 0
    m_LoopBlendOrientation: 0
    m_LoopBlendPositionY: 0
    m_LoopBlendPositionXZ: 0
    m_KeepOriginalOrientation: 0
    m_KeepOriginalPositionY: 1
    m_KeepOriginalPositionXZ: 0
    m_HeightFromFeet: 0
    m_Mirror: 0
  m_EditorCurves:
  - curve:
      serializedVersion: 2
      m_Curve:
      - time: 0
        value: -0
        inSlope: 0
        outSlope: 0
        tangentMode: 10
      - time: 0.38333333
        value: -0
        inSlope: 0
        outSlope: 0
        tangentMode: 10
      - time: 0.78333336
        value: -0
        inSlope: 0
        outSlope: 0
        tangentMode: 10
      - time: 1.1666666
        value: -0
        inSlope: 0
        outSlope: 0
        tangentMode: 10
      - time: 1.5666667
        value: -0
        inSlope: 0
        outSlope: 0
        tangentMode: 10
      m_PreInfinity: 2
      m_PostInfinity: 2
      m_RotationOrder: 4
    attribute: m_LocalPosition.x
    path: Innard01
    classID: 4
    script: {fileID: 0}
  - curve:
      serializedVersion: 2
      m_Curve:
      - time: 0
        value: -0.1326177
        inSlope: -0.6192582
        outSlope: -0.6192582
        tangentMode: 10
      - time: 0.38333333
        value: -0.37
        inSlope: -0.012901247
        outSlope: -0.012901247
        tangentMode: 10
      - time: 0.78333336
        value: -0.1326177
        inSlope: -0.012901276
        outSlope: -0.012901276
        tangentMode: 10
      - time: 1.1666666
        value: -0.37
        inSlope: -0.012901336
        outSlope: -0.012901336
        tangentMode: 10
      - time: 1.5666667
        value: -0.1326177
        inSlope: 0.5934556
        outSlope: 0.5934556
        tangentMode: 10
      m_PreInfinity: 2
      m_PostInfinity: 2
      m_RotationOrder: 4
    attribute: m_LocalPosition.y
    path: Innard01
    classID: 4
    script: {fileID: 0}
  - curve:
      serializedVersion: 2
      m_Curve:
      - time: 0
        value: 0
        inSlope: 0
        outSlope: 0
        tangentMode: 10
      - time: 0.38333333
        value: 0
        inSlope: 0
        outSlope: 0
        tangentMode: 10
      - time: 0.78333336
        value: 0
        inSlope: 0
        outSlope: 0
        tangentMode: 10
      - time: 1.1666666
        value: 0
        inSlope: 0
        outSlope: 0
        tangentMode: 10
      - time: 1.5666667
        value: 0
        inSlope: 0
        outSlope: 0
        tangentMode: 10
      m_PreInfinity: 2
      m_PostInfinity: 2
      m_RotationOrder: 4
    attribute: m_LocalPosition.z
    path: Innard01
    classID: 4
    script: {fileID: 0}
  - curve:
      serializedVersion: 2
      m_Curve:
      - time: 0
        value: 0
        inSlope: -0
        outSlope: -0
        tangentMode: 10
      - time: 0.06666667
        value: -0
        inSlope: 0
        outSlope: 0
        tangentMode: 10
      - time: 0.45
        value: -0
        inSlope: 0
        outSlope: 0
        tangentMode: 10
      - time: 0.85
        value: -0
        inSlope: 0
        outSlope: 0
        tangentMode: 10
      - time: 1.2333333
        value: -0
        inSlope: 0
        outSlope: 0
        tangentMode: 10
      - time: 1.5666667
        value: 0
        inSlope: 0
        outSlope: 0
        tangentMode: 10
      m_PreInfinity: 2
      m_PostInfinity: 2
      m_RotationOrder: 4
    attribute: m_LocalPosition.x
    path: Innard02
    classID: 4
    script: {fileID: 0}
  - curve:
      serializedVersion: 2
      m_Curve:
      - time: 0
        value: -0.1502
        inSlope: 0.26373446
        outSlope: 0.26373446
        tangentMode: 10
      - time: 0.06666667
        value: -0.1326177
        inSlope: -0.17776188
        outSlope: -0.17776188
        tangentMode: 10
      - time: 0.45
        value: -0.37
        inSlope: -0.012901247
        outSlope: -0.012901247
        tangentMode: 10
      - time: 0.85
        value: -0.1326177
        inSlope: -0.012901247
        outSlope: -0.012901247
        tangentMode: 10
      - time: 1.2333333
        value: -0.37
        inSlope: 0.02007085
        outSlope: 0.02007085
        tangentMode: 10
      - time: 1.5666667
        value: -0.1502
        inSlope: 0.6593999
        outSlope: 0.6593999
        tangentMode: 10
      m_PreInfinity: 2
      m_PostInfinity: 2
      m_RotationOrder: 4
    attribute: m_LocalPosition.y
    path: Innard02
    classID: 4
    script: {fileID: 0}
  - curve:
      serializedVersion: 2
      m_Curve:
      - time: 0
        value: 0
        inSlope: 0
        outSlope: 0
        tangentMode: 10
      - time: 0.06666667
        value: 0
        inSlope: 0
        outSlope: 0
        tangentMode: 10
      - time: 0.45
        value: 0
        inSlope: 0
        outSlope: 0
        tangentMode: 10
      - time: 0.85
        value: 0
        inSlope: 0
        outSlope: 0
        tangentMode: 10
      - time: 1.2333333
        value: 0
        inSlope: 0
        outSlope: 0
        tangentMode: 10
      - time: 1.5666667
        value: 0
        inSlope: 0
        outSlope: 0
        tangentMode: 10
      m_PreInfinity: 2
      m_PostInfinity: 2
      m_RotationOrder: 4
    attribute: m_LocalPosition.z
    path: Innard02
    classID: 4
    script: {fileID: 0}
  - curve:
      serializedVersion: 2
      m_Curve:
      - time: 0
        value: 0
        inSlope: -0
        outSlope: -0
        tangentMode: 10
      - time: 0.13333334
        value: -0
        inSlope: 0
        outSlope: 0
        tangentMode: 10
      - time: 0.51666665
        value: -0
        inSlope: 0
        outSlope: 0
        tangentMode: 10
      - time: 0.9166667
        value: -0
        inSlope: 0
        outSlope: 0
        tangentMode: 10
      - time: 1.3
        value: -0
        inSlope: 0
        outSlope: 0
        tangentMode: 10
      - time: 1.5666667
        value: 0
        inSlope: 0
        outSlope: 0
        tangentMode: 10
      m_PreInfinity: 2
      m_PostInfinity: 2
      m_RotationOrder: 4
    attribute: m_LocalPosition.x
    path: Innard03
    classID: 4
    script: {fileID: 0}
  - curve:
      serializedVersion: 2
      m_Curve:
      - time: 0
        value: -0.1941613
        inSlope: 0.46157697
        outSlope: 0.46157697
        tangentMode: 10
      - time: 0.13333334
        value: -0.1326177
        inSlope: -0.07884063
        outSlope: -0.07884063
        tangentMode: 10
      - time: 0.51666665
        value: -0.37
        inSlope: -0.012901247
        outSlope: -0.012901247
        tangentMode: 10
      - time: 0.9166667
        value: -0.1326177
        inSlope: -0.012901276
        outSlope: -0.012901276
        tangentMode: 10
      - time: 1.3
        value: -0.37
        inSlope: 0.020068318
        outSlope: 0.020068318
        tangentMode: 10
      - time: 1.5666667
        value: -0.1941613
        inSlope: 0.6593949
        outSlope: 0.6593949
        tangentMode: 10
      m_PreInfinity: 2
      m_PostInfinity: 2
      m_RotationOrder: 4
    attribute: m_LocalPosition.y
    path: Innard03
    classID: 4
    script: {fileID: 0}
  - curve:
      serializedVersion: 2
      m_Curve:
      - time: 0
        value: 0
        inSlope: 0
        outSlope: 0
        tangentMode: 10
      - time: 0.13333334
        value: 0
        inSlope: 0
        outSlope: 0
        tangentMode: 10
      - time: 0.51666665
        value: 0
        inSlope: 0
        outSlope: 0
        tangentMode: 10
      - time: 0.9166667
        value: 0
        inSlope: 0
        outSlope: 0
        tangentMode: 10
      - time: 1.3
        value: 0
        inSlope: 0
        outSlope: 0
        tangentMode: 10
      - time: 1.5666667
        value: 0
        inSlope: 0
        outSlope: 0
        tangentMode: 10
      m_PreInfinity: 2
      m_PostInfinity: 2
      m_RotationOrder: 4
    attribute: m_LocalPosition.z
    path: Innard03
    classID: 4
    script: {fileID: 0}
  - curve:
      serializedVersion: 2
      m_Curve:
      - time: 0
        value: 0
        inSlope: -0
        outSlope: -0
        tangentMode: 10
      - time: 0.18333334
        value: -0
        inSlope: 0
        outSlope: 0
        tangentMode: 10
      - time: 0.56666666
        value: -0
        inSlope: 0
        outSlope: 0
        tangentMode: 10
      - time: 0.96666664
        value: -0
        inSlope: 0
        outSlope: 0
        tangentMode: 10
      - time: 1.35
        value: -0
        inSlope: 0
        outSlope: 0
        tangentMode: 10
      - time: 1.5666667
        value: 0
        inSlope: 0
        outSlope: 0
        tangentMode: 10
      m_PreInfinity: 2
      m_PostInfinity: 2
      m_RotationOrder: 4
    attribute: m_LocalPosition.x
    path: Innard04
    classID: 4
    script: {fileID: 0}
  - curve:
      serializedVersion: 2
      m_Curve:
      - time: 0
        value: -0.2513089
        inSlope: 0.64740646
        outSlope: 0.64740646
        tangentMode: 10
      - time: 0.18333334
        value: -0.1326177
        inSlope: 0.014074117
        outSlope: 0.014074117
        tangentMode: 10
      - time: 0.56666666
        value: -0.37
        inSlope: -0.012901217
        outSlope: -0.012901217
        tangentMode: 10
      - time: 0.96666664
        value: -0.1326177
        inSlope: -0.012901157
        outSlope: -0.012901157
        tangentMode: 10
      - time: 1.35
        value: -0.37
        inSlope: -0.035726517
        outSlope: -0.035726517
        tangentMode: 10
      - time: 1.5666667
        value: -0.2513089
        inSlope: 0.5478051
        outSlope: 0.5478051
        tangentMode: 10
      m_PreInfinity: 2
      m_PostInfinity: 2
      m_RotationOrder: 4
    attribute: m_LocalPosition.y
    path: Innard04
    classID: 4
    script: {fileID: 0}
  - curve:
      serializedVersion: 2
      m_Curve:
      - time: 0
        value: 0
        inSlope: 0
        outSlope: 0
        tangentMode: 10
      - time: 0.18333334
        value: 0
        inSlope: 0
        outSlope: 0
        tangentMode: 10
      - time: 0.56666666
        value: 0
        inSlope: 0
        outSlope: 0
        tangentMode: 10
      - time: 0.96666664
        value: 0
        inSlope: 0
        outSlope: 0
        tangentMode: 10
      - time: 1.35
        value: 0
        inSlope: 0
        outSlope: 0
        tangentMode: 10
      - time: 1.5666667
        value: 0
        inSlope: 0
        outSlope: 0
        tangentMode: 10
      m_PreInfinity: 2
      m_PostInfinity: 2
      m_RotationOrder: 4
    attribute: m_LocalPosition.z
    path: Innard04
    classID: 4
    script: {fileID: 0}
  - curve:
      serializedVersion: 2
      m_Curve:
      - time: 0
        value: 0
        inSlope: -0
        outSlope: -0
        tangentMode: 10
      - time: 0.25
        value: -0
        inSlope: 0
        outSlope: 0
        tangentMode: 10
      - time: 0.6333333
        value: -0
        inSlope: 0
        outSlope: 0
        tangentMode: 10
      - time: 1.0333333
        value: -0
        inSlope: 0
        outSlope: 0
        tangentMode: 10
      - time: 1.4166666
        value: -0
        inSlope: 0
        outSlope: 0
        tangentMode: 10
      - time: 1.5666667
        value: 0
        inSlope: 0
        outSlope: 0
        tangentMode: 10
      m_PreInfinity: 2
      m_PostInfinity: 2
      m_RotationOrder: 4
    attribute: m_LocalPosition.x
    path: Innard05
    classID: 4
    script: {fileID: 0}
  - curve:
      serializedVersion: 2
      m_Curve:
      - time: 0
        value: -0.3084565
        inSlope: 0.70335525
        outSlope: 0.70335525
        tangentMode: 10
      - time: 0.25
        value: -0.1326177
        inSlope: 0.042048514
        outSlope: 0.042048514
        tangentMode: 10
      - time: 0.6333333
        value: -0.37
        inSlope: -0.012901217
        outSlope: -0.012901217
        tangentMode: 10
      - time: 1.0333333
        value: -0.1326177
        inSlope: -0.012901217
        outSlope: -0.012901217
        tangentMode: 10
      - time: 1.4166666
        value: -0.37
        inSlope: -0.10448426
        outSlope: -0.10448426
        tangentMode: 10
      - time: 1.5666667
        value: -0.3084565
        inSlope: 0.4102897
        outSlope: 0.4102897
        tangentMode: 10
      m_PreInfinity: 2
      m_PostInfinity: 2
      m_RotationOrder: 4
    attribute: m_LocalPosition.y
    path: Innard05
    classID: 4
    script: {fileID: 0}
  - curve:
      serializedVersion: 2
      m_Curve:
      - time: 0
        value: 0
        inSlope: 0
        outSlope: 0
        tangentMode: 10
      - time: 0.25
        value: 0
        inSlope: 0
        outSlope: 0
        tangentMode: 10
      - time: 0.6333333
        value: 0
        inSlope: 0
        outSlope: 0
        tangentMode: 10
      - time: 1.0333333
        value: 0
        inSlope: 0
        outSlope: 0
        tangentMode: 10
      - time: 1.4166666
        value: 0
        inSlope: 0
        outSlope: 0
        tangentMode: 10
      - time: 1.5666667
        value: 0
        inSlope: 0
        outSlope: 0
        tangentMode: 10
      m_PreInfinity: 2
      m_PostInfinity: 2
      m_RotationOrder: 4
    attribute: m_LocalPosition.z
    path: Innard05
    classID: 4
    script: {fileID: 0}
  - curve:
      serializedVersion: 2
      m_Curve:
      - time: 0
        value: 0
        inSlope: 0
        outSlope: 0
        tangentMode: 10
      - time: 0.15
        value: 0
        inSlope: 0
        outSlope: 0
        tangentMode: 10
      - time: 0.33333334
        value: 0
        inSlope: 0
        outSlope: 0
        tangentMode: 10
      - time: 0.56666666
        value: 0
        inSlope: 0
        outSlope: 0
        tangentMode: 10
      - time: 1
        value: 0
        inSlope: 0
        outSlope: 0
        tangentMode: 10
      - time: 1.2166667
        value: 0
        inSlope: 0
        outSlope: 0
        tangentMode: 10
      - time: 1.5666667
        value: 0
        inSlope: 0
        outSlope: 0
        tangentMode: 10
      m_PreInfinity: 2
      m_PostInfinity: 2
      m_RotationOrder: 4
    attribute: localEulerAnglesRaw.x
    path: Dome/Antenna
    classID: 4
    script: {fileID: 0}
  - curve:
      serializedVersion: 2
      m_Curve:
      - time: 0
        value: 0
        inSlope: 0
        outSlope: 0
        tangentMode: 10
      - time: 0.15
        value: 0
        inSlope: 0
        outSlope: 0
        tangentMode: 10
      - time: 0.33333334
        value: 0
        inSlope: 0
        outSlope: 0
        tangentMode: 10
      - time: 0.56666666
        value: 0
        inSlope: 0
        outSlope: 0
        tangentMode: 10
      - time: 1
        value: 0
        inSlope: 0
        outSlope: 0
        tangentMode: 10
      - time: 1.2166667
        value: 0
        inSlope: 0
        outSlope: 0
        tangentMode: 10
      - time: 1.5666667
        value: 0
        inSlope: 0
        outSlope: 0
        tangentMode: 10
      m_PreInfinity: 2
      m_PostInfinity: 2
      m_RotationOrder: 4
    attribute: localEulerAnglesRaw.y
    path: Dome/Antenna
    classID: 4
    script: {fileID: 0}
  - curve:
      serializedVersion: 2
      m_Curve:
      - time: 0
        value: 18.217
        inSlope: -274.04663
        outSlope: -274.04663
        tangentMode: 10
      - time: 0.15
        value: -22.89
        inSlope: -97.475136
        outSlope: -97.475136
        tangentMode: 10
      - time: 0.33333334
        value: -8.389
        inSlope: 8.474607
        outSlope: 8.474607
        tangentMode: 10
      - time: 0.56666666
        value: -22.89
        inSlope: 21.864885
        outSlope: 21.864885
        tangentMode: 10
      - time: 1
        value: 22.99
        inSlope: 13.753849
        outSlope: 13.753849
        tangentMode: 10
      - time: 1.2166667
        value: 6.01
        inSlope: -59.75461
        outSlope: -59.75461
        tangentMode: 10
      - time: 1.5666667
        value: -8.389
        inSlope: -41.14
        outSlope: -41.14
        tangentMode: 10
      m_PreInfinity: 2
      m_PostInfinity: 2
      m_RotationOrder: 4
    attribute: localEulerAnglesRaw.z
    path: Dome/Antenna
    classID: 4
    script: {fileID: 0}
  - curve:
      serializedVersion: 2
      m_Curve:
      - time: 0
        value: 1
        inSlope: Infinity
        outSlope: Infinity
        tangentMode: 31
      - time: 0.68333334
        value: 0
        inSlope: Infinity
        outSlope: Infinity
        tangentMode: 31
      m_PreInfinity: 2
      m_PostInfinity: 2
      m_RotationOrder: 4
    attribute: m_IsActive
    path: Arm1/Arm2/Hand/leftHalf
    classID: 1
    script: {fileID: 0}
  - curve:
      serializedVersion: 2
      m_Curve:
      - time: 0
        value: 0
        inSlope: 0
        outSlope: 0
        tangentMode: 10
      - time: 0.33333334
        value: 0
        inSlope: 0
        outSlope: 0
        tangentMode: 10
      - time: 0.6666667
        value: 0
        inSlope: 0
        outSlope: 0
        tangentMode: 10
      - time: 1.2333333
        value: 0
        inSlope: 0
        outSlope: 0
        tangentMode: 10
      m_PreInfinity: 2
      m_PostInfinity: 2
      m_RotationOrder: 4
    attribute: localEulerAnglesRaw.x
    path: Dome/Eye
    classID: 4
    script: {fileID: 0}
  - curve:
      serializedVersion: 2
      m_Curve:
      - time: 0
        value: 0
        inSlope: 0
        outSlope: 0
        tangentMode: 10
      - time: 0.33333334
        value: 0
        inSlope: 0
        outSlope: 0
        tangentMode: 10
      - time: 0.6666667
        value: 0
        inSlope: 0
        outSlope: 0
        tangentMode: 10
      - time: 1.2333333
        value: 0
        inSlope: 0
        outSlope: 0
        tangentMode: 10
      m_PreInfinity: 2
      m_PostInfinity: 2
      m_RotationOrder: 4
    attribute: localEulerAnglesRaw.y
    path: Dome/Eye
    classID: 4
    script: {fileID: 0}
  - curve:
      serializedVersion: 2
      m_Curve:
      - time: 0
        value: 90
        inSlope: 18.38404
        outSlope: 18.38404
        tangentMode: 10
      - time: 0.33333334
        value: 96.12801
        inSlope: 9.19202
        outSlope: 9.19202
        tangentMode: 10
      - time: 0.6666667
        value: 96.12801
        inSlope: -5.4070706
        outSlope: -5.4070706
        tangentMode: 10
      - time: 1.2333333
        value: 90
        inSlope: -10.814141
        outSlope: -10.814141
        tangentMode: 10
      m_PreInfinity: 2
      m_PostInfinity: 2
      m_RotationOrder: 4
    attribute: localEulerAnglesRaw.z
    path: Dome/Eye
    classID: 4
    script: {fileID: 0}
  - curve:
      serializedVersion: 2
      m_Curve:
      - time: 0
        value: -0.5301327
        inSlope: 0
        outSlope: 0
        tangentMode: 0
      - time: 0.33333334
        value: -0.59
        inSlope: -0.044800937
        outSlope: -0.044800937
        tangentMode: 10
      - time: 0.6666667
        value: -0.56
        inSlope: 0.07135345
        outSlope: 0.07135345
        tangentMode: 10
      - time: 1.2333333
        value: -0.5301327
        inSlope: 0.052706987
        outSlope: 0.052706987
        tangentMode: 10
      m_PreInfinity: 2
      m_PostInfinity: 2
      m_RotationOrder: 4
    attribute: m_LocalPosition.x
    path: Dome/Eye
    classID: 4
    script: {fileID: 0}
  - curve:
      serializedVersion: 2
      m_Curve:
      - time: 0
        value: 0.6217954
        inSlope: 0
        outSlope: 0
        tangentMode: 0
      - time: 0.33333334
        value: 0.76
        inSlope: 0.04230684
        outSlope: 0.04230684
        tangentMode: 10
      - time: 0.6666667
        value: 0.65
        inSlope: -0.23506705
        outSlope: -0.23506705
        tangentMode: 10
      - time: 1.2333333
        value: 0.5705907
        inSlope: -0.14013407
        outSlope: -0.14013407
        tangentMode: 10
      m_PreInfinity: 2
      m_PostInfinity: 2
      m_RotationOrder: 4
    attribute: m_LocalPosition.y
    path: Dome/Eye
    classID: 4
    script: {fileID: 0}
  - curve:
      serializedVersion: 2
      m_Curve:
      - time: 0
        value: 0
        inSlope: 0
        outSlope: 0
        tangentMode: 0
      - time: 0.33333334
        value: 0
        inSlope: 0
        outSlope: 0
        tangentMode: 10
      - time: 0.6666667
        value: 0
        inSlope: 0
        outSlope: 0
        tangentMode: 10
      - time: 1.2333333
        value: 0
        inSlope: 0
        outSlope: 0
        tangentMode: 10
      m_PreInfinity: 2
      m_PostInfinity: 2
      m_RotationOrder: 4
    attribute: m_LocalPosition.z
    path: Dome/Eye
    classID: 4
    script: {fileID: 0}
  - curve:
      serializedVersion: 2
      m_Curve:
      - time: 0
        value: 0.04
        inSlope: 0
        outSlope: 0
        tangentMode: 0
      - time: 0.26666668
        value: 0.05
        inSlope: 0.018750003
        outSlope: 0.018750003
        tangentMode: 10
      - time: 0.55
        value: 0.05
        inSlope: -0.48
        outSlope: -0.48
        tangentMode: 10
      - time: 0.8
        value: -0.19
        inSlope: -0.17999998
        outSlope: -0.17999998
        tangentMode: 10
      - time: 1.1333333
        value: 0.01
        inSlope: 0.3
        outSlope: 0.3
        tangentMode: 10
      - time: 1.5666667
        value: 0.01
        inSlope: 0
        outSlope: 0
        tangentMode: 10
      m_PreInfinity: 2
      m_PostInfinity: 2
      m_RotationOrder: 4
    attribute: m_LocalPosition.x
    path: Dome/Eye/Iris
    classID: 4
    script: {fileID: 0}
  - curve:
      serializedVersion: 2
      m_Curve:
      - time: 0
        value: 0.34
        inSlope: 0
        outSlope: 0
        tangentMode: 0
      - time: 0.26666668
        value: 0.34
        inSlope: 0
        outSlope: 0
        tangentMode: 10
      - time: 0.55
        value: 0.34
        inSlope: 0
        outSlope: 0
        tangentMode: 10
      - time: 0.8
        value: 0.34
        inSlope: 0
        outSlope: 0
        tangentMode: 10
      - time: 1.1333333
        value: 0.34
        inSlope: 0
        outSlope: 0
        tangentMode: 10
      - time: 1.5666667
        value: 0.34
        inSlope: 0
        outSlope: 0
        tangentMode: 10
      m_PreInfinity: 2
      m_PostInfinity: 2
      m_RotationOrder: 4
    attribute: m_LocalPosition.y
    path: Dome/Eye/Iris
    classID: 4
    script: {fileID: 0}
  - curve:
      serializedVersion: 2
      m_Curve:
      - time: 0
        value: 0.09
        inSlope: 0
        outSlope: 0
        tangentMode: 0
      - time: 0.26666668
        value: 0.09
        inSlope: 0
        outSlope: 0
        tangentMode: 10
      - time: 0.55
        value: 0.09
        inSlope: 0
        outSlope: 0
        tangentMode: 10
      - time: 0.8
        value: 0.09
        inSlope: -0.31500003
        outSlope: -0.31500003
        tangentMode: 10
      - time: 1.1333333
        value: -0.12
        inSlope: -0.072692364
        outSlope: -0.072692364
        tangentMode: 10
      - time: 1.5666667
        value: 0.09
        inSlope: 0.48461533
        outSlope: 0.48461533
        tangentMode: 10
      m_PreInfinity: 2
      m_PostInfinity: 2
      m_RotationOrder: 4
    attribute: m_LocalPosition.z
    path: Dome/Eye/Iris
    classID: 4
    script: {fileID: 0}
  - curve:
      serializedVersion: 2
      m_Curve:
      - time: 0
        value: -0.6
        inSlope: 0
        outSlope: 0
        tangentMode: 10
      m_PreInfinity: 2
      m_PostInfinity: 2
      m_RotationOrder: 4
    attribute: m_LocalPosition.x
    path: Arm1
    classID: 4
    script: {fileID: 0}
  - curve:
      serializedVersion: 2
      m_Curve:
      - time: 0
        value: -0.6
        inSlope: 0
        outSlope: 0
        tangentMode: 10
      m_PreInfinity: 2
      m_PostInfinity: 2
      m_RotationOrder: 4
    attribute: m_LocalPosition.y
    path: Arm1
    classID: 4
    script: {fileID: 0}
  - curve:
      serializedVersion: 2
      m_Curve:
      - time: 0
        value: 0.06
        inSlope: 0
        outSlope: 0
        tangentMode: 10
      m_PreInfinity: 2
      m_PostInfinity: 2
      m_RotationOrder: 4
    attribute: m_LocalPosition.z
    path: Arm1
    classID: 4
    script: {fileID: 0}
  - curve:
      serializedVersion: 2
      m_Curve:
      - time: 0
        value: -3.313
        inSlope: 0
        outSlope: 0
        tangentMode: 10
      - time: 0.033333335
        value: -3.313
        inSlope: 0
        outSlope: 0
        tangentMode: 10
      - time: 0.21666667
        value: -3.313
        inSlope: -8.233636
        outSlope: -8.233636
        tangentMode: 10
      - time: 0.4
        value: -6.332
        inSlope: -3.4667935
        outSlope: -3.4667935
        tangentMode: 10
      - time: 0.71666664
        value: -3.313
        inSlope: 5.5064073
        outSlope: 5.5064073
        tangentMode: 10
      - time: 1.1
        value: -2.746
        inSlope: 3.6817079
        outSlope: 3.6817079
        tangentMode: 10
      - time: 1.5666667
        value: 0
        inSlope: 5.8842854
        outSlope: 5.8842854
        tangentMode: 10
      m_PreInfinity: 2
      m_PostInfinity: 2
      m_RotationOrder: 4
    attribute: localEulerAnglesRaw.x
    path: Arm1
    classID: 4
    script: {fileID: 0}
  - curve:
      serializedVersion: 2
      m_Curve:
      - time: 0
        value: 5.323
        inSlope: 0
        outSlope: 0
        tangentMode: 10
      - time: 0.033333335
        value: 5.323
        inSlope: 0
        outSlope: 0
        tangentMode: 10
      - time: 0.21666667
        value: 5.323
        inSlope: -2.5418186
        outSlope: -2.5418186
        tangentMode: 10
      - time: 0.4
        value: 4.391
        inSlope: -1.0702393
        outSlope: -1.0702393
        tangentMode: 10
      - time: 0.71666664
        value: 5.323
        inSlope: 2.9207096
        outSlope: 2.9207096
        tangentMode: 10
      - time: 1.1
        value: 6.434
        inSlope: -5.444441
        outSlope: -5.444441
        tangentMode: 10
      - time: 1.5666667
        value: 0
        inSlope: -13.787142
        outSlope: -13.787142
        tangentMode: 10
      m_PreInfinity: 2
      m_PostInfinity: 2
      m_RotationOrder: 4
    attribute: localEulerAnglesRaw.y
    path: Arm1
    classID: 4
    script: {fileID: 0}
  - curve:
      serializedVersion: 2
      m_Curve:
      - time: 0
        value: -49.36532
        inSlope: -6.4405055
        outSlope: -6.4405055
        tangentMode: 10
      - time: 0.033333335
        value: -49.58
        inSlope: -41.901157
        outSlope: -41.901157
        tangentMode: 10
      - time: 0.21666667
        value: -63.763
        inSlope: -71.020905
        outSlope: -71.020905
        tangentMode: 10
      - time: 0.4
        value: -75.621
        inSlope: 30.129482
        outSlope: 30.129482
        tangentMode: 10
      - time: 0.71666664
        value: -36.057
        inSlope: 74.16687
        outSlope: 74.16687
        tangentMode: 10
      - time: 1.1
        value: -27.089
        inSlope: 41.022778
        outSlope: 41.022778
        tangentMode: 10
      - time: 1.5666667
        value: 0.2813644
        inSlope: 58.65078
        outSlope: 58.65078
        tangentMode: 10
      m_PreInfinity: 2
      m_PostInfinity: 2
      m_RotationOrder: 4
    attribute: localEulerAnglesRaw.z
    path: Arm1
    classID: 4
    script: {fileID: 0}
  - curve:
      serializedVersion: 2
      m_Curve:
      - time: 0
        value: 0
        inSlope: 0
        outSlope: 0
        tangentMode: 10
      - time: 0.28333333
        value: 0
        inSlope: 0
        outSlope: 0
        tangentMode: 10
      - time: 0.4
        value: 0
        inSlope: 0
        outSlope: 0
        tangentMode: 10
      - time: 0.78333336
        value: 0
        inSlope: 0
        outSlope: 0
        tangentMode: 10
      - time: 1.1666666
        value: 0
        inSlope: 0
        outSlope: 0
        tangentMode: 10
      - time: 1.5666667
        value: 0
        inSlope: 0
        outSlope: 0
        tangentMode: 10
      m_PreInfinity: 2
      m_PostInfinity: 2
      m_RotationOrder: 4
    attribute: localEulerAnglesRaw.x
    path: Arm1/Arm2
    classID: 4
    script: {fileID: 0}
  - curve:
      serializedVersion: 2
      m_Curve:
      - time: 0
        value: 0
        inSlope: 0
        outSlope: 0
        tangentMode: 10
      - time: 0.28333333
        value: 0
        inSlope: 0
        outSlope: 0
        tangentMode: 10
      - time: 0.4
        value: 0
        inSlope: 0
        outSlope: 0
        tangentMode: 10
      - time: 0.78333336
        value: 0
        inSlope: 0
        outSlope: 0
        tangentMode: 10
      - time: 1.1666666
        value: 0
        inSlope: 0
        outSlope: 0
        tangentMode: 10
      - time: 1.5666667
        value: 0
        inSlope: 0
        outSlope: 0
        tangentMode: 10
      m_PreInfinity: 2
      m_PostInfinity: 2
      m_RotationOrder: 4
    attribute: localEulerAnglesRaw.y
    path: Arm1/Arm2
    classID: 4
    script: {fileID: 0}
  - curve:
      serializedVersion: 2
      m_Curve:
      - time: 0
        value: 276.1
        inSlope: -2.823594
        outSlope: -2.823594
        tangentMode: 10
      - time: 0.28333333
        value: 275.3
        inSlope: -27.554546
        outSlope: -27.554546
        tangentMode: 10
      - time: 0.4
        value: 269.2
        inSlope: 31.436356
        outSlope: 31.436356
        tangentMode: 10
      - time: 0.78333336
        value: 313.344
        inSlope: -10.372219
        outSlope: -10.372219
        tangentMode: 10
      - time: 1.1666666
        value: 261.248
        inSlope: -97.13104
        outSlope: -97.13104
        tangentMode: 10
      - time: 1.5666667
        value: 237.9042
        inSlope: -58.359436
        outSlope: -58.359436
        tangentMode: 10
      m_PreInfinity: 2
      m_PostInfinity: 2
      m_RotationOrder: 4
    attribute: localEulerAnglesRaw.z
    path: Arm1/Arm2
    classID: 4
    script: {fileID: 0}
  - curve:
      serializedVersion: 2
      m_Curve:
      - time: 0
        value: 0
        inSlope: 2.7063162
        outSlope: 2.7063162
        tangentMode: 10
      - time: 0.31666666
        value: 0.8570001
        inSlope: -3.7888422
        outSlope: -3.7888422
        tangentMode: 10
      - time: 0.4
        value: 0
        inSlope: -5.142
        outSlope: -5.142
        tangentMode: 10
      - time: 0.85
        value: 0
        inSlope: 1.044662
        outSlope: 1.044662
        tangentMode: 10
      - time: 1.3
        value: 0.9401957
        inSlope: -0.5942519
        outSlope: -0.5942519
        tangentMode: 10
      - time: 1.4166666
        value: 0.5577824
        inSlope: -3.4981875
        outSlope: -3.4981875
        tangentMode: 10
      - time: 1.5666667
        value: 0
        inSlope: -3.718547
        outSlope: -3.718547
        tangentMode: 10
      m_PreInfinity: 2
      m_PostInfinity: 2
      m_RotationOrder: 4
    attribute: localEulerAnglesRaw.x
    path: Arm1/Arm2/Hand
    classID: 4
    script: {fileID: 0}
  - curve:
      serializedVersion: 2
      m_Curve:
      - time: 0
        value: 0
        inSlope: 3.1136847
        outSlope: 3.1136847
        tangentMode: 10
      - time: 0.31666666
        value: 0.9860001
        inSlope: -4.3591576
        outSlope: -4.3591576
        tangentMode: 10
      - time: 0.4
        value: 0
        inSlope: -5.916
        outSlope: -5.916
        tangentMode: 10
      - time: 0.85
        value: 0
        inSlope: 1.1879957
        outSlope: 1.1879957
        tangentMode: 10
      - time: 1.3
        value: 1.069196
        inSlope: -0.67578745
        outSlope: -0.67578745
        tangentMode: 10
      - time: 1.4166666
        value: 0.6343132
        inSlope: -3.9781592
        outSlope: -3.9781592
        tangentMode: 10
      - time: 1.5666667
        value: 0
        inSlope: -4.228752
        outSlope: -4.228752
        tangentMode: 10
      m_PreInfinity: 2
      m_PostInfinity: 2
      m_RotationOrder: 4
    attribute: localEulerAnglesRaw.y
    path: Arm1/Arm2/Hand
    classID: 4
    script: {fileID: 0}
  - curve:
      serializedVersion: 2
      m_Curve:
      - time: 0
        value: 140.5335
        inSlope: 67.67212
        outSlope: 67.67212
        tangentMode: 10
      - time: 0.31666666
        value: 161.963
        inSlope: 81.99206
        outSlope: 81.99206
        tangentMode: 10
      - time: 0.4
        value: 169.989
        inSlope: 79.00267
        outSlope: 79.00267
        tangentMode: 10
      - time: 0.85
        value: 197.751
        inSlope: 1.9713287
        outSlope: 1.9713287
        tangentMode: 10
      - time: 1.3
        value: 171.7632
        inSlope: -70.876205
        outSlope: -70.876205
        tangentMode: 10
      - time: 1.4166666
        value: 161.963
        inSlope: -113.432495
        outSlope: -113.432495
        tangentMode: 10
      - time: 1.5666667
        value: 140.5335
        inSlope: -142.86327
        outSlope: -142.86327
        tangentMode: 10
      m_PreInfinity: 2
      m_PostInfinity: 2
      m_RotationOrder: 4
    attribute: localEulerAnglesRaw.z
    path: Arm1/Arm2/Hand
    classID: 4
    script: {fileID: 0}
  - curve:
      serializedVersion: 2
      m_Curve:
      - time: 0
        value: 0
        inSlope: 0
        outSlope: 0
        tangentMode: 10
      - time: 0.6
        value: 0
        inSlope: 0
        outSlope: 0
        tangentMode: 10
      - time: 0.68333334
        value: 0
        inSlope: 0
        outSlope: 0
        tangentMode: 10
      - time: 0.95
        value: 0
        inSlope: 0
        outSlope: 0
        tangentMode: 10
      - time: 1.2833333
        value: 0
        inSlope: 0
        outSlope: 0
        tangentMode: 10
      - time: 1.5666667
        value: 0
        inSlope: 0
        outSlope: 0
        tangentMode: 10
      m_PreInfinity: 2
      m_PostInfinity: 2
      m_RotationOrder: 4
    attribute: localEulerAnglesRaw.x
    path: Arm1/Arm2/Hand/ClawLower
    classID: 4
    script: {fileID: 0}
  - curve:
      serializedVersion: 2
      m_Curve:
      - time: 0
        value: 0
        inSlope: 0
        outSlope: 0
        tangentMode: 10
      - time: 0.6
        value: 0
        inSlope: 0
        outSlope: 0
        tangentMode: 10
      - time: 0.68333334
        value: 0
        inSlope: 0
        outSlope: 0
        tangentMode: 10
      - time: 0.95
        value: 0
        inSlope: 0
        outSlope: 0
        tangentMode: 10
      - time: 1.2833333
        value: 0
        inSlope: 0
        outSlope: 0
        tangentMode: 10
      - time: 1.5666667
        value: 0
        inSlope: 0
        outSlope: 0
        tangentMode: 10
      m_PreInfinity: 2
      m_PostInfinity: 2
      m_RotationOrder: 4
    attribute: localEulerAnglesRaw.y
    path: Arm1/Arm2/Hand/ClawLower
    classID: 4
    script: {fileID: 0}
  - curve:
      serializedVersion: 2
      m_Curve:
      - time: 0
        value: -90
        inSlope: -1.3316727
        outSlope: -1.3316727
        tangentMode: 10
      - time: 0.6
        value: -90.799
        inSlope: -73.02583
        outSlope: -73.02583
        tangentMode: 10
      - time: 0.68333334
        value: -102.859
        inSlope: -177.84187
        outSlope: -177.84187
        tangentMode: 10
      - time: 0.95
        value: -159.116
        inSlope: -70.06238
        outSlope: -70.06238
        tangentMode: 10
      - time: 1.2833333
        value: -135.503
        inSlope: 80.34361
        outSlope: 80.34361
        tangentMode: 10
      - time: 1.5666667
        value: -110.046
        inSlope: 89.848236
        outSlope: 89.848236
        tangentMode: 10
      m_PreInfinity: 2
      m_PostInfinity: 2
      m_RotationOrder: 4
    attribute: localEulerAnglesRaw.z
    path: Arm1/Arm2/Hand/ClawLower
    classID: 4
    script: {fileID: 0}
  - curve:
      serializedVersion: 2
      m_Curve:
      - time: 0
        value: 0
        inSlope: 0
        outSlope: 0
        tangentMode: 10
      - time: 0.6
        value: 0
        inSlope: 0
        outSlope: 0
        tangentMode: 10
      - time: 0.68333334
        value: 0
        inSlope: 0
        outSlope: 0
        tangentMode: 10
      - time: 0.95
        value: 0
        inSlope: 0
        outSlope: 0
        tangentMode: 10
      - time: 1.5666667
        value: 0
        inSlope: 0
        outSlope: 0
        tangentMode: 10
      m_PreInfinity: 2
      m_PostInfinity: 2
      m_RotationOrder: 4
    attribute: localEulerAnglesRaw.x
    path: Arm1/Arm2/Hand/clawUpper
    classID: 4
    script: {fileID: 0}
  - curve:
      serializedVersion: 2
      m_Curve:
      - time: 0
        value: 0
        inSlope: 0
        outSlope: 0
        tangentMode: 10
      - time: 0.6
        value: 0
        inSlope: 0
        outSlope: 0
        tangentMode: 10
      - time: 0.68333334
        value: 0
        inSlope: 0
        outSlope: 0
        tangentMode: 10
      - time: 0.95
        value: 0
        inSlope: 0
        outSlope: 0
        tangentMode: 10
      - time: 1.5666667
        value: 0
        inSlope: 0
        outSlope: 0
        tangentMode: 10
      m_PreInfinity: 2
      m_PostInfinity: 2
      m_RotationOrder: 4
    attribute: localEulerAnglesRaw.y
    path: Arm1/Arm2/Hand/clawUpper
    classID: 4
    script: {fileID: 0}
  - curve:
      serializedVersion: 2
      m_Curve:
      - time: 0
        value: -120.0272
        inSlope: -36.589672
        outSlope: -36.589672
        tangentMode: 10
      - time: 0.6
        value: -141.981
        inSlope: -306.92487
        outSlope: -306.92487
        tangentMode: 10
      - time: 0.68333334
        value: -190.086
        inSlope: -257.10565
        outSlope: -257.10565
        tangentMode: 10
      - time: 0.95
        value: -173.273
        inSlope: 74.69665
        outSlope: 74.69665
        tangentMode: 10
      - time: 1.5666667
        value: -120.0272
        inSlope: 86.34453
        outSlope: 86.34453
        tangentMode: 10
      m_PreInfinity: 2
      m_PostInfinity: 2
      m_RotationOrder: 4
    attribute: localEulerAnglesRaw.z
    path: Arm1/Arm2/Hand/clawUpper
    classID: 4
    script: {fileID: 0}
  - curve:
      serializedVersion: 2
      m_Curve:
      - time: 0.5833333
        value: -0
        inSlope: 263.3993
        outSlope: 263.3993
        tangentMode: 10
      - time: 0.6
        value: 4.39
        inSlope: 149.32166
        outSlope: 149.32166
        tangentMode: 10
      - time: 0.68333334
        value: 7.327
        inSlope: 0
        outSlope: 0
        tangentMode: 0
      - time: 0.9
        value: -0
        inSlope: -33.81693
        outSlope: -33.81693
        tangentMode: 10
      m_PreInfinity: 2
      m_PostInfinity: 2
      m_RotationOrder: 4
    attribute: localEulerAnglesRaw.x
    path: Arm1/Arm2/Hand/leftHalf
    classID: 4
    script: {fileID: 0}
  - curve:
      serializedVersion: 2
      m_Curve:
      - time: 0.5833333
        value: 180
        inSlope: -223.79916
        outSlope: -223.79916
        tangentMode: 10
      - time: 0.6
        value: 176.27
        inSlope: -76.69169
        outSlope: -76.69169
        tangentMode: 10
      - time: 0.68333334
        value: 182.13799
        inSlope: 0
        outSlope: 0
        tangentMode: 0
      - time: 0.9
        value: 180
        inSlope: -9.867625
        outSlope: -9.867625
        tangentMode: 10
      m_PreInfinity: 2
      m_PostInfinity: 2
      m_RotationOrder: 4
    attribute: localEulerAnglesRaw.y
    path: Arm1/Arm2/Hand/leftHalf
    classID: 4
    script: {fileID: 0}
  - curve:
      serializedVersion: 2
      m_Curve:
      - time: 0.5833333
        value: 40.799995
        inSlope: 956.99774
        outSlope: 956.99774
        tangentMode: 10
      - time: 0.6
        value: 56.75
        inSlope: 721.49896
        outSlope: 721.49896
        tangentMode: 10
      - time: 0.68333334
        value: 97.25001
        inSlope: 0
        outSlope: 0
        tangentMode: 0
      - time: 0.9
        value: 40.799995
        inSlope: -260.53854
        outSlope: -260.53854
        tangentMode: 10
      m_PreInfinity: 2
      m_PostInfinity: 2
      m_RotationOrder: 4
    attribute: localEulerAnglesRaw.z
    path: Arm1/Arm2/Hand/leftHalf
    classID: 4
    script: {fileID: 0}
  - curve:
      serializedVersion: 2
      m_Curve:
      - time: 0.5833333
        value: -2.08
        inSlope: -21.59995
        outSlope: -21.59995
        tangentMode: 10
      - time: 0.6
        value: -2.44
        inSlope: -48.14998
        outSlope: -48.14998
        tangentMode: 10
      - time: 0.6666667
        value: -7.42
        inSlope: 0
        outSlope: 0
        tangentMode: 0
      - time: 0.68333334
        value: -7.89
        inSlope: 0
        outSlope: 0
        tangentMode: 0
      - time: 0.9
        value: -2.08
        inSlope: 26.815388
        outSlope: 26.815388
        tangentMode: 10
      m_PreInfinity: 2
      m_PostInfinity: 2
      m_RotationOrder: 4
    attribute: m_LocalPosition.x
    path: Arm1/Arm2/Hand/leftHalf
    classID: 4
    script: {fileID: 0}
  - curve:
      serializedVersion: 2
      m_Curve:
      - time: 0.5833333
        value: 1.72
        inSlope: -37.1999
        outSlope: -37.1999
        tangentMode: 10
      - time: 0.6
        value: 1.1
        inSlope: -8.32495
        outSlope: -8.32495
        tangentMode: 10
      - time: 0.6666667
        value: 2.47
        inSlope: 0
        outSlope: 0
        tangentMode: 0
      - time: 0.68333334
        value: 2.25
        inSlope: 0
        outSlope: 0
        tangentMode: 0
      - time: 0.9
        value: 1.72
        inSlope: -2.446154
        outSlope: -2.446154
        tangentMode: 10
      m_PreInfinity: 2
      m_PostInfinity: 2
      m_RotationOrder: 4
    attribute: m_LocalPosition.y
    path: Arm1/Arm2/Hand/leftHalf
    classID: 4
    script: {fileID: 0}
  - curve:
      serializedVersion: 2
      m_Curve:
      - time: 0.5833333
        value: -2.81
        inSlope: -43.799885
        outSlope: -43.799885
        tangentMode: 10
      - time: 0.6
        value: -3.54
        inSlope: -32.324944
        outSlope: -32.324944
        tangentMode: 10
      - time: 0.6666667
        value: -4.93
        inSlope: 0
        outSlope: 0
        tangentMode: 0
      - time: 0.68333334
        value: -4.96
        inSlope: 0
        outSlope: 0
        tangentMode: 0
      - time: 0.9
        value: -2.81
        inSlope: 9.923079
        outSlope: 9.923079
        tangentMode: 10
      m_PreInfinity: 2
      m_PostInfinity: 2
      m_RotationOrder: 4
    attribute: m_LocalPosition.z
    path: Arm1/Arm2/Hand/leftHalf
    classID: 4
    script: {fileID: 0}
  - curve:
      serializedVersion: 2
      m_Curve:
      - time: 0
        value: -4.8
        inSlope: 0
        outSlope: 0
        tangentMode: 0
      - time: 0.33333334
        value: -5.18
        inSlope: 0
        outSlope: 0
        tangentMode: 0
      - time: 0.6666667
        value: -4.8
        inSlope: 0
        outSlope: 0
        tangentMode: 0
      - time: 1.5666667
        value: 1.3
        inSlope: 6.777778
        outSlope: 6.777778
        tangentMode: 10
      m_PreInfinity: 2
      m_PostInfinity: 2
      m_RotationOrder: 4
    attribute: m_LocalPosition.x
    path: 
    classID: 4
    script: {fileID: 0}
  - curve:
      serializedVersion: 2
      m_Curve:
      - time: 0
        value: 0
        inSlope: 0
        outSlope: 0
        tangentMode: 0
      - time: 0.33333334
        value: 0.96
        inSlope: 0
        outSlope: 0
        tangentMode: 0
      - time: 0.6666667
        value: 0
        inSlope: 0
        outSlope: 0
        tangentMode: 0
      - time: 1.5666667
        value: 0
        inSlope: 0
        outSlope: 0
        tangentMode: 10
      m_PreInfinity: 2
      m_PostInfinity: 2
      m_RotationOrder: 4
    attribute: m_LocalPosition.y
    path: 
    classID: 4
    script: {fileID: 0}
  - curve:
      serializedVersion: 2
      m_Curve:
      - time: 0
        value: 0
        inSlope: 0
        outSlope: 0
        tangentMode: 0
      - time: 0.33333334
        value: 0.51
        inSlope: 0
        outSlope: 0
        tangentMode: 0
      - time: 0.6666667
        value: 0.51
        inSlope: 0
        outSlope: 0
        tangentMode: 0
      - time: 1.5666667
        value: 0
        inSlope: -0.56666666
        outSlope: -0.56666666
        tangentMode: 10
      m_PreInfinity: 2
      m_PostInfinity: 2
      m_RotationOrder: 4
    attribute: m_LocalPosition.z
    path: 
    classID: 4
    script: {fileID: 0}
  - curve:
      serializedVersion: 2
      m_Curve:
      - time: 0
        value: 0
        inSlope: 0
        outSlope: 0
        tangentMode: 10
      - time: 0.33333334
        value: 0
        inSlope: 0
        outSlope: 0
        tangentMode: 10
      - time: 0.75
        value: 0
        inSlope: 4.3272935e-15
        outSlope: 4.3272935e-15
        tangentMode: 10
      - time: 1.5666667
        value: 7.067913e-15
        inSlope: 8.654587e-15
        outSlope: 8.654587e-15
        tangentMode: 10
      m_PreInfinity: 2
      m_PostInfinity: 2
      m_RotationOrder: 4
    attribute: localEulerAnglesRaw.x
    path: 
    classID: 4
    script: {fileID: 0}
  - curve:
      serializedVersion: 2
      m_Curve:
      - time: 0
        value: 200
        inSlope: -60.000046
        outSlope: -60.000046
        tangentMode: 10
      - time: 0.33333334
        value: 179.99998
        inSlope: -29.999987
        outSlope: -29.999987
        tangentMode: 10
      - time: 0.75
        value: 180.00002
        inSlope: 27.551046
        outSlope: 27.551046
        tangentMode: 10
      - time: 1.5666667
        value: 225
        inSlope: 55.10202
        outSlope: 55.10202
        tangentMode: 10
      m_PreInfinity: 2
      m_PostInfinity: 2
      m_RotationOrder: 4
    attribute: localEulerAnglesRaw.y
    path: 
    classID: 4
    script: {fileID: 0}
  - curve:
      serializedVersion: 2
      m_Curve:
      - time: 0
        value: 360
        inSlope: -32.675995
        outSlope: -32.675995
        tangentMode: 10
      - time: 0.33333334
        value: 349.108
        inSlope: -3.625204
        outSlope: -3.625204
        tangentMode: 10
      - time: 0.75
        value: 359.702
        inSlope: 11.524513
        outSlope: 11.524513
        tangentMode: 10
      - time: 1.5666667
        value: 357.76114
        inSlope: -2.3765593
        outSlope: -2.3765593
        tangentMode: 10
      m_PreInfinity: 2
      m_PostInfinity: 2
      m_RotationOrder: 4
    attribute: localEulerAnglesRaw.z
    path: 
    classID: 4
    script: {fileID: 0}
  m_EulerEditorCurves:
  - curve:
      serializedVersion: 2
      m_Curve: []
      m_PreInfinity: 2
      m_PostInfinity: 2
      m_RotationOrder: 4
    attribute: m_LocalEulerAngles.z
    path: Arm1/Arm2/Hand/leftHalf
    classID: 4
    script: {fileID: 0}
  - curve:
      serializedVersion: 2
      m_Curve: []
      m_PreInfinity: 2
      m_PostInfinity: 2
      m_RotationOrder: 4
    attribute: m_LocalEulerAngles.y
    path: Arm1/Arm2/Hand/leftHalf
    classID: 4
    script: {fileID: 0}
  - curve:
      serializedVersion: 2
      m_Curve: []
      m_PreInfinity: 2
      m_PostInfinity: 2
      m_RotationOrder: 4
    attribute: m_LocalEulerAngles.x
    path: Arm1/Arm2/Hand/leftHalf
    classID: 4
    script: {fileID: 0}
  - curve:
      serializedVersion: 2
      m_Curve: []
      m_PreInfinity: 2
      m_PostInfinity: 2
      m_RotationOrder: 4
    attribute: m_LocalEulerAngles.z
    path: Arm1
    classID: 4
    script: {fileID: 0}
  - curve:
      serializedVersion: 2
      m_Curve: []
      m_PreInfinity: 2
      m_PostInfinity: 2
      m_RotationOrder: 4
    attribute: m_LocalEulerAngles.y
    path: Arm1
    classID: 4
    script: {fileID: 0}
  - curve:
      serializedVersion: 2
      m_Curve: []
      m_PreInfinity: 2
      m_PostInfinity: 2
      m_RotationOrder: 4
    attribute: m_LocalEulerAngles.x
    path: Arm1
    classID: 4
    script: {fileID: 0}
  - curve:
      serializedVersion: 2
      m_Curve: []
      m_PreInfinity: 2
      m_PostInfinity: 2
      m_RotationOrder: 4
    attribute: m_LocalEulerAngles.x
    path: Dome/Eye
    classID: 4
    script: {fileID: 0}
  - curve:
      serializedVersion: 2
      m_Curve: []
      m_PreInfinity: 2
      m_PostInfinity: 2
      m_RotationOrder: 4
    attribute: m_LocalEulerAngles.y
    path: Dome/Eye
    classID: 4
    script: {fileID: 0}
  - curve:
      serializedVersion: 2
      m_Curve: []
      m_PreInfinity: 2
      m_PostInfinity: 2
      m_RotationOrder: 4
    attribute: m_LocalEulerAngles.z
    path: Dome/Eye
    classID: 4
    script: {fileID: 0}
  - curve:
      serializedVersion: 2
      m_Curve: []
      m_PreInfinity: 2
      m_PostInfinity: 2
      m_RotationOrder: 4
    attribute: m_LocalEulerAngles.z
    path: Dome/Antenna
    classID: 4
    script: {fileID: 0}
  - curve:
      serializedVersion: 2
      m_Curve: []
      m_PreInfinity: 2
      m_PostInfinity: 2
      m_RotationOrder: 4
    attribute: m_LocalEulerAngles.y
    path: Dome/Antenna
    classID: 4
    script: {fileID: 0}
  - curve:
      serializedVersion: 2
      m_Curve: []
      m_PreInfinity: 2
      m_PostInfinity: 2
      m_RotationOrder: 4
    attribute: m_LocalEulerAngles.x
    path: Dome/Antenna
    classID: 4
    script: {fileID: 0}
  - curve:
      serializedVersion: 2
      m_Curve: []
      m_PreInfinity: 2
      m_PostInfinity: 2
      m_RotationOrder: 4
    attribute: m_LocalEulerAngles.z
    path: 
    classID: 4
    script: {fileID: 0}
  - curve:
      serializedVersion: 2
      m_Curve: []
      m_PreInfinity: 2
      m_PostInfinity: 2
      m_RotationOrder: 4
    attribute: m_LocalEulerAngles.y
    path: 
    classID: 4
    script: {fileID: 0}
  - curve:
      serializedVersion: 2
      m_Curve: []
      m_PreInfinity: 2
      m_PostInfinity: 2
      m_RotationOrder: 4
    attribute: m_LocalEulerAngles.x
    path: 
    classID: 4
    script: {fileID: 0}
  - curve:
      serializedVersion: 2
      m_Curve: []
      m_PreInfinity: 2
      m_PostInfinity: 2
      m_RotationOrder: 4
    attribute: m_LocalEulerAngles.z
    path: Arm1/Arm2
    classID: 4
    script: {fileID: 0}
  - curve:
      serializedVersion: 2
      m_Curve: []
      m_PreInfinity: 2
      m_PostInfinity: 2
      m_RotationOrder: 4
    attribute: m_LocalEulerAngles.y
    path: Arm1/Arm2
    classID: 4
    script: {fileID: 0}
  - curve:
      serializedVersion: 2
      m_Curve: []
      m_PreInfinity: 2
      m_PostInfinity: 2
      m_RotationOrder: 4
    attribute: m_LocalEulerAngles.x
    path: Arm1/Arm2
    classID: 4
    script: {fileID: 0}
  - curve:
      serializedVersion: 2
      m_Curve: []
      m_PreInfinity: 2
      m_PostInfinity: 2
      m_RotationOrder: 4
    attribute: m_LocalEulerAngles.z
    path: Arm1/Arm2/Hand/ClawLower
    classID: 4
    script: {fileID: 0}
  - curve:
      serializedVersion: 2
      m_Curve: []
      m_PreInfinity: 2
      m_PostInfinity: 2
      m_RotationOrder: 4
    attribute: m_LocalEulerAngles.y
    path: Arm1/Arm2/Hand/ClawLower
    classID: 4
    script: {fileID: 0}
  - curve:
      serializedVersion: 2
      m_Curve: []
      m_PreInfinity: 2
      m_PostInfinity: 2
      m_RotationOrder: 4
    attribute: m_LocalEulerAngles.x
    path: Arm1/Arm2/Hand/ClawLower
    classID: 4
    script: {fileID: 0}
  - curve:
      serializedVersion: 2
      m_Curve: []
      m_PreInfinity: 2
      m_PostInfinity: 2
      m_RotationOrder: 4
    attribute: m_LocalEulerAngles.z
    path: Arm1/Arm2/Hand
    classID: 4
    script: {fileID: 0}
  - curve:
      serializedVersion: 2
      m_Curve: []
      m_PreInfinity: 2
      m_PostInfinity: 2
      m_RotationOrder: 4
    attribute: m_LocalEulerAngles.y
    path: Arm1/Arm2/Hand
    classID: 4
    script: {fileID: 0}
  - curve:
      serializedVersion: 2
      m_Curve: []
      m_PreInfinity: 2
      m_PostInfinity: 2
      m_RotationOrder: 4
    attribute: m_LocalEulerAngles.x
    path: Arm1/Arm2/Hand
    classID: 4
    script: {fileID: 0}
  - curve:
      serializedVersion: 2
      m_Curve: []
      m_PreInfinity: 2
      m_PostInfinity: 2
      m_RotationOrder: 4
    attribute: m_LocalEulerAngles.x
    path: Arm1/Arm2/Hand/clawUpper
    classID: 4
    script: {fileID: 0}
  - curve:
      serializedVersion: 2
      m_Curve: []
      m_PreInfinity: 2
      m_PostInfinity: 2
      m_RotationOrder: 4
    attribute: m_LocalEulerAngles.y
    path: Arm1/Arm2/Hand/clawUpper
    classID: 4
    script: {fileID: 0}
  - curve:
      serializedVersion: 2
      m_Curve: []
      m_PreInfinity: 2
      m_PostInfinity: 2
      m_RotationOrder: 4
    attribute: m_LocalEulerAngles.z
    path: Arm1/Arm2/Hand/clawUpper
    classID: 4
    script: {fileID: 0}
  m_HasGenericRootTransform: 1
  m_HasMotionFloatCurves: 0
  m_GenerateMotionCurves: 0
  m_Events: []
