%YAML 1.1
%TAG !u! tag:unity3d.com,2011:
--- !u!74 &7400000
AnimationClip:
  m_ObjectHideFlags: 0
  m_PrefabParentObject: {fileID: 0}
  m_PrefabInternal: {fileID: 0}
  m_Name: Fire
  serializedVersion: 6
  m_Legacy: 0
  m_Compressed: 0
  m_UseHighQualityCurve: 1
  m_RotationCurves: []
  m_CompressedRotationCurves: []
  m_EulerCurves:
  - curve:
      serializedVersion: 2
      m_Curve:
      - time: 0
        value: {x: 0, y: 0, z: 0}
        inSlope: {x: 0, y: 0, z: 128.54999}
        outSlope: {x: 0, y: 0, z: 128.54999}
        tangentMode: 0
      - time: 0.06666667
        value: {x: 0, y: 0, z: 8.57}
        inSlope: {x: 0, y: 0, z: 0}
        outSlope: {x: 0, y: 0, z: 0}
        tangentMode: 0
      - time: 0.41666666
        value: {x: 0, y: 0, z: 0}
        inSlope: {x: 0, y: 0, z: 0}
        outSlope: {x: 0, y: 0, z: 0}
        tangentMode: 0
      m_PreInfinity: 2
      m_PostInfinity: 2
      m_RotationOrder: 4
    path: base/body
  m_PositionCurves:
  - curve:
      serializedVersion: 2
      m_Curve:
      - time: 0
        value: {x: 0.006212339, y: 1.6660234, z: 0.007205993}
        inSlope: {x: -2.8621233, y: -0.16023397, z: 0}
        outSlope: {x: -2.8621233, y: -0.16023397, z: 0}
        tangentMode: 0
      - time: 0.1
        value: {x: -0.28, y: 1.65, z: 0.007205993}
        inSlope: {x: 0, y: 0, z: 0}
        outSlope: {x: 0, y: 0, z: 0}
        tangentMode: 0
      - time: 0.5
        value: {x: 0.09, y: 1.6660234, z: 0.007205993}
        inSlope: {x: 0, y: 0, z: 0}
        outSlope: {x: 0, y: 0, z: 0}
        tangentMode: 0
      - time: 0.8333333
        value: {x: 0.006212339, y: 1.6660234, z: 0.007205993}
        inSlope: {x: 0, y: 0, z: 0}
        outSlope: {x: 0, y: 0, z: 0}
        tangentMode: 0
      m_PreInfinity: 2
      m_PostInfinity: 2
      m_RotationOrder: 4
    path: base/body
  - curve:
      serializedVersion: 2
      m_Curve:
      - time: 0.05
        value: {x: 0.55474627, y: 0.0039590597, z: 0.63811433}
        inSlope: {x: -0.97119397, y: -0.0593859, z: 0}
        outSlope: {x: -0.97119397, y: -0.0593859, z: 0}
        tangentMode: 0
      - time: 0.11666667
        value: {x: 0.49, y: 0, z: 0.63811433}
        inSlope: {x: -0.24279849, y: -0.014846475, z: 0}
        outSlope: {x: -0.24279849, y: -0.014846475, z: 0}
        tangentMode: 0
      - time: 0.25
        value: {x: 0.55474627, y: 0.0039590597, z: 0.63811433}
        inSlope: {x: 0.48559698, y: 0.02969295, z: 0}
        outSlope: {x: 0.48559698, y: 0.02969295, z: 0}
        tangentMode: 0
      m_PreInfinity: 2
      m_PostInfinity: 2
      m_RotationOrder: 4
    path: base/body/barrel2
  - curve:
      serializedVersion: 2
      m_Curve:
      - time: 0.1
        value: {x: 0.55474627, y: 0.0039590597, z: 0.63811433}
        inSlope: {x: -0.97119385, y: -0.059385892, z: 0}
        outSlope: {x: -0.97119385, y: -0.059385892, z: 0}
        tangentMode: 0
      - time: 0.16666667
        value: {x: 0.49, y: 0, z: 0.63811433}
        inSlope: {x: -0.24279846, y: -0.014846473, z: 0}
        outSlope: {x: -0.24279846, y: -0.014846473, z: 0}
        tangentMode: 0
      - time: 0.3
        value: {x: 0.55474627, y: 0.0039590597, z: 0.63811433}
        inSlope: {x: 0.48559693, y: 0.029692946, z: 0}
        outSlope: {x: 0.48559693, y: 0.029692946, z: 0}
        tangentMode: 0
      m_PreInfinity: 2
      m_PostInfinity: 2
      m_RotationOrder: 4
    path: base/body/barrel3
  - curve:
      serializedVersion: 2
      m_Curve:
      - time: 0
        value: {x: 0.55474627, y: 0.0039590597, z: 0.63811433}
        inSlope: {x: -0.97119385, y: -0.059385892, z: 0}
        outSlope: {x: -0.97119385, y: -0.059385892, z: 0}
        tangentMode: 0
      - time: 0.06666667
        value: {x: 0.49, y: 0, z: 0.63811433}
        inSlope: {x: -0.24279843, y: -0.014846471, z: 0}
        outSlope: {x: -0.24279843, y: -0.014846471, z: 0}
        tangentMode: 0
      - time: 0.2
        value: {x: 0.55474627, y: 0.0039590597, z: 0.63811433}
        inSlope: {x: 0.48559698, y: 0.02969295, z: 0}
        outSlope: {x: 0.48559698, y: 0.02969295, z: 0}
        tangentMode: 0
      m_PreInfinity: 2
      m_PostInfinity: 2
      m_RotationOrder: 4
    path: base/body/barrel1
  - curve:
      serializedVersion: 2
      m_Curve:
      - time: 0.15
        value: {x: 0.55474627, y: 0.0039590597, z: 0.63811433}
        inSlope: {x: -0.97119397, y: -0.0593859, z: 0}
        outSlope: {x: -0.97119397, y: -0.0593859, z: 0}
        tangentMode: 0
      - time: 0.21666667
        value: {x: 0.49, y: 0, z: 0.63811433}
        inSlope: {x: -0.24279849, y: -0.014846475, z: 0}
        outSlope: {x: -0.24279849, y: -0.014846475, z: 0}
        tangentMode: 0
      - time: 0.35
        value: {x: 0.55474627, y: 0.0039590597, z: 0.63811433}
        inSlope: {x: 0.48559698, y: 0.02969295, z: 0}
        outSlope: {x: 0.48559698, y: 0.02969295, z: 0}
        tangentMode: 0
      m_PreInfinity: 2
      m_PostInfinity: 2
      m_RotationOrder: 4
    path: base/body/barrel4
  m_ScaleCurves: []
  m_FloatCurves: []
  m_PPtrCurves: []
  m_SampleRate: 60
  m_WrapMode: 0
  m_Bounds:
    m_Center: {x: 0, y: 0, z: 0}
    m_Extent: {x: 0, y: 0, z: 0}
  m_ClipBindingConstant:
    genericBindings:
    - path: 3021546893
      attribute: 1
      script: {fileID: 0}
      classID: 4
      customType: 0
      isPPtrCurve: 0
    - path: 58192463
      attribute: 1
      script: {fileID: 0}
      classID: 4
      customType: 0
      isPPtrCurve: 0
    - path: 1953546969
      attribute: 1
      script: {fileID: 0}
      classID: 4
      customType: 0
      isPPtrCurve: 0
    - path: 2591990773
      attribute: 1
      script: {fileID: 0}
      classID: 4
      customType: 0
      isPPtrCurve: 0
    - path: 3927201658
      attribute: 1
      script: {fileID: 0}
      classID: 4
      customType: 0
      isPPtrCurve: 0
    - path: 3021546893
      attribute: 4
      script: {fileID: 0}
      classID: 4
      customType: 14
      isPPtrCurve: 0
    pptrCurveMapping: []
  m_AnimationClipSettings:
    serializedVersion: 2
    m_AdditiveReferencePoseClip: {fileID: 0}
    m_AdditiveReferencePoseTime: 0
    m_StartTime: 0
    m_StopTime: 0.8333333
    m_OrientationOffsetY: 0
    m_Level: 0
    m_CycleOffset: 0
    m_HasAdditiveReferencePose: 0
    m_LoopTime: 0
    m_LoopBlend: 0
    m_LoopBlendOrientation: 0
    m_LoopBlendPositionY: 0
    m_LoopBlendPositionXZ: 0
    m_KeepOriginalOrientation: 0
    m_KeepOriginalPositionY: 1
    m_KeepOriginalPositionXZ: 0
    m_HeightFromFeet: 0
    m_Mirror: 0
  m_EditorCurves:
  - curve:
      serializedVersion: 2
      m_Curve:
      - time: 0
        value: 0
        inSlope: 0
        outSlope: 0
        tangentMode: 10
      - time: 0.06666667
        value: 0
        inSlope: 0
        outSlope: 0
        tangentMode: 0
      - time: 0.41666666
        value: 0
        inSlope: 0
        outSlope: 0
        tangentMode: 0
      m_PreInfinity: 2
      m_PostInfinity: 2
      m_RotationOrder: 4
    attribute: localEulerAnglesRaw.x
    path: base/body
    classID: 4
    script: {fileID: 0}
  - curve:
      serializedVersion: 2
      m_Curve:
      - time: 0
        value: 0
        inSlope: 0
        outSlope: 0
        tangentMode: 10
      - time: 0.06666667
        value: 0
        inSlope: 0
        outSlope: 0
        tangentMode: 0
      - time: 0.41666666
        value: 0
        inSlope: 0
        outSlope: 0
        tangentMode: 0
      m_PreInfinity: 2
      m_PostInfinity: 2
      m_RotationOrder: 4
    attribute: localEulerAnglesRaw.y
    path: base/body
    classID: 4
    script: {fileID: 0}
  - curve:
      serializedVersion: 2
      m_Curve:
      - time: 0
        value: 0
        inSlope: 128.54999
        outSlope: 128.54999
        tangentMode: 10
      - time: 0.06666667
        value: 8.57
        inSlope: 0
        outSlope: 0
        tangentMode: 0
      - time: 0.41666666
        value: 0
        inSlope: 0
        outSlope: 0
        tangentMode: 0
      m_PreInfinity: 2
      m_PostInfinity: 2
      m_RotationOrder: 4
    attribute: localEulerAnglesRaw.z
    path: base/body
    classID: 4
    script: {fileID: 0}
  - curve:
      serializedVersion: 2
      m_Curve:
      - time: 0
        value: 0.006212339
        inSlope: -2.8621233
        outSlope: -2.8621233
        tangentMode: 10
      - time: 0.1
        value: -0.28
        inSlope: 0
        outSlope: 0
        tangentMode: 0
      - time: 0.5
        value: 0.09
        inSlope: 0
        outSlope: 0
        tangentMode: 0
      - time: 0.8333333
        value: 0.006212339
        inSlope: 0
        outSlope: 0
        tangentMode: 0
      m_PreInfinity: 2
      m_PostInfinity: 2
      m_RotationOrder: 4
    attribute: m_LocalPosition.x
    path: base/body
    classID: 4
    script: {fileID: 0}
  - curve:
      serializedVersion: 2
      m_Curve:
      - time: 0
        value: 1.6660234
        inSlope: -0.16023397
        outSlope: -0.16023397
        tangentMode: 10
      - time: 0.1
        value: 1.65
        inSlope: 0
        outSlope: 0
        tangentMode: 0
      - time: 0.5
        value: 1.6660234
        inSlope: 0
        outSlope: 0
        tangentMode: 0
      - time: 0.8333333
        value: 1.6660234
        inSlope: 0
        outSlope: 0
        tangentMode: 0
      m_PreInfinity: 2
      m_PostInfinity: 2
      m_RotationOrder: 4
    attribute: m_LocalPosition.y
    path: base/body
    classID: 4
    script: {fileID: 0}
  - curve:
      serializedVersion: 2
      m_Curve:
      - time: 0
        value: 0.007205993
        inSlope: 0
        outSlope: 0
        tangentMode: 10
      - time: 0.1
        value: 0.007205993
        inSlope: 0
        outSlope: 0
        tangentMode: 0
      - time: 0.5
        value: 0.007205993
        inSlope: 0
        outSlope: 0
        tangentMode: 0
      - time: 0.8333333
        value: 0.007205993
        inSlope: 0
        outSlope: 0
        tangentMode: 0
      m_PreInfinity: 2
      m_PostInfinity: 2
      m_RotationOrder: 4
    attribute: m_LocalPosition.z
    path: base/body
    classID: 4
    script: {fileID: 0}
  - curve:
      serializedVersion: 2
      m_Curve:
      - time: 0.05
        value: 0.55474627
        inSlope: -0.97119397
        outSlope: -0.97119397
        tangentMode: 10
      - time: 0.11666667
        value: 0.49
        inSlope: -0.24279849
        outSlope: -0.24279849
        tangentMode: 10
      - time: 0.25
        value: 0.55474627
        inSlope: 0.48559698
        outSlope: 0.48559698
        tangentMode: 10
      m_PreInfinity: 2
      m_PostInfinity: 2
      m_RotationOrder: 4
    attribute: m_LocalPosition.x
    path: base/body/barrel2
    classID: 4
    script: {fileID: 0}
  - curve:
      serializedVersion: 2
      m_Curve:
      - time: 0.05
        value: 0.0039590597
        inSlope: -0.0593859
        outSlope: -0.0593859
        tangentMode: 10
      - time: 0.11666667
        value: 0
        inSlope: -0.014846475
        outSlope: -0.014846475
        tangentMode: 10
      - time: 0.25
        value: 0.0039590597
        inSlope: 0.02969295
        outSlope: 0.02969295
        tangentMode: 10
      m_PreInfinity: 2
      m_PostInfinity: 2
      m_RotationOrder: 4
    attribute: m_LocalPosition.y
    path: base/body/barrel2
    classID: 4
    script: {fileID: 0}
  - curve:
      serializedVersion: 2
      m_Curve:
      - time: 0.05
        value: 0.63811433
        inSlope: 0
        outSlope: 0
        tangentMode: 10
      - time: 0.11666667
        value: 0.63811433
        inSlope: 0
        outSlope: 0
        tangentMode: 10
      - time: 0.25
        value: 0.63811433
        inSlope: 0
        outSlope: 0
        tangentMode: 10
      m_PreInfinity: 2
      m_PostInfinity: 2
      m_RotationOrder: 4
    attribute: m_LocalPosition.z
    path: base/body/barrel2
    classID: 4
    script: {fileID: 0}
  - curve:
      serializedVersion: 2
      m_Curve:
      - time: 0.1
        value: 0.55474627
        inSlope: -0.97119385
        outSlope: -0.97119385
        tangentMode: 10
      - time: 0.16666667
        value: 0.49
        inSlope: -0.24279846
        outSlope: -0.24279846
        tangentMode: 10
      - time: 0.3
        value: 0.55474627
        inSlope: 0.48559693
        outSlope: 0.48559693
        tangentMode: 10
      m_PreInfinity: 2
      m_PostInfinity: 2
      m_RotationOrder: 4
    attribute: m_LocalPosition.x
    path: base/body/barrel3
    classID: 4
    script: {fileID: 0}
  - curve:
      serializedVersion: 2
      m_Curve:
      - time: 0.1
        value: 0.0039590597
        inSlope: -0.059385892
        outSlope: -0.059385892
        tangentMode: 10
      - time: 0.16666667
        value: 0
        inSlope: -0.014846473
        outSlope: -0.014846473
        tangentMode: 10
      - time: 0.3
        value: 0.0039590597
        inSlope: 0.029692946
        outSlope: 0.029692946
        tangentMode: 10
      m_PreInfinity: 2
      m_PostInfinity: 2
      m_RotationOrder: 4
    attribute: m_LocalPosition.y
    path: base/body/barrel3
    classID: 4
    script: {fileID: 0}
  - curve:
      serializedVersion: 2
      m_Curve:
      - time: 0.1
        value: 0.63811433
        inSlope: 0
        outSlope: 0
        tangentMode: 10
      - time: 0.16666667
        value: 0.63811433
        inSlope: 0
        outSlope: 0
        tangentMode: 10
      - time: 0.3
        value: 0.63811433
        inSlope: 0
        outSlope: 0
        tangentMode: 10
      m_PreInfinity: 2
      m_PostInfinity: 2
      m_RotationOrder: 4
    attribute: m_LocalPosition.z
    path: base/body/barrel3
    classID: 4
    script: {fileID: 0}
  - curve:
      serializedVersion: 2
      m_Curve:
      - time: 0
        value: 0.55474627
        inSlope: -0.97119385
        outSlope: -0.97119385
        tangentMode: 10
      - time: 0.06666667
        value: 0.49
        inSlope: -0.24279843
        outSlope: -0.24279843
        tangentMode: 10
      - time: 0.2
        value: 0.55474627
        inSlope: 0.48559698
        outSlope: 0.48559698
        tangentMode: 10
      m_PreInfinity: 2
      m_PostInfinity: 2
      m_RotationOrder: 4
    attribute: m_LocalPosition.x
    path: base/body/barrel1
    classID: 4
    script: {fileID: 0}
  - curve:
      serializedVersion: 2
      m_Curve:
      - time: 0
        value: 0.0039590597
        inSlope: -0.059385892
        outSlope: -0.059385892
        tangentMode: 10
      - time: 0.06666667
        value: 0
        inSlope: -0.014846471
        outSlope: -0.014846471
        tangentMode: 10
      - time: 0.2
        value: 0.0039590597
        inSlope: 0.02969295
        outSlope: 0.02969295
        tangentMode: 10
      m_PreInfinity: 2
      m_PostInfinity: 2
      m_RotationOrder: 4
    attribute: m_LocalPosition.y
    path: base/body/barrel1
    classID: 4
    script: {fileID: 0}
  - curve:
      serializedVersion: 2
      m_Curve:
      - time: 0
        value: 0.63811433
        inSlope: 0
        outSlope: 0
        tangentMode: 10
      - time: 0.06666667
        value: 0.63811433
        inSlope: 0
        outSlope: 0
        tangentMode: 10
      - time: 0.2
        value: 0.63811433
        inSlope: 0
        outSlope: 0
        tangentMode: 10
      m_PreInfinity: 2
      m_PostInfinity: 2
      m_RotationOrder: 4
    attribute: m_LocalPosition.z
    path: base/body/barrel1
    classID: 4
    script: {fileID: 0}
  - curve:
      serializedVersion: 2
      m_Curve:
      - time: 0.15
        value: 0.55474627
        inSlope: -0.97119397
        outSlope: -0.97119397
        tangentMode: 10
      - time: 0.21666667
        value: 0.49
        inSlope: -0.24279849
        outSlope: -0.24279849
        tangentMode: 10
      - time: 0.35
        value: 0.55474627
        inSlope: 0.48559698
        outSlope: 0.48559698
        tangentMode: 10
      m_PreInfinity: 2
      m_PostInfinity: 2
      m_RotationOrder: 4
    attribute: m_LocalPosition.x
    path: base/body/barrel4
    classID: 4
    script: {fileID: 0}
  - curve:
      serializedVersion: 2
      m_Curve:
      - time: 0.15
        value: 0.0039590597
        inSlope: -0.0593859
        outSlope: -0.0593859
        tangentMode: 10
      - time: 0.21666667
        value: 0
        inSlope: -0.014846475
        outSlope: -0.014846475
        tangentMode: 10
      - time: 0.35
        value: 0.0039590597
        inSlope: 0.02969295
        outSlope: 0.02969295
        tangentMode: 10
      m_PreInfinity: 2
      m_PostInfinity: 2
      m_RotationOrder: 4
    attribute: m_LocalPosition.y
    path: base/body/barrel4
    classID: 4
    script: {fileID: 0}
  - curve:
      serializedVersion: 2
      m_Curve:
      - time: 0.15
        value: 0.63811433
        inSlope: 0
        outSlope: 0
        tangentMode: 10
      - time: 0.21666667
        value: 0.63811433
        inSlope: 0
        outSlope: 0
        tangentMode: 10
      - time: 0.35
        value: 0.63811433
        inSlope: 0
        outSlope: 0
        tangentMode: 10
      m_PreInfinity: 2
      m_PostInfinity: 2
      m_RotationOrder: 4
    attribute: m_LocalPosition.z
    path: base/body/barrel4
    classID: 4
    script: {fileID: 0}
  m_EulerEditorCurves:
  - curve:
      serializedVersion: 2
      m_Curve: []
      m_PreInfinity: 2
      m_PostInfinity: 2
      m_RotationOrder: 4
    attribute: m_LocalEulerAngles.x
    path: base/body
    classID: 4
    script: {fileID: 0}
  - curve:
      serializedVersion: 2
      m_Curve: []
      m_PreInfinity: 2
      m_PostInfinity: 2
      m_RotationOrder: 4
    attribute: m_LocalEulerAngles.y
    path: base/body
    classID: 4
    script: {fileID: 0}
  - curve:
      serializedVersion: 2
      m_Curve: []
      m_PreInfinity: 2
      m_PostInfinity: 2
      m_RotationOrder: 4
    attribute: m_LocalEulerAngles.z
    path: base/body
    classID: 4
    script: {fileID: 0}
  m_HasGenericRootTransform: 0
  m_HasMotionFloatCurves: 0
  m_GenerateMotionCurves: 0
  m_Events: []
