%YAML 1.1
%TAG !u! tag:unity3d.com,2011:
--- !u!74 &7400000
AnimationClip:
  m_ObjectHideFlags: 0
  m_PrefabParentObject: {fileID: 0}
  m_PrefabInternal: {fileID: 0}
  m_Name: Fire
  serializedVersion: 6
  m_Legacy: 0
  m_Compressed: 0
  m_UseHighQualityCurve: 1
  m_RotationCurves: []
  m_CompressedRotationCurves: []
  m_EulerCurves:
  - curve:
      serializedVersion: 2
      m_Curve:
      - time: 0
        value: {x: 0, y: 0, z: 0}
        inSlope: {x: 0, y: 0, z: 0}
        outSlope: {x: 0, y: 0, z: 0}
        tangentMode: 0
      - time: 0.06666667
        value: {x: 0, y: 0, z: 12.62}
        inSlope: {x: 0, y: 0, z: 0}
        outSlope: {x: 0, y: 0, z: 0}
        tangentMode: 0
      - time: 0.5833333
        value: {x: 0, y: 0, z: -3.5}
        inSlope: {x: 0, y: 0, z: 0}
        outSlope: {x: 0, y: 0, z: 0}
        tangentMode: 0
      - time: 1
        value: {x: 0, y: 0, z: 0}
        inSlope: {x: 0, y: 0, z: 0}
        outSlope: {x: 0, y: 0, z: 0}
        tangentMode: 0
      m_PreInfinity: 2
      m_PostInfinity: 2
      m_RotationOrder: 4
    path: base/body
  m_PositionCurves:
  - curve:
      serializedVersion: 2
      m_Curve:
      - time: 0
        value: {x: 0, y: 0, z: 0}
        inSlope: {x: -1.3714285, y: -0, z: 0}
        outSlope: {x: -1.3714285, y: -0, z: 0}
        tangentMode: 0
      - time: 0.11666667
        value: {x: -0.16, y: -0, z: 0}
        inSlope: {x: -0.44571424, y: 0, z: 0}
        outSlope: {x: -0.44571424, y: 0, z: 0}
        tangentMode: 0
      - time: 0.45
        value: {x: 0, y: 0, z: 0}
        inSlope: {x: 0.48000002, y: 0, z: 0}
        outSlope: {x: 0.48000002, y: 0, z: 0}
        tangentMode: 0
      m_PreInfinity: 2
      m_PostInfinity: 2
      m_RotationOrder: 4
    path: base/body/barrels
  - curve:
      serializedVersion: 2
      m_Curve:
      - time: 0.05
        value: {x: 0.28372854, y: 0.029821988, z: -0.00018005958}
        inSlope: {x: -2.0915234, y: 0.0011867408, z: 0}
        outSlope: {x: -2.0915234, y: 0.0011867408, z: 0}
        tangentMode: 0
      - time: 0.2
        value: {x: -0.03, y: 0.03, z: -0.00018005958}
        inSlope: {x: 0, y: 0, z: 0}
        outSlope: {x: 0, y: 0, z: 0}
        tangentMode: 0
      - time: 0.6333333
        value: {x: 0.53, y: 0.03, z: -0.00018005958}
        inSlope: {x: 0, y: 0, z: 0}
        outSlope: {x: 0, y: 0, z: 0}
        tangentMode: 0
      - time: 0.8333333
        value: {x: 0.28372854, y: 0.029821988, z: -0.00018005958}
        inSlope: {x: 0, y: 0, z: 0}
        outSlope: {x: 0, y: 0, z: 0}
        tangentMode: 0
      m_PreInfinity: 2
      m_PostInfinity: 2
      m_RotationOrder: 4
    path: base/body/floaters
  m_ScaleCurves: []
  m_FloatCurves: []
  m_PPtrCurves: []
  m_SampleRate: 60
  m_WrapMode: 0
  m_Bounds:
    m_Center: {x: 0, y: 0, z: 0}
    m_Extent: {x: 0, y: 0, z: 0}
  m_ClipBindingConstant:
    genericBindings:
    - path: 44860233
      attribute: 1
      script: {fileID: 0}
      classID: 4
      customType: 0
      isPPtrCurve: 0
    - path: 2549494693
      attribute: 1
      script: {fileID: 0}
      classID: 4
      customType: 0
      isPPtrCurve: 0
    - path: 3021546893
      attribute: 4
      script: {fileID: 0}
      classID: 4
      customType: 14
      isPPtrCurve: 0
    pptrCurveMapping: []
  m_AnimationClipSettings:
    serializedVersion: 2
    m_AdditiveReferencePoseClip: {fileID: 0}
    m_AdditiveReferencePoseTime: 0
    m_StartTime: 0
    m_StopTime: 1
    m_OrientationOffsetY: 0
    m_Level: 0
    m_CycleOffset: 0
    m_HasAdditiveReferencePose: 0
    m_LoopTime: 0
    m_LoopBlend: 0
    m_LoopBlendOrientation: 0
    m_LoopBlendPositionY: 0
    m_LoopBlendPositionXZ: 0
    m_KeepOriginalOrientation: 0
    m_KeepOriginalPositionY: 1
    m_KeepOriginalPositionXZ: 0
    m_HeightFromFeet: 0
    m_Mirror: 0
  m_EditorCurves:
  - curve:
      serializedVersion: 2
      m_Curve:
      - time: 0
        value: 0
        inSlope: 0
        outSlope: 0
        tangentMode: 0
      - time: 0.06666667
        value: 0
        inSlope: 0
        outSlope: 0
        tangentMode: 0
      - time: 0.5833333
        value: 0
        inSlope: 0
        outSlope: 0
        tangentMode: 0
      - time: 1
        value: 0
        inSlope: 0
        outSlope: 0
        tangentMode: 0
      m_PreInfinity: 2
      m_PostInfinity: 2
      m_RotationOrder: 4
    attribute: localEulerAnglesRaw.x
    path: base/body
    classID: 4
    script: {fileID: 0}
  - curve:
      serializedVersion: 2
      m_Curve:
      - time: 0
        value: 0
        inSlope: 0
        outSlope: 0
        tangentMode: 0
      - time: 0.06666667
        value: 0
        inSlope: 0
        outSlope: 0
        tangentMode: 0
      - time: 0.5833333
        value: 0
        inSlope: 0
        outSlope: 0
        tangentMode: 0
      - time: 1
        value: 0
        inSlope: 0
        outSlope: 0
        tangentMode: 0
      m_PreInfinity: 2
      m_PostInfinity: 2
      m_RotationOrder: 4
    attribute: localEulerAnglesRaw.y
    path: base/body
    classID: 4
    script: {fileID: 0}
  - curve:
      serializedVersion: 2
      m_Curve:
      - time: 0
        value: 0
        inSlope: 0
        outSlope: 0
        tangentMode: 0
      - time: 0.06666667
        value: 12.62
        inSlope: 0
        outSlope: 0
        tangentMode: 0
      - time: 0.5833333
        value: -3.5
        inSlope: 0
        outSlope: 0
        tangentMode: 0
      - time: 1
        value: 0
        inSlope: 0
        outSlope: 0
        tangentMode: 0
      m_PreInfinity: 2
      m_PostInfinity: 2
      m_RotationOrder: 4
    attribute: localEulerAnglesRaw.z
    path: base/body
    classID: 4
    script: {fileID: 0}
  - curve:
      serializedVersion: 2
      m_Curve:
      - time: 0
        value: 0
        inSlope: -1.3714285
        outSlope: -1.3714285
        tangentMode: 10
      - time: 0.11666667
        value: -0.16
        inSlope: -0.44571424
        outSlope: -0.44571424
        tangentMode: 10
      - time: 0.45
        value: 0
        inSlope: 0.48000002
        outSlope: 0.48000002
        tangentMode: 10
      m_PreInfinity: 2
      m_PostInfinity: 2
      m_RotationOrder: 4
    attribute: m_LocalPosition.x
    path: base/body/barrels
    classID: 4
    script: {fileID: 0}
  - curve:
      serializedVersion: 2
      m_Curve:
      - time: 0
        value: 0
        inSlope: -0
        outSlope: -0
        tangentMode: 10
      - time: 0.11666667
        value: -0
        inSlope: 0
        outSlope: 0
        tangentMode: 10
      - time: 0.45
        value: 0
        inSlope: 0
        outSlope: 0
        tangentMode: 10
      m_PreInfinity: 2
      m_PostInfinity: 2
      m_RotationOrder: 4
    attribute: m_LocalPosition.y
    path: base/body/barrels
    classID: 4
    script: {fileID: 0}
  - curve:
      serializedVersion: 2
      m_Curve:
      - time: 0
        value: 0
        inSlope: 0
        outSlope: 0
        tangentMode: 10
      - time: 0.11666667
        value: 0
        inSlope: 0
        outSlope: 0
        tangentMode: 10
      - time: 0.45
        value: 0
        inSlope: 0
        outSlope: 0
        tangentMode: 10
      m_PreInfinity: 2
      m_PostInfinity: 2
      m_RotationOrder: 4
    attribute: m_LocalPosition.z
    path: base/body/barrels
    classID: 4
    script: {fileID: 0}
  - curve:
      serializedVersion: 2
      m_Curve:
      - time: 0.05
        value: 0.28372854
        inSlope: -2.0915234
        outSlope: -2.0915234
        tangentMode: 10
      - time: 0.2
        value: -0.03
        inSlope: 0
        outSlope: 0
        tangentMode: 0
      - time: 0.6333333
        value: 0.53
        inSlope: 0
        outSlope: 0
        tangentMode: 0
      - time: 0.8333333
        value: 0.28372854
        inSlope: 0
        outSlope: 0
        tangentMode: 0
      m_PreInfinity: 2
      m_PostInfinity: 2
      m_RotationOrder: 4
    attribute: m_LocalPosition.x
    path: base/body/floaters
    classID: 4
    script: {fileID: 0}
  - curve:
      serializedVersion: 2
      m_Curve:
      - time: 0.05
        value: 0.029821988
        inSlope: 0.0011867408
        outSlope: 0.0011867408
        tangentMode: 10
      - time: 0.2
        value: 0.03
        inSlope: 0
        outSlope: 0
        tangentMode: 0
      - time: 0.6333333
        value: 0.03
        inSlope: 0
        outSlope: 0
        tangentMode: 0
      - time: 0.8333333
        value: 0.029821988
        inSlope: 0
        outSlope: 0
        tangentMode: 0
      m_PreInfinity: 2
      m_PostInfinity: 2
      m_RotationOrder: 4
    attribute: m_LocalPosition.y
    path: base/body/floaters
    classID: 4
    script: {fileID: 0}
  - curve:
      serializedVersion: 2
      m_Curve:
      - time: 0.05
        value: -0.00018005958
        inSlope: 0
        outSlope: 0
        tangentMode: 10
      - time: 0.2
        value: -0.00018005958
        inSlope: 0
        outSlope: 0
        tangentMode: 0
      - time: 0.6333333
        value: -0.00018005958
        inSlope: 0
        outSlope: 0
        tangentMode: 0
      - time: 0.8333333
        value: -0.00018005958
        inSlope: 0
        outSlope: 0
        tangentMode: 0
      m_PreInfinity: 2
      m_PostInfinity: 2
      m_RotationOrder: 4
    attribute: m_LocalPosition.z
    path: base/body/floaters
    classID: 4
    script: {fileID: 0}
  m_EulerEditorCurves:
  - curve:
      serializedVersion: 2
      m_Curve: []
      m_PreInfinity: 2
      m_PostInfinity: 2
      m_RotationOrder: 4
    attribute: m_LocalEulerAngles.x
    path: base/body
    classID: 4
    script: {fileID: 0}
  - curve:
      serializedVersion: 2
      m_Curve: []
      m_PreInfinity: 2
      m_PostInfinity: 2
      m_RotationOrder: 4
    attribute: m_LocalEulerAngles.y
    path: base/body
    classID: 4
    script: {fileID: 0}
  - curve:
      serializedVersion: 2
      m_Curve: []
      m_PreInfinity: 2
      m_PostInfinity: 2
      m_RotationOrder: 4
    attribute: m_LocalEulerAngles.z
    path: base/body
    classID: 4
    script: {fileID: 0}
  m_HasGenericRootTransform: 0
  m_HasMotionFloatCurves: 0
  m_GenerateMotionCurves: 0
  m_Events: []
